EESchema Schematic File Version 4
EELAYER 30 0
EELAYER END
$Descr A4 11693 8268
encoding utf-8
Sheet 8 12
Title "Current loop interface adapter"
Date ""
Rev ""
Comp ""
Comment1 ""
Comment2 ""
Comment3 ""
Comment4 ""
$EndDescr
$Comp
L Connector:DB25_Male J1
U 1 1 6193AEAE
P 10500 3750
F 0 "J1" H 10680 3796 50  0000 L CNN
F 1 "E4/E5" H 10680 3705 50  0000 L CNN
F 2 "" H 10500 3750 50  0001 C CNN
F 3 " ~" H 10500 3750 50  0001 C CNN
	1    10500 3750
	1    0    0    -1  
$EndComp
$Comp
L Isolator:CNY17-1 U1
U 1 1 619404E8
P 3200 1750
F 0 "U1" H 3200 2075 50  0000 C CNN
F 1 "CNY17-1" H 3200 1984 50  0000 C CNN
F 2 "" H 3200 1750 50  0001 L CNN
F 3 "http://www.vishay.com/docs/83606/cny17.pdf" H 3200 1750 50  0001 L CNN
	1    3200 1750
	1    0    0    -1  
$EndComp
$Comp
L Isolator:CNY17-1 U10
U 1 1 619412D4
P 6300 4600
F 0 "U10" H 6300 4925 50  0000 C CNN
F 1 "CNY17-1" H 6300 4834 50  0000 C CNN
F 2 "" H 6300 4600 50  0001 L CNN
F 3 "http://www.vishay.com/docs/83606/cny17.pdf" H 6300 4600 50  0001 L CNN
	1    6300 4600
	-1   0    0    -1  
$EndComp
$Comp
L Comparator:LM311 U11
U 1 1 61941A27
P 7500 4750
F 0 "U11" H 7844 4796 50  0000 L CNN
F 1 "LM311" H 7844 4705 50  0000 L CNN
F 2 "" H 7500 4750 50  0001 C CNN
F 3 "https://www.st.com/resource/en/datasheet/lm311.pdf" H 7500 4750 50  0001 C CNN
	1    7500 4750
	-1   0    0    -1  
$EndComp
$Comp
L Device:CP C1
U 1 1 619425C5
P 2100 7150
F 0 "C1" H 2218 7196 50  0000 L CNN
F 1 "22 uF" H 2218 7105 50  0000 L CNN
F 2 "" H 2138 7000 50  0001 C CNN
F 3 "~" H 2100 7150 50  0001 C CNN
	1    2100 7150
	1    0    0    -1  
$EndComp
$Comp
L Device:C C2
U 1 1 619434DB
P 2600 7150
F 0 "C2" H 2715 7196 50  0000 L CNN
F 1 "10 nF" H 2715 7105 50  0000 L CNN
F 2 "" H 2638 7000 50  0001 C CNN
F 3 "~" H 2600 7150 50  0001 C CNN
	1    2600 7150
	1    0    0    -1  
$EndComp
$Comp
L power:GND #PWR?
U 1 1 61943B9F
P 2600 7550
F 0 "#PWR?" H 2600 7300 50  0001 C CNN
F 1 "GND" H 2605 7377 50  0000 C CNN
F 2 "" H 2600 7550 50  0001 C CNN
F 3 "" H 2600 7550 50  0001 C CNN
	1    2600 7550
	1    0    0    -1  
$EndComp
Text Label 2950 7450 0    50   ~ 0
GND
Wire Wire Line
	1500 3100 1200 3100
Wire Wire Line
	1350 3200 1200 3200
Wire Wire Line
	1350 3200 1350 7450
Wire Wire Line
	1500 3100 1500 6850
Text Label 2950 6850 0    50   ~ 0
+5V
$Comp
L Device:CP C3
U 1 1 61948320
P 2100 6150
F 0 "C3" H 2218 6196 50  0000 L CNN
F 1 "22 uF" H 2218 6105 50  0000 L CNN
F 2 "" H 2138 6000 50  0001 C CNN
F 3 "~" H 2100 6150 50  0001 C CNN
	1    2100 6150
	1    0    0    -1  
$EndComp
$Comp
L Device:C C4
U 1 1 61948950
P 2600 6150
F 0 "C4" H 2715 6196 50  0000 L CNN
F 1 "10 nF" H 2715 6105 50  0000 L CNN
F 2 "" H 2638 6000 50  0001 C CNN
F 3 "~" H 2600 6150 50  0001 C CNN
	1    2600 6150
	1    0    0    -1  
$EndComp
$Comp
L Device:D CR20
U 1 1 61949421
P 1850 5850
F 0 "CR20" H 1850 5633 50  0000 C CNN
F 1 "RGP15J" H 1850 5724 50  0000 C CNN
F 2 "" H 1850 5850 50  0001 C CNN
F 3 "~" H 1850 5850 50  0001 C CNN
	1    1850 5850
	-1   0    0    1   
$EndComp
Wire Wire Line
	2950 6450 2600 6450
Wire Wire Line
	1550 6450 1550 3800
Wire Wire Line
	1550 3800 1200 3800
Wire Wire Line
	2000 5850 2100 5850
Wire Wire Line
	2600 6300 2600 6450
Connection ~ 2600 6450
Wire Wire Line
	2600 6450 2100 6450
Wire Wire Line
	2600 6000 2600 5850
Connection ~ 2600 5850
Wire Wire Line
	2600 5850 2950 5850
Wire Wire Line
	2100 6000 2100 5850
Connection ~ 2100 5850
Wire Wire Line
	2100 5850 2600 5850
Wire Wire Line
	2100 6300 2100 6450
Connection ~ 2100 6450
Wire Wire Line
	2100 6450 1550 6450
Wire Wire Line
	1700 5850 1600 5850
Wire Wire Line
	1600 3700 1200 3700
Text Label 2950 6450 0    50   ~ 0
GNDFL
Text Label 2950 5850 0    50   ~ 0
+12VFL
$Comp
L power:+5V #PWR?
U 1 1 6194E351
P 2600 6750
F 0 "#PWR?" H 2600 6600 50  0001 C CNN
F 1 "+5V" H 2615 6923 50  0000 C CNN
F 2 "" H 2600 6750 50  0001 C CNN
F 3 "" H 2600 6750 50  0001 C CNN
	1    2600 6750
	1    0    0    -1  
$EndComp
Wire Wire Line
	2600 7000 2600 6850
Connection ~ 2600 6850
Wire Wire Line
	2600 6850 2950 6850
Wire Wire Line
	2600 7300 2600 7450
Connection ~ 2600 7450
Wire Wire Line
	2600 7450 2950 7450
Wire Wire Line
	2600 7550 2600 7450
Wire Wire Line
	2600 6750 2600 6850
Wire Wire Line
	1500 6850 2100 6850
Wire Wire Line
	2100 7000 2100 6850
Connection ~ 2100 6850
Wire Wire Line
	2100 6850 2600 6850
Wire Wire Line
	2100 7300 2100 7450
Connection ~ 2100 7450
Wire Wire Line
	2100 7450 2600 7450
Wire Wire Line
	1350 7450 2100 7450
$Comp
L Device:Q_NPN_EBC Q10
U 1 1 619559D8
P 4550 5600
F 0 "Q10" H 4741 5646 50  0000 L CNN
F 1 "2N4401" H 4741 5555 50  0000 L CNN
F 2 "" H 4750 5700 50  0001 C CNN
F 3 "~" H 4550 5600 50  0001 C CNN
	1    4550 5600
	-1   0    0    -1  
$EndComp
$Comp
L Diode:1N4148 CR10
U 1 1 61957821
P 4700 5250
F 0 "CR10" H 4700 5033 50  0000 C CNN
F 1 "1N4148" H 4700 5124 50  0000 C CNN
F 2 "Diode_THT:D_DO-35_SOD27_P7.62mm_Horizontal" H 4700 5075 50  0001 C CNN
F 3 "https://assets.nexperia.com/documents/data-sheet/1N4148_1N4448.pdf" H 4700 5250 50  0001 C CNN
	1    4700 5250
	-1   0    0    1   
$EndComp
$Comp
L Diode:1N4148 CR11
U 1 1 61958C91
P 5150 5250
F 0 "CR11" H 5150 5033 50  0000 C CNN
F 1 "1N4148" H 5150 5124 50  0000 C CNN
F 2 "Diode_THT:D_DO-35_SOD27_P7.62mm_Horizontal" H 5150 5075 50  0001 C CNN
F 3 "https://assets.nexperia.com/documents/data-sheet/1N4148_1N4448.pdf" H 5150 5250 50  0001 C CNN
	1    5150 5250
	-1   0    0    1   
$EndComp
Wire Wire Line
	4850 5250 5000 5250
Wire Wire Line
	4450 5400 4450 5250
Wire Wire Line
	4550 5250 4450 5250
Connection ~ 4450 5250
$Comp
L Device:R R11
U 1 1 6195DDEA
P 5400 5450
F 0 "R11" H 5470 5496 50  0000 L CNN
F 1 "1k" H 5470 5405 50  0000 L CNN
F 2 "" V 5330 5450 50  0001 C CNN
F 3 "~" H 5400 5450 50  0001 C CNN
	1    5400 5450
	1    0    0    -1  
$EndComp
Wire Wire Line
	4750 5600 5400 5600
Wire Wire Line
	5400 5600 5750 5600
Connection ~ 5400 5600
Wire Wire Line
	5300 5250 5400 5250
Wire Wire Line
	5400 5250 5400 5300
$Comp
L Device:R R10
U 1 1 6195FDA2
P 4450 4850
F 0 "R10" H 4520 4896 50  0000 L CNN
F 1 "2k2" H 4520 4805 50  0000 L CNN
F 2 "" V 4380 4850 50  0001 C CNN
F 3 "~" H 4450 4850 50  0001 C CNN
	1    4450 4850
	1    0    0    -1  
$EndComp
Wire Wire Line
	4450 4700 4450 4600
Connection ~ 4450 4600
Wire Wire Line
	4450 4600 4250 4600
$Comp
L Connector:Conn_01x08_Male J2
U 1 1 6193715F
P 1000 3400
F 0 "J2" H 1108 3881 50  0000 C CNN
F 1 "W1" H 1108 3790 50  0000 C CNN
F 2 "" H 1000 3400 50  0001 C CNN
F 3 "~" H 1000 3400 50  0001 C CNN
	1    1000 3400
	1    0    0    -1  
$EndComp
Wire Wire Line
	4450 5250 4450 5150
Wire Wire Line
	1600 5850 1600 3700
Wire Wire Line
	4450 5150 1650 5150
Wire Wire Line
	1650 5150 1650 3300
Wire Wire Line
	1650 3300 1200 3300
Connection ~ 4450 5150
Wire Wire Line
	4450 5150 4450 5000
$Comp
L power:+5V #PWR?
U 1 1 61963521
P 4250 4600
F 0 "#PWR?" H 4250 4450 50  0001 C CNN
F 1 "+5V" H 4265 4773 50  0000 C CNN
F 2 "" H 4250 4600 50  0001 C CNN
F 3 "" H 4250 4600 50  0001 C CNN
	1    4250 4600
	1    0    0    -1  
$EndComp
Wire Wire Line
	4450 5800 4450 6750
$Comp
L power:GND #PWR?
U 1 1 61964DCC
P 4450 6850
F 0 "#PWR?" H 4450 6600 50  0001 C CNN
F 1 "GND" H 4455 6677 50  0000 C CNN
F 2 "" H 4450 6850 50  0001 C CNN
F 3 "" H 4450 6850 50  0001 C CNN
	1    4450 6850
	1    0    0    -1  
$EndComp
$Comp
L Device:R R12
U 1 1 619653A0
P 5750 6300
F 0 "R12" H 5820 6346 50  0000 L CNN
F 1 "560R" H 5820 6255 50  0000 L CNN
F 2 "" V 5680 6300 50  0001 C CNN
F 3 "~" H 5750 6300 50  0001 C CNN
	1    5750 6300
	1    0    0    -1  
$EndComp
Connection ~ 4450 6750
Wire Wire Line
	4450 6750 4450 6850
$Comp
L Device:R R13
U 1 1 6196708F
P 5900 5600
F 0 "R13" H 5970 5646 50  0000 L CNN
F 1 "220k" H 5970 5555 50  0000 L CNN
F 2 "" V 5830 5600 50  0001 C CNN
F 3 "~" H 5900 5600 50  0001 C CNN
	1    5900 5600
	1    0    0    -1  
$EndComp
Wire Wire Line
	5900 4500 6000 4500
Text Label 2950 5150 0    50   ~ 0
CLRxD1
Text Label 6600 6350 0    50   ~ 0
GNDFL
$Comp
L Device:R R14
U 1 1 61976188
P 7000 4100
F 0 "R14" V 6793 4100 50  0000 C CNN
F 1 "820R" V 6884 4100 50  0000 C CNN
F 2 "" V 6930 4100 50  0001 C CNN
F 3 "~" H 7000 4100 50  0001 C CNN
	1    7000 4100
	0    1    1    0   
$EndComp
$Comp
L Device:R R16
U 1 1 6197FCDF
P 7900 4350
F 0 "R16" H 7970 4396 50  0000 L CNN
F 1 "110k" H 7970 4305 50  0000 L CNN
F 2 "" V 7830 4350 50  0001 C CNN
F 3 "~" H 7900 4350 50  0001 C CNN
	1    7900 4350
	1    0    0    -1  
$EndComp
$Comp
L Device:R R15
U 1 1 61981F14
P 7150 5350
F 0 "R15" V 6943 5350 50  0000 C CNN
F 1 "100k" V 7034 5350 50  0000 C CNN
F 2 "" V 7080 5350 50  0001 C CNN
F 3 "~" H 7150 5350 50  0001 C CNN
	1    7150 5350
	0    1    1    0   
$EndComp
$Comp
L Diode:1N4148 CR12
U 1 1 61985F24
P 8300 5550
F 0 "CR12" V 8254 5630 50  0000 L CNN
F 1 "1N4148" V 8345 5630 50  0000 L CNN
F 2 "Diode_THT:D_DO-35_SOD27_P7.62mm_Horizontal" H 8300 5375 50  0001 C CNN
F 3 "https://assets.nexperia.com/documents/data-sheet/1N4148_1N4448.pdf" H 8300 5550 50  0001 C CNN
	1    8300 5550
	0    1    1    0   
$EndComp
$Comp
L Device:R R18
U 1 1 6198E626
P 8700 4850
F 0 "R18" V 8493 4850 50  0000 C CNN
F 1 "100k" V 8584 4850 50  0000 C CNN
F 2 "" V 8630 4850 50  0001 C CNN
F 3 "~" H 8700 4850 50  0001 C CNN
	1    8700 4850
	0    1    1    0   
$EndComp
Wire Wire Line
	5750 6450 5750 6750
Wire Wire Line
	5750 6750 4450 6750
Wire Wire Line
	5750 6150 5750 5950
Connection ~ 5750 5600
Wire Wire Line
	5750 5600 5750 4700
Wire Wire Line
	5750 4700 6000 4700
Connection ~ 5750 5950
Wire Wire Line
	5750 5950 5750 5600
Wire Wire Line
	5750 5950 5900 5950
Wire Wire Line
	5900 5750 5900 5950
Wire Wire Line
	5900 4500 5900 5450
Wire Wire Line
	6000 4600 4450 4600
Wire Wire Line
	6600 4700 6600 6200
Wire Wire Line
	6600 4500 6600 4100
Wire Wire Line
	6600 6200 6600 6350
Connection ~ 6600 6200
Wire Wire Line
	6600 6200 7500 6200
Wire Wire Line
	6750 4100 6750 4750
Wire Wire Line
	6600 4100 6750 4100
Connection ~ 6750 4100
Wire Wire Line
	6750 4750 6850 4750
Wire Wire Line
	6750 4100 6850 4100
Wire Wire Line
	7150 4100 7400 4100
Wire Wire Line
	6850 5350 6850 4750
Connection ~ 6850 4750
Wire Wire Line
	6850 5350 7000 5350
Wire Wire Line
	6850 4750 7200 4750
Wire Wire Line
	7300 5350 7900 5350
Wire Wire Line
	7500 5050 7500 5150
Connection ~ 7500 6200
Wire Wire Line
	7600 5050 7600 5150
Wire Wire Line
	7600 5150 7500 5150
Connection ~ 7500 5150
Wire Wire Line
	7500 5150 7500 6200
Wire Wire Line
	7400 4450 7400 4350
Connection ~ 7400 4100
Wire Wire Line
	7500 4450 7500 4350
Wire Wire Line
	7500 4350 7400 4350
Connection ~ 7400 4350
Wire Wire Line
	7400 4350 7400 4100
Wire Wire Line
	7500 4350 7600 4350
Wire Wire Line
	7600 4350 7600 4450
Connection ~ 7500 4350
Wire Wire Line
	7800 4650 7900 4650
Wire Wire Line
	7400 4100 7900 4100
Wire Wire Line
	7500 6200 7900 6200
Wire Wire Line
	7800 4850 8300 4850
$Comp
L Device:R R17
U 1 1 6196F556
P 7900 5900
F 0 "R17" H 7970 5946 50  0000 L CNN
F 1 "12k1" H 7970 5855 50  0000 L CNN
F 2 "" V 7830 5900 50  0001 C CNN
F 3 "~" H 7900 5900 50  0001 C CNN
	1    7900 5900
	1    0    0    -1  
$EndComp
Wire Wire Line
	7900 4200 7900 4100
Connection ~ 7900 4100
Wire Wire Line
	7900 4500 7900 4650
Connection ~ 7900 4650
Wire Wire Line
	7900 4100 8050 4100
Wire Wire Line
	7900 6050 7900 6200
Connection ~ 7900 6200
Wire Wire Line
	7900 5750 7900 5350
Connection ~ 7900 5350
Wire Wire Line
	7900 5350 7900 4650
Wire Wire Line
	7900 6200 8300 6200
Wire Wire Line
	8300 5400 8300 4850
Connection ~ 8300 4850
Wire Wire Line
	8300 5700 8300 6200
Connection ~ 8300 6200
Wire Wire Line
	8300 6200 9000 6200
Wire Wire Line
	8300 4850 8450 4850
$Comp
L Diode:1N4148 CR13
U 1 1 619D48D9
P 8450 4350
F 0 "CR13" V 8404 4430 50  0000 L CNN
F 1 "1N4148" V 8495 4430 50  0000 L CNN
F 2 "Diode_THT:D_DO-35_SOD27_P7.62mm_Horizontal" H 8450 4175 50  0001 C CNN
F 3 "https://assets.nexperia.com/documents/data-sheet/1N4148_1N4448.pdf" H 8450 4350 50  0001 C CNN
	1    8450 4350
	0    1    1    0   
$EndComp
Wire Wire Line
	8450 4200 8450 4100
Connection ~ 8450 4100
Wire Wire Line
	8450 4100 9300 4100
Wire Wire Line
	8450 4500 8450 4850
Connection ~ 8450 4850
Wire Wire Line
	8450 4850 8550 4850
Wire Wire Line
	8850 4850 9000 4850
$Comp
L Device:R R19
U 1 1 619DB483
P 9000 5550
F 0 "R19" H 9070 5596 50  0000 L CNN
F 1 "121R" H 9070 5505 50  0000 L CNN
F 2 "" V 8930 5550 50  0001 C CNN
F 3 "~" H 9000 5550 50  0001 C CNN
	1    9000 5550
	1    0    0    -1  
$EndComp
Wire Wire Line
	9000 5700 9000 6200
Connection ~ 9000 6200
Wire Wire Line
	9000 6200 9750 6200
Wire Wire Line
	9000 5400 9000 4850
Connection ~ 9000 4850
Wire Wire Line
	9750 6200 9750 2650
Wire Wire Line
	9750 2550 10200 2550
Wire Wire Line
	10200 2650 9750 2650
Connection ~ 9750 2650
Wire Wire Line
	9750 2650 9750 2550
Wire Wire Line
	9650 4850 9650 2750
Wire Wire Line
	9650 2750 10200 2750
Wire Wire Line
	9000 4850 9650 4850
Text Label 9250 4850 0    50   ~ 0
CLRxD
Text Label 9300 4100 0    50   ~ 0
+12VFL
$Comp
L Device:R R21
U 1 1 619ECD6C
P 8350 3800
F 0 "R21" V 8143 3800 50  0000 C CNN
F 1 "1k8" V 8234 3800 50  0000 C CNN
F 2 "" V 8280 3800 50  0001 C CNN
F 3 "~" H 8350 3800 50  0001 C CNN
	1    8350 3800
	0    1    1    0   
$EndComp
$Comp
L Device:R R22
U 1 1 619ED569
P 8350 3450
F 0 "R22" V 8143 3450 50  0000 C CNN
F 1 "47R" V 8234 3450 50  0000 C CNN
F 2 "" V 8280 3450 50  0001 C CNN
F 3 "~" H 8350 3450 50  0001 C CNN
	1    8350 3450
	0    1    1    0   
$EndComp
Wire Wire Line
	8200 3450 8050 3450
Wire Wire Line
	8050 3450 8050 3800
Connection ~ 8050 4100
Wire Wire Line
	8050 4100 8450 4100
Wire Wire Line
	8200 3800 8050 3800
Connection ~ 8050 3800
Wire Wire Line
	8050 3800 8050 4100
$Comp
L Device:Q_PNP_CBE Q11
U 1 1 619F42F2
P 8800 3550
F 0 "Q11" V 9128 3550 50  0000 C CNN
F 1 "BC490" V 9037 3550 50  0000 C CNN
F 2 "" H 9000 3650 50  0001 C CNN
F 3 "~" H 8800 3550 50  0001 C CNN
	1    8800 3550
	0    1    -1   0   
$EndComp
Wire Wire Line
	8500 3450 8600 3450
Wire Wire Line
	8500 3800 8800 3800
Wire Wire Line
	8800 3750 8800 3800
Connection ~ 8800 3800
Wire Wire Line
	8800 3800 8900 3800
$Comp
L Device:R R20
U 1 1 619FDC4F
P 9050 3800
F 0 "R20" V 8843 3800 50  0000 C CNN
F 1 "10k" V 8934 3800 50  0000 C CNN
F 2 "" V 8980 3800 50  0001 C CNN
F 3 "~" H 9050 3800 50  0001 C CNN
	1    9050 3800
	0    1    1    0   
$EndComp
Wire Wire Line
	9200 3800 9300 3800
Text Label 9300 3800 0    50   ~ 0
GNDFL
Wire Wire Line
	9000 3450 9550 3450
Wire Wire Line
	9550 3450 9550 2950
Wire Wire Line
	9550 2950 10200 2950
Text Notes 9100 5050 0    50   ~ 0
<== direction \nof signal flow
$Comp
L Transistor_BJT:BC557 Q1
U 1 1 61A06BF0
P 2800 2250
F 0 "Q1" H 2991 2204 50  0000 L CNN
F 1 "BC557" H 2991 2295 50  0000 L CNN
F 2 "Package_TO_SOT_THT:TO-92_Inline" H 3000 2175 50  0001 L CIN
F 3 "https://www.onsemi.com/pub/Collateral/BC556BTA-D.pdf" H 2800 2250 50  0001 L CNN
	1    2800 2250
	1    0    0    1   
$EndComp
$Comp
L power:GND #PWR?
U 1 1 61A07654
P 2900 2650
F 0 "#PWR?" H 2900 2400 50  0001 C CNN
F 1 "GND" H 2905 2477 50  0000 C CNN
F 2 "" H 2900 2650 50  0001 C CNN
F 3 "" H 2900 2650 50  0001 C CNN
	1    2900 2650
	1    0    0    -1  
$EndComp
Wire Wire Line
	2900 2650 2900 2450
Wire Wire Line
	2900 2050 2900 1850
Wire Wire Line
	2600 2250 2050 2250
Wire Wire Line
	1700 2250 1700 3400
Wire Wire Line
	1700 3400 1200 3400
$Comp
L Device:R R1
U 1 1 61A127DC
P 2050 2000
F 0 "R1" H 2120 2046 50  0000 L CNN
F 1 "6k8" H 2120 1955 50  0000 L CNN
F 2 "" V 1980 2000 50  0001 C CNN
F 3 "~" H 2050 2000 50  0001 C CNN
	1    2050 2000
	1    0    0    -1  
$EndComp
Wire Wire Line
	2050 2150 2050 2250
Connection ~ 2050 2250
Wire Wire Line
	2050 2250 1700 2250
$Comp
L power:+5V #PWR?
U 1 1 61A17045
P 2050 1750
F 0 "#PWR?" H 2050 1600 50  0001 C CNN
F 1 "+5V" H 2065 1923 50  0000 C CNN
F 2 "" H 2050 1750 50  0001 C CNN
F 3 "" H 2050 1750 50  0001 C CNN
	1    2050 1750
	1    0    0    -1  
$EndComp
Wire Wire Line
	2050 1750 2050 1850
$Comp
L Device:R R2
U 1 1 61A1B506
P 2900 1350
F 0 "R2" H 2831 1396 50  0000 R CNN
F 1 "220R" H 2831 1305 50  0000 R CNN
F 2 "" V 2830 1350 50  0001 C CNN
F 3 "~" H 2900 1350 50  0001 C CNN
	1    2900 1350
	1    0    0    -1  
$EndComp
$Comp
L power:+5V #PWR?
U 1 1 61A1BB78
P 2900 1100
F 0 "#PWR?" H 2900 950 50  0001 C CNN
F 1 "+5V" H 2915 1273 50  0000 C CNN
F 2 "" H 2900 1100 50  0001 C CNN
F 3 "" H 2900 1100 50  0001 C CNN
	1    2900 1100
	1    0    0    -1  
$EndComp
Wire Wire Line
	2900 1100 2900 1200
Wire Wire Line
	2900 1500 2900 1650
$Comp
L Device:R R4
U 1 1 61A248EC
P 3600 1000
F 0 "R4" H 3670 1046 50  0000 L CNN
F 1 "27k" H 3670 955 50  0000 L CNN
F 2 "" V 3530 1000 50  0001 C CNN
F 3 "~" H 3600 1000 50  0001 C CNN
	1    3600 1000
	1    0    0    -1  
$EndComp
Wire Wire Line
	3600 1750 3500 1750
$Comp
L Device:R R3
U 1 1 61A29ADF
P 3700 2250
F 0 "R3" H 3770 2296 50  0000 L CNN
F 1 "220R" H 3770 2205 50  0000 L CNN
F 2 "" V 3630 2250 50  0001 C CNN
F 3 "~" H 3700 2250 50  0001 C CNN
	1    3700 2250
	1    0    0    -1  
$EndComp
Wire Wire Line
	3700 2100 3700 1650
Wire Wire Line
	3700 1650 3500 1650
Wire Wire Line
	3700 2400 3700 2650
Wire Wire Line
	3500 1850 3500 2650
Wire Wire Line
	3500 2650 3700 2650
Connection ~ 3700 2650
Wire Wire Line
	10200 2850 9500 2850
Wire Wire Line
	9500 2850 9500 2650
Wire Wire Line
	3700 2650 4100 2650
$Comp
L Device:C C5
U 1 1 61A479BB
P 4100 1700
F 0 "C5" H 4215 1746 50  0000 L CNN
F 1 "680 pF" H 4215 1655 50  0000 L CNN
F 2 "" H 4138 1550 50  0001 C CNN
F 3 "~" H 4100 1700 50  0001 C CNN
	1    4100 1700
	1    0    0    -1  
$EndComp
Wire Wire Line
	4100 1850 4100 2650
Connection ~ 4100 2650
Wire Wire Line
	4100 2650 4850 2650
$Comp
L Transistor_BJT:BC548 Q2
U 1 1 61A52E14
P 4950 1700
F 0 "Q2" H 5141 1746 50  0000 L CNN
F 1 "BC548" H 5141 1655 50  0000 L CNN
F 2 "Package_TO_SOT_THT:TO-92_Inline" H 5150 1625 50  0001 L CIN
F 3 "https://www.onsemi.com/pub/Collateral/BC550-D.pdf" H 4950 1700 50  0001 L CNN
	1    4950 1700
	-1   0    0    -1  
$EndComp
Wire Wire Line
	4850 1900 4850 2650
Connection ~ 4850 2650
Wire Wire Line
	4850 2650 5550 2650
Wire Wire Line
	3600 1150 3600 1300
$Comp
L Device:Q_NPN_CBE Q3
U 1 1 61A6018A
P 5450 1300
F 0 "Q3" H 5641 1346 50  0000 L CNN
F 1 "BC489" H 5641 1255 50  0000 L CNN
F 2 "" H 5650 1400 50  0001 C CNN
F 3 "~" H 5450 1300 50  0001 C CNN
	1    5450 1300
	1    0    0    -1  
$EndComp
Wire Wire Line
	5250 1300 4850 1300
Connection ~ 3600 1300
Wire Wire Line
	3600 1300 3600 1750
Wire Wire Line
	4100 1550 4100 1300
Connection ~ 4100 1300
Wire Wire Line
	4100 1300 3600 1300
Wire Wire Line
	4850 1500 4850 1300
Connection ~ 4850 1300
Wire Wire Line
	4850 1300 4100 1300
$Comp
L Device:R R5
U 1 1 61A72A21
P 5550 850
F 0 "R5" H 5620 896 50  0000 L CNN
F 1 "10k" H 5620 805 50  0000 L CNN
F 2 "" V 5480 850 50  0001 C CNN
F 3 "~" H 5550 850 50  0001 C CNN
	1    5550 850 
	1    0    0    -1  
$EndComp
Wire Wire Line
	5550 1000 5550 1050
Wire Wire Line
	3600 600  5550 600 
Wire Wire Line
	5550 700  5550 600 
Connection ~ 5550 600 
Wire Wire Line
	3600 600  3600 850 
$Comp
L Device:R R6
U 1 1 61A86346
P 5550 2250
F 0 "R6" H 5620 2296 50  0000 L CNN
F 1 "47R" H 5620 2205 50  0000 L CNN
F 2 "" V 5480 2250 50  0001 C CNN
F 3 "~" H 5550 2250 50  0001 C CNN
	1    5550 2250
	1    0    0    -1  
$EndComp
Wire Wire Line
	5550 2400 5550 2650
Connection ~ 5550 2650
Wire Wire Line
	5550 1500 5550 1700
Wire Wire Line
	5150 1700 5550 1700
Connection ~ 5550 1700
Wire Wire Line
	5550 1700 5550 2100
$Comp
L Device:Q_PNP_CBE Q4
U 1 1 61A99E83
P 6150 1050
F 0 "Q4" H 6341 1004 50  0000 L CNN
F 1 "BC490" H 6341 1095 50  0000 L CNN
F 2 "" H 6350 1150 50  0001 C CNN
F 3 "~" H 6150 1050 50  0001 C CNN
	1    6150 1050
	1    0    0    1   
$EndComp
Wire Wire Line
	5950 1050 5550 1050
Connection ~ 5550 1050
Wire Wire Line
	5550 1050 5550 1100
Wire Wire Line
	5550 600  6250 600 
Wire Wire Line
	6250 850  6250 600 
Connection ~ 6250 600 
Wire Wire Line
	6250 600  6800 600 
$Comp
L Device:R R7
U 1 1 61AB071D
P 6250 1850
F 0 "R7" H 6320 1896 50  0000 L CNN
F 1 "47R" H 6320 1805 50  0000 L CNN
F 2 "" V 6180 1850 50  0001 C CNN
F 3 "~" H 6250 1850 50  0001 C CNN
	1    6250 1850
	1    0    0    -1  
$EndComp
$Comp
L Device:R_POT R8
U 1 1 61AB148F
P 6250 2300
F 0 "R8" H 6181 2346 50  0000 R CNN
F 1 "100R" H 6181 2255 50  0000 R CNN
F 2 "" H 6250 2300 50  0001 C CNN
F 3 "~" H 6250 2300 50  0001 C CNN
	1    6250 2300
	1    0    0    -1  
$EndComp
Wire Wire Line
	6250 1700 6250 1250
Wire Wire Line
	6250 2000 6250 2150
Wire Wire Line
	6250 2450 6250 2650
Wire Wire Line
	5550 2650 6250 2650
Connection ~ 6250 2650
Wire Wire Line
	6250 2650 6400 2650
Wire Wire Line
	6400 2300 6400 2650
Connection ~ 6400 2650
Wire Wire Line
	6400 2650 6800 2650
$Comp
L Device:D CR1
U 1 1 61ACF03D
P 6800 1700
F 0 "CR1" V 6754 1780 50  0000 L CNN
F 1 "RGP15J" V 6845 1780 50  0000 L CNN
F 2 "" H 6800 1700 50  0001 C CNN
F 3 "~" H 6800 1700 50  0001 C CNN
	1    6800 1700
	0    1    1    0   
$EndComp
Wire Wire Line
	6800 1550 6800 600 
Connection ~ 6800 600 
Wire Wire Line
	6800 600  7350 600 
Wire Wire Line
	6800 1850 6800 2650
Connection ~ 6800 2650
Wire Wire Line
	6800 2650 7400 2650
$Comp
L Device:R R9
U 1 1 61AE07FA
P 7500 600
F 0 "R9" V 7385 600 50  0000 C CNN
F 1 "47R" V 7294 600 50  0000 C CNN
F 2 "" V 7430 600 50  0001 C CNN
F 3 "~" H 7500 600 50  0001 C CNN
	1    7500 600 
	0    -1   -1   0   
$EndComp
Wire Wire Line
	7650 600  9800 600 
Wire Wire Line
	10200 3050 10050 3050
Wire Wire Line
	10050 3050 10050 600 
Wire Wire Line
	9800 4050 9800 600 
Connection ~ 9800 600 
Wire Wire Line
	9800 600  10050 600 
Wire Wire Line
	9800 4050 10200 4050
Text Label 9850 600  0    50   ~ 0
CLTxD
Text Notes 9150 800  0    50   ~ 0
==> direction \nof signal flow
$Comp
L Device:R R23
U 1 1 61B158DA
P 8900 1900
F 0 "R23" V 8693 1900 50  0000 C CNN
F 1 "47R" V 8784 1900 50  0000 C CNN
F 2 "" V 8830 1900 50  0001 C CNN
F 3 "~" H 8900 1900 50  0001 C CNN
	1    8900 1900
	0    1    1    0   
$EndComp
Wire Wire Line
	9050 1900 9300 1900
Wire Wire Line
	9300 1900 9300 3150
Wire Wire Line
	9300 3150 10200 3150
Wire Wire Line
	8750 1900 8450 1900
Text Label 8450 1900 0    50   ~ 0
+12VFL
$Comp
L Device:Jumper_NO_Small SW1
U 1 1 61B28570
P 7400 2900
F 0 "SW1" V 7354 2948 50  0000 L CNN
F 1 "." V 7445 2948 50  0000 L CNN
F 2 "" H 7400 2900 50  0001 C CNN
F 3 "~" H 7400 2900 50  0001 C CNN
	1    7400 2900
	0    1    1    0   
$EndComp
Wire Wire Line
	7400 2800 7400 2650
Connection ~ 7400 2650
Wire Wire Line
	7400 2650 9500 2650
Wire Wire Line
	7400 3000 7400 3200
Text Label 7400 3200 0    50   ~ 0
GNDFL
$EndSCHEMATC
