EESchema Schematic File Version 4
EELAYER 30 0
EELAYER END
$Descr A3 16535 11693
encoding utf-8
Sheet 2 12
Title "Keyboard"
Date ""
Rev ""
Comp ""
Comment1 ""
Comment2 ""
Comment3 ""
Comment4 ""
$EndDescr
$Comp
L 74xx:74LS373 U5
U 1 1 60AB9AAC
P 2700 9350
F 0 "U5" H 2950 10150 50  0000 C CNN
F 1 "74LS373" H 2950 10050 50  0000 C CNN
F 2 "" H 2700 9350 50  0001 C CNN
F 3 "http://www.ti.com/lit/gpn/sn74LS373" H 2700 9350 50  0001 C CNN
	1    2700 9350
	-1   0    0    -1  
$EndComp
$Comp
L Device:LED_ALT CR2
U 1 1 60ABA7AF
P 1850 8850
F 0 "CR2" H 1843 8595 50  0000 C CNN
F 1 "MV5055 GI" H 1843 8686 50  0000 C CNN
F 2 "" H 1850 8850 50  0001 C CNN
F 3 "~" H 1850 8850 50  0001 C CNN
	1    1850 8850
	-1   0    0    1   
$EndComp
$Comp
L Device:LED_ALT CR3
U 1 1 60ABB17F
P 1450 8950
F 0 "CR3" H 1443 8695 50  0000 C CNN
F 1 "MV5055 GI" H 1443 8786 50  0000 C CNN
F 2 "" H 1450 8950 50  0001 C CNN
F 3 "~" H 1450 8950 50  0001 C CNN
	1    1450 8950
	-1   0    0    1   
$EndComp
$Comp
L Device:LED_ALT CR4
U 1 1 60ABB562
P 1850 9050
F 0 "CR4" H 1843 8795 50  0000 C CNN
F 1 "MV5055 GI" H 1843 8886 50  0000 C CNN
F 2 "" H 1850 9050 50  0001 C CNN
F 3 "~" H 1850 9050 50  0001 C CNN
	1    1850 9050
	-1   0    0    1   
$EndComp
$Comp
L Device:LED_ALT CR5
U 1 1 60ABB989
P 1450 9150
F 0 "CR5" H 1443 8895 50  0000 C CNN
F 1 "MV5055 GI" H 1443 8986 50  0000 C CNN
F 2 "" H 1450 9150 50  0001 C CNN
F 3 "~" H 1450 9150 50  0001 C CNN
	1    1450 9150
	-1   0    0    1   
$EndComp
$Comp
L Device:LED_ALT CR6
U 1 1 60ABBD61
P 1850 9250
F 0 "CR6" H 1843 8995 50  0000 C CNN
F 1 "MV5055 GI" H 1843 9086 50  0000 C CNN
F 2 "" H 1850 9250 50  0001 C CNN
F 3 "~" H 1850 9250 50  0001 C CNN
	1    1850 9250
	-1   0    0    1   
$EndComp
$Comp
L Device:LED_ALT CR7
U 1 1 60ABC1BA
P 1450 9350
F 0 "CR7" H 1443 9095 50  0000 C CNN
F 1 "MV5055 GI" H 1443 9186 50  0000 C CNN
F 2 "" H 1450 9350 50  0001 C CNN
F 3 "~" H 1450 9350 50  0001 C CNN
	1    1450 9350
	-1   0    0    1   
$EndComp
$Comp
L Device:LED_ALT CR8
U 1 1 60ABC67D
P 1850 9450
F 0 "CR8" H 1843 9550 50  0000 C CNN
F 1 "MV5055 GI" H 1843 9650 50  0000 C CNN
F 2 "" H 1850 9450 50  0001 C CNN
F 3 "~" H 1850 9450 50  0001 C CNN
	1    1850 9450
	-1   0    0    1   
$EndComp
$Comp
L Device:LED_ALT CR9
U 1 1 60ABCBFB
P 1450 9550
F 0 "CR9" H 1443 9675 50  0000 C CNN
F 1 "MV5055 GI" H 1443 9766 50  0000 C CNN
F 2 "" H 1450 9550 50  0001 C CNN
F 3 "~" H 1450 9550 50  0001 C CNN
	1    1450 9550
	-1   0    0    1   
$EndComp
$Comp
L Device:R_Network08 RP2
U 1 1 60ABD4C9
P 900 9250
F 0 "RP2" V 283 9250 50  0000 C CNN
F 1 "330R" V 374 9250 50  0000 C CNN
F 2 "Resistor_THT:R_Array_SIP9" V 1375 9250 50  0001 C CNN
F 3 "http://www.vishay.com/docs/31509/csc.pdf" H 900 9250 50  0001 C CNN
	1    900  9250
	0    -1   1    0   
$EndComp
$Comp
L power:+5V #PWR?
U 1 1 60ABF253
P 550 8750
F 0 "#PWR?" H 550 8600 50  0001 C CNN
F 1 "+5V" H 565 8923 50  0000 C CNN
F 2 "" H 550 8750 50  0001 C CNN
F 3 "" H 550 8750 50  0001 C CNN
	1    550  8750
	1    0    0    -1  
$EndComp
Wire Wire Line
	700  8850 550  8850
Wire Wire Line
	550  8850 550  8750
Wire Wire Line
	1100 9550 1300 9550
Wire Wire Line
	1600 9550 2200 9550
Wire Wire Line
	2200 9450 2000 9450
Wire Wire Line
	1700 9450 1100 9450
Wire Wire Line
	1100 9350 1300 9350
Wire Wire Line
	1600 9350 2200 9350
Wire Wire Line
	2000 9250 2200 9250
Wire Wire Line
	1700 9250 1100 9250
Wire Wire Line
	1100 9150 1300 9150
Wire Wire Line
	1600 9150 2200 9150
Wire Wire Line
	2200 9050 2000 9050
Wire Wire Line
	1700 9050 1100 9050
Wire Wire Line
	1300 8950 1100 8950
Wire Wire Line
	1600 8950 2200 8950
Wire Wire Line
	2200 8850 2000 8850
Wire Wire Line
	1700 8850 1100 8850
$Comp
L power:GND #PWR?
U 1 1 60AD467E
P 3300 9950
F 0 "#PWR?" H 3300 9700 50  0001 C CNN
F 1 "GND" H 3305 9777 50  0000 C CNN
F 2 "" H 3300 9950 50  0001 C CNN
F 3 "" H 3300 9950 50  0001 C CNN
	1    3300 9950
	1    0    0    -1  
$EndComp
Wire Wire Line
	3300 9950 3300 9850
Wire Wire Line
	3300 9850 3200 9850
$Comp
L power:GND #PWR?
U 1 1 60AD541F
P 2700 10300
F 0 "#PWR?" H 2700 10050 50  0001 C CNN
F 1 "GND" H 2705 10127 50  0000 C CNN
F 2 "" H 2700 10300 50  0001 C CNN
F 3 "" H 2700 10300 50  0001 C CNN
	1    2700 10300
	1    0    0    -1  
$EndComp
Wire Wire Line
	2700 10300 2700 10150
$Comp
L 74xx:74LS00 U11
U 3 1 60AD7677
P 3950 9750
F 0 "U11" H 3950 10075 50  0000 C CNN
F 1 "74LS00" H 3950 9984 50  0000 C CNN
F 2 "" H 3950 9750 50  0001 C CNN
F 3 "http://www.ti.com/lit/gpn/sn74ls00" H 3950 9750 50  0001 C CNN
	3    3950 9750
	-1   0    0    -1  
$EndComp
$Comp
L 74xx:74LS373 U7
U 1 1 60AE164F
P 5650 9150
F 0 "U7" H 5350 9950 50  0000 C CNN
F 1 "74LS373" H 5350 9850 50  0000 C CNN
F 2 "" H 5650 9150 50  0001 C CNN
F 3 "http://www.ti.com/lit/gpn/sn74LS373" H 5650 9150 50  0001 C CNN
	1    5650 9150
	1    0    0    -1  
$EndComp
$Comp
L power:GND #PWR?
U 1 1 60AE3A3D
P 5650 10100
F 0 "#PWR?" H 5650 9850 50  0001 C CNN
F 1 "GND" H 5655 9927 50  0000 C CNN
F 2 "" H 5650 10100 50  0001 C CNN
F 3 "" H 5650 10100 50  0001 C CNN
	1    5650 10100
	1    0    0    -1  
$EndComp
Wire Wire Line
	5650 10100 5650 9950
Entry Wire Line
	3450 9450 3350 9550
Wire Wire Line
	3350 9550 3200 9550
Entry Wire Line
	3450 9350 3350 9450
Entry Wire Line
	3450 8950 3350 9050
Entry Wire Line
	3450 9150 3350 9250
Entry Wire Line
	3450 9250 3350 9350
Entry Wire Line
	3450 9050 3350 9150
Entry Wire Line
	3450 8850 3350 8950
Entry Wire Line
	3450 8750 3350 8850
Wire Wire Line
	3350 8850 3200 8850
Wire Wire Line
	3200 8950 3350 8950
Wire Wire Line
	3200 9050 3350 9050
Wire Wire Line
	3350 9150 3200 9150
Wire Wire Line
	3200 9250 3350 9250
Wire Wire Line
	3350 9350 3200 9350
Wire Wire Line
	3200 9450 3350 9450
Text Label 3200 8850 0    50   ~ 0
D0
Text Label 3200 8950 0    50   ~ 0
D1
Text Label 3200 9050 0    50   ~ 0
D2
Text Label 3200 9150 0    50   ~ 0
D3
Text Label 3200 9250 0    50   ~ 0
D4
Text Label 3200 9350 0    50   ~ 0
D5
Text Label 3200 9450 0    50   ~ 0
D6
Text Label 3200 9550 0    50   ~ 0
D7
Entry Wire Line
	4900 9250 5000 9350
Entry Wire Line
	4900 9150 5000 9250
Entry Wire Line
	4900 9050 5000 9150
Entry Wire Line
	4900 8950 5000 9050
Entry Wire Line
	4900 8850 5000 8950
Entry Wire Line
	4900 8750 5000 8850
Entry Wire Line
	4900 8650 5000 8750
Entry Wire Line
	4900 8550 5000 8650
Wire Wire Line
	5000 8650 5150 8650
Wire Wire Line
	5150 8750 5000 8750
Wire Wire Line
	5000 8850 5150 8850
Wire Wire Line
	5000 8950 5150 8950
Wire Wire Line
	5000 9050 5150 9050
Wire Wire Line
	5000 9150 5150 9150
Wire Wire Line
	5000 9250 5150 9250
Wire Wire Line
	5000 9350 5150 9350
Text Label 5050 8650 0    50   ~ 0
D0
Text Label 5050 8750 0    50   ~ 0
D1
Text Label 5050 8850 0    50   ~ 0
D2
Text Label 5050 8950 0    50   ~ 0
D3
Text Label 5050 9050 0    50   ~ 0
D4
Text Label 5050 9150 0    50   ~ 0
D5
Text Label 5050 9250 0    50   ~ 0
D6
Text Label 5050 9350 0    50   ~ 0
D7
$Comp
L MCU_Intel:8035 U1
U 1 1 60B30654
P 7600 4400
F 0 "U1" H 7250 5950 50  0000 C CNN
F 1 "8035" H 7250 5850 50  0000 C CNN
F 2 "" H 7600 4600 50  0001 C CNN
F 3 "" H 7600 4600 50  0001 C CNN
	1    7600 4400
	-1   0    0    -1  
$EndComp
$Comp
L power:GND #PWR?
U 1 1 60B349F8
P 7600 6100
F 0 "#PWR?" H 7600 5850 50  0001 C CNN
F 1 "GND" H 7605 5927 50  0000 C CNN
F 2 "" H 7600 6100 50  0001 C CNN
F 3 "" H 7600 6100 50  0001 C CNN
	1    7600 6100
	1    0    0    -1  
$EndComp
Wire Wire Line
	7600 6100 7600 5900
$Comp
L power:GND #PWR?
U 1 1 60B39468
P 5050 9800
F 0 "#PWR?" H 5050 9550 50  0001 C CNN
F 1 "GND" H 5055 9627 50  0000 C CNN
F 2 "" H 5050 9800 50  0001 C CNN
F 3 "" H 5050 9800 50  0001 C CNN
	1    5050 9800
	1    0    0    -1  
$EndComp
Wire Wire Line
	5050 9800 5050 9650
Wire Wire Line
	5050 9650 5150 9650
Wire Wire Line
	4850 9550 5150 9550
Wire Wire Line
	6900 4900 6650 4900
Wire Wire Line
	6650 4900 6650 6750
Entry Wire Line
	6250 4200 6350 4300
Entry Wire Line
	6250 4100 6350 4200
Entry Wire Line
	6250 4000 6350 4100
Entry Wire Line
	6250 3900 6350 4000
Entry Wire Line
	6250 3800 6350 3900
Entry Wire Line
	6250 3700 6350 3800
Entry Wire Line
	6250 3600 6350 3700
Entry Wire Line
	6250 3500 6350 3600
Wire Wire Line
	6350 4300 6900 4300
Wire Wire Line
	6900 4200 6350 4200
Wire Wire Line
	6900 4100 6350 4100
Wire Wire Line
	6900 4000 6350 4000
Wire Wire Line
	6900 3900 6350 3900
Wire Wire Line
	6900 3800 6350 3800
Wire Wire Line
	6900 3700 6350 3700
Wire Wire Line
	6900 3600 6350 3600
Text Label 6800 3600 0    50   ~ 0
D0
Text Label 6800 3700 0    50   ~ 0
D1
Text Label 6800 3800 0    50   ~ 0
D2
Text Label 6800 3900 0    50   ~ 0
D3
Text Label 6800 4000 0    50   ~ 0
D4
Text Label 6800 4100 0    50   ~ 0
D5
Text Label 6800 4200 0    50   ~ 0
D6
Text Label 6800 4300 0    50   ~ 0
D7
Wire Bus Line
	6250 8050 4900 8050
Wire Bus Line
	4900 8050 3450 8050
Connection ~ 4900 8050
Wire Notes Line
	4450 10600 4450 7900
Wire Notes Line
	4450 7900 500  7900
Wire Notes Line
	500  7900 500  10600
Wire Notes Line
	500  10600 4450 10600
Text Notes 550  8050 0    50   ~ 0
Indicators and latch
$Comp
L 74xx:74LS154 U4
U 1 1 60B82565
P 2250 1500
F 0 "U4" V 2204 356 50  0000 R CNN
F 1 "74LS154" V 2295 356 50  0000 R CNN
F 2 "" H 2250 1500 50  0001 C CNN
F 3 "http://www.ti.com/lit/gpn/sn74LS154" H 2250 1500 50  0001 C CNN
	1    2250 1500
	0    -1   1    0   
$EndComp
$Comp
L power:+5V #PWR?
U 1 1 60B866A1
P 7600 2400
F 0 "#PWR?" H 7600 2250 50  0001 C CNN
F 1 "+5V" H 7615 2573 50  0000 C CNN
F 2 "" H 7600 2400 50  0001 C CNN
F 3 "" H 7600 2400 50  0001 C CNN
	1    7600 2400
	1    0    0    -1  
$EndComp
Wire Wire Line
	6800 3200 6900 3200
Wire Wire Line
	8300 3200 8450 3200
$Comp
L Device:C C9
U 1 1 60B8E515
P 8850 3150
F 0 "C9" H 8965 3196 50  0000 L CNN
F 1 "4.7 uF" H 8965 3105 50  0000 L CNN
F 2 "" H 8888 3000 50  0001 C CNN
F 3 "~" H 8850 3150 50  0001 C CNN
	1    8850 3150
	1    0    0    -1  
$EndComp
$Comp
L power:GND #PWR?
U 1 1 60B92A16
P 8850 3400
F 0 "#PWR?" H 8850 3150 50  0001 C CNN
F 1 "GND" H 8855 3227 50  0000 C CNN
F 2 "" H 8850 3400 50  0001 C CNN
F 3 "" H 8850 3400 50  0001 C CNN
	1    8850 3400
	1    0    0    -1  
$EndComp
Wire Wire Line
	6900 3400 6800 3400
Wire Wire Line
	6800 3400 6800 3200
Connection ~ 6800 3200
$Comp
L power:+5V #PWR?
U 1 1 60B990F4
P 1100 1400
F 0 "#PWR?" H 1100 1250 50  0001 C CNN
F 1 "+5V" H 1115 1573 50  0000 C CNN
F 2 "" H 1100 1400 50  0001 C CNN
F 3 "" H 1100 1400 50  0001 C CNN
	1    1100 1400
	1    0    0    -1  
$EndComp
Wire Wire Line
	1100 1500 1250 1500
$Comp
L power:GND #PWR?
U 1 1 60B9B73E
P 3350 1650
F 0 "#PWR?" H 3350 1400 50  0001 C CNN
F 1 "GND" H 3355 1477 50  0000 C CNN
F 2 "" H 3350 1650 50  0001 C CNN
F 3 "" H 3350 1650 50  0001 C CNN
	1    3350 1650
	1    0    0    -1  
$EndComp
Wire Wire Line
	3350 1650 3350 1500
$Comp
L Device:R_Network08 RP1
U 1 1 60B9DA58
P 900 2700
F 0 "RP1" V 283 2700 50  0000 C CNN
F 1 "2k2" V 374 2700 50  0000 C CNN
F 2 "Resistor_THT:R_Array_SIP9" V 1375 2700 50  0001 C CNN
F 3 "http://www.vishay.com/docs/31509/csc.pdf" H 900 2700 50  0001 C CNN
	1    900  2700
	0    -1   1    0   
$EndComp
$Comp
L power:+5V #PWR?
U 1 1 60BA0AB3
P 600 2300
F 0 "#PWR?" H 600 2150 50  0001 C CNN
F 1 "+5V" H 615 2473 50  0000 C CNN
F 2 "" H 600 2300 50  0001 C CNN
F 3 "" H 600 2300 50  0001 C CNN
	1    600  2300
	1    0    0    -1  
$EndComp
Wire Wire Line
	600  2300 700  2300
$Comp
L AM26LS32:AM26LS32ACN U9
U 1 1 60BBC03A
P 10750 1550
F 0 "U9" H 11150 1815 50  0000 C CNN
F 1 "AM26LS32ACN" H 11150 1724 50  0000 C CNN
F 2 "Texas_Instruments-AM26LS32ACN-*" H 10750 1950 50  0001 L CNN
F 3 "http://www.ti.com/general/docs/lit/getliterature.tsp?genericPartNumber=AM26LS32AC&fileType=pdf" H 10750 2050 50  0001 L CNN
F 4 "MS-001*" H 10750 2150 50  0001 L CNN "Code  JEDEC"
F 5 "Package Specification" H 10750 2250 50  0001 L CNN "Component Link 2 Description"
F 6 "http://www.ti.com/lit/ml/mpdi002c/mpdi002c.pdf" H 10750 2350 50  0001 L CNN "Component Link 2 URL"
F 7 "SLLS115E" H 10750 2450 50  0001 L CNN "Datasheet Version"
F 8 "70" H 10750 2550 50  0001 L CNN "ICC Maxm A"
F 9 "Through-hole" H 10750 2650 50  0001 L CNN "Mounting Technology"
F 10 "16-Pin Plastic Dual-In-Line Package, Row Spacing 7.62 mm, Pitch 2.54 mm" H 10750 2750 50  0001 L CNN "Package Description"
F 11 "revE, Dec-2002" H 10750 2850 50  0001 L CNN "Package Version"
F 12 "Catalog" H 10750 2950 50  0001 L CNN "Rating"
F 13 "4" H 10750 3050 50  0001 L CNN "Receivers Per Package"
F 14 "RS-422" H 10750 3150 50  0001 L CNN "Sub Family"
F 15 "IC" H 10750 3250 50  0001 L CNN "category"
F 16 "13586529" H 10750 3350 50  0001 L CNN "ciiva ids"
F 17 "09c09c5c08df53c0" H 10750 3450 50  0001 L CNN "library id"
F 18 "Texas Instruments" H 10750 3550 50  0001 L CNN "manufacturer"
F 19 "0 TX / 4 RX" H 10750 3650 50  0001 L CNN "of TXRX"
F 20 "N0016A" H 10750 3750 50  0001 L CNN "package"
F 21 "1464334793" H 10750 3850 50  0001 L CNN "release date"
F 22 "Yes" H 10750 3950 50  0001 L CNN "rohs"
F 23 "01939A46-2924-4BA3-AE5E-9AF6D570F9E1" H 10750 4050 50  0001 L CNN "vault revision"
F 24 "yes" H 10750 4150 50  0001 L CNN "imported"
	1    10750 1550
	1    0    0    -1  
$EndComp
$Comp
L AM26LS31:AM26LS31CNE4 U10
U 1 1 60BC1AE8
P 10650 3700
F 0 "U10" H 11150 3965 50  0000 C CNN
F 1 "AM26LS31CNE4" H 11150 3874 50  0000 C CNN
F 2 "AM26LS31" H 10650 4900 50  0001 L CNN
F 3 "http://www.ti.com/general/docs/lit/getliterature.tsp?genericPartNumber=AM26LS31&fileType=pdf" H 10650 4200 50  0001 L CNN
F 4 "MS-001*" H 10650 4300 50  0001 L CNN "Code  JEDEC"
F 5 "Package Specification" H 10650 4400 50  0001 L CNN "Component Link 2 Description"
F 6 "http://www.ti.com/lit/ml/mpdi002c/mpdi002c.pdf" H 10650 4500 50  0001 L CNN "Component Link 2 URL"
F 7 "SLLS114I" H 10650 4600 50  0001 L CNN "Datasheet Version"
F 8 "4" H 10650 4700 50  0001 L CNN "Drivers Per Package"
F 9 "2" H 10650 4800 50  0001 L CNN "ESDk V"
F 10 "80" H 10650 5000 50  0001 L CNN "ICC Maxm A"
F 11 "Through-hole" H 10650 5100 50  0001 L CNN "Mounting Technology"
F 12 "16-Pin Plastic Dual-In-Line Package, Row Spacing 7.62 mm, Pitch 2.54 mm" H 10650 5200 50  0001 L CNN "Package Description"
F 13 "revE, Dec-2002" H 10650 5300 50  0001 L CNN "Package Version"
F 14 "Catalog" H 10650 5400 50  0001 L CNN "Rating"
F 15 "RS-422" H 10650 5500 50  0001 L CNN "Sub Family"
F 16 "5" H 10650 5600 50  0001 L CNN "Supply VoltagesV"
F 17 "IC" H 10650 5700 50  0001 L CNN "category"
F 18 "65d75005137963e0" H 10650 5800 50  0001 L CNN "library id"
F 19 "Texas Instruments" H 10650 5900 50  0001 L CNN "manufacturer"
F 20 "4 TX / 0 RX" H 10650 6000 50  0001 L CNN "of TXRX"
F 21 "N16" H 10650 6100 50  0001 L CNN "package"
F 22 "Yes" H 10650 6200 50  0001 L CNN "rohs"
F 23 "F4D3E606-358B-4494-ACF6-CE0A22313FCF" H 10650 6300 50  0001 L CNN "vault revision"
F 24 "yes" H 10650 6400 50  0001 L CNN "imported"
	1    10650 3700
	1    0    0    -1  
$EndComp
$Comp
L Connector:Conn_01x07_Male J1
U 1 1 60BCAF40
P 15550 6750
F 0 "J1" H 15522 6774 50  0000 R CNN
F 1 "card reader" H 15522 6683 50  0000 R CNN
F 2 "" H 15550 6750 50  0001 C CNN
F 3 "~" H 15550 6750 50  0001 C CNN
	1    15550 6750
	-1   0    0    -1  
$EndComp
$Comp
L power:GND #PWR?
U 1 1 60BCC1DC
P 14900 6350
F 0 "#PWR?" H 14900 6100 50  0001 C CNN
F 1 "GND" H 14905 6177 50  0000 C CNN
F 2 "" H 14900 6350 50  0001 C CNN
F 3 "" H 14900 6350 50  0001 C CNN
	1    14900 6350
	-1   0    0    1   
$EndComp
Wire Wire Line
	14900 6550 14900 6450
Connection ~ 14900 6450
Wire Wire Line
	14900 6450 14900 6350
$Comp
L power:+5V #PWR?
U 1 1 60BD5A77
P 14650 6350
F 0 "#PWR?" H 14650 6200 50  0001 C CNN
F 1 "+5V" H 14665 6523 50  0000 C CNN
F 2 "" H 14650 6350 50  0001 C CNN
F 3 "" H 14650 6350 50  0001 C CNN
	1    14650 6350
	1    0    0    -1  
$EndComp
Wire Wire Line
	14550 6650 14650 6650
Wire Wire Line
	14650 6350 14650 6650
Connection ~ 14650 6650
$Comp
L Device:R R14
U 1 1 60BDC247
P 14400 6650
F 0 "R14" V 14193 6650 50  0000 C CNN
F 1 "2k7" V 14284 6650 50  0000 C CNN
F 2 "" V 14330 6650 50  0001 C CNN
F 3 "~" H 14400 6650 50  0001 C CNN
	1    14400 6650
	0    1    1    0   
$EndComp
$Comp
L Device:R R13
U 1 1 60BDFCB6
P 14050 6350
F 0 "R13" H 14120 6396 50  0000 L CNN
F 1 "1k2" H 14120 6305 50  0000 L CNN
F 2 "" V 13980 6350 50  0001 C CNN
F 3 "~" H 14050 6350 50  0001 C CNN
	1    14050 6350
	1    0    0    -1  
$EndComp
$Comp
L power:GND #PWR?
U 1 1 60BE37B5
P 14050 6050
F 0 "#PWR?" H 14050 5800 50  0001 C CNN
F 1 "GND" H 14055 5877 50  0000 C CNN
F 2 "" H 14050 6050 50  0001 C CNN
F 3 "" H 14050 6050 50  0001 C CNN
	1    14050 6050
	-1   0    0    1   
$EndComp
$Comp
L Device:R R23
U 1 1 60BEDBC7
P 9500 1600
F 0 "R23" H 9431 1646 50  0000 R CNN
F 1 "5k1" H 9431 1555 50  0000 R CNN
F 2 "" V 9430 1600 50  0001 C CNN
F 3 "~" H 9500 1600 50  0001 C CNN
	1    9500 1600
	1    0    0    -1  
$EndComp
$Comp
L power:+5V #PWR?
U 1 1 60BF546B
P 9500 1300
F 0 "#PWR?" H 9500 1150 50  0001 C CNN
F 1 "+5V" H 9515 1473 50  0000 C CNN
F 2 "" H 9500 1300 50  0001 C CNN
F 3 "" H 9500 1300 50  0001 C CNN
	1    9500 1300
	1    0    0    -1  
$EndComp
$Comp
L Diode:1N4148 CR13
U 1 1 60BFD710
P 9800 1750
F 0 "CR13" H 9800 1533 50  0000 C CNN
F 1 "1N4148" H 9800 1624 50  0000 C CNN
F 2 "Diode_THT:D_DO-35_SOD27_P7.62mm_Horizontal" H 9800 1575 50  0001 C CNN
F 3 "https://assets.nexperia.com/documents/data-sheet/1N4148_1N4448.pdf" H 9800 1750 50  0001 C CNN
	1    9800 1750
	-1   0    0    1   
$EndComp
$Comp
L Device:R R22
U 1 1 60BFE6AE
P 9800 1950
F 0 "R22" V 9915 1950 50  0000 C CNN
F 1 "10k" V 10006 1950 50  0000 C CNN
F 2 "" V 9730 1950 50  0001 C CNN
F 3 "~" H 9800 1950 50  0001 C CNN
	1    9800 1950
	0    1    1    0   
$EndComp
Wire Wire Line
	9950 1750 10000 1750
Wire Wire Line
	10000 1750 10000 1850
Wire Wire Line
	9600 1750 9650 1750
Connection ~ 10000 1850
Connection ~ 9600 1850
Wire Wire Line
	9600 1850 9600 1750
$Comp
L Device:R R12
U 1 1 60C114C0
P 12050 1750
F 0 "R12" V 11843 1750 50  0000 C CNN
F 1 "330R" V 11934 1750 50  0000 C CNN
F 2 "" V 11980 1750 50  0001 C CNN
F 3 "~" H 12050 1750 50  0001 C CNN
	1    12050 1750
	0    1    1    0   
$EndComp
Text Label 14800 6750 0    50   ~ 0
card_ready_LED
Wire Wire Line
	14650 6650 15350 6650
Wire Wire Line
	14900 6550 15350 6550
Wire Wire Line
	14900 6450 15350 6450
$Comp
L Device:C C15
U 1 1 60C37C54
P 10150 2100
F 0 "C15" H 10265 2146 50  0000 L CNN
F 1 "10 nF" H 10265 2055 50  0000 L CNN
F 2 "" H 10188 1950 50  0001 C CNN
F 3 "~" H 10150 2100 50  0001 C CNN
	1    10150 2100
	1    0    0    -1  
$EndComp
Wire Wire Line
	10000 1850 10150 1850
Wire Wire Line
	10150 1950 10150 1850
Connection ~ 10150 1850
Wire Wire Line
	10150 1850 10750 1850
$Comp
L power:GND #PWR?
U 1 1 60C505C5
P 10150 2350
F 0 "#PWR?" H 10150 2100 50  0001 C CNN
F 1 "GND" H 10155 2177 50  0000 C CNN
F 2 "" H 10150 2350 50  0001 C CNN
F 3 "" H 10150 2350 50  0001 C CNN
	1    10150 2350
	1    0    0    -1  
$EndComp
Wire Wire Line
	10150 2350 10150 2250
Wire Wire Line
	10750 1750 10500 1750
Wire Wire Line
	15350 6850 14450 6850
Wire Wire Line
	9450 6850 9450 4700
Wire Wire Line
	8300 4700 9450 4700
$Comp
L Device:R R25
U 1 1 60C74A68
P 14650 7850
F 0 "R25" V 14443 7850 50  0000 C CNN
F 1 "5k1" V 14534 7850 50  0000 C CNN
F 2 "" V 14580 7850 50  0001 C CNN
F 3 "~" H 14650 7850 50  0001 C CNN
	1    14650 7850
	0    1    1    0   
$EndComp
$Comp
L power:+5V #PWR?
U 1 1 60C7531C
P 15000 7750
F 0 "#PWR?" H 15000 7600 50  0001 C CNN
F 1 "+5V" H 15015 7923 50  0000 C CNN
F 2 "" H 15000 7750 50  0001 C CNN
F 3 "" H 15000 7750 50  0001 C CNN
	1    15000 7750
	1    0    0    -1  
$EndComp
Wire Wire Line
	15000 7750 15000 7850
Wire Wire Line
	14800 7850 15000 7850
Connection ~ 15000 7850
Wire Wire Line
	14500 7850 14450 7850
Wire Wire Line
	14450 7850 14450 6850
Connection ~ 14450 6850
Wire Wire Line
	14450 6850 9450 6850
$Comp
L Device:R R18
U 1 1 60C9607C
P 14650 8850
F 0 "R18" V 14443 8850 50  0000 C CNN
F 1 "330R" V 14534 8850 50  0000 C CNN
F 2 "" V 14580 8850 50  0001 C CNN
F 3 "~" H 14650 8850 50  0001 C CNN
	1    14650 8850
	0    1    1    0   
$EndComp
$Comp
L Device:R R17
U 1 1 60C96711
P 14650 9250
F 0 "R17" V 14443 9250 50  0000 C CNN
F 1 "330R" V 14534 9250 50  0000 C CNN
F 2 "" V 14580 9250 50  0001 C CNN
F 3 "~" H 14650 9250 50  0001 C CNN
	1    14650 9250
	0    1    1    0   
$EndComp
Wire Wire Line
	15000 7850 15000 8150
Wire Wire Line
	15000 8150 14800 8150
Connection ~ 15000 8150
$Comp
L Device:LED_ALT CR10
U 1 1 60CA93FC
P 14100 8850
F 0 "CR10" H 14093 8595 50  0000 C CNN
F 1 "CQV 31E" H 14093 8686 50  0000 C CNN
F 2 "" H 14100 8850 50  0001 C CNN
F 3 "~" H 14100 8850 50  0001 C CNN
	1    14100 8850
	1    0    0    1   
$EndComp
$Comp
L Device:LED_ALT CR11
U 1 1 60CA8734
P 14100 9250
F 0 "CR11" H 14093 9375 50  0000 C CNN
F 1 "CQV 31E" H 14093 9466 50  0000 C CNN
F 2 "" H 14100 9250 50  0001 C CNN
F 3 "~" H 14100 9250 50  0001 C CNN
	1    14100 9250
	1    0    0    1   
$EndComp
Wire Wire Line
	11800 4200 11550 4200
Text Notes 13800 9350 0    50   ~ 0
Caps
Text Notes 13850 9000 0    50   ~ 0
Lock
Wire Wire Line
	8300 5500 9250 5500
Text Label 14800 6950 0    50   ~ 0
-card_data
$Comp
L Device:R R23
U 1 1 60CE55AC
P 14650 8150
F 0 "R23" V 14443 8150 50  0000 C CNN
F 1 "5k1" V 14534 8150 50  0000 C CNN
F 2 "" V 14580 8150 50  0001 C CNN
F 3 "~" H 14650 8150 50  0001 C CNN
	1    14650 8150
	0    1    1    0   
$EndComp
Wire Wire Line
	14050 6200 14050 6050
Wire Wire Line
	14050 6500 14050 6650
Connection ~ 14050 6650
Wire Wire Line
	14050 6650 14250 6650
$Comp
L Device:R R15
U 1 1 60D1573D
P 14650 8500
F 0 "R15" V 14443 8500 50  0000 C CNN
F 1 "5k1" V 14534 8500 50  0000 C CNN
F 2 "" V 14580 8500 50  0001 C CNN
F 3 "~" H 14650 8500 50  0001 C CNN
	1    14650 8500
	0    1    1    0   
$EndComp
Text Label 14800 7050 0    50   ~ 0
-card_clock
Text Label 14800 6850 0    50   ~ 0
-card_present
$Comp
L Device:LED_ALT CR12
U 1 1 60D27D44
P 15450 9450
F 0 "CR12" V 15489 9332 50  0000 R CNN
F 1 "MV5055 GI" V 15398 9332 50  0000 R CNN
F 2 "" H 15450 9450 50  0001 C CNN
F 3 "~" H 15450 9450 50  0001 C CNN
	1    15450 9450
	0    -1   -1   0   
$EndComp
$Comp
L power:GND #PWR?
U 1 1 60D2DC26
P 15450 9700
F 0 "#PWR?" H 15450 9450 50  0001 C CNN
F 1 "GND" H 15455 9527 50  0000 C CNN
F 2 "" H 15450 9700 50  0001 C CNN
F 3 "" H 15450 9700 50  0001 C CNN
	1    15450 9700
	1    0    0    -1  
$EndComp
Wire Wire Line
	15450 9700 15450 9600
$Comp
L Device:R R19
U 1 1 60D35DB9
P 15450 9050
F 0 "R19" H 15520 9096 50  0000 L CNN
F 1 "330R" H 15520 9005 50  0000 L CNN
F 2 "" V 15380 9050 50  0001 C CNN
F 3 "~" H 15450 9050 50  0001 C CNN
	1    15450 9050
	1    0    0    -1  
$EndComp
Wire Wire Line
	15450 9200 15450 9300
$Comp
L power:+5V #PWR?
U 1 1 60D3E037
P 15450 8800
F 0 "#PWR?" H 15450 8650 50  0001 C CNN
F 1 "+5V" H 15465 8973 50  0000 C CNN
F 2 "" H 15450 8800 50  0001 C CNN
F 3 "" H 15450 8800 50  0001 C CNN
	1    15450 8800
	1    0    0    -1  
$EndComp
Wire Wire Line
	15450 8900 15450 8800
Wire Wire Line
	13950 9250 11800 9250
Wire Wire Line
	14250 9250 14500 9250
Wire Wire Line
	14800 9250 15000 9250
Wire Wire Line
	11800 4200 11800 9250
Wire Wire Line
	15000 8150 15000 8500
Wire Wire Line
	14800 8500 15000 8500
Connection ~ 15000 8500
Wire Wire Line
	15000 8500 15000 8850
Wire Wire Line
	14250 8850 14500 8850
Wire Wire Line
	15000 8850 14800 8850
Connection ~ 15000 8850
Wire Wire Line
	15000 8850 15000 9250
Wire Wire Line
	13950 8850 12000 8850
Wire Wire Line
	14300 8150 14300 6950
Wire Wire Line
	14300 8150 14500 8150
Connection ~ 14300 6950
Wire Wire Line
	14300 6950 15350 6950
Wire Wire Line
	14150 8500 14150 7050
Wire Wire Line
	14150 8500 14500 8500
Connection ~ 14150 7050
Wire Wire Line
	14150 7050 15350 7050
$Comp
L 74xx:74LS00 U11
U 4 1 60DE53D5
P 10200 3350
F 0 "U11" H 10200 3675 50  0000 C CNN
F 1 "74LS00" H 10200 3584 50  0000 C CNN
F 2 "" H 10200 3350 50  0001 C CNN
F 3 "http://www.ti.com/lit/gpn/sn74ls00" H 10200 3350 50  0001 C CNN
	4    10200 3350
	1    0    0    -1  
$EndComp
Text Label 8300 4100 0    50   ~ 0
click_inhibit
Text Label 8300 4000 0    50   ~ 0
Trans_Flag
$Comp
L Connector:Conn_01x07_Male J2
U 1 1 60DFDB95
P 15300 1200
F 0 "J2" H 15272 1224 50  0000 R CNN
F 1 "to terminal" H 15272 1133 50  0000 R CNN
F 2 "" H 15300 1200 50  0001 C CNN
F 3 "~" H 15300 1200 50  0001 C CNN
	1    15300 1200
	-1   0    0    -1  
$EndComp
$Comp
L 74xx:74LS00 U11
U 2 1 60E13838
P 13600 3600
F 0 "U11" H 13600 3925 50  0000 C CNN
F 1 "74LS00" H 13600 3834 50  0000 C CNN
F 2 "" H 13600 3600 50  0001 C CNN
F 3 "http://www.ti.com/lit/gpn/sn74ls00" H 13600 3600 50  0001 C CNN
	2    13600 3600
	1    0    0    -1  
$EndComp
$Comp
L Device:CP C6
U 1 1 60E262D3
P 14150 3600
F 0 "C6" V 14405 3600 50  0000 C CNN
F 1 "10 uF" V 14314 3600 50  0000 C CNN
F 2 "" H 14188 3450 50  0001 C CNN
F 3 "~" H 14150 3600 50  0001 C CNN
	1    14150 3600
	0    -1   -1   0   
$EndComp
$Comp
L Device:R R7
U 1 1 60E3BC68
P 13200 3000
F 0 "R7" H 13270 3046 50  0000 L CNN
F 1 "10k" H 13270 2955 50  0000 L CNN
F 2 "" V 13130 3000 50  0001 C CNN
F 3 "~" H 13200 3000 50  0001 C CNN
	1    13200 3000
	1    0    0    -1  
$EndComp
$Comp
L Device:R R6
U 1 1 60E458DB
P 12900 3000
F 0 "R6" H 12970 3046 50  0000 L CNN
F 1 "10k" H 12970 2955 50  0000 L CNN
F 2 "" V 12830 3000 50  0001 C CNN
F 3 "~" H 12900 3000 50  0001 C CNN
	1    12900 3000
	1    0    0    -1  
$EndComp
$Comp
L Device:R R8
U 1 1 60E45FCA
P 12900 2450
F 0 "R8" H 12970 2496 50  0000 L CNN
F 1 "10k" H 12970 2405 50  0000 L CNN
F 2 "" V 12830 2450 50  0001 C CNN
F 3 "~" H 12900 2450 50  0001 C CNN
	1    12900 2450
	1    0    0    -1  
$EndComp
$Comp
L power:+5V #PWR?
U 1 1 60E474B8
P 12900 2200
F 0 "#PWR?" H 12900 2050 50  0001 C CNN
F 1 "+5V" H 12915 2373 50  0000 C CNN
F 2 "" H 12900 2200 50  0001 C CNN
F 3 "" H 12900 2200 50  0001 C CNN
	1    12900 2200
	1    0    0    -1  
$EndComp
Wire Wire Line
	12900 2200 12900 2300
Wire Wire Line
	12900 2600 12900 2700
$Comp
L Transistor_BJT:BC558 Q2
U 1 1 60E65616
P 14250 2700
F 0 "Q2" H 14441 2654 50  0000 L CNN
F 1 "BC558" H 14441 2745 50  0000 L CNN
F 2 "Package_TO_SOT_THT:TO-92_Inline" H 14450 2625 50  0001 L CIN
F 3 "https://www.onsemi.com/pub/Collateral/BC556BTA-D.pdf" H 14250 2700 50  0001 L CNN
	1    14250 2700
	1    0    0    1   
$EndComp
$Comp
L Device:R R9
U 1 1 60E66648
P 14350 3150
F 0 "R9" H 14420 3196 50  0000 L CNN
F 1 "220R" H 14420 3105 50  0000 L CNN
F 2 "" V 14280 3150 50  0001 C CNN
F 3 "~" H 14350 3150 50  0001 C CNN
	1    14350 3150
	1    0    0    -1  
$EndComp
Wire Wire Line
	14350 3000 14350 2900
Wire Wire Line
	12900 2700 13200 2700
Connection ~ 12900 2700
Wire Wire Line
	12900 2700 12900 2850
Wire Wire Line
	13200 2850 13200 2700
Connection ~ 13200 2700
Wire Wire Line
	13200 2700 14050 2700
Wire Wire Line
	13200 3150 13200 3600
Connection ~ 13200 3600
Wire Wire Line
	13200 3600 13250 3600
Wire Wire Line
	13300 3700 13250 3700
Wire Wire Line
	13250 3700 13250 3600
Connection ~ 13250 3600
Wire Wire Line
	13250 3600 13250 3500
Wire Wire Line
	13250 3500 13300 3500
Wire Wire Line
	13900 3600 14000 3600
Wire Wire Line
	14350 3300 14350 3600
Wire Wire Line
	14350 3600 14300 3600
$Comp
L power:+5V #PWR?
U 1 1 60EECB14
P 14350 2400
F 0 "#PWR?" H 14350 2250 50  0001 C CNN
F 1 "+5V" H 14365 2573 50  0000 C CNN
F 2 "" H 14350 2400 50  0001 C CNN
F 3 "" H 14350 2400 50  0001 C CNN
	1    14350 2400
	1    0    0    -1  
$EndComp
Wire Wire Line
	14350 2400 14350 2500
$Comp
L power:GND #PWR?
U 1 1 60EF8C4B
P 11600 3000
F 0 "#PWR?" H 11600 2750 50  0001 C CNN
F 1 "GND" H 11605 2827 50  0000 C CNN
F 2 "" H 11600 3000 50  0001 C CNN
F 3 "" H 11600 3000 50  0001 C CNN
	1    11600 3000
	1    0    0    -1  
$EndComp
Wire Wire Line
	11600 2750 11550 2750
$Comp
L power:+5V #PWR?
U 1 1 60F04867
P 10350 2650
F 0 "#PWR?" H 10350 2500 50  0001 C CNN
F 1 "+5V" H 10365 2823 50  0000 C CNN
F 2 "" H 10350 2650 50  0001 C CNN
F 3 "" H 10350 2650 50  0001 C CNN
	1    10350 2650
	1    0    0    -1  
$EndComp
$Comp
L 74xx:74LS00 U11
U 1 1 60F10E06
P 12450 8500
F 0 "U11" H 12450 8825 50  0000 C CNN
F 1 "74LS00" H 12450 8734 50  0000 C CNN
F 2 "" H 12450 8500 50  0001 C CNN
F 3 "http://www.ti.com/lit/gpn/sn74ls00" H 12450 8500 50  0001 C CNN
	1    12450 8500
	1    0    0    -1  
$EndComp
$Comp
L Device:R R16
U 1 1 60F99928
P 10350 1500
F 0 "R16" H 10420 1546 50  0000 L CNN
F 1 "220R" H 10420 1455 50  0000 L CNN
F 2 "" V 10280 1500 50  0001 C CNN
F 3 "~" H 10350 1500 50  0001 C CNN
	1    10350 1500
	1    0    0    -1  
$EndComp
Wire Wire Line
	10750 1650 10350 1650
Wire Wire Line
	10350 1650 10100 1650
Wire Wire Line
	10100 1650 10100 800 
Connection ~ 10350 1650
Wire Wire Line
	10750 1550 10650 1550
Wire Wire Line
	10650 1550 10650 1350
Wire Wire Line
	10650 1350 10350 1350
Wire Wire Line
	10350 1350 10200 1350
Wire Wire Line
	10200 1350 10200 900 
Connection ~ 10350 1350
Text Label 14700 1000 0    50   ~ 0
REC.
Text Label 14700 1100 0    50   ~ 0
-REC.
Wire Wire Line
	8300 5400 9250 5400
Wire Wire Line
	9250 5400 9250 1000
Text Label 14700 1200 0    50   ~ 0
TRANS
Wire Wire Line
	15100 1300 12600 1300
Text Label 14700 1300 0    50   ~ 0
-TRANS
$Comp
L Device:CP C1
U 1 1 6105212C
P 14000 1000
F 0 "C1" H 14118 1046 50  0000 L CNN
F 1 "22 uF" H 14118 955 50  0000 L CNN
F 2 "" H 14038 850 50  0001 C CNN
F 3 "~" H 14000 1000 50  0001 C CNN
	1    14000 1000
	1    0    0    -1  
$EndComp
Wire Wire Line
	15100 900  14300 900 
Wire Wire Line
	14300 900  14300 800 
Wire Wire Line
	14300 800  14000 800 
Wire Wire Line
	14000 850  14000 800 
Connection ~ 14000 800 
$Comp
L power:GND #PWR?
U 1 1 6107032F
P 14000 1600
F 0 "#PWR?" H 14000 1350 50  0001 C CNN
F 1 "GND" H 14005 1427 50  0000 C CNN
F 2 "" H 14000 1600 50  0001 C CNN
F 3 "" H 14000 1600 50  0001 C CNN
	1    14000 1600
	1    0    0    -1  
$EndComp
Wire Wire Line
	14000 1600 14000 1400
Wire Wire Line
	15100 1400 14000 1400
Connection ~ 14000 1400
Wire Wire Line
	14000 1400 14000 1150
$Comp
L Transistor_BJT:BC548 Q1A
U 1 1 61090CF0
P 14950 3450
F 0 "Q1A" H 15141 3496 50  0000 L CNN
F 1 "BC548" H 15141 3405 50  0000 L CNN
F 2 "Package_TO_SOT_THT:TO-92_Inline" H 15150 3375 50  0001 L CIN
F 3 "https://www.onsemi.com/pub/Collateral/BC550-D.pdf" H 14950 3450 50  0001 L CNN
	1    14950 3450
	1    0    0    -1  
$EndComp
$Comp
L Device:Q_NPN_CBE Q1
U 1 1 6109357C
P 15250 3900
F 0 "Q1" H 15441 3946 50  0000 L CNN
F 1 "BC489B" H 15441 3855 50  0000 L CNN
F 2 "" H 15450 4000 50  0001 C CNN
F 3 "~" H 15250 3900 50  0001 C CNN
	1    15250 3900
	1    0    0    -1  
$EndComp
$Comp
L Device:R R10
U 1 1 61096D19
P 14350 4250
F 0 "R10" H 14420 4296 50  0000 L CNN
F 1 "2k2" H 14420 4205 50  0000 L CNN
F 2 "" V 14280 4250 50  0001 C CNN
F 3 "~" H 14350 4250 50  0001 C CNN
	1    14350 4250
	1    0    0    -1  
$EndComp
Wire Wire Line
	14350 4100 14350 3600
Connection ~ 14350 3600
$Comp
L Diode:1N4148 CR1
U 1 1 610ACE6B
P 14350 4750
F 0 "CR1" V 14396 4670 50  0000 R CNN
F 1 "1N4148" V 14305 4670 50  0000 R CNN
F 2 "Diode_THT:D_DO-35_SOD27_P7.62mm_Horizontal" H 14350 4575 50  0001 C CNN
F 3 "https://assets.nexperia.com/documents/data-sheet/1N4148_1N4448.pdf" H 14350 4750 50  0001 C CNN
	1    14350 4750
	0    -1   -1   0   
$EndComp
Wire Wire Line
	14350 4600 14350 4500
$Comp
L Device:C C8
U 1 1 610BD33A
P 14850 4750
F 0 "C8" H 14965 4796 50  0000 L CNN
F 1 "0.047 uF" H 14965 4705 50  0000 L CNN
F 2 "" H 14888 4600 50  0001 C CNN
F 3 "~" H 14850 4750 50  0001 C CNN
	1    14850 4750
	1    0    0    -1  
$EndComp
$Comp
L Device:R R11
U 1 1 610BE489
P 14850 4250
F 0 "R11" H 14920 4296 50  0000 L CNN
F 1 "220R" H 14920 4205 50  0000 L CNN
F 2 "" V 14780 4250 50  0001 C CNN
F 3 "~" H 14850 4250 50  0001 C CNN
	1    14850 4250
	1    0    0    -1  
$EndComp
Wire Wire Line
	14850 4400 14850 4500
Wire Wire Line
	14850 4500 14350 4500
Connection ~ 14850 4500
Wire Wire Line
	14850 4500 14850 4600
Connection ~ 14350 4500
Wire Wire Line
	14350 4500 14350 4400
$Comp
L Device:Speaker LS1
U 1 1 610E036F
P 15550 4450
F 0 "LS1" H 15720 4446 50  0000 L CNN
F 1 "Bipp" H 15720 4355 50  0000 L CNN
F 2 "" H 15550 4250 50  0001 C CNN
F 3 "~" H 15540 4400 50  0001 C CNN
	1    15550 4450
	1    0    0    -1  
$EndComp
$Comp
L power:GND #PWR?
U 1 1 610E1D16
P 14850 5000
F 0 "#PWR?" H 14850 4750 50  0001 C CNN
F 1 "GND" H 14855 4827 50  0000 C CNN
F 2 "" H 14850 5000 50  0001 C CNN
F 3 "" H 14850 5000 50  0001 C CNN
	1    14850 5000
	1    0    0    -1  
$EndComp
Wire Wire Line
	14850 5000 14850 4900
$Comp
L power:GND #PWR?
U 1 1 610F1995
P 15350 5000
F 0 "#PWR?" H 15350 4750 50  0001 C CNN
F 1 "GND" H 15355 4827 50  0000 C CNN
F 2 "" H 15350 5000 50  0001 C CNN
F 3 "" H 15350 5000 50  0001 C CNN
	1    15350 5000
	1    0    0    -1  
$EndComp
Wire Wire Line
	15350 5000 15350 4550
Wire Wire Line
	15350 4100 15350 4450
Wire Wire Line
	15050 3900 14850 3900
Wire Wire Line
	14850 3900 14850 4100
Wire Wire Line
	15050 3650 15050 3900
Connection ~ 15050 3900
Wire Wire Line
	14700 3450 14700 3900
Wire Wire Line
	14700 3900 14850 3900
Connection ~ 14850 3900
Wire Wire Line
	14700 3450 14750 3450
$Comp
L power:+5V #PWR?
U 1 1 611616ED
P 15350 3050
F 0 "#PWR?" H 15350 2900 50  0001 C CNN
F 1 "+5V" H 15365 3223 50  0000 C CNN
F 2 "" H 15350 3050 50  0001 C CNN
F 3 "" H 15350 3050 50  0001 C CNN
	1    15350 3050
	1    0    0    -1  
$EndComp
Wire Wire Line
	15350 3050 15350 3250
Wire Wire Line
	15050 3250 15350 3250
Connection ~ 15350 3250
Wire Wire Line
	15350 3250 15350 3700
$Comp
L MC14502B:MC14502B U3
U 1 1 615824E7
P 5000 4200
F 0 "U3" H 4750 4900 50  0000 C CNN
F 1 "MC14502B" H 4750 4800 50  0000 C CNN
F 2 "MODULE" H 5000 4200 50  0001 C CNN
F 3 "DOCUMENTATION" H 5000 4200 50  0001 C CNN
	1    5000 4200
	1    0    0    -1  
$EndComp
Wire Wire Line
	4100 2400 3950 2400
Wire Wire Line
	1100 2600 4100 2600
Wire Wire Line
	1100 2700 4100 2700
Wire Wire Line
	1100 2800 4100 2800
$Comp
L power:+5V #PWR?
U 1 1 615F0AE1
P 5100 1750
F 0 "#PWR?" H 5100 1600 50  0001 C CNN
F 1 "+5V" H 5115 1923 50  0000 C CNN
F 2 "" H 5100 1750 50  0001 C CNN
F 3 "" H 5100 1750 50  0001 C CNN
	1    5100 1750
	1    0    0    -1  
$EndComp
$Comp
L power:+5V #PWR?
U 1 1 615F1581
P 5450 3650
F 0 "#PWR?" H 5450 3500 50  0001 C CNN
F 1 "+5V" H 5465 3823 50  0000 C CNN
F 2 "" H 5450 3650 50  0001 C CNN
F 3 "" H 5450 3650 50  0001 C CNN
	1    5450 3650
	1    0    0    -1  
$EndComp
$Comp
L power:GND #PWR?
U 1 1 616173EF
P 5450 3150
F 0 "#PWR?" H 5450 2900 50  0001 C CNN
F 1 "GND" H 5455 2977 50  0000 C CNN
F 2 "" H 5450 3150 50  0001 C CNN
F 3 "" H 5450 3150 50  0001 C CNN
	1    5450 3150
	1    0    0    -1  
$EndComp
$Comp
L power:GND #PWR?
U 1 1 6162AFD7
P 5000 5100
F 0 "#PWR?" H 5000 4850 50  0001 C CNN
F 1 "GND" H 5005 4927 50  0000 C CNN
F 2 "" H 5000 5100 50  0001 C CNN
F 3 "" H 5000 5100 50  0001 C CNN
	1    5000 5100
	1    0    0    -1  
$EndComp
Entry Wire Line
	6150 2400 6250 2500
Entry Wire Line
	6150 2300 6250 2400
Entry Wire Line
	6150 2500 6250 2600
Entry Wire Line
	6150 2600 6250 2700
Entry Wire Line
	6150 2700 6250 2800
Entry Wire Line
	6150 2800 6250 2900
Wire Wire Line
	6150 2700 5900 2700
Text Label 6000 2700 0    50   ~ 0
D0
Wire Wire Line
	6150 2600 5900 2600
Text Label 6000 2600 0    50   ~ 0
D1
Wire Wire Line
	6150 2800 5900 2800
Text Label 6000 2800 0    50   ~ 0
D2
Wire Wire Line
	6150 2500 5900 2500
Text Label 6000 2500 0    50   ~ 0
D3
Wire Wire Line
	6150 2400 5900 2400
Text Label 6000 2400 0    50   ~ 0
D4
Wire Wire Line
	6150 2300 5900 2300
Text Label 6000 2300 0    50   ~ 0
D5
Entry Wire Line
	6150 4350 6250 4450
Entry Wire Line
	6150 4250 6250 4350
Text Label 6000 4350 0    50   ~ 0
D6
Text Label 6000 4250 0    50   ~ 0
D7
Wire Wire Line
	5100 1750 5100 1800
$Comp
L Device:C C11
U 1 1 6187EADB
P 5850 6150
F 0 "C11" H 5965 6196 50  0000 L CNN
F 1 "22 pF" H 5965 6105 50  0000 L CNN
F 2 "" H 5888 6000 50  0001 C CNN
F 3 "~" H 5850 6150 50  0001 C CNN
	1    5850 6150
	1    0    0    -1  
$EndComp
$Comp
L Device:C C10
U 1 1 61880A89
P 5350 6150
F 0 "C10" H 5465 6196 50  0000 L CNN
F 1 "22 pF" H 5465 6105 50  0000 L CNN
F 2 "" H 5388 6000 50  0001 C CNN
F 3 "~" H 5350 6150 50  0001 C CNN
	1    5350 6150
	1    0    0    -1  
$EndComp
$Comp
L Device:Crystal X1
U 1 1 61882B37
P 5600 5950
F 0 "X1" H 5600 6218 50  0000 C CNN
F 1 "5.76 MHz" H 5600 6127 50  0000 C CNN
F 2 "" H 5600 5950 50  0001 C CNN
F 3 "~" H 5600 5950 50  0001 C CNN
	1    5600 5950
	1    0    0    -1  
$EndComp
$Comp
L power:GND #PWR?
U 1 1 618841F5
P 5850 6400
F 0 "#PWR?" H 5850 6150 50  0001 C CNN
F 1 "GND" H 5855 6227 50  0000 C CNN
F 2 "" H 5850 6400 50  0001 C CNN
F 3 "" H 5850 6400 50  0001 C CNN
	1    5850 6400
	1    0    0    -1  
$EndComp
$Comp
L power:GND #PWR?
U 1 1 61884414
P 5350 6400
F 0 "#PWR?" H 5350 6150 50  0001 C CNN
F 1 "GND" H 5355 6227 50  0000 C CNN
F 2 "" H 5350 6400 50  0001 C CNN
F 3 "" H 5350 6400 50  0001 C CNN
	1    5350 6400
	1    0    0    -1  
$EndComp
Wire Wire Line
	5350 6400 5350 6300
Wire Wire Line
	5850 6400 5850 6300
Wire Wire Line
	5850 6000 5850 5950
Wire Wire Line
	5850 5950 5750 5950
Wire Wire Line
	5450 5950 5350 5950
Wire Wire Line
	5350 5950 5350 6000
Wire Wire Line
	6900 5600 5850 5600
Wire Wire Line
	5850 5600 5850 5950
Connection ~ 5850 5950
Wire Wire Line
	6900 5400 5350 5400
Wire Wire Line
	5350 5400 5350 5950
Connection ~ 5350 5950
$Comp
L MC14502B:MC14502B U2
U 1 1 6157DD91
P 5000 2550
F 0 "U2" H 4750 3200 50  0000 C CNN
F 1 "MC14502B" H 4750 3100 50  0000 C CNN
F 2 "MODULE" H 5000 2550 50  0001 C CNN
F 3 "DOCUMENTATION" H 5000 2550 50  0001 C CNN
	1    5000 2550
	1    0    0    -1  
$EndComp
Wire Wire Line
	5100 3300 5100 3350
Wire Wire Line
	5100 3350 5250 3350
Wire Wire Line
	5250 3350 5250 3150
Wire Wire Line
	5250 3150 5450 3150
Wire Wire Line
	5000 3300 5000 3350
Wire Wire Line
	5000 3350 5100 3350
Connection ~ 5100 3350
Wire Wire Line
	4900 3400 4900 3300
Wire Wire Line
	4900 3400 5650 3400
Wire Wire Line
	5100 3450 5250 3450
Wire Wire Line
	5250 3450 5250 3650
Wire Wire Line
	5250 3650 5450 3650
Wire Wire Line
	4100 4050 4050 4050
Wire Wire Line
	4100 4150 4000 4150
Wire Wire Line
	6150 4250 5900 4250
Wire Wire Line
	6150 4350 5900 4350
Wire Wire Line
	5000 5100 5000 5050
Wire Wire Line
	5100 4950 5100 5050
Wire Wire Line
	5100 5050 5000 5050
Connection ~ 5000 5050
Wire Wire Line
	5000 5050 5000 4950
Wire Wire Line
	5650 3400 5650 4800
Wire Wire Line
	4900 4950 4900 5350
Wire Wire Line
	4900 5350 5650 5350
Wire Wire Line
	5650 5350 5650 4800
Connection ~ 5650 4800
Wire Wire Line
	5650 4800 6900 4800
Wire Wire Line
	4050 4050 4050 2900
Wire Wire Line
	1100 2900 4050 2900
Wire Wire Line
	4000 4150 4000 3000
Wire Wire Line
	1100 3000 4000 3000
Wire Wire Line
	4000 2500 4000 2300
Wire Wire Line
	4000 2300 4100 2300
Wire Wire Line
	1100 2500 4000 2500
Wire Wire Line
	3950 2400 3950 2300
Wire Wire Line
	1100 2300 3950 2300
Wire Wire Line
	4100 2500 4050 2500
Wire Wire Line
	4050 2500 4050 2450
Wire Wire Line
	4050 2450 3900 2450
Wire Wire Line
	3900 2450 3900 2400
Wire Wire Line
	1100 2400 3900 2400
Wire Wire Line
	1550 2000 1550 3300
Wire Wire Line
	1650 2000 1650 3300
Wire Wire Line
	1750 2000 1750 3300
Wire Wire Line
	1850 2000 1850 3300
Wire Wire Line
	1950 2000 1950 3300
Wire Wire Line
	2050 2000 2050 3300
Wire Wire Line
	2150 2000 2150 3300
Wire Wire Line
	2250 2000 2250 3300
Wire Wire Line
	2350 2000 2350 3300
Wire Wire Line
	2450 2000 2450 3300
Wire Wire Line
	2550 2000 2550 3300
Wire Wire Line
	2650 2000 2650 3300
Wire Wire Line
	2750 2000 2750 3300
Wire Wire Line
	2850 2000 2850 3300
Wire Wire Line
	2950 2000 2950 3300
Wire Wire Line
	3050 2000 3050 3300
$Comp
L Switch:SW_SPST SW1
U 1 1 61E986E2
P 1000 3850
F 0 "SW1" H 1000 4085 50  0000 C CNN
F 1 "SW_SPST" H 1000 3994 50  0000 C CNN
F 2 "" H 1000 3850 50  0001 C CNN
F 3 "~" H 1000 3850 50  0001 C CNN
	1    1000 3850
	-1   0    0    -1  
$EndComp
$Comp
L Device:D D1
U 1 1 61E98F4E
P 1200 4100
F 0 "D1" V 1154 4180 50  0000 L CNN
F 1 "D" V 1245 4180 50  0000 L CNN
F 2 "" H 1200 4100 50  0001 C CNN
F 3 "~" H 1200 4100 50  0001 C CNN
	1    1200 4100
	0    1    1    0   
$EndComp
Wire Wire Line
	1200 3950 1200 3850
Wire Wire Line
	700  4250 1200 4250
Connection ~ 1200 4250
Wire Wire Line
	1200 4250 1400 4250
Wire Wire Line
	800  3750 800  3850
Connection ~ 800  3850
Wire Wire Line
	800  3850 800  4350
Text Notes 650  4550 0    50   ~ 0
key connection in matrix
Wire Notes Line
	550  3550 550  4650
Wire Notes Line
	550  4650 1700 4650
Wire Notes Line
	1700 4650 1700 3550
Wire Notes Line
	1700 3550 550  3550
Wire Wire Line
	11550 4300 11750 4300
Wire Wire Line
	11550 4400 11850 4400
Wire Wire Line
	11850 4400 11850 550 
Wire Wire Line
	11850 550  900  550 
Wire Wire Line
	900  550  900  1950
Wire Wire Line
	900  1950 1250 1950
Wire Wire Line
	1250 1950 1250 3300
Text Notes 1300 2300 0    50   ~ 0
ST1
Text Notes 1300 2400 0    50   ~ 0
CAPS
Text Notes 1300 2500 0    50   ~ 0
CTRL
Text Notes 1300 2600 0    50   ~ 0
LOCK
Text Notes 1300 2700 0    50   ~ 0
SHIFT
Text Notes 1300 2800 0    50   ~ 0
AL1
Text Notes 1300 2900 0    50   ~ 0
AL2
Text Notes 1300 3000 0    50   ~ 0
BREAK
Wire Wire Line
	2050 900  2050 1000
Wire Wire Line
	2050 900  3350 900 
Wire Wire Line
	3350 900  3350 1500
Connection ~ 3350 1500
Entry Wire Line
	8400 3700 8500 3600
Entry Wire Line
	8400 3600 8500 3500
Entry Wire Line
	8400 3500 8500 3400
Entry Wire Line
	8400 3400 8500 3300
Entry Wire Line
	1850 900  1950 800 
Entry Wire Line
	1750 900  1850 800 
Entry Wire Line
	1650 900  1750 800 
Entry Wire Line
	1550 900  1650 800 
Wire Wire Line
	1850 900  1850 1000
Wire Wire Line
	1750 1000 1750 900 
Wire Wire Line
	1650 1000 1650 900 
Wire Wire Line
	1550 1000 1550 900 
Wire Wire Line
	8400 3400 8300 3400
Wire Wire Line
	8300 3500 8400 3500
Wire Wire Line
	8300 3600 8400 3600
Wire Wire Line
	8300 3700 8400 3700
Text Label 1550 1000 0    50   ~ 0
A
Text Label 1650 1000 0    50   ~ 0
B
Text Label 1750 1000 0    50   ~ 0
C
Text Label 1850 1000 0    50   ~ 0
D
Text Label 8300 3400 0    50   ~ 0
A
Text Label 8300 3500 0    50   ~ 0
B
Text Label 8300 3600 0    50   ~ 0
C
Text Label 8300 3700 0    50   ~ 0
D
Wire Wire Line
	4850 6650 4850 9550
Wire Wire Line
	4600 6750 6650 6750
$Comp
L 2716:2716 U8
U 1 1 62258BF9
P 7400 9300
F 0 "U8" H 7100 10300 50  0000 C CNN
F 1 "2716" H 7100 10200 50  0000 C CNN
F 2 "MODULE" H 7400 9300 50  0001 C CNN
F 3 "DOCUMENTATION" H 7400 9300 50  0001 C CNN
	1    7400 9300
	1    0    0    -1  
$EndComp
$Comp
L power:GND #PWR?
U 1 1 62274782
P 7400 10400
F 0 "#PWR?" H 7400 10150 50  0001 C CNN
F 1 "GND" H 7405 10227 50  0000 C CNN
F 2 "" H 7400 10400 50  0001 C CNN
F 3 "" H 7400 10400 50  0001 C CNN
	1    7400 10400
	1    0    0    -1  
$EndComp
Wire Wire Line
	7400 10400 7400 10350
$Comp
L power:+5V #PWR?
U 1 1 62299D2D
P 7400 8000
F 0 "#PWR?" H 7400 7850 50  0001 C CNN
F 1 "+5V" H 7415 8173 50  0000 C CNN
F 2 "" H 7400 8000 50  0001 C CNN
F 3 "" H 7400 8000 50  0001 C CNN
	1    7400 8000
	1    0    0    -1  
$EndComp
Wire Wire Line
	6150 8650 6250 8650
Wire Wire Line
	6150 8750 6550 8750
Wire Wire Line
	6550 8750 6550 9250
Wire Wire Line
	6150 8850 6500 8850
Wire Wire Line
	6500 8850 6500 9150
Wire Wire Line
	6150 8950 6450 8950
Wire Wire Line
	6450 8950 6450 9050
Wire Wire Line
	6150 9050 6350 9050
Wire Wire Line
	6350 9050 6350 9000
Wire Wire Line
	6350 9000 6650 9000
Wire Wire Line
	6650 9000 6650 8950
Wire Wire Line
	6150 9150 6400 9150
Wire Wire Line
	6400 9150 6400 9100
Wire Wire Line
	6400 9100 6700 9100
Wire Wire Line
	6700 9100 6700 8850
Wire Wire Line
	6150 9250 6300 9250
Wire Wire Line
	6300 9250 6300 8800
Wire Wire Line
	6300 8800 6700 8800
Wire Wire Line
	6700 8800 6700 8750
Wire Wire Line
	6200 9350 6200 8700
Wire Wire Line
	6700 8700 6700 8650
Wire Wire Line
	6150 9350 6200 9350
Wire Wire Line
	6200 8700 6700 8700
Wire Wire Line
	6250 8650 6250 9350
Wire Wire Line
	6400 6650 6400 4500
Wire Wire Line
	6400 6650 4850 6650
Wire Wire Line
	6400 4500 6900 4500
Wire Wire Line
	6600 4700 6900 4700
Wire Wire Line
	6600 4700 6600 9650
Wire Bus Line
	8500 10700 6400 10700
Entry Wire Line
	6400 9650 6500 9550
Entry Wire Line
	6400 9950 6500 9850
Entry Wire Line
	6400 10050 6500 9950
Text Label 6550 9950 0    50   ~ 0
A8
Text Label 6550 9850 0    50   ~ 0
A9
Text Label 6550 9550 0    50   ~ 0
A10
Entry Wire Line
	8400 4300 8500 4400
Entry Wire Line
	8400 4400 8500 4500
Entry Wire Line
	8400 4500 8500 4600
Wire Wire Line
	8300 4300 8400 4300
Wire Wire Line
	8300 4400 8400 4400
Wire Wire Line
	8300 4500 8400 4500
Text Label 8300 4500 0    50   ~ 0
A10
Text Label 8300 4400 0    50   ~ 0
A9
Text Label 8300 4300 0    50   ~ 0
A8
Wire Bus Line
	6250 8050 8350 8050
Connection ~ 6250 8050
Entry Wire Line
	8250 9250 8350 9150
Entry Wire Line
	8250 9350 8350 9250
Entry Wire Line
	8250 9450 8350 9350
Entry Wire Line
	8250 9550 8350 9450
Entry Wire Line
	8250 9650 8350 9550
Entry Wire Line
	8250 9750 8350 9650
Entry Wire Line
	8250 9850 8350 9750
Entry Wire Line
	8250 9950 8350 9850
Text Label 8100 9950 0    50   ~ 0
D0
Text Label 8100 9850 0    50   ~ 0
D1
Text Label 8100 9750 0    50   ~ 0
D2
Text Label 8100 9650 0    50   ~ 0
D3
Text Label 8100 9550 0    50   ~ 0
D4
Text Label 8100 9450 0    50   ~ 0
D5
Text Label 8100 9350 0    50   ~ 0
D6
Text Label 8100 9250 0    50   ~ 0
D7
Wire Wire Line
	6650 9450 6650 10350
Wire Wire Line
	6650 10350 7400 10350
Connection ~ 7400 10350
$Comp
L power:+5V #PWR?
U 1 1 629D3391
P 6250 9650
F 0 "#PWR?" H 6250 9500 50  0001 C CNN
F 1 "+5V" H 6265 9823 50  0000 C CNN
F 2 "" H 6250 9650 50  0001 C CNN
F 3 "" H 6250 9650 50  0001 C CNN
	1    6250 9650
	1    0    0    -1  
$EndComp
Wire Wire Line
	6250 9650 6250 9750
Wire Notes Line
	4700 7650 4700 10850
Wire Notes Line
	4700 10850 8700 10850
Wire Notes Line
	8700 10850 8700 7650
Wire Notes Line
	8700 7650 4700 7650
Text Notes 4900 7850 0    50   ~ 0
ADDRESS LATCH\nand PROM
$Comp
L power:+5V #PWR?
U 1 1 62A7AB53
P 6750 5150
F 0 "#PWR?" H 6750 5000 50  0001 C CNN
F 1 "+5V" H 6765 5323 50  0000 C CNN
F 2 "" H 6750 5150 50  0001 C CNN
F 3 "" H 6750 5150 50  0001 C CNN
	1    6750 5150
	1    0    0    -1  
$EndComp
Wire Wire Line
	6750 5150 6750 5250
Wire Wire Line
	6750 5250 6900 5250
Wire Wire Line
	6900 5250 6900 5100
Wire Wire Line
	8300 3900 8550 3900
Wire Wire Line
	8550 3900 8550 3700
Wire Wire Line
	8550 3700 10750 3700
$Comp
L power:GND #PWR?
U 1 1 62AEEDF4
P 11650 4950
F 0 "#PWR?" H 11650 4700 50  0001 C CNN
F 1 "GND" H 11655 4777 50  0000 C CNN
F 2 "" H 11650 4950 50  0001 C CNN
F 3 "" H 11650 4950 50  0001 C CNN
	1    11650 4950
	1    0    0    -1  
$EndComp
Wire Wire Line
	11550 4800 11650 4800
Wire Wire Line
	11650 4800 11650 4950
Wire Wire Line
	11650 4950 10650 4950
Wire Wire Line
	10650 4950 10650 4600
Wire Wire Line
	10650 4600 10750 4600
Connection ~ 11650 4950
$Comp
L power:+5V #PWR?
U 1 1 62B58AC8
P 10350 4800
F 0 "#PWR?" H 10350 4650 50  0001 C CNN
F 1 "+5V" H 10365 4973 50  0000 C CNN
F 2 "" H 10350 4800 50  0001 C CNN
F 3 "" H 10350 4800 50  0001 C CNN
	1    10350 4800
	1    0    0    -1  
$EndComp
Wire Wire Line
	10350 4800 10550 4800
Wire Wire Line
	10750 4500 10550 4500
Wire Wire Line
	10550 4500 10550 4800
Connection ~ 10550 4800
Wire Wire Line
	10550 4800 10750 4800
NoConn ~ 11550 3900
NoConn ~ 11550 4100
Wire Wire Line
	10750 2450 10600 2450
Wire Wire Line
	10600 2450 10600 2750
Wire Wire Line
	10600 2750 10750 2750
Wire Wire Line
	10750 2550 10700 2550
Wire Wire Line
	10700 2550 10700 2950
NoConn ~ 10750 1950
NoConn ~ 10750 2050
NoConn ~ 10750 2150
NoConn ~ 10750 2250
NoConn ~ 11550 1950
NoConn ~ 11550 2150
$Comp
L MC3456:MC3456 U6
U 1 1 62F5F269
P 10300 8350
F 0 "U6" H 10000 8950 50  0000 C CNN
F 1 "MC3456" H 10000 8850 50  0000 C CNN
F 2 "MODULE" H 10300 8350 50  0001 C CNN
F 3 "DOCUMENTATION" H 10300 8350 50  0001 C CNN
	1    10300 8350
	1    0    0    -1  
$EndComp
$Comp
L power:GND #PWR?
U 1 1 62F67EF2
P 10300 9800
F 0 "#PWR?" H 10300 9550 50  0001 C CNN
F 1 "GND" H 10305 9627 50  0000 C CNN
F 2 "" H 10300 9800 50  0001 C CNN
F 3 "" H 10300 9800 50  0001 C CNN
	1    10300 9800
	1    0    0    -1  
$EndComp
$Comp
L power:+5V #PWR?
U 1 1 62F6865A
P 10300 7550
F 0 "#PWR?" H 10300 7400 50  0001 C CNN
F 1 "+5V" H 10315 7723 50  0000 C CNN
F 2 "" H 10300 7550 50  0001 C CNN
F 3 "" H 10300 7550 50  0001 C CNN
	1    10300 7550
	1    0    0    -1  
$EndComp
Wire Wire Line
	10300 7550 10300 7750
$Comp
L Device:R R5
U 1 1 62FD6C43
P 11000 7850
F 0 "R5" H 11070 7896 50  0000 L CNN
F 1 "270R" H 11070 7805 50  0000 L CNN
F 2 "" V 10930 7850 50  0001 C CNN
F 3 "~" H 11000 7850 50  0001 C CNN
	1    11000 7850
	1    0    0    -1  
$EndComp
Wire Wire Line
	10950 8100 11000 8100
$Comp
L power:+5V #PWR?
U 1 1 6304E7BC
P 11000 7550
F 0 "#PWR?" H 11000 7400 50  0001 C CNN
F 1 "+5V" H 11015 7723 50  0000 C CNN
F 2 "" H 11000 7550 50  0001 C CNN
F 3 "" H 11000 7550 50  0001 C CNN
	1    11000 7550
	1    0    0    -1  
$EndComp
$Comp
L Device:C C5
U 1 1 630C09E3
P 11350 8500
F 0 "C5" H 11465 8546 50  0000 L CNN
F 1 "0.1 uF" H 11465 8455 50  0000 L CNN
F 2 "" H 11388 8350 50  0001 C CNN
F 3 "~" H 11350 8500 50  0001 C CNN
	1    11350 8500
	1    0    0    -1  
$EndComp
$Comp
L Device:C C3
U 1 1 6316F99A
P 11100 9550
F 0 "C3" H 11215 9596 50  0000 L CNN
F 1 "10 nF" H 11215 9505 50  0000 L CNN
F 2 "" H 11138 9400 50  0001 C CNN
F 3 "~" H 11100 9550 50  0001 C CNN
	1    11100 9550
	1    0    0    -1  
$EndComp
Wire Wire Line
	11100 8300 10950 8300
Wire Wire Line
	10300 9750 10850 9750
Connection ~ 10300 9750
Wire Wire Line
	10300 9750 10300 9800
Connection ~ 11100 9750
Wire Wire Line
	10300 8950 10300 9750
Wire Wire Line
	11100 9700 11100 9750
Wire Wire Line
	11100 8300 11100 9400
$Comp
L Device:C C16
U 1 1 6345063B
P 10850 9550
F 0 "C16" H 10736 9596 50  0000 R CNN
F 1 "10 nF" H 10736 9505 50  0000 R CNN
F 2 "" H 10888 9400 50  0001 C CNN
F 3 "~" H 10850 9550 50  0001 C CNN
	1    10850 9550
	1    0    0    -1  
$EndComp
Wire Wire Line
	10850 9700 10850 9750
Connection ~ 10850 9750
Wire Wire Line
	10850 9750 11100 9750
Wire Wire Line
	10850 9400 10850 9350
Wire Wire Line
	10850 9350 11050 9350
Wire Wire Line
	11050 9350 11050 8600
Wire Wire Line
	11050 8600 10950 8600
Wire Wire Line
	8300 4800 8850 4800
Connection ~ 10850 9350
$Comp
L Device:R R3
U 1 1 6350E009
P 9200 7850
F 0 "R3" H 9270 7896 50  0000 L CNN
F 1 "3k48" H 9270 7805 50  0000 L CNN
F 2 "" V 9130 7850 50  0001 C CNN
F 3 "~" H 9200 7850 50  0001 C CNN
	1    9200 7850
	1    0    0    -1  
$EndComp
$Comp
L power:+5V #PWR?
U 1 1 6350EDF7
P 9200 7550
F 0 "#PWR?" H 9200 7400 50  0001 C CNN
F 1 "+5V" H 9215 7723 50  0000 C CNN
F 2 "" H 9200 7550 50  0001 C CNN
F 3 "" H 9200 7550 50  0001 C CNN
	1    9200 7550
	1    0    0    -1  
$EndComp
Wire Wire Line
	9650 8400 9400 8400
$Comp
L Device:C C2
U 1 1 635CC5E6
P 9500 9550
F 0 "C2" H 9615 9596 50  0000 L CNN
F 1 "10 nF" H 9615 9505 50  0000 L CNN
F 2 "" H 9538 9400 50  0001 C CNN
F 3 "~" H 9500 9550 50  0001 C CNN
	1    9500 9550
	1    0    0    -1  
$EndComp
Wire Wire Line
	10300 9750 9500 9750
Wire Wire Line
	9500 9750 9500 9700
Wire Wire Line
	9500 9400 9500 8300
Wire Wire Line
	9500 8300 9650 8300
$Comp
L Device:R R4
U 1 1 6364EB6D
P 9200 8400
F 0 "R4" H 9270 8446 50  0000 L CNN
F 1 "1k21" H 9270 8355 50  0000 L CNN
F 2 "" V 9130 8400 50  0001 C CNN
F 3 "~" H 9200 8400 50  0001 C CNN
	1    9200 8400
	1    0    0    -1  
$EndComp
Wire Wire Line
	9200 8600 9200 8550
$Comp
L Device:C C7
U 1 1 63690ED5
P 9200 8850
F 0 "C7" H 9315 8896 50  0000 L CNN
F 1 "0.1 uF" H 9315 8805 50  0000 L CNN
F 2 "" H 9238 8700 50  0001 C CNN
F 3 "~" H 9200 8850 50  0001 C CNN
	1    9200 8850
	1    0    0    -1  
$EndComp
Wire Wire Line
	9200 8700 9200 8600
Connection ~ 9200 8600
Wire Wire Line
	9200 9000 9200 9750
Wire Wire Line
	9200 9750 9500 9750
Connection ~ 9500 9750
Wire Wire Line
	9200 8250 9200 8100
Wire Wire Line
	9200 8000 9200 8100
Connection ~ 9200 8100
Wire Wire Line
	9200 7700 9200 7650
Wire Wire Line
	9400 7650 9200 7650
Connection ~ 9200 7650
Wire Wire Line
	9200 7650 9200 7550
Wire Wire Line
	9400 7650 9400 8400
Wire Wire Line
	9200 8100 9650 8100
Wire Wire Line
	9450 8600 9450 8200
Connection ~ 9450 8600
Wire Wire Line
	9450 8600 9200 8600
Wire Wire Line
	9450 8600 9650 8600
Wire Wire Line
	9450 8200 9650 8200
Wire Wire Line
	12150 8600 12100 8600
Wire Wire Line
	12100 8400 12150 8400
Wire Wire Line
	12900 8500 12750 8500
Wire Wire Line
	12900 3150 12900 8500
Wire Wire Line
	9650 8500 9550 8500
Wire Wire Line
	14350 5200 14350 4900
Wire Wire Line
	9550 5200 9550 8500
Wire Wire Line
	8450 2950 8850 2950
Wire Wire Line
	8450 2950 8450 3200
Wire Wire Line
	8850 3400 8850 3300
Wire Wire Line
	8850 3000 8850 2950
Connection ~ 8850 2950
Wire Wire Line
	8850 2950 8850 2900
Wire Wire Line
	8850 2600 8850 2500
$Comp
L Diode:1N4148 CR14
U 1 1 60B8A11F
P 8850 2750
F 0 "CR14" V 8804 2830 50  0000 L CNN
F 1 "1N4148" V 8895 2830 50  0000 L CNN
F 2 "Diode_THT:D_DO-35_SOD27_P7.62mm_Horizontal" H 8850 2575 50  0001 C CNN
F 3 "https://assets.nexperia.com/documents/data-sheet/1N4148_1N4448.pdf" H 8850 2750 50  0001 C CNN
	1    8850 2750
	0    1    1    0   
$EndComp
Wire Wire Line
	9700 4100 9700 3450
Wire Wire Line
	8300 4100 9700 4100
Wire Wire Line
	9600 4000 9600 3250
Wire Wire Line
	8300 4000 9600 4000
Wire Wire Line
	10450 3800 10450 4300
Wire Wire Line
	10450 4300 10750 4300
Wire Wire Line
	8300 3800 10450 3800
Wire Wire Line
	10200 5000 10200 4100
Wire Wire Line
	10200 4100 10750 4100
Wire Wire Line
	8300 5000 10200 5000
Wire Wire Line
	10050 4900 10050 3900
Wire Wire Line
	10050 3900 10750 3900
Wire Wire Line
	8300 4900 10050 4900
$Comp
L power:+5V #PWR?
U 1 1 61A98280
P 5650 8300
F 0 "#PWR?" H 5650 8150 50  0001 C CNN
F 1 "+5V" H 5665 8473 50  0000 C CNN
F 2 "" H 5650 8300 50  0001 C CNN
F 3 "" H 5650 8300 50  0001 C CNN
	1    5650 8300
	1    0    0    -1  
$EndComp
Wire Wire Line
	5650 8300 5650 8350
$Comp
L power:+5V #PWR?
U 1 1 61ADEB21
P 2700 8400
F 0 "#PWR?" H 2700 8250 50  0001 C CNN
F 1 "+5V" H 2715 8573 50  0000 C CNN
F 2 "" H 2700 8400 50  0001 C CNN
F 3 "" H 2700 8400 50  0001 C CNN
	1    2700 8400
	1    0    0    -1  
$EndComp
Wire Wire Line
	2700 8550 2700 8400
Wire Wire Line
	4250 9650 4300 9650
Wire Wire Line
	4300 9650 4300 9750
Wire Wire Line
	4300 9850 4250 9850
Wire Wire Line
	4300 9750 4600 9750
Connection ~ 4300 9750
Wire Wire Line
	4300 9750 4300 9850
Wire Wire Line
	4600 9750 4600 6750
Wire Wire Line
	3200 9750 3650 9750
Wire Wire Line
	12300 1100 12300 800 
Wire Wire Line
	12300 1100 15100 1100
$Comp
L power:+5V #PWR?
U 1 1 61CF54D4
P 14000 700
F 0 "#PWR?" H 14000 550 50  0001 C CNN
F 1 "+5V" H 14015 873 50  0000 C CNN
F 2 "" H 14000 700 50  0001 C CNN
F 3 "" H 14000 700 50  0001 C CNN
	1    14000 700 
	1    0    0    -1  
$EndComp
Wire Wire Line
	14000 700  14000 800 
Wire Wire Line
	7600 2400 7600 2500
Connection ~ 7600 2500
Wire Wire Line
	7600 2500 8850 2500
Wire Wire Line
	7600 2500 7600 2900
Wire Wire Line
	7600 2500 6800 2500
Wire Wire Line
	6800 2500 6800 3200
Wire Wire Line
	9650 1950 9600 1950
Wire Wire Line
	9950 1950 10000 1950
Wire Wire Line
	9600 1850 9600 1950
Wire Wire Line
	10000 1850 10000 1950
Wire Wire Line
	10600 2750 10350 2750
Wire Wire Line
	10350 2750 10350 2650
Connection ~ 10600 2750
Wire Wire Line
	10500 1750 10500 3250
Connection ~ 11600 2950
Wire Wire Line
	11600 2950 11600 3000
Wire Wire Line
	10700 2950 11600 2950
Wire Wire Line
	11600 2750 11600 2950
Wire Wire Line
	1100 1500 1100 1400
Wire Wire Line
	7400 8000 7400 8400
Wire Wire Line
	7400 10200 7400 10350
Wire Wire Line
	7850 9950 8250 9950
Wire Wire Line
	7850 9850 8250 9850
Wire Wire Line
	7850 9750 8250 9750
Wire Wire Line
	7850 9650 8250 9650
Wire Wire Line
	7850 9550 8250 9550
Wire Wire Line
	7850 9450 8250 9450
Wire Wire Line
	7850 9350 8250 9350
Wire Wire Line
	7850 9250 8250 9250
Wire Wire Line
	6700 8650 6950 8650
Wire Wire Line
	6700 8750 6950 8750
Wire Wire Line
	6700 8850 6950 8850
Wire Wire Line
	6650 8950 6950 8950
Wire Wire Line
	6450 9050 6950 9050
Wire Wire Line
	6500 9150 6950 9150
Wire Wire Line
	6550 9250 6950 9250
Wire Wire Line
	6250 9350 6950 9350
Wire Wire Line
	6650 9450 6950 9450
Wire Wire Line
	6500 9550 6950 9550
Wire Wire Line
	6600 9650 6950 9650
Wire Wire Line
	6250 9750 6950 9750
Wire Wire Line
	6500 9850 6950 9850
Wire Wire Line
	6500 9950 6950 9950
$Comp
L power:Earth #PWR?
U 1 1 623A1D69
P 14500 1600
F 0 "#PWR?" H 14500 1350 50  0001 C CNN
F 1 "Earth" H 14500 1450 50  0001 C CNN
F 2 "" H 14500 1600 50  0001 C CNN
F 3 "~" H 14500 1600 50  0001 C CNN
	1    14500 1600
	1    0    0    -1  
$EndComp
Wire Wire Line
	15100 1500 14500 1500
Wire Wire Line
	14500 1500 14500 1600
Text Label 14700 1500 0    50   ~ 0
HOUSING
Wire Wire Line
	9900 3450 9700 3450
Wire Wire Line
	9900 3250 9600 3250
NoConn ~ 8300 5200
NoConn ~ 4100 3950
NoConn ~ 4100 4250
NoConn ~ 4100 4350
NoConn ~ 4100 4450
NoConn ~ 5900 4450
NoConn ~ 5900 4150
NoConn ~ 5900 4050
NoConn ~ 5900 3950
Wire Wire Line
	9500 1300 9500 1450
Wire Wire Line
	9500 1750 9500 1850
Connection ~ 9500 1850
Wire Wire Line
	9500 1850 9600 1850
Wire Wire Line
	9500 1850 9500 4600
Wire Wire Line
	11000 7550 11000 7650
Connection ~ 11000 7650
Wire Wire Line
	11000 7650 11000 7700
Wire Wire Line
	11000 8000 11000 8100
Connection ~ 11000 8100
Wire Wire Line
	11000 8100 11000 8200
Connection ~ 11000 8200
Wire Wire Line
	11000 8200 10950 8200
Wire Wire Line
	8850 9350 8850 4800
Wire Wire Line
	8850 9350 10850 9350
Wire Wire Line
	12100 8400 12100 8500
Wire Wire Line
	9550 5200 14350 5200
Wire Wire Line
	11350 8650 11350 9750
Wire Wire Line
	11100 9750 11350 9750
Wire Wire Line
	11350 8350 11350 8200
Wire Wire Line
	11000 8200 11350 8200
Connection ~ 12100 8500
Wire Wire Line
	12100 8500 12100 8600
Wire Wire Line
	10950 8500 12100 8500
Wire Wire Line
	11300 8400 11300 7650
Wire Wire Line
	11000 7650 11300 7650
Wire Wire Line
	10950 8400 11300 8400
Wire Wire Line
	9100 7050 9100 5600
Wire Wire Line
	9100 5600 8300 5600
Wire Wire Line
	9100 7050 14150 7050
Wire Wire Line
	9250 6950 9250 5500
Wire Wire Line
	9250 6950 14300 6950
Wire Wire Line
	12000 8850 12000 4000
Wire Wire Line
	11550 4000 12000 4000
Wire Wire Line
	12750 3600 12750 3350
Wire Wire Line
	12750 3600 13200 3600
Wire Wire Line
	10500 3350 12750 3350
Wire Wire Line
	12600 3800 12600 1300
Wire Wire Line
	11550 3800 12600 3800
Wire Wire Line
	12450 3700 12450 1200
Wire Wire Line
	12450 1200 15100 1200
Wire Wire Line
	11550 3700 12450 3700
Wire Wire Line
	12350 3250 12350 6650
Wire Wire Line
	12350 6650 14050 6650
Wire Wire Line
	10500 3250 12350 3250
Wire Wire Line
	12250 6750 12250 1750
Wire Wire Line
	12250 6750 15350 6750
Wire Wire Line
	12200 1750 12250 1750
Wire Wire Line
	11550 1750 11900 1750
Wire Wire Line
	11600 1550 11600 1000
Wire Wire Line
	11600 1550 11550 1550
Wire Wire Line
	11600 1000 9250 1000
Wire Wire Line
	12550 900  12550 1000
Wire Wire Line
	12550 1000 15100 1000
Wire Wire Line
	10200 900  12550 900 
Wire Wire Line
	2150 700  11750 700 
Wire Wire Line
	2150 700  2150 1000
Wire Wire Line
	11750 700  11750 4300
Wire Wire Line
	10100 800  12300 800 
Wire Wire Line
	8300 4600 9500 4600
Wire Bus Line
	6400 9650 6400 10700
Wire Bus Line
	8500 4400 8500 10700
Wire Bus Line
	1650 800  8500 800 
Wire Bus Line
	8500 800  8500 3600
Wire Bus Line
	3450 8050 3450 9450
Wire Bus Line
	8350 8050 8350 9850
Wire Bus Line
	4900 8050 4900 9250
Wire Bus Line
	6250 2400 6250 8050
$EndSCHEMATC
