EESchema Schematic File Version 4
EELAYER 30 0
EELAYER END
$Descr A3 16535 11693
encoding utf-8
Sheet 6 12
Title "Mainboard - sheet 3"
Date ""
Rev ""
Comp ""
Comment1 ""
Comment2 ""
Comment3 ""
Comment4 ""
$EndDescr
$Comp
L CRT5027:CRT5027 U50
U 1 1 622327D4
P 2100 3500
F 0 "U50" H 2300 4800 50  0000 C CNN
F 1 "CRT5027" H 2400 4700 50  0000 C CNN
F 2 "MODULE" H 2100 3500 50  0001 C CNN
F 3 "DOCUMENTATION" H 2100 3500 50  0001 C CNN
	1    2100 3500
	1    0    0    -1  
$EndComp
$Comp
L HM6116:HM6116 U51
U 1 1 6223458B
P 5150 6500
F 0 "U51" H 5150 7315 50  0000 C CNN
F 1 "HM6116" H 5150 7224 50  0000 C CNN
F 2 "MODULE" H 5150 6500 50  0001 C CNN
F 3 "DOCUMENTATION" H 5150 6500 50  0001 C CNN
	1    5150 6500
	1    0    0    -1  
$EndComp
$Comp
L HM6116:HM6116 U52
U 1 1 622350D7
P 5150 8250
F 0 "U52" H 5150 9065 50  0000 C CNN
F 1 "HM6116" H 5150 8974 50  0000 C CNN
F 2 "MODULE" H 5150 8250 50  0001 C CNN
F 3 "DOCUMENTATION" H 5150 8250 50  0001 C CNN
	1    5150 8250
	1    0    0    -1  
$EndComp
$Comp
L 74xx:74LS298 U66
U 1 1 622360F9
P 2000 6200
F 0 "U66" H 2100 6950 50  0000 C CNN
F 1 "74LS298" H 2200 6850 50  0000 C CNN
F 2 "" H 2000 6200 50  0001 C CNN
F 3 "http://www.ti.com/lit/gpn/sn74LS298" H 2000 6200 50  0001 C CNN
	1    2000 6200
	1    0    0    -1  
$EndComp
$Comp
L 74S471:74S471 U67
U 1 1 6223DAA5
P 3500 9150
F 0 "U67" H 3650 9850 50  0000 C CNN
F 1 "74S471" H 3700 9750 50  0000 C CNN
F 2 "MODULE" H 3500 9150 50  0001 C CNN
F 3 "DOCUMENTATION" H 3500 9150 50  0001 C CNN
	1    3500 9150
	1    0    0    -1  
$EndComp
$Comp
L 74xx:74LS10 U62
U 1 1 622424A8
P 3500 900
F 0 "U62" H 3500 1225 50  0000 C CNN
F 1 "74LS10" H 3500 1134 50  0000 C CNN
F 2 "" H 3500 900 50  0001 C CNN
F 3 "http://www.ti.com/lit/gpn/sn74LS10" H 3500 900 50  0001 C CNN
	1    3500 900 
	1    0    0    -1  
$EndComp
$Comp
L 74xx:74LS10 U62
U 2 1 62242E84
P 3500 1450
F 0 "U62" H 3500 1775 50  0000 C CNN
F 1 "74LS10" H 3500 1684 50  0000 C CNN
F 2 "" H 3500 1450 50  0001 C CNN
F 3 "http://www.ti.com/lit/gpn/sn74LS10" H 3500 1450 50  0001 C CNN
	2    3500 1450
	1    0    0    -1  
$EndComp
$Comp
L 74xx:74LS20 U80
U 1 1 6224475C
P 3450 2100
F 0 "U80" H 3450 2475 50  0000 C CNN
F 1 "74LS20" H 3450 2384 50  0000 C CNN
F 2 "" H 3450 2100 50  0001 C CNN
F 3 "http://www.ti.com/lit/gpn/sn74LS20" H 3450 2100 50  0001 C CNN
	1    3450 2100
	1    0    0    -1  
$EndComp
$Comp
L 74xx:74LS20 U80
U 2 1 622459FB
P 3450 2750
F 0 "U80" H 3450 3125 50  0000 C CNN
F 1 "74LS20" H 3450 3034 50  0000 C CNN
F 2 "" H 3450 2750 50  0001 C CNN
F 3 "http://www.ti.com/lit/gpn/sn74LS20" H 3450 2750 50  0001 C CNN
	2    3450 2750
	1    0    0    -1  
$EndComp
$Comp
L 74xx:74LS20 U80
U 3 1 6224788E
P 17850 10900
F 0 "U80" H 18080 10946 50  0000 L CNN
F 1 "74LS20" H 18080 10855 50  0000 L CNN
F 2 "" H 17850 10900 50  0001 C CNN
F 3 "http://www.ti.com/lit/gpn/sn74LS20" H 17850 10900 50  0001 C CNN
	3    17850 10900
	1    0    0    -1  
$EndComp
$Comp
L 74xx:74LS00 U58
U 1 1 6224BB04
P 4550 900
F 0 "U58" H 4550 1225 50  0000 C CNN
F 1 "74LS00" H 4550 1134 50  0000 C CNN
F 2 "" H 4550 900 50  0001 C CNN
F 3 "http://www.ti.com/lit/gpn/sn74ls00" H 4550 900 50  0001 C CNN
	1    4550 900 
	1    0    0    -1  
$EndComp
$Comp
L 74xx:74LS02 U59
U 3 1 6224CA24
P 4550 1450
F 0 "U59" H 4550 1775 50  0000 C CNN
F 1 "74LS02" H 4550 1684 50  0000 C CNN
F 2 "" H 4550 1450 50  0001 C CNN
F 3 "http://www.ti.com/lit/gpn/sn74ls02" H 4550 1450 50  0001 C CNN
	3    4550 1450
	1    0    0    -1  
$EndComp
$Comp
L 74xx:74LS02 U59
U 2 1 6224DD13
P 5000 2050
F 0 "U59" H 5000 2375 50  0000 C CNN
F 1 "74LS02" H 5000 2284 50  0000 C CNN
F 2 "" H 5000 2050 50  0001 C CNN
F 3 "http://www.ti.com/lit/gpn/sn74ls02" H 5000 2050 50  0001 C CNN
	2    5000 2050
	1    0    0    -1  
$EndComp
$Comp
L 74xx:74LS74 U60
U 2 1 6224FE90
P 4700 2850
F 0 "U60" H 4850 3200 50  0000 C CNN
F 1 "74LS74" H 4900 3100 50  0000 C CNN
F 2 "" H 4700 2850 50  0001 C CNN
F 3 "74xx/74hc_hct74.pdf" H 4700 2850 50  0001 C CNN
	2    4700 2850
	1    0    0    -1  
$EndComp
$Comp
L 74xx:74LS74 U60
U 1 1 62250ABB
P 4700 3850
F 0 "U60" H 4850 4200 50  0000 C CNN
F 1 "74LS74" H 4900 4100 50  0000 C CNN
F 2 "" H 4700 3850 50  0001 C CNN
F 3 "74xx/74hc_hct74.pdf" H 4700 3850 50  0001 C CNN
	1    4700 3850
	1    0    0    -1  
$EndComp
$Comp
L 74xx:74LS74 U60
U 3 1 622517AC
P 18600 10900
F 0 "U60" H 18830 10946 50  0000 L CNN
F 1 "74LS74" H 18830 10855 50  0000 L CNN
F 2 "" H 18600 10900 50  0001 C CNN
F 3 "74xx/74hc_hct74.pdf" H 18600 10900 50  0001 C CNN
	3    18600 10900
	1    0    0    -1  
$EndComp
$Comp
L 74xx:74LS00 U58
U 3 1 622524B2
P 6350 950
F 0 "U58" H 6350 725 50  0000 C CNN
F 1 "74LS00" H 6350 634 50  0000 C CNN
F 2 "" H 6350 950 50  0001 C CNN
F 3 "http://www.ti.com/lit/gpn/sn74ls00" H 6350 950 50  0001 C CNN
	3    6350 950 
	1    0    0    -1  
$EndComp
Wire Wire Line
	6050 850  6000 850 
Wire Wire Line
	6000 850  6000 950 
Wire Wire Line
	6000 1050 6050 1050
$Comp
L 74xx:74LS08 U61
U 2 1 62255F6F
P 6350 1500
F 0 "U61" H 6350 1825 50  0000 C CNN
F 1 "74LS08" H 6350 1734 50  0000 C CNN
F 2 "" H 6350 1500 50  0001 C CNN
F 3 "http://www.ti.com/lit/gpn/sn74LS08" H 6350 1500 50  0001 C CNN
	2    6350 1500
	1    0    0    1   
$EndComp
$Comp
L 74xx:74LS02 U59
U 1 1 6225810F
P 7400 1050
F 0 "U59" H 7400 1375 50  0000 C CNN
F 1 "74LS02" H 7400 1284 50  0000 C CNN
F 2 "" H 7400 1050 50  0001 C CNN
F 3 "http://www.ti.com/lit/gpn/sn74ls02" H 7400 1050 50  0001 C CNN
	1    7400 1050
	1    0    0    1   
$EndComp
$Comp
L 74xx:74LS08 U61
U 1 1 6225A78C
P 8750 1200
F 0 "U61" H 8750 1525 50  0000 C CNN
F 1 "74LS08" H 8750 1434 50  0000 C CNN
F 2 "" H 8750 1200 50  0001 C CNN
F 3 "http://www.ti.com/lit/gpn/sn74LS08" H 8750 1200 50  0001 C CNN
	1    8750 1200
	1    0    0    -1  
$EndComp
$Comp
L 74xx:74LS00 U58
U 2 1 6225DBF3
P 1150 2550
F 0 "U58" H 1150 2875 50  0000 C CNN
F 1 "74LS00" H 1150 2784 50  0000 C CNN
F 2 "" H 1150 2550 50  0001 C CNN
F 3 "http://www.ti.com/lit/gpn/sn74ls00" H 1150 2550 50  0001 C CNN
	2    1150 2550
	1    0    0    -1  
$EndComp
$Comp
L power:GND #PWR?
U 1 1 6225F1A2
P 2050 4850
F 0 "#PWR?" H 2050 4600 50  0001 C CNN
F 1 "GND" H 2055 4677 50  0000 C CNN
F 2 "" H 2050 4850 50  0001 C CNN
F 3 "" H 2050 4850 50  0001 C CNN
	1    2050 4850
	1    0    0    -1  
$EndComp
Wire Wire Line
	2050 4850 2050 4800
$Comp
L power:+5V #PWR?
U 1 1 62260822
P 2050 2150
F 0 "#PWR?" H 2050 2000 50  0001 C CNN
F 1 "+5V" H 2065 2323 50  0000 C CNN
F 2 "" H 2050 2150 50  0001 C CNN
F 3 "" H 2050 2150 50  0001 C CNN
	1    2050 2150
	1    0    0    -1  
$EndComp
Wire Wire Line
	2050 2150 2050 2200
Wire Wire Line
	850  2550 850  2650
Text GLabel 800  2550 0    50   Input ~ 0
-CCRT
Text GLabel 800  2750 0    50   Input ~ 0
-IORQ
Text Label 850  2850 0    50   ~ 0
QC
Wire Bus Line
	1100 3650 550  3650
Text Label 550  3650 0    50   ~ 0
DBUS
Entry Wire Line
	1200 2950 1100 3050
Entry Wire Line
	1200 3050 1100 3150
Entry Wire Line
	1200 3150 1100 3250
Entry Wire Line
	1200 3250 1100 3350
Entry Wire Line
	1200 3350 1100 3450
Entry Wire Line
	1200 3450 1100 3550
Entry Wire Line
	1200 3550 1100 3650
Entry Wire Line
	1200 3650 1100 3750
Wire Bus Line
	1100 3650 1100 3750
Connection ~ 1100 3650
Wire Wire Line
	1200 2950 1600 2950
Wire Wire Line
	1200 3050 1600 3050
Wire Wire Line
	1200 3150 1600 3150
Wire Wire Line
	1200 3250 1600 3250
Wire Wire Line
	1200 3350 1600 3350
Wire Wire Line
	1200 3450 1600 3450
Wire Wire Line
	1200 3550 1600 3550
Wire Wire Line
	1200 3650 1600 3650
Text Label 1250 3650 0    50   ~ 0
D0
Text Label 1250 3550 0    50   ~ 0
D1
Text Label 1250 3450 0    50   ~ 0
D2
Text Label 1250 3350 0    50   ~ 0
D3
Text Label 1250 3250 0    50   ~ 0
D4
Text Label 1250 3150 0    50   ~ 0
D5
Text Label 1250 3050 0    50   ~ 0
D6
Text Label 1250 2950 0    50   ~ 0
D7
Entry Wire Line
	1200 3750 1100 3850
Entry Wire Line
	1200 3850 1100 3950
Entry Wire Line
	1200 3950 1100 4050
Entry Wire Line
	1200 4050 1100 4150
Wire Wire Line
	1200 3750 1600 3750
Wire Wire Line
	1200 3850 1600 3850
Wire Wire Line
	1200 4050 1550 4050
Wire Wire Line
	1550 4050 1550 2550
Wire Wire Line
	1550 2550 1600 2550
Wire Wire Line
	1200 3950 1500 3950
Wire Wire Line
	1500 2450 1600 2450
Text Label 1250 3750 0    50   ~ 0
A0
Text Label 1250 3850 0    50   ~ 0
A1
Text Label 1250 3950 0    50   ~ 0
A2
Text Label 1250 4050 0    50   ~ 0
A3
Wire Wire Line
	1450 2550 1450 2650
Wire Wire Line
	1450 2650 1600 2650
Wire Wire Line
	1500 2450 1500 3950
Wire Wire Line
	850  2550 850  2450
Connection ~ 850  2550
Wire Wire Line
	800  2550 850  2550
Wire Wire Line
	800  2750 1600 2750
Wire Wire Line
	850  2850 1600 2850
$Comp
L power:+12V #PWR?
U 1 1 62290C35
P 2300 2150
F 0 "#PWR?" H 2300 2000 50  0001 C CNN
F 1 "+12V" H 2315 2323 50  0000 C CNN
F 2 "" H 2300 2150 50  0001 C CNN
F 3 "" H 2300 2150 50  0001 C CNN
	1    2300 2150
	1    0    0    -1  
$EndComp
Wire Wire Line
	2300 2150 2150 2150
Wire Wire Line
	2150 2150 2150 2200
NoConn ~ 2600 4150
NoConn ~ 2600 3150
Text Label 2650 3750 0    50   ~ 0
BLANK
Text Label 2650 3850 0    50   ~ 0
CURSOR
Text Label 2650 3950 0    50   ~ 0
HSYNC0
Text Label 2650 4050 0    50   ~ 0
VSYNC0
Wire Wire Line
	2600 4050 2950 4050
Wire Wire Line
	2600 3950 2950 3950
Wire Wire Line
	2600 3850 2950 3850
Wire Wire Line
	2600 3750 2950 3750
Entry Wire Line
	2900 4550 3000 4650
Entry Wire Line
	2900 4450 3000 4550
Entry Wire Line
	2900 4350 3000 4450
Entry Wire Line
	2900 4250 3000 4350
Wire Bus Line
	3000 4650 3250 4650
Text Label 3050 4650 0    50   ~ 0
RSB
Wire Wire Line
	2600 4550 2900 4550
Wire Wire Line
	2600 4450 2900 4450
Wire Wire Line
	2600 4350 2900 4350
Wire Wire Line
	2600 4250 2900 4250
Text Label 2650 4250 0    50   ~ 0
RS0
Text Label 2650 4350 0    50   ~ 0
RS1
Text Label 2650 4450 0    50   ~ 0
RS2
Text Label 2650 4550 0    50   ~ 0
RS3
Wire Bus Line
	2950 3650 3350 3650
Wire Bus Line
	3350 3650 3350 5150
Wire Bus Line
	3350 5150 1150 5150
Text Label 2450 5150 0    50   ~ 0
HDBUS
Entry Wire Line
	2850 2450 2950 2550
Entry Wire Line
	2850 2550 2950 2650
Entry Wire Line
	2850 2650 2950 2750
Entry Wire Line
	2850 2750 2950 2850
Entry Wire Line
	2850 2850 2950 2950
Entry Wire Line
	2850 2950 2950 3050
Entry Wire Line
	2850 3050 2950 3150
Entry Wire Line
	2850 3250 2950 3350
Entry Wire Line
	2850 3350 2950 3450
Entry Wire Line
	2850 3450 2950 3550
Entry Wire Line
	2850 3550 2950 3650
Entry Wire Line
	2850 3650 2950 3550
Wire Wire Line
	2600 3650 2850 3650
Wire Wire Line
	2600 3550 2850 3550
Wire Wire Line
	2600 3450 2850 3450
Wire Wire Line
	2600 3350 2850 3350
Wire Wire Line
	2600 3250 2850 3250
Wire Wire Line
	2600 3050 2850 3050
Wire Wire Line
	2600 2950 2850 2950
Wire Wire Line
	2600 2850 2850 2850
Wire Wire Line
	2600 2750 2850 2750
Wire Wire Line
	2600 2650 2850 2650
Wire Wire Line
	2600 2550 2850 2550
Wire Wire Line
	2600 2450 2850 2450
Text Label 2650 2450 0    50   ~ 0
H0
Text Label 2650 2550 0    50   ~ 0
H1
Text Label 2650 2650 0    50   ~ 0
H2
Text Label 2650 2750 0    50   ~ 0
H3
Text Label 2650 2850 0    50   ~ 0
H4
Text Label 2650 2950 0    50   ~ 0
H5
Text Label 2650 3050 0    50   ~ 0
H6
Text Label 2650 3250 0    50   ~ 0
DR4
Text Label 2650 3350 0    50   ~ 0
DR3
Text Label 2650 3450 0    50   ~ 0
DR2
Text Label 2650 3550 0    50   ~ 0
DR1
Text Label 2650 3650 0    50   ~ 0
DR0
$Comp
L 74xx:74LS298 U68
U 1 1 622CF07D
P 2000 8350
F 0 "U68" H 2100 9100 50  0000 C CNN
F 1 "74LS298" H 2200 9000 50  0000 C CNN
F 2 "" H 2000 8350 50  0001 C CNN
F 3 "http://www.ti.com/lit/gpn/sn74LS298" H 2000 8350 50  0001 C CNN
	1    2000 8350
	1    0    0    -1  
$EndComp
$Comp
L 74xx:74LS298 U69
U 1 1 622D094F
P 2000 10500
F 0 "U69" H 2100 11250 50  0000 C CNN
F 1 "74LS298" H 2200 11150 50  0000 C CNN
F 2 "" H 2000 10500 50  0001 C CNN
F 3 "http://www.ti.com/lit/gpn/sn74LS298" H 2000 10500 50  0001 C CNN
	1    2000 10500
	1    0    0    -1  
$EndComp
$Comp
L power:GND #PWR?
U 1 1 622D2219
P 2000 7050
F 0 "#PWR?" H 2000 6800 50  0001 C CNN
F 1 "GND" H 2005 6877 50  0000 C CNN
F 2 "" H 2000 7050 50  0001 C CNN
F 3 "" H 2000 7050 50  0001 C CNN
	1    2000 7050
	1    0    0    -1  
$EndComp
Wire Wire Line
	2000 7050 2000 7000
$Comp
L power:+5V #PWR?
U 1 1 622D4718
P 2000 5350
F 0 "#PWR?" H 2000 5200 50  0001 C CNN
F 1 "+5V" H 2015 5523 50  0000 C CNN
F 2 "" H 2000 5350 50  0001 C CNN
F 3 "" H 2000 5350 50  0001 C CNN
	1    2000 5350
	1    0    0    -1  
$EndComp
Wire Wire Line
	2000 5350 2000 5400
$Comp
L power:+5V #PWR?
U 1 1 622D6DB1
P 2000 7500
F 0 "#PWR?" H 2000 7350 50  0001 C CNN
F 1 "+5V" H 2015 7673 50  0000 C CNN
F 2 "" H 2000 7500 50  0001 C CNN
F 3 "" H 2000 7500 50  0001 C CNN
	1    2000 7500
	1    0    0    -1  
$EndComp
Wire Wire Line
	2000 7500 2000 7550
$Comp
L power:GND #PWR?
U 1 1 622D915B
P 2000 9200
F 0 "#PWR?" H 2000 8950 50  0001 C CNN
F 1 "GND" H 2005 9027 50  0000 C CNN
F 2 "" H 2000 9200 50  0001 C CNN
F 3 "" H 2000 9200 50  0001 C CNN
	1    2000 9200
	1    0    0    -1  
$EndComp
Wire Wire Line
	2000 9200 2000 9150
$Comp
L power:+5V #PWR?
U 1 1 622DC403
P 2000 9650
F 0 "#PWR?" H 2000 9500 50  0001 C CNN
F 1 "+5V" H 2015 9823 50  0000 C CNN
F 2 "" H 2000 9650 50  0001 C CNN
F 3 "" H 2000 9650 50  0001 C CNN
	1    2000 9650
	1    0    0    -1  
$EndComp
$Comp
L power:GND #PWR?
U 1 1 622DCF31
P 2000 11350
F 0 "#PWR?" H 2000 11100 50  0001 C CNN
F 1 "GND" H 2005 11177 50  0000 C CNN
F 2 "" H 2000 11350 50  0001 C CNN
F 3 "" H 2000 11350 50  0001 C CNN
	1    2000 11350
	1    0    0    -1  
$EndComp
Wire Wire Line
	2000 11350 2000 11300
Wire Wire Line
	2000 9700 2000 9650
Entry Wire Line
	1150 5700 1250 5800
Entry Wire Line
	1150 5900 1250 6000
Entry Wire Line
	1150 6100 1250 6200
Entry Wire Line
	1150 6300 1250 6400
Wire Wire Line
	1250 5800 1500 5800
Wire Wire Line
	1250 6000 1500 6000
Wire Wire Line
	1250 6200 1500 6200
Wire Wire Line
	1250 6400 1500 6400
Text Label 1300 5800 0    50   ~ 0
H0
Text Label 1300 6000 0    50   ~ 0
H1
Text Label 1300 6200 0    50   ~ 0
H2
Text Label 1300 6400 0    50   ~ 0
H3
Entry Wire Line
	1100 6000 1200 6100
Entry Wire Line
	1100 5800 1200 5900
Entry Wire Line
	1100 6200 1200 6300
Text Label 1250 5700 0    50   ~ 0
A0
Text Label 1250 5900 0    50   ~ 0
A1
Entry Wire Line
	1100 5600 1200 5700
Text Label 1250 6100 0    50   ~ 0
A2
Text Label 1250 6300 0    50   ~ 0
A3
Wire Wire Line
	1200 6300 1500 6300
Wire Wire Line
	1200 6100 1500 6100
Wire Wire Line
	1200 5900 1500 5900
Wire Wire Line
	1200 5700 1500 5700
Entry Wire Line
	1150 7850 1250 7950
Entry Wire Line
	1150 8050 1250 8150
Entry Wire Line
	1150 8250 1250 8350
Entry Wire Line
	1150 8450 1250 8550
Wire Wire Line
	1250 7950 1500 7950
Wire Wire Line
	1250 8150 1500 8150
Wire Wire Line
	1250 8350 1500 8350
Wire Wire Line
	1250 8550 1500 8550
Text Label 1300 7950 0    50   ~ 0
H4
Text Label 1300 8150 0    50   ~ 0
H5
Text Label 1300 8350 0    50   ~ 0
H6
Text Label 1300 8550 0    50   ~ 0
DR0
Entry Wire Line
	1100 8350 1200 8450
Entry Wire Line
	1100 8150 1200 8250
Entry Wire Line
	1100 7950 1200 8050
Entry Wire Line
	1100 7750 1200 7850
Wire Wire Line
	1200 7850 1500 7850
Wire Wire Line
	1200 8050 1500 8050
Wire Wire Line
	1200 8250 1500 8250
Wire Wire Line
	1200 8450 1500 8450
Text Label 1250 7850 0    50   ~ 0
A4
Text Label 1250 8050 0    50   ~ 0
A5
Text Label 1250 8250 0    50   ~ 0
A6
Text Label 1250 8450 0    50   ~ 0
A8
Entry Wire Line
	1150 10000 1250 10100
Entry Wire Line
	1150 10200 1250 10300
Entry Wire Line
	1150 10400 1250 10500
Entry Wire Line
	1150 10600 1250 10700
Wire Wire Line
	1250 10100 1500 10100
Wire Wire Line
	1250 10300 1500 10300
Wire Wire Line
	1250 10500 1500 10500
Wire Wire Line
	1250 10700 1500 10700
Text Label 1300 10100 0    50   ~ 0
DR1
Text Label 1300 10300 0    50   ~ 0
DR2
Text Label 1300 10500 0    50   ~ 0
DR3
Text Label 1300 10700 0    50   ~ 0
DR4
Entry Wire Line
	1100 9900 1200 10000
Entry Wire Line
	1100 10100 1200 10200
Entry Wire Line
	1100 10300 1200 10400
Entry Wire Line
	1100 10500 1200 10600
Wire Wire Line
	1200 10600 1500 10600
Wire Wire Line
	1200 10400 1500 10400
Wire Wire Line
	1200 10200 1500 10200
Wire Wire Line
	1200 10000 1500 10000
Text Label 1250 10000 0    50   ~ 0
A9
Text Label 1250 10200 0    50   ~ 0
A10
Text Label 1250 10400 0    50   ~ 0
A11
Text Label 1250 10600 0    50   ~ 0
A12
Wire Bus Line
	1100 10400 500  10400
Connection ~ 1100 10400
Wire Bus Line
	1100 10400 1100 10500
Text Label 550  10400 0    50   ~ 0
ABUS
Text Label 2550 5700 0    50   ~ 0
IA0
Text Label 2550 5900 0    50   ~ 0
IA1
Text Label 2550 6100 0    50   ~ 0
IA2
Text Label 2550 6300 0    50   ~ 0
IA3
Wire Wire Line
	2500 7850 2700 7850
Wire Wire Line
	2500 8050 2700 8050
Wire Wire Line
	2500 8250 2700 8250
Wire Wire Line
	2500 8450 2700 8450
Text Label 2550 7850 0    50   ~ 0
MB0
Text Label 2550 8050 0    50   ~ 0
MB1
Text Label 2550 8250 0    50   ~ 0
MB2
Text Label 2550 8450 0    50   ~ 0
MB3
Wire Wire Line
	2500 10000 2700 10000
Wire Wire Line
	2500 10200 2700 10200
Wire Wire Line
	2500 10400 2700 10400
Wire Wire Line
	2500 10600 2700 10600
Text Label 2550 10000 0    50   ~ 0
MB4
Text Label 2550 10400 0    50   ~ 0
MB6
Text Label 2550 10600 0    50   ~ 0
MB7
Entry Wire Line
	2700 7850 2800 7950
Entry Wire Line
	2700 8050 2800 8150
Entry Wire Line
	2700 8250 2800 8350
Entry Wire Line
	2700 8450 2800 8550
Entry Wire Line
	2700 10000 2800 9900
Entry Wire Line
	2700 10200 2800 10100
Text Label 2550 10200 0    50   ~ 0
MB5
Entry Wire Line
	2700 10400 2800 10300
Entry Wire Line
	2700 10600 2800 10500
Entry Wire Line
	2800 8600 2900 8700
Entry Wire Line
	2800 8700 2900 8800
Entry Wire Line
	2800 8800 2900 8900
Entry Wire Line
	2800 8900 2900 9000
Entry Wire Line
	2800 9000 2900 9100
Entry Wire Line
	2800 9300 2900 9400
Entry Wire Line
	2800 9400 2900 9500
Entry Wire Line
	2800 9500 2900 9600
Wire Wire Line
	2900 8700 3050 8700
Wire Wire Line
	2900 8800 3050 8800
Wire Wire Line
	2900 8900 3050 8900
Wire Wire Line
	2900 9000 3050 9000
Wire Wire Line
	2900 9100 3050 9100
Text Label 2900 8700 0    50   ~ 0
MB0
Text Label 2900 8800 0    50   ~ 0
MB1
Text Label 2900 8900 0    50   ~ 0
MB2
Text Label 2900 9000 0    50   ~ 0
MB3
Text Label 2900 9100 0    50   ~ 0
MB4
Wire Wire Line
	2900 9400 3050 9400
Wire Wire Line
	2900 9500 3050 9500
Wire Wire Line
	2900 9600 3050 9600
Text Label 2900 9400 0    50   ~ 0
MB5
Text Label 2900 9500 0    50   ~ 0
MB6
Text Label 2900 9600 0    50   ~ 0
MB7
$Comp
L power:GND #PWR?
U 1 1 623F4928
P 3500 9900
F 0 "#PWR?" H 3500 9650 50  0001 C CNN
F 1 "GND" H 3505 9727 50  0000 C CNN
F 2 "" H 3500 9900 50  0001 C CNN
F 3 "" H 3500 9900 50  0001 C CNN
	1    3500 9900
	1    0    0    -1  
$EndComp
$Comp
L power:+5V #PWR?
U 1 1 623F5152
P 3500 8400
F 0 "#PWR?" H 3500 8250 50  0001 C CNN
F 1 "+5V" H 3515 8573 50  0000 C CNN
F 2 "" H 3500 8400 50  0001 C CNN
F 3 "" H 3500 8400 50  0001 C CNN
	1    3500 8400
	1    0    0    -1  
$EndComp
Wire Wire Line
	3500 8400 3500 8450
Wire Wire Line
	3500 9850 3500 9900
Text Label 4000 9600 0    50   ~ 0
IA4
Text Label 4000 9500 0    50   ~ 0
IA5
Text Label 4000 9400 0    50   ~ 0
IA6
Text Label 4000 9300 0    50   ~ 0
IA7
Text Label 4000 9200 0    50   ~ 0
IA8
Text Label 4000 9100 0    50   ~ 0
IA9
Text Label 4000 9000 0    50   ~ 0
IA10
Text Label 4600 8800 0    50   ~ 0
IA8
Text Label 4600 8700 0    50   ~ 0
IA9
Text Label 4600 8600 0    50   ~ 0
IA10
Text Label 4600 8400 0    50   ~ 0
IA0
Text Label 4600 8300 0    50   ~ 0
IA1
Text Label 4600 8200 0    50   ~ 0
IA2
Text Label 4600 8100 0    50   ~ 0
IA3
Text Label 4600 8000 0    50   ~ 0
IA4
Text Label 4600 7900 0    50   ~ 0
IA5
Text Label 4600 7800 0    50   ~ 0
IA6
Text Label 4600 7700 0    50   ~ 0
IA7
Text Label 4600 7050 0    50   ~ 0
IA8
Text Label 4600 6950 0    50   ~ 0
IA9
Text Label 4600 6850 0    50   ~ 0
IA10
Text Label 4600 6650 0    50   ~ 0
IA0
Text Label 4600 6550 0    50   ~ 0
IA1
Text Label 4600 6450 0    50   ~ 0
IA2
Text Label 4600 6350 0    50   ~ 0
IA3
Text Label 4600 6250 0    50   ~ 0
IA4
Text Label 4600 6150 0    50   ~ 0
IA5
Text Label 4600 6050 0    50   ~ 0
IA6
Text Label 4600 5950 0    50   ~ 0
IA7
Entry Wire Line
	4150 9000 4250 8900
Wire Wire Line
	3950 9000 4150 9000
Entry Wire Line
	4250 9000 4150 9100
Entry Wire Line
	4250 9100 4150 9200
Entry Wire Line
	4250 9200 4150 9300
Entry Wire Line
	4250 9300 4150 9400
Entry Wire Line
	4250 9400 4150 9500
Entry Wire Line
	4250 9500 4150 9600
Wire Wire Line
	3950 9100 4150 9100
Wire Wire Line
	3950 9200 4150 9200
Wire Wire Line
	3950 9300 4150 9300
Wire Wire Line
	3950 9400 4150 9400
Wire Wire Line
	3950 9500 4150 9500
Wire Wire Line
	3950 9600 4150 9600
Entry Wire Line
	4150 6300 4250 6400
Entry Wire Line
	4150 6100 4250 6200
Entry Wire Line
	4150 5900 4250 6000
Entry Wire Line
	4150 5700 4250 5800
Wire Wire Line
	2500 6300 4150 6300
Wire Wire Line
	2500 6100 4150 6100
Wire Wire Line
	2500 5900 4150 5900
Wire Wire Line
	2500 5700 4150 5700
Entry Wire Line
	4250 6050 4350 5950
Entry Wire Line
	4250 6150 4350 6050
Entry Wire Line
	4250 6250 4350 6150
Entry Wire Line
	4250 6350 4350 6250
Entry Wire Line
	4250 6450 4350 6350
Entry Wire Line
	4250 6550 4350 6450
Entry Wire Line
	4250 6650 4350 6550
Entry Wire Line
	4250 6750 4350 6650
Entry Wire Line
	4250 6950 4350 6850
Entry Wire Line
	4250 7050 4350 6950
Entry Wire Line
	4250 7150 4350 7050
Wire Wire Line
	4350 7050 4750 7050
Wire Wire Line
	4350 6950 4750 6950
Wire Wire Line
	4350 6850 4750 6850
Wire Wire Line
	4350 6650 4750 6650
Wire Wire Line
	4350 6550 4750 6550
Wire Wire Line
	4350 6450 4750 6450
Wire Wire Line
	4350 6350 4750 6350
Wire Wire Line
	4350 6250 4750 6250
Wire Wire Line
	4350 6150 4750 6150
Wire Wire Line
	4350 6050 4750 6050
Wire Wire Line
	4350 5950 4750 5950
Entry Wire Line
	4250 8700 4350 8800
Entry Wire Line
	4250 8600 4350 8700
Entry Wire Line
	4250 8500 4350 8600
Entry Wire Line
	4250 8300 4350 8400
Entry Wire Line
	4250 8200 4350 8300
Entry Wire Line
	4250 8100 4350 8200
Entry Wire Line
	4250 8000 4350 8100
Entry Wire Line
	4250 7900 4350 8000
Entry Wire Line
	4250 7800 4350 7900
Entry Wire Line
	4250 7700 4350 7800
Entry Wire Line
	4250 7600 4350 7700
Wire Wire Line
	4350 8800 4750 8800
Wire Wire Line
	4350 8700 4750 8700
Wire Wire Line
	4350 8600 4750 8600
Wire Wire Line
	4350 8400 4750 8400
Wire Wire Line
	4350 8300 4750 8300
Wire Wire Line
	4350 8200 4750 8200
Wire Wire Line
	4350 8100 4750 8100
Wire Wire Line
	4350 8000 4750 8000
Wire Wire Line
	4350 7900 4750 7900
Wire Wire Line
	4350 7800 4750 7800
Wire Wire Line
	4350 7700 4750 7700
$Comp
L power:GND #PWR?
U 1 1 61C2AD40
P 4900 9000
F 0 "#PWR?" H 4900 8750 50  0001 C CNN
F 1 "GND" H 4905 8827 50  0000 C CNN
F 2 "" H 4900 9000 50  0001 C CNN
F 3 "" H 4900 9000 50  0001 C CNN
	1    4900 9000
	1    0    0    -1  
$EndComp
Wire Wire Line
	4750 8500 4500 8500
Wire Wire Line
	4500 8500 4500 9000
Wire Wire Line
	4500 9000 4900 9000
$Comp
L power:GND #PWR?
U 1 1 61C34033
P 4900 7250
F 0 "#PWR?" H 4900 7000 50  0001 C CNN
F 1 "GND" H 4905 7077 50  0000 C CNN
F 2 "" H 4900 7250 50  0001 C CNN
F 3 "" H 4900 7250 50  0001 C CNN
	1    4900 7250
	1    0    0    -1  
$EndComp
Wire Wire Line
	4750 6750 4500 6750
Wire Wire Line
	4500 7250 4900 7250
$Comp
L power:+5V #PWR?
U 1 1 61C3CF9F
P 5400 5750
F 0 "#PWR?" H 5400 5600 50  0001 C CNN
F 1 "+5V" H 5415 5923 50  0000 C CNN
F 2 "" H 5400 5750 50  0001 C CNN
F 3 "" H 5400 5750 50  0001 C CNN
	1    5400 5750
	1    0    0    -1  
$EndComp
Wire Wire Line
	5550 5950 5650 5950
Wire Wire Line
	5650 5950 5650 5750
Wire Wire Line
	5650 5750 5400 5750
$Comp
L power:+5V #PWR?
U 1 1 61C46BBB
P 5400 7500
F 0 "#PWR?" H 5400 7350 50  0001 C CNN
F 1 "+5V" H 5415 7673 50  0000 C CNN
F 2 "" H 5400 7500 50  0001 C CNN
F 3 "" H 5400 7500 50  0001 C CNN
	1    5400 7500
	1    0    0    -1  
$EndComp
Wire Wire Line
	5550 7700 5650 7700
Wire Wire Line
	5650 7700 5650 7500
Wire Wire Line
	5650 7500 5400 7500
$Comp
L power:GND #PWR?
U 1 1 61C572BD
P 17850 11450
F 0 "#PWR?" H 17850 11200 50  0001 C CNN
F 1 "GND" H 17855 11277 50  0000 C CNN
F 2 "" H 17850 11450 50  0001 C CNN
F 3 "" H 17850 11450 50  0001 C CNN
	1    17850 11450
	1    0    0    -1  
$EndComp
$Comp
L power:GND #PWR?
U 1 1 61C58FB0
P 18600 11450
F 0 "#PWR?" H 18600 11200 50  0001 C CNN
F 1 "GND" H 18605 11277 50  0000 C CNN
F 2 "" H 18600 11450 50  0001 C CNN
F 3 "" H 18600 11450 50  0001 C CNN
	1    18600 11450
	1    0    0    -1  
$EndComp
Wire Wire Line
	17850 11450 17850 11400
$Comp
L power:+5V #PWR?
U 1 1 61C6B3F9
P 17850 10350
F 0 "#PWR?" H 17850 10200 50  0001 C CNN
F 1 "+5V" H 17865 10523 50  0000 C CNN
F 2 "" H 17850 10350 50  0001 C CNN
F 3 "" H 17850 10350 50  0001 C CNN
	1    17850 10350
	1    0    0    -1  
$EndComp
$Comp
L power:+5V #PWR?
U 1 1 61C74D88
P 18600 10350
F 0 "#PWR?" H 18600 10200 50  0001 C CNN
F 1 "+5V" H 18615 10523 50  0000 C CNN
F 2 "" H 18600 10350 50  0001 C CNN
F 3 "" H 18600 10350 50  0001 C CNN
	1    18600 10350
	1    0    0    -1  
$EndComp
Wire Wire Line
	17850 10350 17850 10400
Wire Wire Line
	18600 10350 18600 10500
Wire Wire Line
	18600 11300 18600 11450
Wire Bus Line
	1300 1950 550  1950
Connection ~ 1300 1950
Text Label 600  1950 0    50   ~ 0
CBUS
$Comp
L power:+5V #PWR?
U 1 1 61CA5052
P 2950 750
F 0 "#PWR?" H 2950 600 50  0001 C CNN
F 1 "+5V" H 2965 923 50  0000 C CNN
F 2 "" H 2950 750 50  0001 C CNN
F 3 "" H 2950 750 50  0001 C CNN
	1    2950 750 
	1    0    0    -1  
$EndComp
Entry Wire Line
	1300 900  1400 800 
Text Label 1450 800  0    50   ~ 0
-S1
Entry Wire Line
	1300 1550 1400 1450
Text Label 1450 1450 0    50   ~ 0
RD
Wire Wire Line
	2950 750  2950 1000
Wire Wire Line
	2950 1000 3200 1000
Wire Wire Line
	3200 800  1400 800 
Wire Wire Line
	3200 1450 1400 1450
Wire Wire Line
	3200 900  3000 900 
Wire Wire Line
	3000 900  3000 1550
Wire Wire Line
	3200 1550 3000 1550
Connection ~ 3000 1550
Text Label 3000 900  0    50   ~ 0
SELECT
Text Label 3000 1550 0    50   ~ 0
SELECT
Wire Wire Line
	3200 1350 3100 1350
Wire Wire Line
	3100 1350 3100 1650
Connection ~ 3100 1650
Wire Wire Line
	3100 1650 3100 1950
Text Label 3100 1350 0    50   ~ 0
REQ
Text Label 3800 1650 0    50   ~ 0
REQ
Wire Wire Line
	3150 1950 3100 1950
Connection ~ 3100 1950
Wire Wire Line
	3100 1950 3100 2900
Wire Wire Line
	3150 2900 3100 2900
Wire Wire Line
	3000 2600 3150 2600
Wire Wire Line
	3000 1550 3000 2250
Wire Wire Line
	3000 2600 3000 3350
Wire Wire Line
	3000 3350 4350 3350
Wire Wire Line
	5100 3350 5100 2950
Wire Wire Line
	5100 2950 5000 2950
Connection ~ 3000 2600
Text Label 5000 2950 0    50   ~ 0
SELECT
Entry Wire Line
	1300 1650 1400 1550
Wire Wire Line
	1400 1550 2950 1550
Wire Wire Line
	2950 1550 2950 2050
Wire Wire Line
	2950 2050 3050 2050
Text Label 1450 1550 0    50   ~ 0
WR
Wire Wire Line
	3150 2800 3050 2800
Wire Wire Line
	3050 2800 3050 2050
Connection ~ 3050 2050
Wire Wire Line
	3050 2050 3150 2050
Wire Wire Line
	3150 2150 2900 2150
Wire Wire Line
	2900 2150 2900 1650
Text GLabel 1700 1650 0    50   Input ~ 0
CHRW
Wire Wire Line
	1700 1650 2900 1650
Text GLabel 1700 1750 0    50   Input ~ 0
ATRW
Wire Wire Line
	1700 1750 2850 1750
Wire Wire Line
	2850 1750 2850 2400
Wire Wire Line
	2850 2400 3150 2400
Wire Wire Line
	3150 2400 3150 2700
Wire Wire Line
	3150 2250 3000 2250
Connection ~ 3000 2250
Wire Wire Line
	3000 2250 3000 2600
Wire Wire Line
	3750 2750 3950 2750
Text Label 3750 2750 0    50   ~ 0
-ATRWE
Wire Wire Line
	3750 2100 4050 2100
Text Label 3750 2100 0    50   ~ 0
-CHRWE
$Comp
L Device:R_Network09 RP6
U 1 1 61DC60B3
P 12750 850
F 0 "RP6" H 13238 896 50  0000 L CNN
F 1 "1k" H 13238 805 50  0000 L CNN
F 2 "Resistor_THT:R_Array_SIP10" V 13325 850 50  0001 C CNN
F 3 "http://www.vishay.com/docs/31509/csc.pdf" H 12750 850 50  0001 C CNN
	1    12750 850 
	1    0    0    -1  
$EndComp
$Comp
L power:+5V #PWR?
U 1 1 61DE27D2
P 12200 700
F 0 "#PWR?" H 12200 550 50  0001 C CNN
F 1 "+5V" H 12215 873 50  0000 C CNN
F 2 "" H 12200 700 50  0001 C CNN
F 3 "" H 12200 700 50  0001 C CNN
	1    12200 700 
	1    0    0    -1  
$EndComp
Wire Wire Line
	3800 900  3950 900 
Wire Wire Line
	3950 900  3950 1000
Wire Wire Line
	3950 1000 4250 1000
Wire Wire Line
	3800 1450 4100 1450
Text Label 3800 1450 0    50   ~ 0
-ATRST
Wire Wire Line
	4250 1550 4100 1550
Wire Wire Line
	4100 1550 4100 1450
Text GLabel 4050 1300 0    50   Input ~ 0
DISBRD
Wire Wire Line
	4050 1300 4150 1300
Wire Wire Line
	4150 1300 4150 1350
Wire Wire Line
	4150 1350 4250 1350
Wire Wire Line
	4850 1450 5050 1450
Text Label 4900 1450 0    50   ~ 0
CHRRD
Wire Wire Line
	4850 900  5150 900 
Text Label 4900 900  0    50   ~ 0
-DMEMOE
Wire Wire Line
	3100 1650 4100 1650
Text GLabel 4650 1950 0    50   Input ~ 0
NVSEL
Text GLabel 4650 2150 0    50   Input ~ 0
-CNVD
Wire Wire Line
	4650 2150 4700 2150
Wire Wire Line
	4650 1950 4700 1950
Wire Wire Line
	5300 2050 5350 2050
Wire Wire Line
	5350 2050 5350 1650
Text Label 5000 2750 0    50   ~ 0
-SELECT
Text Label 5600 6050 0    50   ~ 0
-CHRWE
Wire Wire Line
	5550 7800 5800 7800
Text Label 5600 7800 0    50   ~ 0
-ATRWE
Entry Wire Line
	1400 1900 1300 1800
Wire Wire Line
	1400 1900 1600 1900
Text Label 1450 1900 0    50   ~ 0
ALE
Entry Wire Line
	1400 2000 1300 1900
Entry Wire Line
	1400 2100 1300 2000
Entry Wire Line
	1400 2200 1300 2100
Wire Wire Line
	1400 2000 1600 2000
Wire Wire Line
	1400 2100 1600 2100
Wire Wire Line
	1400 2200 1600 2200
Text Label 1400 2000 0    50   ~ 0
-WR
Text Label 1400 2100 0    50   ~ 0
-RD
Text Label 1400 2200 0    50   ~ 0
-MCLEAR
Wire Wire Line
	4700 2550 4700 2500
Wire Wire Line
	4700 2500 4400 2500
Text Label 4400 2500 0    50   ~ 0
-MCLEAR
Wire Wire Line
	4400 3750 4350 3750
Wire Wire Line
	4350 3750 4350 3350
Connection ~ 4350 3350
Wire Wire Line
	4350 3350 5100 3350
Wire Wire Line
	4400 3850 4100 3850
Wire Wire Line
	4100 3850 4100 1650
Connection ~ 4100 1650
Wire Wire Line
	4100 1650 5350 1650
Wire Wire Line
	4700 4150 4700 4250
Text Label 4350 4250 0    50   ~ 0
-MCLEAR
Wire Wire Line
	4350 4250 4700 4250
Wire Wire Line
	4400 2850 4200 2850
Text Label 4200 2850 0    50   ~ 0
ALE
Wire Wire Line
	4150 2750 4400 2750
Text Label 4150 2650 0    50   ~ 0
-ACCWDW
Wire Wire Line
	4150 2750 4150 2650
Text GLabel 4500 3250 0    50   Input ~ 0
-SETSEL
Wire Wire Line
	4700 3550 4700 3250
Wire Wire Line
	4500 3250 4700 3250
Connection ~ 4700 3250
Wire Wire Line
	4700 3250 4700 3150
Text GLabel 5250 3950 2    50   Input ~ 0
-ACSUCS
Wire Wire Line
	5250 3950 5000 3950
NoConn ~ 5000 3750
$Comp
L power:GND #PWR?
U 1 1 6200544C
P 6450 4300
F 0 "#PWR?" H 6450 4050 50  0001 C CNN
F 1 "GND" H 6455 4127 50  0000 C CNN
F 2 "" H 6450 4300 50  0001 C CNN
F 3 "" H 6450 4300 50  0001 C CNN
	1    6450 4300
	1    0    0    -1  
$EndComp
Wire Wire Line
	6450 4300 6450 4250
$Comp
L power:+5V #PWR?
U 1 1 62018810
P 6450 2300
F 0 "#PWR?" H 6450 2150 50  0001 C CNN
F 1 "+5V" H 6465 2473 50  0000 C CNN
F 2 "" H 6450 2300 50  0001 C CNN
F 3 "" H 6450 2300 50  0001 C CNN
	1    6450 2300
	1    0    0    -1  
$EndComp
Wire Wire Line
	6450 2300 6450 2350
Wire Wire Line
	5950 3850 5300 3850
Wire Wire Line
	5300 3850 5300 2750
Wire Wire Line
	5000 2750 5300 2750
Wire Wire Line
	5950 3950 5900 3950
Wire Wire Line
	5900 3950 5900 4300
Wire Wire Line
	5900 4300 6450 4300
Connection ~ 6450 4300
Wire Wire Line
	5350 2050 5350 2650
Wire Wire Line
	5350 2650 5950 2650
Connection ~ 5350 2050
Entry Wire Line
	5750 600  5650 500 
Text Label 5800 2950 0    50   ~ 0
WR
Text Label 5750 600  0    50   ~ 0
WR
Text Label 5800 2650 0    50   ~ 0
REQ
Wire Wire Line
	5750 2950 5950 2950
Wire Wire Line
	5750 600  5750 2950
$Comp
L 74xx:74LS158 U53
U 1 1 622548D7
P 6450 3250
F 0 "U53" H 6550 4100 50  0000 C CNN
F 1 "74LS158" H 6650 4000 50  0000 C CNN
F 2 "" H 6450 3250 50  0001 C CNN
F 3 "http://www.ti.com/lit/gpn/sn74LS158" H 6450 3250 50  0001 C CNN
	1    6450 3250
	1    0    0    -1  
$EndComp
NoConn ~ 5950 3250
NoConn ~ 5950 3550
NoConn ~ 5950 3050
NoConn ~ 5950 3650
NoConn ~ 5950 3350
Wire Wire Line
	6950 2650 7250 2650
Wire Wire Line
	6950 2950 7250 2950
Text Label 7000 2650 0    50   ~ 0
-DMCE
Text Label 7000 2950 0    50   ~ 0
-DDBWE
Wire Wire Line
	5950 2750 5800 2750
Text Label 5800 2750 0    50   ~ 0
CEDM
NoConn ~ 6950 3250
NoConn ~ 6950 3550
Entry Wire Line
	5950 600  5850 500 
Wire Wire Line
	5950 600  5950 950 
Wire Wire Line
	5950 950  6000 950 
Connection ~ 6000 950 
Wire Wire Line
	6000 950  6000 1050
Text Label 5950 650  0    50   ~ 0
-MCLEAR
Text Label 6650 950  0    50   ~ 0
MCL
Wire Wire Line
	6650 1500 6850 1500
Wire Wire Line
	6850 1500 6850 1150
Wire Wire Line
	6850 1150 7100 1150
Wire Wire Line
	6650 950  7100 950 
Wire Wire Line
	6050 1400 5850 1400
Text Label 5850 1400 0    50   ~ 0
RS0
Wire Wire Line
	7700 1050 7900 1050
Text Label 7750 1050 0    50   ~ 0
-ACWDCC
$Comp
L 74xx:74LS74 U41
U 2 1 6222F6F9
P 7900 1800
F 0 "U41" H 8050 2150 50  0000 C CNN
F 1 "74LS74" H 8100 2050 50  0000 C CNN
F 2 "" H 7900 1800 50  0001 C CNN
F 3 "74xx/74hc_hct74.pdf" H 7900 1800 50  0001 C CNN
	2    7900 1800
	1    0    0    -1  
$EndComp
$Comp
L 74xx:74LS74 U41
U 3 1 62230413
P 17100 10900
F 0 "U41" H 17330 10946 50  0000 L CNN
F 1 "74LS74" H 17330 10855 50  0000 L CNN
F 2 "" H 17100 10900 50  0001 C CNN
F 3 "74xx/74hc_hct74.pdf" H 17100 10900 50  0001 C CNN
	3    17100 10900
	1    0    0    -1  
$EndComp
$Comp
L power:GND #PWR?
U 1 1 6223192C
P 17100 11450
F 0 "#PWR?" H 17100 11200 50  0001 C CNN
F 1 "GND" H 17105 11277 50  0000 C CNN
F 2 "" H 17100 11450 50  0001 C CNN
F 3 "" H 17100 11450 50  0001 C CNN
	1    17100 11450
	1    0    0    -1  
$EndComp
$Comp
L power:+5V #PWR?
U 1 1 62231F4C
P 17100 10350
F 0 "#PWR?" H 17100 10200 50  0001 C CNN
F 1 "+5V" H 17115 10523 50  0000 C CNN
F 2 "" H 17100 10350 50  0001 C CNN
F 3 "" H 17100 10350 50  0001 C CNN
	1    17100 10350
	1    0    0    -1  
$EndComp
Wire Wire Line
	17100 10350 17100 10500
Wire Wire Line
	17100 11300 17100 11450
Wire Wire Line
	7900 1500 7900 1050
NoConn ~ 8200 1700
$Comp
L Device:R R201
U 1 1 62285F13
P 7400 1800
F 0 "R201" V 7193 1800 50  0000 C CNN
F 1 "147R" V 7284 1800 50  0000 C CNN
F 2 "" V 7330 1800 50  0001 C CNN
F 3 "~" H 7400 1800 50  0001 C CNN
	1    7400 1800
	0    1    1    0   
$EndComp
Wire Wire Line
	7550 1800 7600 1800
Wire Wire Line
	8200 1900 8300 1900
Wire Wire Line
	8300 1900 8300 1350
Wire Wire Line
	7600 1700 7550 1700
Wire Wire Line
	7550 1700 7550 1350
Wire Wire Line
	7550 1350 8300 1350
Connection ~ 8300 1350
Text GLabel 7900 2200 2    50   Input ~ 0
-DISSEL
Wire Wire Line
	7900 2200 7900 2100
Wire Wire Line
	8300 1100 8450 1100
Wire Wire Line
	8300 1100 8300 1350
Text GLabel 8450 1500 2    50   Input ~ 0
-SELDM
Wire Wire Line
	8450 1500 8450 1300
Text Label 9100 1200 0    50   ~ 0
-ACCWDW
Wire Wire Line
	9050 1200 9500 1200
$Comp
L 74xx:74LS273 U56
U 1 1 62333B79
P 8750 3300
F 0 "U56" H 8850 4050 50  0000 C CNN
F 1 "74LS273" H 8950 3950 50  0000 C CNN
F 2 "" H 8750 3300 50  0001 C CNN
F 3 "http://www.ti.com/lit/gpn/sn74LS273" H 8750 3300 50  0001 C CNN
	1    8750 3300
	1    0    0    -1  
$EndComp
$Comp
L power:GND #PWR?
U 1 1 62335C8B
P 8950 3950
F 0 "#PWR?" H 8950 3700 50  0001 C CNN
F 1 "GND" H 8955 3777 50  0000 C CNN
F 2 "" H 8950 3950 50  0001 C CNN
F 3 "" H 8950 3950 50  0001 C CNN
	1    8950 3950
	1    0    0    -1  
$EndComp
Wire Wire Line
	8750 4150 8750 4100
$Comp
L power:+5V #PWR?
U 1 1 6234C1C7
P 8500 2650
F 0 "#PWR?" H 8500 2500 50  0001 C CNN
F 1 "+5V" H 8515 2823 50  0000 C CNN
F 2 "" H 8500 2650 50  0001 C CNN
F 3 "" H 8500 2650 50  0001 C CNN
	1    8500 2650
	1    0    0    -1  
$EndComp
Wire Wire Line
	8750 2450 8750 2500
Wire Wire Line
	9250 3000 9400 3000
Wire Wire Line
	7950 3400 8250 3400
Wire Wire Line
	6850 2050 5950 2050
Wire Wire Line
	5950 2050 5950 1600
Wire Wire Line
	5950 1600 6050 1600
Wire Wire Line
	9450 3100 9450 2350
Wire Wire Line
	8000 3000 8250 3000
Wire Wire Line
	9250 3100 9450 3100
Wire Wire Line
	8250 3700 7950 3700
Text Label 7950 3700 0    50   ~ 0
CECLK
Wire Wire Line
	9250 3400 9600 3400
Text Label 9300 3400 0    50   ~ 0
DLHSY
$Comp
L 74xx:74LS08 U61
U 3 1 623EE0A6
P 7400 4350
F 0 "U61" H 7400 4675 50  0000 C CNN
F 1 "74LS08" H 7400 4584 50  0000 C CNN
F 2 "" H 7400 4350 50  0001 C CNN
F 3 "http://www.ti.com/lit/gpn/sn74LS08" H 7400 4350 50  0001 C CNN
	3    7400 4350
	1    0    0    -1  
$EndComp
$Comp
L 74xx:74LS08 U61
U 4 1 623EF59F
P 7400 5100
F 0 "U61" H 7400 5425 50  0000 C CNN
F 1 "74LS08" H 7400 5334 50  0000 C CNN
F 2 "" H 7400 5100 50  0001 C CNN
F 3 "http://www.ti.com/lit/gpn/sn74LS08" H 7400 5100 50  0001 C CNN
	4    7400 5100
	1    0    0    -1  
$EndComp
Text Label 6800 4250 0    50   ~ 0
HSYNC0
Wire Wire Line
	6800 4250 7100 4250
$Comp
L power:+5V #PWR?
U 1 1 62420ADA
P 6850 4500
F 0 "#PWR?" H 6850 4350 50  0001 C CNN
F 1 "+5V" H 6865 4673 50  0000 C CNN
F 2 "" H 6850 4500 50  0001 C CNN
F 3 "" H 6850 4500 50  0001 C CNN
	1    6850 4500
	1    0    0    -1  
$EndComp
Wire Wire Line
	6850 4500 6950 4500
Wire Wire Line
	6950 4500 6950 4450
Wire Wire Line
	6950 4450 7100 4450
Wire Wire Line
	7850 4350 7850 3100
Wire Wire Line
	7850 3100 8250 3100
Text Label 7700 4350 0    50   ~ 0
HSYNC
Text GLabel 6950 5000 0    50   Input ~ 0
-INTDIS
Wire Wire Line
	6950 5000 7100 5000
Wire Wire Line
	7100 5200 6800 5200
Text Label 6800 5200 0    50   ~ 0
VSYNC0
Text Label 7700 5100 0    50   ~ 0
VSYNC
$Comp
L 74xx:74LS38 U85
U 3 1 624A1E4B
P 8550 4450
F 0 "U85" H 8550 4775 50  0000 C CNN
F 1 "7438" H 8550 4684 50  0000 C CNN
F 2 "" H 8550 4450 50  0001 C CNN
F 3 "http://www.ti.com/lit/gpn/sn74LS38" H 8550 4450 50  0001 C CNN
	3    8550 4450
	1    0    0    -1  
$EndComp
$Comp
L Device:R R3
U 1 1 624BF110
P 8050 4550
F 0 "R3" V 7843 4550 50  0000 C CNN
F 1 "1k" V 7934 4550 50  0000 C CNN
F 2 "" V 7980 4550 50  0001 C CNN
F 3 "~" H 8050 4550 50  0001 C CNN
	1    8050 4550
	0    1    1    0   
$EndComp
Wire Wire Line
	8200 4550 8250 4550
$Comp
L power:+5V #PWR?
U 1 1 624D97C8
P 7650 4600
F 0 "#PWR?" H 7650 4450 50  0001 C CNN
F 1 "+5V" H 7665 4773 50  0000 C CNN
F 2 "" H 7650 4600 50  0001 C CNN
F 3 "" H 7650 4600 50  0001 C CNN
	1    7650 4600
	1    0    0    -1  
$EndComp
Wire Wire Line
	7900 4550 7800 4550
Wire Wire Line
	7800 4550 7800 4650
Wire Wire Line
	7800 4650 7650 4650
Wire Wire Line
	7650 4650 7650 4600
Wire Wire Line
	8850 4450 9200 4450
Text Label 8850 4450 0    50   ~ 0
-HSYNC
$Comp
L 74xx:74LS132 U74
U 3 1 6250FA89
P 8550 5000
F 0 "U74" H 8550 4683 50  0000 C CNN
F 1 "74S132" H 8550 4774 50  0000 C CNN
F 2 "" H 8550 5000 50  0001 C CNN
F 3 "http://www.ti.com/lit/gpn/sn74LS132" H 8550 5000 50  0001 C CNN
	3    8550 5000
	1    0    0    1   
$EndComp
Connection ~ 8200 4550
Wire Wire Line
	8250 4900 8200 4900
Wire Wire Line
	8200 4900 8200 4550
Wire Wire Line
	7700 5100 8150 5100
$Comp
L Diode:1N4148 CR1
U 1 1 6259DBF5
P 9100 5000
F 0 "CR1" H 9100 5217 50  0000 C CNN
F 1 "1N4148" H 9100 5126 50  0000 C CNN
F 2 "Diode_THT:D_DO-35_SOD27_P7.62mm_Horizontal" H 9100 4825 50  0001 C CNN
F 3 "https://assets.nexperia.com/documents/data-sheet/1N4148_1N4448.pdf" H 9100 5000 50  0001 C CNN
	1    9100 5000
	1    0    0    -1  
$EndComp
Wire Wire Line
	8950 5000 8850 5000
Text Label 9250 5000 0    50   ~ 0
-VSYNC
Wire Wire Line
	9250 5000 9550 5000
Text GLabel 7900 4800 0    50   Input ~ 0
VSYNC
Connection ~ 8150 5100
Wire Wire Line
	8150 5100 8250 5100
$Comp
L 74xx:74LS86 U76
U 3 1 6260C011
P 6900 1800
F 0 "U76" H 6900 2125 50  0000 C CNN
F 1 "74S86" H 6900 2034 50  0000 C CNN
F 2 "" H 6900 1800 50  0001 C CNN
F 3 "74xx/74ls86.pdf" H 6900 1800 50  0001 C CNN
	3    6900 1800
	1    0    0    -1  
$EndComp
Wire Wire Line
	7200 1800 7250 1800
Wire Wire Line
	6600 1900 6350 1900
Text Label 6350 1900 0    50   ~ 0
BLANK2
Wire Wire Line
	6600 1700 6550 1700
Wire Wire Line
	6550 1800 6000 1800
Wire Wire Line
	6550 1700 6550 1800
Text Label 6000 1800 0    50   ~ 0
DENSY
Text Label 9500 2900 0    50   ~ 0
BLANK2
Wire Wire Line
	9250 2900 9800 2900
Wire Wire Line
	9250 2800 9350 2800
Text Label 9500 2800 0    50   ~ 0
BLANK1
Wire Wire Line
	9350 2800 9350 2400
Wire Wire Line
	8050 2900 8250 2900
Connection ~ 9350 2800
Wire Wire Line
	9350 2800 9800 2800
Wire Wire Line
	8250 2800 7650 2800
Text Label 7650 2800 0    50   ~ 0
BLANK
Wire Wire Line
	8250 3800 7900 3800
Text Label 7900 3800 0    50   ~ 0
-MCLEAR
$Comp
L Device:R_Network09 RP7
U 1 1 627175A1
P 6350 5550
F 0 "RP7" H 6838 5596 50  0000 L CNN
F 1 "10k" H 6838 5505 50  0000 L CNN
F 2 "Resistor_THT:R_Array_SIP10" V 6925 5550 50  0001 C CNN
F 3 "http://www.vishay.com/docs/31509/csc.pdf" H 6350 5550 50  0001 C CNN
	1    6350 5550
	1    0    0    -1  
$EndComp
$Comp
L power:+5V #PWR?
U 1 1 62719C2D
P 6200 5350
F 0 "#PWR?" H 6200 5200 50  0001 C CNN
F 1 "+5V" H 6215 5523 50  0000 C CNN
F 2 "" H 6200 5350 50  0001 C CNN
F 3 "" H 6200 5350 50  0001 C CNN
	1    6200 5350
	1    0    0    -1  
$EndComp
Text Label 5600 6250 0    50   ~ 0
-DMCE
Text Label 5600 6150 0    50   ~ 0
-DMEMOE
Wire Wire Line
	5550 6150 5950 6150
Wire Wire Line
	5550 6250 5950 6250
Wire Wire Line
	5550 6050 5950 6050
Wire Wire Line
	5550 7900 5950 7900
Wire Wire Line
	5550 8000 5950 8000
Text Label 5600 7900 0    50   ~ 0
-DMEMOE
Text Label 5600 8000 0    50   ~ 0
-DMCE
Entry Wire Line
	5950 6350 6050 6250
Entry Wire Line
	5950 6450 6050 6350
Entry Wire Line
	5950 6550 6050 6450
Entry Wire Line
	5950 6650 6050 6550
Entry Wire Line
	5950 6750 6050 6650
Entry Wire Line
	5950 6850 6050 6750
Entry Wire Line
	5950 6950 6050 6850
Entry Wire Line
	5950 7050 6050 6950
Wire Wire Line
	5550 7050 5950 7050
Wire Wire Line
	5550 6950 5950 6950
Wire Wire Line
	5550 6850 5950 6850
Wire Wire Line
	5550 6750 5950 6750
Wire Wire Line
	5550 6650 5950 6650
Wire Wire Line
	5550 6550 5950 6550
Wire Wire Line
	5550 6450 5950 6450
Wire Wire Line
	5550 6350 5950 6350
Text Label 5600 6350 0    50   ~ 0
CB7
Text Label 5600 6450 0    50   ~ 0
CB6
Text Label 5600 6550 0    50   ~ 0
CB5
Text Label 5600 6650 0    50   ~ 0
CB4
Text Label 5600 6750 0    50   ~ 0
CB3
Text Label 5600 6850 0    50   ~ 0
CB2
Text Label 5600 6950 0    50   ~ 0
CB1
Text Label 5600 7050 0    50   ~ 0
CB0
Entry Wire Line
	6050 6050 5950 5950
Entry Wire Line
	6150 6050 6050 5950
Entry Wire Line
	6250 6050 6150 5950
Entry Wire Line
	6350 6050 6250 5950
Entry Wire Line
	6450 6050 6350 5950
Entry Wire Line
	6550 6050 6450 5950
Entry Wire Line
	6650 6050 6550 5950
Entry Wire Line
	6750 6050 6650 5950
Text Label 5950 5950 1    50   ~ 0
CB0
Text Label 6050 5950 1    50   ~ 0
CB1
Text Label 6150 5950 1    50   ~ 0
CB2
Text Label 6250 5950 1    50   ~ 0
CB3
Text Label 6350 5950 1    50   ~ 0
CB4
Text Label 6450 5950 1    50   ~ 0
CB5
Text Label 6550 5950 1    50   ~ 0
CB6
Text Label 6650 5950 1    50   ~ 0
CB7
Text Label 6850 6050 0    50   ~ 0
CBBUS
$Comp
L 74xx:74LS243 U70
U 1 1 62AB4EDE
P 6800 7300
F 0 "U70" H 6900 7850 50  0000 C CNN
F 1 "74LS243" H 7000 7750 50  0000 C CNN
F 2 "" H 6800 7300 50  0001 C CNN
F 3 "http://www.ti.com/lit/gpn/sn74LS243" H 6800 7300 50  0001 C CNN
	1    6800 7300
	1    0    0    -1  
$EndComp
$Comp
L 74xx:74LS243 U84
U 1 1 62AB5822
P 6800 8650
F 0 "U84" H 6900 9200 50  0000 C CNN
F 1 "74LS243" H 7000 9100 50  0000 C CNN
F 2 "" H 6800 8650 50  0001 C CNN
F 3 "http://www.ti.com/lit/gpn/sn74LS243" H 6800 8650 50  0001 C CNN
	1    6800 8650
	1    0    0    -1  
$EndComp
$Comp
L power:GND #PWR?
U 1 1 62AB65CE
P 7000 9100
F 0 "#PWR?" H 7000 8850 50  0001 C CNN
F 1 "GND" H 7005 8927 50  0000 C CNN
F 2 "" H 7000 9100 50  0001 C CNN
F 3 "" H 7000 9100 50  0001 C CNN
	1    7000 9100
	1    0    0    -1  
$EndComp
$Comp
L power:+5V #PWR?
U 1 1 62AD8859
P 6550 8200
F 0 "#PWR?" H 6550 8050 50  0001 C CNN
F 1 "+5V" H 6565 8373 50  0000 C CNN
F 2 "" H 6550 8200 50  0001 C CNN
F 3 "" H 6550 8200 50  0001 C CNN
	1    6550 8200
	1    0    0    -1  
$EndComp
Wire Wire Line
	6800 8050 6800 8000
$Comp
L power:GND #PWR?
U 1 1 62AFB6E5
P 7000 7750
F 0 "#PWR?" H 7000 7500 50  0001 C CNN
F 1 "GND" H 7005 7577 50  0000 C CNN
F 2 "" H 7000 7750 50  0001 C CNN
F 3 "" H 7000 7750 50  0001 C CNN
	1    7000 7750
	1    0    0    -1  
$EndComp
Wire Wire Line
	6800 7950 6800 7900
$Comp
L power:+5V #PWR?
U 1 1 62B1DC84
P 6600 6850
F 0 "#PWR?" H 6600 6700 50  0001 C CNN
F 1 "+5V" H 6615 7023 50  0000 C CNN
F 2 "" H 6600 6850 50  0001 C CNN
F 3 "" H 6600 6850 50  0001 C CNN
	1    6600 6850
	1    0    0    -1  
$EndComp
Text Label 6150 7000 0    50   ~ 0
DB0
Text Label 6150 7100 0    50   ~ 0
DB1
Text Label 6150 7200 0    50   ~ 0
DB2
Text Label 6150 7300 0    50   ~ 0
DB3
Wire Wire Line
	6300 7000 6150 7000
Wire Wire Line
	6300 7100 6150 7100
Wire Wire Line
	6300 7200 6150 7200
Wire Wire Line
	6300 7300 6150 7300
Entry Wire Line
	6050 7100 6150 7000
Entry Wire Line
	6050 7200 6150 7100
Entry Wire Line
	6050 7300 6150 7200
Entry Wire Line
	6050 7400 6150 7300
Entry Wire Line
	6050 8450 6150 8350
Text Label 5500 9350 0    50   ~ 0
DBBUS
Entry Wire Line
	6050 8550 6150 8450
Entry Wire Line
	6050 8650 6150 8550
Entry Wire Line
	6050 8750 6150 8650
Wire Wire Line
	6150 8350 6300 8350
Wire Wire Line
	6150 8450 6300 8450
Wire Wire Line
	6150 8550 6300 8550
Wire Wire Line
	6150 8650 6300 8650
Text Label 6150 8350 0    50   ~ 0
DB4
Text Label 6150 8450 0    50   ~ 0
DB5
Text Label 6150 8550 0    50   ~ 0
DB6
Text Label 6150 8650 0    50   ~ 0
DB7
Text Label 7300 7000 0    50   ~ 0
CB0
Text Label 7300 7100 0    50   ~ 0
CB1
Text Label 7300 7200 0    50   ~ 0
CB2
Text Label 7300 7300 0    50   ~ 0
CB3
Wire Wire Line
	7300 7000 7450 7000
Wire Wire Line
	7300 7100 7450 7100
Wire Wire Line
	7300 7200 7450 7200
Wire Wire Line
	7300 7300 7450 7300
Entry Wire Line
	7450 7000 7550 7100
Entry Wire Line
	7450 7100 7550 7200
Entry Wire Line
	7450 7200 7550 7300
Entry Wire Line
	7450 7300 7550 7400
Entry Wire Line
	7450 8350 7550 8250
Entry Wire Line
	7450 8450 7550 8350
Entry Wire Line
	7450 8550 7550 8450
Entry Wire Line
	7450 8650 7550 8550
Wire Wire Line
	7300 8350 7450 8350
Wire Wire Line
	7300 8450 7450 8450
Wire Wire Line
	7300 8550 7450 8550
Wire Wire Line
	7300 8650 7450 8650
Text Label 7300 8350 0    50   ~ 0
CB4
Text Label 7300 8450 0    50   ~ 0
CB5
Text Label 7300 8550 0    50   ~ 0
CB6
Text Label 7300 8650 0    50   ~ 0
CB7
Wire Wire Line
	6300 8850 6100 8850
Text Label 6100 8850 0    50   ~ 0
-DDBWE
Wire Wire Line
	6300 8950 6100 8950
Text Label 6100 8950 0    50   ~ 0
CHRRD
Wire Wire Line
	6300 7600 6100 7600
Wire Wire Line
	6100 7500 6300 7500
Text Label 6100 7600 0    50   ~ 0
CHRRD
Text Label 6100 7500 0    50   ~ 0
-DDBWE
$Comp
L 74xx:74LS173 U71
U 1 1 630D1FEE
P 8500 6500
F 0 "U71" H 8600 7350 50  0000 C CNN
F 1 "74LS173" H 8700 7250 50  0000 C CNN
F 2 "" H 8500 6500 50  0001 C CNN
F 3 "http://www.ti.com/lit/gpn/sn74LS173" H 8500 6500 50  0001 C CNN
	1    8500 6500
	1    0    0    -1  
$EndComp
$Comp
L 74xx:74LS173 U72
U 1 1 63109A59
P 8500 8350
F 0 "U72" H 8400 9200 50  0000 C CNN
F 1 "74LS173" H 8300 9100 50  0000 C CNN
F 2 "" H 8500 8350 50  0001 C CNN
F 3 "http://www.ti.com/lit/gpn/sn74LS173" H 8500 8350 50  0001 C CNN
	1    8500 8350
	-1   0    0    -1  
$EndComp
Wire Wire Line
	5550 8800 5750 8800
Wire Wire Line
	5550 8700 5750 8700
Wire Wire Line
	5550 8600 5750 8600
Wire Wire Line
	5550 8500 5750 8500
Text Label 5550 8500 0    50   ~ 0
AB3
Text Label 5550 8600 0    50   ~ 0
AB2
Text Label 5550 8700 0    50   ~ 0
AB1
Text Label 5550 8800 0    50   ~ 0
AB0
Entry Wire Line
	5750 8500 5850 8600
Entry Wire Line
	5750 8600 5850 8700
Entry Wire Line
	5750 8700 5850 8800
Entry Wire Line
	5750 8800 5850 8900
Text Label 7850 9400 0    50   ~ 0
ABBUS
Text Label 9000 5900 0    50   ~ 0
AB0
Wire Wire Line
	9000 5900 9150 5900
Wire Wire Line
	9000 6000 9150 6000
Wire Wire Line
	9000 6100 9150 6100
Wire Wire Line
	9000 6200 9150 6200
Text Label 9000 6000 0    50   ~ 0
AB1
Text Label 9000 6100 0    50   ~ 0
AB2
Text Label 9000 6200 0    50   ~ 0
AB3
Entry Wire Line
	9150 5900 9250 6000
Entry Wire Line
	9150 6000 9250 6100
Entry Wire Line
	9150 6100 9250 6200
Entry Wire Line
	9150 6200 9250 6300
Text Label 9000 7750 0    50   ~ 0
AB0
Text Label 9000 7850 0    50   ~ 0
AB1
Text Label 9000 7950 0    50   ~ 0
AB2
Text Label 9000 8050 0    50   ~ 0
AB3
Wire Wire Line
	9000 7750 9150 7750
Entry Wire Line
	9150 7750 9250 7850
Entry Wire Line
	9150 7850 9250 7950
Entry Wire Line
	9150 7950 9250 8050
Entry Wire Line
	9150 8050 9250 8150
Wire Wire Line
	9150 8050 9000 8050
Wire Wire Line
	9000 7950 9150 7950
Wire Wire Line
	9150 7850 9000 7850
Text Label 7850 6000 0    50   ~ 0
DB1
Text Label 7850 6100 0    50   ~ 0
DB2
Text Label 7850 6200 0    50   ~ 0
DB3
Wire Wire Line
	7850 5900 8000 5900
Wire Wire Line
	7850 6000 8000 6000
Wire Wire Line
	7850 6100 8000 6100
Wire Wire Line
	7850 6200 8000 6200
Entry Wire Line
	7850 5900 7750 6000
Text Label 7850 5900 0    50   ~ 0
DB0
Entry Wire Line
	7750 6100 7850 6000
Entry Wire Line
	7750 6200 7850 6100
Entry Wire Line
	7750 6300 7850 6200
Text Label 7850 7750 0    50   ~ 0
DB0
Text Label 7850 7850 0    50   ~ 0
DB1
Text Label 7850 7950 0    50   ~ 0
DB2
Text Label 7850 8050 0    50   ~ 0
DB3
Entry Wire Line
	7750 7850 7850 7750
Wire Wire Line
	7850 7750 8000 7750
Wire Wire Line
	8000 7850 7850 7850
Wire Wire Line
	7850 7950 8000 7950
Wire Wire Line
	7850 8050 8000 8050
Entry Wire Line
	7750 7950 7850 7850
Entry Wire Line
	7750 8050 7850 7950
Entry Wire Line
	7750 8150 7850 8050
$Comp
L power:GND #PWR?
U 1 1 636D56A0
P 8250 9100
F 0 "#PWR?" H 8250 8850 50  0001 C CNN
F 1 "GND" H 8255 8927 50  0000 C CNN
F 2 "" H 8250 9100 50  0001 C CNN
F 3 "" H 8250 9100 50  0001 C CNN
	1    8250 9100
	1    0    0    -1  
$EndComp
$Comp
L power:+5V #PWR?
U 1 1 636D5B06
P 8250 7600
F 0 "#PWR?" H 8250 7450 50  0001 C CNN
F 1 "+5V" H 8265 7773 50  0000 C CNN
F 2 "" H 8250 7600 50  0001 C CNN
F 3 "" H 8250 7600 50  0001 C CNN
	1    8250 7600
	1    0    0    -1  
$EndComp
Wire Wire Line
	8400 7450 8500 7450
$Comp
L power:GND #PWR?
U 1 1 6372F43D
P 8700 7250
F 0 "#PWR?" H 8700 7000 50  0001 C CNN
F 1 "GND" H 8705 7077 50  0000 C CNN
F 2 "" H 8700 7250 50  0001 C CNN
F 3 "" H 8700 7250 50  0001 C CNN
	1    8700 7250
	1    0    0    -1  
$EndComp
Wire Wire Line
	8500 7400 8550 7400
$Comp
L power:+5V #PWR?
U 1 1 6375C768
P 8250 5750
F 0 "#PWR?" H 8250 5600 50  0001 C CNN
F 1 "+5V" H 8265 5923 50  0000 C CNN
F 2 "" H 8250 5750 50  0001 C CNN
F 3 "" H 8250 5750 50  0001 C CNN
	1    8250 5750
	1    0    0    -1  
$EndComp
Wire Wire Line
	8400 5600 8500 5600
$Comp
L Device:R R16
U 1 1 637B8881
P 9550 5900
F 0 "R16" H 9481 5946 50  0000 R CNN
F 1 "10k" H 9481 5855 50  0000 R CNN
F 2 "" V 9480 5900 50  0001 C CNN
F 3 "~" H 9550 5900 50  0001 C CNN
	1    9550 5900
	1    0    0    -1  
$EndComp
$Comp
L Device:R R17
U 1 1 637B8E2E
P 9700 6000
F 0 "R17" H 9770 6046 50  0000 L CNN
F 1 "10k" H 9770 5955 50  0000 L CNN
F 2 "" V 9630 6000 50  0001 C CNN
F 3 "~" H 9700 6000 50  0001 C CNN
	1    9700 6000
	1    0    0    -1  
$EndComp
$Comp
L Device:R R22
U 1 1 637B954E
P 9950 6100
F 0 "R22" H 10020 6146 50  0000 L CNN
F 1 "10k" H 10020 6055 50  0000 L CNN
F 2 "" V 9880 6100 50  0001 C CNN
F 3 "~" H 9950 6100 50  0001 C CNN
	1    9950 6100
	1    0    0    -1  
$EndComp
$Comp
L power:+5V #PWR?
U 1 1 637B9C8C
P 9550 5600
F 0 "#PWR?" H 9550 5450 50  0001 C CNN
F 1 "+5V" H 9565 5773 50  0000 C CNN
F 2 "" H 9550 5600 50  0001 C CNN
F 3 "" H 9550 5600 50  0001 C CNN
	1    9550 5600
	1    0    0    -1  
$EndComp
Entry Wire Line
	9250 6200 9350 6100
Text Label 9350 6100 0    50   ~ 0
AB1
Wire Wire Line
	9350 6100 9550 6100
Wire Wire Line
	9550 6100 9550 6050
Wire Wire Line
	9550 5750 9550 5700
Text Label 9350 6200 0    50   ~ 0
AB2
Entry Wire Line
	9250 6300 9350 6200
Wire Wire Line
	9350 6200 9700 6200
Wire Wire Line
	9700 6150 9700 6200
Wire Wire Line
	9700 5850 9700 5700
Connection ~ 9700 5700
Text Label 9350 6300 0    50   ~ 0
AB3
Entry Wire Line
	9250 6400 9350 6300
Wire Wire Line
	9350 6300 9950 6300
Wire Wire Line
	9950 6250 9950 6300
Wire Wire Line
	9950 5700 9950 5950
Wire Wire Line
	9700 5700 9950 5700
Wire Wire Line
	9550 5700 9550 5600
Connection ~ 9550 5700
Wire Wire Line
	9550 5700 9700 5700
Wire Wire Line
	8000 7100 7800 7100
Text Label 7800 7100 0    50   ~ 0
MCL
Wire Wire Line
	9000 8950 9200 8950
Text Label 9000 8950 0    50   ~ 0
MCL
Wire Wire Line
	9000 8750 9200 8750
Text Label 9000 8750 0    50   ~ 0
-ATRST
Wire Wire Line
	9000 8550 9150 8550
Wire Wire Line
	9150 8550 9150 8650
Wire Wire Line
	9150 9250 8500 9250
Connection ~ 8500 9250
Wire Wire Line
	9000 8650 9150 8650
Connection ~ 9150 8650
Wire Wire Line
	9150 8650 9150 9250
Wire Wire Line
	9000 8250 9200 8250
Text Label 9000 8250 0    50   ~ 0
-RD
Wire Wire Line
	9000 8350 9200 8350
Text Label 9000 8350 0    50   ~ 0
-ATRTE
Wire Wire Line
	8000 6700 7950 6700
Text Label 7600 6700 0    50   ~ 0
-ATRTE
Wire Wire Line
	8000 6800 7950 6800
Wire Wire Line
	7950 6800 7950 6700
Connection ~ 7950 6700
Wire Wire Line
	7950 6700 7600 6700
Wire Wire Line
	8000 6900 7800 6900
Text Label 7800 6900 0    50   ~ 0
-WR
Wire Wire Line
	8000 6400 7950 6400
Text Label 7600 6400 0    50   ~ 0
-DDBWE
Wire Wire Line
	8000 6500 7950 6500
Wire Wire Line
	7950 6500 7950 6400
Connection ~ 7950 6400
Wire Wire Line
	7950 6400 7600 6400
Text Notes 8350 6650 0    50   ~ 0
write latch
Text Notes 8250 8500 0    50   ~ 0
read latch
$Comp
L 74xx:74LS132 U74
U 1 1 61A07CC9
P 10350 1250
F 0 "U74" H 10350 1575 50  0000 C CNN
F 1 "74S132" H 10350 1484 50  0000 C CNN
F 2 "" H 10350 1250 50  0001 C CNN
F 3 "http://www.ti.com/lit/gpn/sn74LS132" H 10350 1250 50  0001 C CNN
	1    10350 1250
	1    0    0    -1  
$EndComp
$Comp
L 74xx:74LS132 U74
U 2 1 61A0AE3B
P 11150 1150
F 0 "U74" H 11150 1475 50  0000 C CNN
F 1 "74S132" H 11150 1384 50  0000 C CNN
F 2 "" H 11150 1150 50  0001 C CNN
F 3 "http://www.ti.com/lit/gpn/sn74LS132" H 11150 1150 50  0001 C CNN
	2    11150 1150
	1    0    0    -1  
$EndComp
Wire Wire Line
	12200 700  12300 700 
Wire Wire Line
	12300 700  12300 650 
Wire Wire Line
	12300 650  12350 650 
Wire Wire Line
	12450 1050 12450 1150
Wire Wire Line
	12450 1150 12050 1150
Wire Wire Line
	10000 1150 10050 1150
Wire Wire Line
	10650 1250 10750 1250
Wire Wire Line
	12550 1050 12550 1200
Wire Wire Line
	12550 1200 12000 1200
Wire Wire Line
	12000 1200 12000 550 
Wire Wire Line
	4150 550  4150 800 
Wire Wire Line
	4150 800  4250 800 
Wire Wire Line
	4150 550  12000 550 
Wire Wire Line
	10750 1050 10850 1050
$Comp
L Device:C C2
U 1 1 61B8C093
P 10000 2200
F 0 "C2" H 10115 2246 50  0000 L CNN
F 1 "100 pF" H 10115 2155 50  0000 L CNN
F 2 "" H 10038 2050 50  0001 C CNN
F 3 "~" H 10000 2200 50  0001 C CNN
	1    10000 2200
	1    0    0    -1  
$EndComp
$Comp
L power:GND #PWR?
U 1 1 61B8D8AB
P 10000 2400
F 0 "#PWR?" H 10000 2150 50  0001 C CNN
F 1 "GND" H 10005 2227 50  0000 C CNN
F 2 "" H 10000 2400 50  0001 C CNN
F 3 "" H 10000 2400 50  0001 C CNN
	1    10000 2400
	1    0    0    -1  
$EndComp
Wire Wire Line
	10000 2400 10000 2350
$Comp
L Device:R R2
U 1 1 61BC5F35
P 10250 2050
F 0 "R2" V 10043 2050 50  0000 C CNN
F 1 "390R" V 10134 2050 50  0000 C CNN
F 2 "" V 10180 2050 50  0001 C CNN
F 3 "~" H 10250 2050 50  0001 C CNN
	1    10250 2050
	0    1    1    0   
$EndComp
Wire Wire Line
	10100 2050 10000 2050
$Comp
L Device:Crystal_Small X2
U 1 1 61BFEEB9
P 10250 1700
F 0 "X2" H 10250 1925 50  0000 C CNN
F 1 "20.2608 MHz" H 10250 1834 50  0000 C CNN
F 2 "" H 10250 1700 50  0001 C CNN
F 3 "~" H 10250 1700 50  0001 C CNN
	1    10250 1700
	1    0    0    -1  
$EndComp
Wire Wire Line
	10750 1250 10750 1700
Wire Wire Line
	10750 2050 10400 2050
Connection ~ 10750 1250
Wire Wire Line
	10750 1250 10850 1250
Wire Wire Line
	10350 1700 10750 1700
Connection ~ 10750 1700
Wire Wire Line
	10750 1700 10750 2050
Wire Wire Line
	10000 2050 10000 1700
Wire Wire Line
	10000 1350 10050 1350
Connection ~ 10000 2050
Wire Wire Line
	10150 1700 10000 1700
Connection ~ 10000 1700
Wire Wire Line
	10000 1700 10000 1350
$Comp
L 74xx:74LS86 U76
U 4 1 61D1A070
P 11900 1650
F 0 "U76" H 11900 1333 50  0000 C CNN
F 1 "74S86" H 11900 1424 50  0000 C CNN
F 2 "" H 11900 1650 50  0001 C CNN
F 3 "74xx/74ls86.pdf" H 11900 1650 50  0001 C CNN
	4    11900 1650
	1    0    0    1   
$EndComp
$Comp
L 74xx:74LS163 U73
U 1 1 61D8E3C9
P 11750 2750
F 0 "U73" H 11900 3500 50  0000 C CNN
F 1 "74S163" H 11950 3400 50  0000 C CNN
F 2 "" H 11750 2750 50  0001 C CNN
F 3 "http://www.ti.com/lit/gpn/sn74LS163" H 11750 2750 50  0001 C CNN
	1    11750 2750
	1    0    0    -1  
$EndComp
$Comp
L 74xx:74LS74 U75
U 1 1 61D9118A
P 12900 2250
F 0 "U75" H 13050 2600 50  0000 C CNN
F 1 "74S74" H 13050 2500 50  0000 C CNN
F 2 "" H 12900 2250 50  0001 C CNN
F 3 "74xx/74hc_hct74.pdf" H 12900 2250 50  0001 C CNN
	1    12900 2250
	1    0    0    -1  
$EndComp
$Comp
L 74xx:74LS02 U54
U 1 1 61D92E4C
P 13900 2250
F 0 "U54" H 13900 2575 50  0000 C CNN
F 1 "74S02" H 13900 2484 50  0000 C CNN
F 2 "" H 13900 2250 50  0001 C CNN
F 3 "http://www.ti.com/lit/gpn/sn74ls02" H 13900 2250 50  0001 C CNN
	1    13900 2250
	1    0    0    -1  
$EndComp
$Comp
L 74xx:74LS02 U54
U 4 1 61D94EA9
P 11450 4750
F 0 "U54" H 11450 5075 50  0000 C CNN
F 1 "74S02" H 11450 4984 50  0000 C CNN
F 2 "" H 11450 4750 50  0001 C CNN
F 3 "http://www.ti.com/lit/gpn/sn74ls02" H 11450 4750 50  0001 C CNN
	4    11450 4750
	1    0    0    -1  
$EndComp
Wire Wire Line
	11150 4850 11100 4850
Wire Wire Line
	11100 4850 11100 4750
Wire Wire Line
	11100 4650 11150 4650
$Comp
L 74xx:74LS374 U78
U 1 1 61DD5C2D
P 12450 4550
F 0 "U78" H 12600 5300 50  0000 C CNN
F 1 "74S374" H 12650 5200 50  0000 C CNN
F 2 "" H 12450 4550 50  0001 C CNN
F 3 "http://www.ti.com/lit/gpn/sn74LS374" H 12450 4550 50  0001 C CNN
	1    12450 4550
	1    0    0    -1  
$EndComp
$Comp
L 74xx:74LS08 U86
U 2 1 61DD8C89
P 13650 2900
F 0 "U86" H 13650 3225 50  0000 C CNN
F 1 "74S08" H 13650 3134 50  0000 C CNN
F 2 "" H 13650 2900 50  0001 C CNN
F 3 "http://www.ti.com/lit/gpn/sn74LS08" H 13650 2900 50  0001 C CNN
	2    13650 2900
	1    0    0    -1  
$EndComp
$Comp
L 74xx:74LS74 U79
U 2 1 61DDBFFA
P 13600 3550
F 0 "U79" H 13750 3900 50  0000 C CNN
F 1 "74S74" H 13750 3800 50  0000 C CNN
F 2 "" H 13600 3550 50  0001 C CNN
F 3 "74xx/74hc_hct74.pdf" H 13600 3550 50  0001 C CNN
	2    13600 3550
	1    0    0    -1  
$EndComp
$Comp
L 74xx:74LS157 U87
U 1 1 61DDE023
P 14800 3400
F 0 "U87" H 14950 4250 50  0000 C CNN
F 1 "74S157" H 15000 4150 50  0000 C CNN
F 2 "" H 14800 3400 50  0001 C CNN
F 3 "http://www.ti.com/lit/gpn/sn74LS157" H 14800 3400 50  0001 C CNN
	1    14800 3400
	1    0    0    -1  
$EndComp
Wire Wire Line
	12050 600  10000 600 
Wire Wire Line
	12050 600  12050 1150
Wire Wire Line
	10000 600  10000 1150
Wire Wire Line
	11950 650  10750 650 
Wire Wire Line
	11950 650  11950 1250
Wire Wire Line
	10750 650  10750 1050
Wire Wire Line
	11600 1550 11550 1550
Wire Wire Line
	11550 1550 11550 1250
Wire Wire Line
	11550 1250 11950 1250
Connection ~ 11950 1250
Wire Wire Line
	11450 1150 11500 1150
Wire Wire Line
	11500 1150 11500 1750
Wire Wire Line
	11600 1750 11500 1750
Connection ~ 11500 1750
Wire Wire Line
	12200 1650 13450 1650
Text GLabel 15300 1650 2    50   Input ~ 0
CRTCLK
Text Label 12250 1650 0    50   ~ 0
CRTCLK
$Comp
L power:GND #PWR?
U 1 1 61F81D09
P 11950 3400
F 0 "#PWR?" H 11950 3150 50  0001 C CNN
F 1 "GND" H 11955 3227 50  0000 C CNN
F 2 "" H 11950 3400 50  0001 C CNN
F 3 "" H 11950 3400 50  0001 C CNN
	1    11950 3400
	1    0    0    -1  
$EndComp
Wire Wire Line
	11750 3600 11750 3550
$Comp
L power:+5V #PWR?
U 1 1 61FBEE2A
P 11500 2100
F 0 "#PWR?" H 11500 1950 50  0001 C CNN
F 1 "+5V" H 11515 2273 50  0000 C CNN
F 2 "" H 11500 2100 50  0001 C CNN
F 3 "" H 11500 2100 50  0001 C CNN
	1    11500 2100
	1    0    0    -1  
$EndComp
Wire Wire Line
	11750 1900 11750 1950
Wire Wire Line
	11250 2750 11200 2750
Wire Wire Line
	12350 2550 12250 2550
Wire Wire Line
	11250 2550 11150 2550
Wire Wire Line
	11150 2550 11150 2850
Wire Wire Line
	11150 2950 11250 2950
Wire Wire Line
	12650 1050 12650 1350
Wire Wire Line
	12650 1350 11150 1350
Connection ~ 11150 2550
Wire Wire Line
	11250 2450 11100 2450
Wire Wire Line
	11100 2450 11100 2350
Wire Wire Line
	11250 2350 11100 2350
Connection ~ 11100 2350
Wire Wire Line
	11100 2350 11100 2250
Wire Wire Line
	11250 2250 11100 2250
Connection ~ 11100 2250
Wire Wire Line
	11100 2250 11100 1400
Wire Wire Line
	11050 3050 11250 3050
Text Label 11500 1150 0    50   ~ 0
-CRTCLK
Wire Wire Line
	11250 2850 11150 2850
Connection ~ 11150 2850
Wire Wire Line
	11150 2850 11150 2950
Text GLabel 11100 3250 0    50   Input ~ 0
-MCLEA1
Wire Wire Line
	11100 3250 11250 3250
$Comp
L power:GND #PWR?
U 1 1 622BF589
P 10900 2450
F 0 "#PWR?" H 10900 2200 50  0001 C CNN
F 1 "GND" H 10905 2277 50  0000 C CNN
F 2 "" H 10900 2450 50  0001 C CNN
F 3 "" H 10900 2450 50  0001 C CNN
	1    10900 2450
	1    0    0    -1  
$EndComp
Wire Wire Line
	10900 2450 11100 2450
Connection ~ 11100 2450
Wire Wire Line
	12750 1250 11950 1250
Wire Wire Line
	12750 1050 12750 1250
Wire Wire Line
	12600 2150 12550 2150
Wire Wire Line
	12550 2150 12550 1800
Wire Wire Line
	12550 1800 12750 1800
Wire Wire Line
	12750 1800 12750 1250
Connection ~ 12750 1250
Wire Wire Line
	12600 2250 12350 2250
Connection ~ 12350 2250
Wire Wire Line
	12350 2250 12350 2550
Text Label 12000 1850 0    50   ~ 0
-CHRLD
Text GLabel 12900 1800 2    50   Input ~ 0
-MCLEA1
Wire Wire Line
	12900 1800 12900 1950
$Comp
L 74xx:74LS132 U74
U 4 1 6240E93D
P 12900 3050
F 0 "U74" H 12900 3375 50  0000 C CNN
F 1 "74S132" H 12900 3284 50  0000 C CNN
F 2 "" H 12900 3050 50  0001 C CNN
F 3 "http://www.ti.com/lit/gpn/sn74LS132" H 12900 3050 50  0001 C CNN
	4    12900 3050
	1    0    0    -1  
$EndComp
Wire Wire Line
	12600 2950 12550 2950
Wire Wire Line
	12550 2950 12550 3150
Wire Wire Line
	12550 3150 12600 3150
Wire Wire Line
	13200 3050 13200 2650
Wire Wire Line
	13200 2650 12900 2650
Wire Wire Line
	12900 2650 12900 2550
$Comp
L Device:Jumper_NC_Small SW30
U 1 1 62499C22
P 12500 2850
F 0 "SW30" V 12454 2924 50  0000 L CNN
F 1 "." V 12545 2924 50  0000 L CNN
F 2 "" H 12500 2850 50  0001 C CNN
F 3 "~" H 12500 2850 50  0001 C CNN
	1    12500 2850
	0    1    1    0   
$EndComp
$Comp
L Device:Jumper_NO_Small SW25
U 1 1 6249BBD2
P 12400 2950
F 0 "SW25" V 12354 2998 50  0000 L CNN
F 1 "." V 12445 2998 50  0000 L CNN
F 2 "" H 12400 2950 50  0001 C CNN
F 3 "~" H 12400 2950 50  0001 C CNN
	1    12400 2950
	0    1    1    0   
$EndComp
Wire Wire Line
	12250 2450 12300 2450
Wire Wire Line
	12550 3150 12500 3150
Wire Wire Line
	12400 3150 12400 3050
Connection ~ 12550 3150
Wire Wire Line
	12250 2350 12500 2350
Wire Wire Line
	12500 2950 12500 3150
Connection ~ 12500 3150
Wire Wire Line
	12500 3150 12400 3150
NoConn ~ 12250 2250
NoConn ~ 12250 2750
NoConn ~ 13200 2350
Text Label 13250 2150 0    50   ~ 0
-CECLK
Wire Wire Line
	13200 2150 13600 2150
Wire Wire Line
	13600 2350 13550 2350
Wire Wire Line
	13550 2350 13550 2550
Wire Wire Line
	13550 2550 13250 2550
Text Label 13250 2550 0    50   ~ 0
BLANK1
Wire Wire Line
	14200 2250 14500 2250
Text Label 14200 2250 0    50   ~ 0
CEDM
Wire Wire Line
	12300 2450 12300 3650
Wire Wire Line
	10900 4750 11100 4750
Connection ~ 12300 2450
Wire Wire Line
	12300 2450 12400 2450
Connection ~ 11100 4750
Wire Wire Line
	11100 4750 11100 4650
Text Label 10950 4750 0    50   ~ 0
QC
Wire Wire Line
	11750 4750 11950 4750
$Comp
L power:GND #PWR?
U 1 1 6286F6F5
P 12650 5200
F 0 "#PWR?" H 12650 4950 50  0001 C CNN
F 1 "GND" H 12655 5027 50  0000 C CNN
F 2 "" H 12650 5200 50  0001 C CNN
F 3 "" H 12650 5200 50  0001 C CNN
	1    12650 5200
	1    0    0    -1  
$EndComp
$Comp
L power:+5V #PWR?
U 1 1 62870EE2
P 12200 3900
F 0 "#PWR?" H 12200 3750 50  0001 C CNN
F 1 "+5V" H 12215 4073 50  0000 C CNN
F 2 "" H 12200 3900 50  0001 C CNN
F 3 "" H 12200 3900 50  0001 C CNN
	1    12200 3900
	1    0    0    -1  
$EndComp
Wire Wire Line
	12450 5400 12450 5350
Wire Wire Line
	12950 4750 13250 4750
Text Label 13000 4750 0    50   ~ 0
ATRCK
Text Label 11650 4950 0    50   ~ 0
CRTCLK
$Comp
L 74xx:74LS86 U76
U 2 1 62995E5B
P 10000 4050
F 0 "U76" H 10000 3733 50  0000 C CNN
F 1 "74LS86" H 10000 3824 50  0000 C CNN
F 2 "" H 10000 4050 50  0001 C CNN
F 3 "74xx/74ls86.pdf" H 10000 4050 50  0001 C CNN
	2    10000 4050
	1    0    0    1   
$EndComp
Wire Wire Line
	11550 1550 10800 1550
Wire Wire Line
	10800 1550 10800 2700
Connection ~ 11550 1550
Wire Wire Line
	11200 2750 10750 2750
Wire Wire Line
	9400 4150 9700 4150
Connection ~ 11200 2750
Text Label 9400 4150 0    50   ~ 0
-CHRLD
Wire Wire Line
	10300 4050 10650 4050
Text Label 10300 4050 0    50   ~ 0
SRLD
Wire Wire Line
	12750 1250 13300 1250
Wire Wire Line
	13300 1250 13300 2800
Wire Wire Line
	13450 1650 13450 3150
Wire Wire Line
	13450 3150 13350 3150
Connection ~ 13450 1650
Wire Wire Line
	13450 1650 15300 1650
Wire Wire Line
	13200 3550 13300 3550
Wire Wire Line
	13600 3850 13600 3900
Wire Wire Line
	13950 3950 13950 3650
Wire Wire Line
	13950 3650 13900 3650
Wire Wire Line
	13900 3450 14000 3450
$Comp
L 74xx:74LS74 U79
U 1 1 62D2E815
P 13600 4400
F 0 "U79" H 13750 4750 50  0000 C CNN
F 1 "74S74" H 13750 4650 50  0000 C CNN
F 2 "" H 13600 4400 50  0001 C CNN
F 3 "74xx/74hc_hct74.pdf" H 13600 4400 50  0001 C CNN
	1    13600 4400
	1    0    0    -1  
$EndComp
Wire Wire Line
	11650 4950 11950 4950
Wire Wire Line
	12450 3700 12450 3750
Wire Wire Line
	13100 3900 13600 3900
Wire Wire Line
	13250 3450 13250 3950
Wire Wire Line
	13250 3450 13300 3450
Wire Wire Line
	13250 3950 13950 3950
Wire Wire Line
	13200 4400 13300 4400
Text Label 13900 4500 0    50   ~ 0
-ELG
Wire Wire Line
	13900 4300 14050 4300
Wire Wire Line
	14050 3150 13600 3150
Wire Wire Line
	13600 3150 13600 3250
Text GLabel 13850 4650 2    50   Input ~ 0
-MCLEA1
Wire Wire Line
	13900 4500 14150 4500
$Comp
L power:GND #PWR?
U 1 1 63102B17
P 14300 4250
F 0 "#PWR?" H 14300 4000 50  0001 C CNN
F 1 "GND" H 14305 4077 50  0000 C CNN
F 2 "" H 14300 4250 50  0001 C CNN
F 3 "" H 14300 4250 50  0001 C CNN
	1    14300 4250
	1    0    0    -1  
$EndComp
Wire Wire Line
	14300 4250 14300 4100
$Comp
L power:GND #PWR?
U 1 1 6315813E
P 14800 4450
F 0 "#PWR?" H 14800 4200 50  0001 C CNN
F 1 "GND" H 14805 4277 50  0000 C CNN
F 2 "" H 14800 4450 50  0001 C CNN
F 3 "" H 14800 4450 50  0001 C CNN
	1    14800 4450
	1    0    0    -1  
$EndComp
Wire Wire Line
	14800 4450 14800 4400
$Comp
L power:+5V #PWR?
U 1 1 631AC482
P 14800 2450
F 0 "#PWR?" H 14800 2300 50  0001 C CNN
F 1 "+5V" H 14815 2623 50  0000 C CNN
F 2 "" H 14800 2450 50  0001 C CNN
F 3 "" H 14800 2450 50  0001 C CNN
	1    14800 2450
	1    0    0    -1  
$EndComp
Wire Wire Line
	14800 2450 14800 2500
Text Label 15300 2800 0    50   ~ 0
DOTCLK
NoConn ~ 15300 3100
NoConn ~ 15300 3400
NoConn ~ 15300 3700
NoConn ~ 14300 3100
NoConn ~ 14300 3200
NoConn ~ 14300 3400
NoConn ~ 14300 3500
NoConn ~ 14300 3700
NoConn ~ 14300 3800
$Comp
L 2732:2732 U63
U 1 1 63610F9C
P 12700 6550
F 0 "U63" H 12850 7450 50  0000 C CNN
F 1 "2732" H 12850 7350 50  0000 C CNN
F 2 "MODULE" H 12700 6550 50  0001 C CNN
F 3 "DOCUMENTATION" H 12700 6550 50  0001 C CNN
	1    12700 6550
	1    0    0    -1  
$EndComp
$Comp
L 74xx:74LS273 U64
U 1 1 6361423A
P 11000 6800
F 0 "U64" H 11150 7550 50  0000 C CNN
F 1 "74LS273" H 11200 7450 50  0000 C CNN
F 2 "" H 11000 6800 50  0001 C CNN
F 3 "http://www.ti.com/lit/gpn/sn74LS273" H 11000 6800 50  0001 C CNN
	1    11000 6800
	1    0    0    -1  
$EndComp
Wire Wire Line
	6800 6650 6800 6700
Text Label 10350 6300 0    50   ~ 0
CB0
Text Label 10350 6400 0    50   ~ 0
CB1
Text Label 10350 6500 0    50   ~ 0
CB2
Text Label 10350 6600 0    50   ~ 0
CB3
Text Label 10350 6700 0    50   ~ 0
CB4
Text Label 10350 6800 0    50   ~ 0
CB5
Text Label 10350 6900 0    50   ~ 0
CB6
Text Label 10350 7000 0    50   ~ 0
CB7
Wire Wire Line
	10350 6300 10500 6300
Wire Wire Line
	10350 6400 10500 6400
Wire Wire Line
	10350 6500 10500 6500
Wire Wire Line
	10350 6600 10500 6600
Wire Wire Line
	10350 6700 10500 6700
Wire Wire Line
	10350 6800 10500 6800
Wire Wire Line
	10350 6900 10500 6900
Wire Wire Line
	10350 7000 10500 7000
Entry Wire Line
	10250 6200 10350 6300
Entry Wire Line
	10250 6300 10350 6400
Entry Wire Line
	10250 6400 10350 6500
Entry Wire Line
	10250 6500 10350 6600
Entry Wire Line
	10250 6600 10350 6700
Entry Wire Line
	10250 6700 10350 6800
Entry Wire Line
	10250 6800 10350 6900
Entry Wire Line
	10250 6900 10350 7000
Wire Wire Line
	10500 7300 10000 7300
Wire Wire Line
	10500 7200 10200 7200
$Comp
L power:GND #PWR?
U 1 1 63F0C4A4
P 10800 7450
F 0 "#PWR?" H 10800 7200 50  0001 C CNN
F 1 "GND" H 10805 7277 50  0000 C CNN
F 2 "" H 10800 7450 50  0001 C CNN
F 3 "" H 10800 7450 50  0001 C CNN
	1    10800 7450
	1    0    0    -1  
$EndComp
Wire Wire Line
	11000 7650 11000 7600
$Comp
L power:+5V #PWR?
U 1 1 63F65C14
P 10800 6150
F 0 "#PWR?" H 10800 6000 50  0001 C CNN
F 1 "+5V" H 10815 6323 50  0000 C CNN
F 2 "" H 10800 6150 50  0001 C CNN
F 3 "" H 10800 6150 50  0001 C CNN
	1    10800 6150
	1    0    0    -1  
$EndComp
Wire Wire Line
	11000 6000 11000 5950
Text Label 11550 6300 0    50   ~ 0
LC0
Text Label 11550 6400 0    50   ~ 0
LC1
Text Label 11550 6500 0    50   ~ 0
LC2
Text Label 11550 6600 0    50   ~ 0
LC3
Text Label 11550 6700 0    50   ~ 0
LC4
Text Label 11550 6800 0    50   ~ 0
LC5
Text Label 11550 6900 0    50   ~ 0
LC6
Text Label 11550 7000 0    50   ~ 0
LC7
Text Label 11900 6700 0    50   ~ 0
RS0
Text Label 11900 6600 0    50   ~ 0
RS1
Text Label 11900 6500 0    50   ~ 0
RS2
Text Label 11900 6400 0    50   ~ 0
RS3
Entry Wire Line
	11800 6300 11900 6400
Entry Wire Line
	11800 6400 11900 6500
Entry Wire Line
	11800 6500 11900 6600
Entry Wire Line
	11800 6600 11900 6700
Text Label 11600 5650 0    50   ~ 0
RSB
Wire Wire Line
	11500 6400 11700 6400
Wire Wire Line
	11700 6400 11700 6200
Wire Wire Line
	11850 6000 11850 6600
Wire Wire Line
	11500 6700 11700 6700
Wire Wire Line
	11700 6700 11700 7100
Wire Wire Line
	11500 6800 11750 6800
Wire Wire Line
	11750 6800 11750 7000
Wire Wire Line
	11500 6900 11800 6900
Wire Wire Line
	11800 6900 11800 6800
$Comp
L power:+5V #PWR?
U 1 1 646EBA60
P 12400 5750
F 0 "#PWR?" H 12400 5600 50  0001 C CNN
F 1 "+5V" H 12415 5923 50  0000 C CNN
F 2 "" H 12400 5750 50  0001 C CNN
F 3 "" H 12400 5750 50  0001 C CNN
	1    12400 5750
	1    0    0    -1  
$EndComp
$Comp
L power:GND #PWR?
U 1 1 6474DC11
P 12950 7350
F 0 "#PWR?" H 12950 7100 50  0001 C CNN
F 1 "GND" H 12955 7177 50  0000 C CNN
F 2 "" H 12950 7350 50  0001 C CNN
F 3 "" H 12950 7350 50  0001 C CNN
	1    12950 7350
	1    0    0    -1  
$EndComp
$Comp
L Device:Jumper_NC_Small SW10
U 1 1 647B187D
P 11650 7400
F 0 "SW10" H 11650 7612 50  0000 C CNN
F 1 "." H 11650 7521 50  0000 C CNN
F 2 "" H 11650 7400 50  0001 C CNN
F 3 "~" H 11650 7400 50  0001 C CNN
	1    11650 7400
	1    0    0    -1  
$EndComp
$Comp
L Device:Jumper_NO_Small SW11
U 1 1 647B359E
P 11650 7500
F 0 "SW11" H 11650 7407 50  0000 C CNN
F 1 "." H 11650 7316 50  0000 C CNN
F 2 "" H 11650 7500 50  0001 C CNN
F 3 "~" H 11650 7500 50  0001 C CNN
	1    11650 7500
	1    0    0    -1  
$EndComp
Wire Wire Line
	11500 7000 11600 7000
Wire Wire Line
	11600 7000 11600 7100
Wire Wire Line
	11600 7100 11450 7100
Wire Wire Line
	11450 7100 11450 7400
Wire Wire Line
	11450 7400 11550 7400
Wire Wire Line
	11750 7400 11950 7400
Wire Wire Line
	11950 7400 11950 6900
Wire Wire Line
	11750 7500 11950 7500
Wire Wire Line
	11950 7500 11950 7400
Connection ~ 11950 7400
$Comp
L power:+5V #PWR?
U 1 1 64943675
P 12100 7500
F 0 "#PWR?" H 12100 7350 50  0001 C CNN
F 1 "+5V" H 12115 7673 50  0000 C CNN
F 2 "" H 12100 7500 50  0001 C CNN
F 3 "" H 12100 7500 50  0001 C CNN
	1    12100 7500
	1    0    0    -1  
$EndComp
Wire Wire Line
	11550 7500 11500 7500
$Comp
L power:GND #PWR?
U 1 1 649A9B97
P 13300 5850
F 0 "#PWR?" H 13300 5600 50  0001 C CNN
F 1 "GND" H 13305 5677 50  0000 C CNN
F 2 "" H 13300 5850 50  0001 C CNN
F 3 "" H 13300 5850 50  0001 C CNN
	1    13300 5850
	1    0    0    -1  
$EndComp
Wire Wire Line
	13400 6200 13400 5800
Wire Wire Line
	13400 5800 13300 5800
Wire Wire Line
	13300 5800 13300 5850
$Comp
L Device:Jumper_NO_Small SW16
U 1 1 64A11200
P 13700 6200
F 0 "SW16" H 13700 6107 50  0000 C CNN
F 1 "." H 13700 6016 50  0000 C CNN
F 2 "" H 13700 6200 50  0001 C CNN
F 3 "~" H 13700 6200 50  0001 C CNN
	1    13700 6200
	1    0    0    -1  
$EndComp
$Comp
L Device:Jumper_NO_Small SW17
U 1 1 64A119C6
P 13700 6000
F 0 "SW17" H 13700 6250 50  0000 C CNN
F 1 "." H 13700 6150 50  0000 C CNN
F 2 "" H 13700 6000 50  0001 C CNN
F 3 "~" H 13700 6000 50  0001 C CNN
	1    13700 6000
	1    0    0    -1  
$EndComp
Wire Wire Line
	13500 6300 13500 6200
Wire Wire Line
	13500 6000 13600 6000
Wire Wire Line
	13600 6200 13500 6200
Connection ~ 13500 6200
Wire Wire Line
	13500 6200 13500 6000
Wire Wire Line
	13800 6000 13850 6000
Wire Wire Line
	13850 6000 13850 5800
Wire Wire Line
	13850 5800 13400 5800
Connection ~ 13400 5800
Wire Wire Line
	11450 7400 11450 7650
Wire Wire Line
	13850 6200 13800 6200
Connection ~ 11450 7400
Wire Wire Line
	13350 6300 13500 6300
Wire Wire Line
	13350 6200 13400 6200
Wire Wire Line
	11500 6500 11750 6500
Wire Wire Line
	11750 6500 11750 6100
Wire Wire Line
	11900 6700 12050 6700
Wire Wire Line
	11900 6600 12050 6600
Wire Wire Line
	11900 6500 12050 6500
Wire Wire Line
	11900 6400 12050 6400
Wire Bus Line
	11600 5650 11800 5650
Wire Wire Line
	11850 6000 12050 6000
Wire Wire Line
	11750 6100 12050 6100
Wire Wire Line
	11700 6200 12050 6200
Wire Wire Line
	11800 6800 12050 6800
Wire Wire Line
	11950 6900 12050 6900
Wire Wire Line
	11750 7000 12050 7000
Wire Wire Line
	11700 7100 12050 7100
Wire Wire Line
	12700 5600 12700 5650
Wire Wire Line
	12700 7500 12700 7450
$Comp
L 74xx:74LS299 U77
U 1 1 654E6D4B
P 15150 7450
F 0 "U77" H 15050 8200 50  0000 C CNN
F 1 "74LS299" H 14950 8100 50  0000 C CNN
F 2 "" H 15150 7450 50  0001 C CNN
F 3 "http://www.ti.com/lit/gpn/sn74LS299" H 15150 7450 50  0001 C CNN
	1    15150 7450
	-1   0    0    -1  
$EndComp
$Comp
L 74xx:74LS273 U56
U 1 1 654E7D8A
P 14650 5750
F 0 "U56" H 14750 6500 50  0000 C CNN
F 1 "74LS273" H 14850 6400 50  0000 C CNN
F 2 "" H 14650 5750 50  0001 C CNN
F 3 "http://www.ti.com/lit/gpn/sn74LS273" H 14650 5750 50  0001 C CNN
	1    14650 5750
	1    0    0    -1  
$EndComp
Text Label 13400 6400 0    50   ~ 0
DOT1
Text Label 13400 6500 0    50   ~ 0
DOT2
Text Label 13400 6600 0    50   ~ 0
DOT3
Text Label 13400 6700 0    50   ~ 0
DOT4
Text Label 13400 6800 0    50   ~ 0
DOT5
Text Label 13400 6900 0    50   ~ 0
DOT6
Text Label 13400 7000 0    50   ~ 0
DOT7
Text Label 13400 7100 0    50   ~ 0
DOT8
Wire Wire Line
	13350 7100 13900 7100
Wire Wire Line
	13900 5950 14150 5950
Wire Wire Line
	15150 5950 15750 5950
Wire Wire Line
	15750 6950 15650 6950
Text Label 15200 5950 0    50   ~ 0
DOT9
$Comp
L power:+5V #PWR?
U 1 1 65C21149
P 14400 5000
F 0 "#PWR?" H 14400 4850 50  0001 C CNN
F 1 "+5V" H 14415 5173 50  0000 C CNN
F 2 "" H 14400 5000 50  0001 C CNN
F 3 "" H 14400 5000 50  0001 C CNN
	1    14400 5000
	1    0    0    -1  
$EndComp
Wire Wire Line
	14400 5000 14400 5050
Wire Wire Line
	14400 5050 14500 5050
Wire Wire Line
	14500 5050 14500 4950
Wire Wire Line
	14500 4950 14650 4950
$Comp
L power:GND #PWR?
U 1 1 65C9686D
P 14800 6400
F 0 "#PWR?" H 14800 6150 50  0001 C CNN
F 1 "GND" H 14805 6227 50  0000 C CNN
F 2 "" H 14800 6400 50  0001 C CNN
F 3 "" H 14800 6400 50  0001 C CNN
	1    14800 6400
	1    0    0    -1  
$EndComp
Text Label 14150 6700 0    50   ~ 0
-CECLK
$Comp
L power:GND #PWR?
U 1 1 65D82746
P 15300 8200
F 0 "#PWR?" H 15300 7950 50  0001 C CNN
F 1 "GND" H 15305 8027 50  0000 C CNN
F 2 "" H 15300 8200 50  0001 C CNN
F 3 "" H 15300 8200 50  0001 C CNN
	1    15300 8200
	1    0    0    -1  
$EndComp
$Comp
L power:+5V #PWR?
U 1 1 65D82C8D
P 14950 6800
F 0 "#PWR?" H 14950 6650 50  0001 C CNN
F 1 "+5V" H 14965 6973 50  0000 C CNN
F 2 "" H 14950 6800 50  0001 C CNN
F 3 "" H 14950 6800 50  0001 C CNN
	1    14950 6800
	1    0    0    -1  
$EndComp
Wire Wire Line
	15150 6600 15150 6650
Wire Wire Line
	15650 7850 15800 7850
Wire Wire Line
	15650 7650 16050 7650
Wire Wire Line
	15650 7550 16050 7550
Wire Wire Line
	15650 7250 16050 7250
Wire Wire Line
	16050 1200 16050 7250
Wire Wire Line
	12950 1050 12950 1400
Wire Wire Line
	11100 1400 12950 1400
Wire Wire Line
	12850 1200 12850 1050
Wire Wire Line
	12850 1200 16050 1200
Text Label 15700 7350 0    50   ~ 0
SRLD
Wire Wire Line
	15650 7350 15900 7350
Text GLabel 15900 8200 0    50   Input ~ 0
-MCLEA2
$Comp
L power:GND #PWR?
U 1 1 662389D2
P 15900 7000
F 0 "#PWR?" H 15900 6750 50  0001 C CNN
F 1 "GND" H 15905 6827 50  0000 C CNN
F 2 "" H 15900 7000 50  0001 C CNN
F 3 "" H 15900 7000 50  0001 C CNN
	1    15900 7000
	1    0    0    -1  
$EndComp
Wire Wire Line
	15900 7000 15750 7000
Wire Wire Line
	15750 7000 15750 7050
Wire Wire Line
	15750 7050 15650 7050
NoConn ~ 14650 6950
Text GLabel 14350 6850 0    50   Input ~ 0
DOTS
Wire Wire Line
	14350 6850 14350 7050
Wire Wire Line
	14350 7050 14650 7050
Text Label 14400 7050 0    50   ~ 0
DOTS
Wire Wire Line
	15150 8400 15150 8350
$Comp
L 74xx:74LS390 U89
U 1 1 66429182
P 10150 8200
F 0 "U89" H 10150 8567 50  0000 C CNN
F 1 "74LS390" H 10150 8476 50  0000 C CNN
F 2 "" H 10150 8200 50  0001 C CNN
F 3 "http://www.ti.com/lit/gpn/sn74LS390" H 10150 8200 50  0001 C CNN
	1    10150 8200
	1    0    0    -1  
$EndComp
$Comp
L 74xx:74LS390 U89
U 2 1 6642B237
P 11650 8200
F 0 "U89" H 11650 8567 50  0000 C CNN
F 1 "74LS390" H 11650 8476 50  0000 C CNN
F 2 "" H 11650 8200 50  0001 C CNN
F 3 "http://www.ti.com/lit/gpn/sn74LS390" H 11650 8200 50  0001 C CNN
	2    11650 8200
	1    0    0    -1  
$EndComp
Wire Wire Line
	10650 8100 10700 8100
Wire Wire Line
	10700 8100 10700 7750
Wire Wire Line
	10700 7750 9550 7750
Wire Wire Line
	9550 7750 9550 8200
Wire Wire Line
	9550 8200 9650 8200
Connection ~ 10700 8100
Wire Wire Line
	10700 8100 11150 8100
Wire Wire Line
	9650 8100 9600 8100
Wire Wire Line
	9600 8100 9600 7300
Wire Wire Line
	12150 8100 12200 8100
Wire Wire Line
	12200 8100 12200 7750
Wire Wire Line
	12200 7750 11100 7750
Wire Wire Line
	11100 7750 11100 8200
Wire Wire Line
	11100 8200 11150 8200
Wire Wire Line
	12150 8300 12550 8300
Text Label 12200 8300 0    50   ~ 0
BLKFRQ
NoConn ~ 12150 8200
NoConn ~ 12150 8400
NoConn ~ 10650 8200
NoConn ~ 10650 8300
NoConn ~ 10650 8400
Wire Wire Line
	9650 8400 9550 8400
Text Label 9400 8400 0    50   ~ 0
MCL
Wire Wire Line
	9550 8400 9550 8550
Wire Wire Line
	11150 8550 11150 8400
Connection ~ 9550 8400
Wire Wire Line
	9550 8400 9400 8400
Wire Wire Line
	15800 2800 15300 2800
Wire Wire Line
	14150 4000 14150 4500
Wire Wire Line
	14150 4000 14300 4000
Wire Wire Line
	14000 2800 14300 2800
Wire Wire Line
	13950 2900 14300 2900
Wire Wire Line
	13350 2800 13300 2800
Connection ~ 13300 2800
Wire Wire Line
	13300 2800 13300 3100
Wire Wire Line
	13350 3000 13350 3150
Connection ~ 13350 3150
Wire Wire Line
	13350 3150 13200 3150
Wire Wire Line
	13300 3100 13100 3100
Wire Wire Line
	13100 3100 13100 3900
Wire Wire Line
	13200 3150 13200 3550
Connection ~ 13100 3900
Connection ~ 13200 3550
Wire Wire Line
	14000 2800 14000 3450
Wire Wire Line
	13200 3550 13200 4400
Wire Wire Line
	13100 3900 13100 4050
Wire Wire Line
	14050 3150 14050 4300
Wire Wire Line
	13600 4100 13600 4050
Wire Wire Line
	13600 4050 13100 4050
Wire Wire Line
	13600 4750 13600 4700
Wire Wire Line
	15150 5650 15250 5650
Wire Wire Line
	15250 5650 15250 4750
Wire Wire Line
	15250 4750 14050 4750
Wire Wire Line
	14050 4750 14050 5750
Wire Wire Line
	14050 5750 14150 5750
Text Label 13700 5650 0    50   ~ 0
CURSOR
Wire Wire Line
	13700 5650 14150 5650
$Comp
L 74xx:74LS00 U58
U 4 1 672F30F0
P 13350 8400
F 0 "U58" H 13350 8725 50  0000 C CNN
F 1 "74LS00" H 13350 8634 50  0000 C CNN
F 2 "" H 13350 8400 50  0001 C CNN
F 3 "http://www.ti.com/lit/gpn/sn74ls00" H 13350 8400 50  0001 C CNN
	4    13350 8400
	1    0    0    -1  
$EndComp
Wire Wire Line
	15150 5750 16000 5750
Text GLabel 12900 8500 0    50   Input ~ 0
CEN
$Comp
L 74xx:74LS374 U65
U 1 1 674099D5
P 10200 9450
F 0 "U65" H 10350 10200 50  0000 C CNN
F 1 "74S374" H 10400 10100 50  0000 C CNN
F 2 "" H 10200 9450 50  0001 C CNN
F 3 "http://www.ti.com/lit/gpn/sn74LS374" H 10200 9450 50  0001 C CNN
	1    10200 9450
	1    0    0    -1  
$EndComp
$Comp
L IM5624:IM5624 U55
U 1 1 61B12FB4
P 14100 9350
F 0 "U55" H 14250 10000 50  0000 C CNN
F 1 "IM5624" H 14300 9900 50  0000 C CNN
F 2 "MODULE" H 14100 9350 50  0001 C CNN
F 3 "DOCUMENTATION" H 14100 9350 50  0001 C CNN
	1    14100 9350
	1    0    0    -1  
$EndComp
Wire Wire Line
	6800 7950 6900 7950
Wire Wire Line
	6900 7950 6900 7750
Wire Wire Line
	6900 7750 7000 7750
Wire Wire Line
	6550 8200 6700 8200
Wire Wire Line
	6700 8200 6700 8000
Wire Wire Line
	6700 8000 6800 8000
Wire Wire Line
	6800 9300 6800 9250
Wire Wire Line
	7000 9100 6900 9100
Wire Wire Line
	6900 9100 6900 9300
Wire Wire Line
	8500 2650 8650 2650
Wire Wire Line
	8650 2650 8650 2450
Wire Wire Line
	8650 2450 8750 2450
Wire Wire Line
	8050 2400 9350 2400
Wire Wire Line
	8050 2400 8050 2900
Wire Wire Line
	8000 2350 9450 2350
Wire Wire Line
	8000 2350 8000 3000
Wire Wire Line
	6850 2300 7950 2300
Wire Wire Line
	6850 2300 6850 2050
Connection ~ 7950 2300
Wire Wire Line
	7950 2300 9400 2300
Wire Wire Line
	8950 3950 8800 3950
Wire Wire Line
	8800 3950 8800 4150
Wire Wire Line
	8800 4150 8750 4150
Wire Wire Line
	9400 2300 9400 3000
Wire Wire Line
	7950 2300 7950 3400
Wire Wire Line
	7700 4350 7850 4350
Connection ~ 7850 4350
Wire Wire Line
	7850 4350 8250 4350
Wire Wire Line
	5950 5950 5950 5750
Wire Wire Line
	5950 5350 6200 5350
Wire Wire Line
	4500 6750 4500 7250
Wire Wire Line
	6600 6850 6700 6850
Wire Wire Line
	6700 6850 6700 6650
Wire Wire Line
	6700 6650 6800 6650
Wire Wire Line
	6800 9300 6900 9300
Wire Wire Line
	6750 5850 7000 5850
Wire Wire Line
	6750 5750 6750 5850
Wire Wire Line
	6050 5750 6050 5950
Wire Wire Line
	6150 5750 6150 5950
Wire Wire Line
	6250 5750 6250 5950
Wire Wire Line
	6350 5750 6350 5950
Wire Wire Line
	6450 5750 6450 5950
Wire Wire Line
	6550 5750 6550 5950
Wire Wire Line
	6650 5750 6650 5950
Wire Wire Line
	8150 5100 8150 4800
Wire Wire Line
	8150 4800 7900 4800
Wire Wire Line
	8150 5100 8150 5200
Wire Wire Line
	10000 5200 8150 5200
Wire Wire Line
	10000 5200 10000 7300
Wire Wire Line
	7000 5300 7000 5850
Wire Wire Line
	9200 4250 9200 4450
Wire Bus Line
	7150 6050 7150 5350
Wire Bus Line
	7150 5350 10250 5350
Connection ~ 7150 6050
Wire Bus Line
	7150 6050 7550 6050
Wire Wire Line
	7000 5300 9150 5300
Wire Wire Line
	9150 5900 9150 5300
Wire Bus Line
	7750 9350 6050 9350
Connection ~ 6050 9350
Wire Bus Line
	6050 9350 5400 9350
Wire Wire Line
	8250 5750 8400 5750
Wire Wire Line
	8400 5750 8400 5600
Wire Wire Line
	8250 7600 8400 7600
Wire Wire Line
	8400 7600 8400 7450
Wire Wire Line
	8700 7250 8550 7250
Wire Wire Line
	8550 7250 8550 7400
Wire Wire Line
	8250 9100 8400 9100
Wire Wire Line
	8400 9100 8400 9250
Wire Wire Line
	8400 9250 8500 9250
Wire Bus Line
	9250 9400 5850 9400
Wire Wire Line
	9650 3950 9650 3500
Wire Wire Line
	9650 3950 9700 3950
Wire Wire Line
	9650 3500 10650 3500
Wire Wire Line
	9400 4150 9400 4300
Wire Wire Line
	9400 4300 10200 4300
Wire Wire Line
	11500 2100 11650 2100
Wire Wire Line
	11650 2100 11650 1900
Wire Wire Line
	11650 1900 11750 1900
Wire Wire Line
	11950 3400 11800 3400
Wire Wire Line
	11800 3400 11800 3600
Wire Wire Line
	11800 3600 11750 3600
Wire Wire Line
	11500 1750 11050 1750
Wire Wire Line
	11200 1850 12350 1850
Wire Wire Line
	12350 1850 12350 2250
Wire Wire Line
	11050 1750 11050 3050
Wire Wire Line
	11150 1350 11150 2550
Wire Wire Line
	11200 1850 11200 2750
Wire Wire Line
	10750 2750 10750 4300
Wire Wire Line
	12400 2450 12400 2850
Wire Wire Line
	12500 2350 12500 2750
Wire Wire Line
	12300 3650 10900 3650
Wire Wire Line
	10900 3650 10900 4750
Wire Wire Line
	10800 2700 10650 2700
Wire Wire Line
	10650 2700 10650 3500
Wire Wire Line
	12200 3900 12350 3900
Wire Wire Line
	12350 3900 12350 3700
Wire Wire Line
	12350 3700 12450 3700
Wire Wire Line
	12650 5200 12500 5200
Wire Wire Line
	12500 5200 12500 5400
Wire Wire Line
	12500 5400 12450 5400
Connection ~ 10200 4300
Wire Wire Line
	10200 4300 10750 4300
Wire Wire Line
	10200 4300 10200 7200
Wire Wire Line
	12950 7350 12800 7350
Wire Wire Line
	12800 7350 12800 7500
Wire Wire Line
	12800 7500 12700 7500
Wire Wire Line
	12400 5750 12550 5750
Wire Wire Line
	12550 5750 12550 5600
Wire Wire Line
	12550 5600 12700 5600
Wire Wire Line
	10800 7450 10900 7450
Wire Wire Line
	10900 7450 10900 7650
Wire Wire Line
	10900 7650 11000 7650
Wire Wire Line
	10800 6150 10900 6150
Wire Wire Line
	10900 6150 10900 5950
Wire Wire Line
	10900 5950 11000 5950
Wire Wire Line
	15300 8200 15200 8200
Wire Wire Line
	15200 8200 15200 8400
Wire Wire Line
	15950 8050 15950 8200
Wire Wire Line
	15950 8200 15900 8200
Wire Wire Line
	15650 8050 15950 8050
Wire Wire Line
	14950 6800 15050 6800
Wire Wire Line
	15050 6800 15050 6600
Wire Wire Line
	15050 6600 15150 6600
Wire Wire Line
	13850 4650 13650 4650
Wire Wire Line
	13650 4650 13650 4750
Wire Wire Line
	13650 4750 13600 4750
Wire Wire Line
	16000 5750 16000 8450
Wire Wire Line
	14800 6400 14700 6400
Wire Wire Line
	14700 6400 14700 6550
Wire Wire Line
	14700 6550 14650 6550
Wire Wire Line
	15750 5950 15750 6950
Wire Wire Line
	15800 2800 15800 4350
Connection ~ 16050 7250
Connection ~ 16050 7550
Wire Wire Line
	16050 7650 16050 7550
Wire Wire Line
	16050 7250 16050 7550
Wire Wire Line
	15150 8400 15200 8400
Wire Wire Line
	13350 7000 14050 7000
Wire Wire Line
	13350 6900 14000 6900
Wire Wire Line
	13350 6800 13800 6800
Wire Wire Line
	13350 6700 13950 6700
Wire Wire Line
	13350 6600 13750 6600
Wire Wire Line
	13350 6500 13700 6500
Wire Wire Line
	13350 6400 13650 6400
Wire Wire Line
	11500 7500 11500 7550
Wire Wire Line
	11500 7550 12100 7550
Wire Wire Line
	12100 7550 12100 7500
Wire Wire Line
	11450 7650 13850 7650
Wire Wire Line
	13850 7650 13850 6200
Connection ~ 10000 7300
Wire Wire Line
	13900 5950 13900 7100
Wire Wire Line
	13650 6400 13650 7950
Wire Wire Line
	13650 7950 14650 7950
Wire Wire Line
	13700 6500 13700 7850
Wire Wire Line
	13700 7850 14650 7850
Wire Wire Line
	13750 6600 13750 7750
Wire Wire Line
	13750 7750 14650 7750
Wire Wire Line
	13950 6700 13950 7650
Wire Wire Line
	13950 7650 14650 7650
Wire Wire Line
	13800 6800 13800 7550
Wire Wire Line
	13800 7550 14650 7550
Wire Wire Line
	14000 6900 14000 7450
Wire Wire Line
	14000 7450 14650 7450
Wire Wire Line
	14050 7000 14050 7350
Wire Wire Line
	14050 7350 14650 7350
Wire Wire Line
	10000 7300 9600 7300
Wire Wire Line
	9550 8550 11150 8550
Wire Wire Line
	13800 8450 16000 8450
Wire Wire Line
	13800 8450 13800 8000
$Comp
L power:GND #PWR?
U 1 1 6732B8ED
P 10400 10100
F 0 "#PWR?" H 10400 9850 50  0001 C CNN
F 1 "GND" H 10405 9927 50  0000 C CNN
F 2 "" H 10400 10100 50  0001 C CNN
F 3 "" H 10400 10100 50  0001 C CNN
	1    10400 10100
	1    0    0    -1  
$EndComp
$Comp
L power:GND #PWR?
U 1 1 6732BC62
P 14250 9900
F 0 "#PWR?" H 14250 9650 50  0001 C CNN
F 1 "GND" H 14255 9727 50  0000 C CNN
F 2 "" H 14250 9900 50  0001 C CNN
F 3 "" H 14250 9900 50  0001 C CNN
	1    14250 9900
	1    0    0    -1  
$EndComp
Wire Wire Line
	10400 10100 10250 10100
Wire Wire Line
	10250 10100 10250 10250
Wire Wire Line
	10250 10250 10200 10250
Wire Wire Line
	14250 9900 14150 9900
Wire Wire Line
	14150 9900 14150 10000
Wire Wire Line
	14150 10000 14100 10000
$Comp
L power:+5V #PWR?
U 1 1 6747D434
P 9950 8800
F 0 "#PWR?" H 9950 8650 50  0001 C CNN
F 1 "+5V" H 9965 8973 50  0000 C CNN
F 2 "" H 9950 8800 50  0001 C CNN
F 3 "" H 9950 8800 50  0001 C CNN
	1    9950 8800
	1    0    0    -1  
$EndComp
$Comp
L power:+5V #PWR?
U 1 1 6747D9A3
P 13850 8800
F 0 "#PWR?" H 13850 8650 50  0001 C CNN
F 1 "+5V" H 13865 8973 50  0000 C CNN
F 2 "" H 13850 8800 50  0001 C CNN
F 3 "" H 13850 8800 50  0001 C CNN
	1    13850 8800
	1    0    0    -1  
$EndComp
Wire Wire Line
	9950 8800 10100 8800
Wire Wire Line
	10100 8800 10100 8650
Wire Wire Line
	10100 8650 10200 8650
Wire Wire Line
	13850 8800 14000 8800
Wire Wire Line
	14000 8800 14000 8700
Wire Wire Line
	14000 8700 14100 8700
Text Label 9550 8950 0    50   ~ 0
AB0
Text Label 9550 9050 0    50   ~ 0
AB1
Text Label 9550 9150 0    50   ~ 0
AB2
Text Label 9550 9250 0    50   ~ 0
AB3
Entry Wire Line
	9250 8850 9350 8950
Entry Wire Line
	9250 8950 9350 9050
Entry Wire Line
	9250 9050 9350 9150
Entry Wire Line
	9250 9150 9350 9250
Wire Wire Line
	9350 8950 9700 8950
Wire Wire Line
	9350 9050 9700 9050
Wire Wire Line
	9350 9150 9700 9150
Wire Wire Line
	9350 9250 9700 9250
Wire Wire Line
	13050 8300 12950 8300
Wire Wire Line
	12950 8000 12950 8300
Wire Wire Line
	12950 8000 13800 8000
Wire Wire Line
	13050 8500 12900 8500
Wire Wire Line
	13650 8400 13700 8400
Wire Wire Line
	13700 8400 13700 8600
Wire Wire Line
	13700 8600 13600 8600
Text Label 13650 8600 0    50   ~ 0
-CURSEN
$Comp
L power:GND #PWR?
U 1 1 67D50435
P 14550 9050
F 0 "#PWR?" H 14550 8800 50  0001 C CNN
F 1 "GND" H 14555 8877 50  0000 C CNN
F 2 "" H 14550 9050 50  0001 C CNN
F 3 "" H 14550 9050 50  0001 C CNN
	1    14550 9050
	1    0    0    -1  
$EndComp
Wire Wire Line
	9600 10350 9600 9650
Wire Wire Line
	9600 9650 9700 9650
Wire Wire Line
	9550 10400 9550 9550
Wire Wire Line
	9550 9550 9700 9550
Wire Wire Line
	9500 10450 9500 9450
Wire Wire Line
	9500 9450 9700 9450
Wire Wire Line
	9450 10500 9450 9350
Wire Wire Line
	9450 9350 9700 9350
Wire Wire Line
	9700 9850 9100 9850
Text Label 9100 9850 0    50   ~ 0
ATRCK
Wire Wire Line
	9700 9950 9700 10250
Wire Wire Line
	9700 10250 10200 10250
Connection ~ 10200 10250
$Comp
L 74xx:74LS10 U62
U 3 1 6855FE76
P 7550 10650
F 0 "U62" H 7550 10975 50  0000 C CNN
F 1 "74LS10" H 7550 10884 50  0000 C CNN
F 2 "" H 7550 10650 50  0001 C CNN
F 3 "http://www.ti.com/lit/gpn/sn74LS10" H 7550 10650 50  0001 C CNN
	3    7550 10650
	1    0    0    -1  
$EndComp
Wire Wire Line
	13900 7100 14100 7100
Wire Wire Line
	14100 7100 14100 7250
Wire Wire Line
	14100 7250 14650 7250
Connection ~ 13900 7100
$Comp
L 74xx:74LS02 U54
U 3 1 686295A2
P 12500 9750
F 0 "U54" H 12500 9433 50  0000 C CNN
F 1 "74S02" H 12500 9524 50  0000 C CNN
F 2 "" H 12500 9750 50  0001 C CNN
F 3 "http://www.ti.com/lit/gpn/sn74ls02" H 12500 9750 50  0001 C CNN
	3    12500 9750
	1    0    0    1   
$EndComp
Wire Wire Line
	13650 8950 13600 8950
Wire Wire Line
	13600 8950 13600 8600
Wire Wire Line
	14550 9350 14650 9350
Wire Wire Line
	14650 9350 14650 9050
Wire Wire Line
	14650 9050 14550 9050
Wire Wire Line
	14550 9750 14600 9750
Wire Wire Line
	14600 9750 14600 10350
Wire Wire Line
	9600 10350 14600 10350
Wire Wire Line
	14550 9650 14650 9650
Wire Wire Line
	14650 9650 14650 10400
Wire Wire Line
	9550 10400 14650 10400
Wire Wire Line
	14550 9550 14700 9550
Wire Wire Line
	14700 9550 14700 10450
Wire Wire Line
	9500 10450 14700 10450
Wire Wire Line
	14550 9450 14750 9450
Wire Wire Line
	14750 9450 14750 10500
Wire Wire Line
	9450 10500 14750 10500
Wire Wire Line
	13000 9150 13000 9250
Wire Wire Line
	10700 9150 13000 9150
Wire Wire Line
	13000 9250 13650 9250
Wire Wire Line
	13650 9150 13450 9150
Wire Wire Line
	13450 9150 13450 9200
Wire Wire Line
	13450 9200 12150 9200
Wire Wire Line
	12150 9200 12150 9250
Wire Wire Line
	10700 9250 12150 9250
Wire Wire Line
	12950 9450 12950 8950
Wire Wire Line
	12950 9450 13650 9450
Wire Wire Line
	10700 8950 12950 8950
Wire Wire Line
	12850 9550 12850 9050
Wire Wire Line
	12850 9550 13650 9550
Wire Wire Line
	10700 9050 12850 9050
Text Label 10750 9350 0    50   ~ 0
ELONG
Text Label 10750 9450 0    50   ~ 0
INVERT
Text Label 10750 9550 0    50   ~ 0
INVIS
Text Label 10750 9650 0    50   ~ 0
LOWINT
Wire Wire Line
	10700 9650 11050 9650
Wire Wire Line
	10700 9550 11050 9550
Wire Wire Line
	10700 9450 11050 9450
Wire Wire Line
	10700 9350 11050 9350
Text GLabel 13150 9650 0    50   Input ~ 0
BKCUR
Wire Wire Line
	13150 9650 13650 9650
Wire Wire Line
	12800 9750 13650 9750
Text Label 13250 9750 0    50   ~ 0
VON
Text Label 11900 9650 0    50   ~ 0
BLANK2
Wire Wire Line
	11900 9650 12200 9650
Text GLabel 11950 9850 0    50   Input ~ 0
VOF
Wire Wire Line
	11950 9850 12200 9850
$Comp
L 74xx:74LS02 U59
U 4 1 68562658
P 8350 10550
F 0 "U59" H 8350 10233 50  0000 C CNN
F 1 "74LS02" H 8350 10324 50  0000 C CNN
F 2 "" H 8350 10550 50  0001 C CNN
F 3 "http://www.ti.com/lit/gpn/sn74ls02" H 8350 10550 50  0001 C CNN
	4    8350 10550
	1    0    0    1   
$EndComp
$Comp
L Device:Jumper_NC_Small SW27
U 1 1 69B93181
P 6950 10650
F 0 "SW27" H 6950 10862 50  0000 C CNN
F 1 "." H 6950 10771 50  0000 C CNN
F 2 "" H 6950 10650 50  0001 C CNN
F 3 "~" H 6950 10650 50  0001 C CNN
	1    6950 10650
	1    0    0    -1  
$EndComp
$Comp
L Device:R R202
U 1 1 69B954F5
P 7150 10200
F 0 "R202" H 7220 10246 50  0000 L CNN
F 1 "4k7" H 7220 10155 50  0000 L CNN
F 2 "" V 7080 10200 50  0001 C CNN
F 3 "~" H 7150 10200 50  0001 C CNN
	1    7150 10200
	1    0    0    -1  
$EndComp
$Comp
L power:+5V #PWR?
U 1 1 69B976C9
P 7150 10000
F 0 "#PWR?" H 7150 9850 50  0001 C CNN
F 1 "+5V" H 7165 10173 50  0000 C CNN
F 2 "" H 7150 10000 50  0001 C CNN
F 3 "" H 7150 10000 50  0001 C CNN
	1    7150 10000
	1    0    0    -1  
$EndComp
Wire Wire Line
	7150 10000 7150 10050
Wire Wire Line
	7050 10650 7150 10650
Wire Wire Line
	7150 10350 7150 10650
Connection ~ 7150 10650
Wire Wire Line
	7150 10650 7250 10650
Entry Wire Line
	6500 10450 6600 10550
Entry Wire Line
	6500 10350 6600 10450
Entry Wire Line
	6500 10550 6600 10650
Entry Wire Line
	6500 10650 6600 10750
Wire Wire Line
	6600 10450 8050 10450
Wire Wire Line
	6600 10550 7250 10550
Wire Wire Line
	6600 10650 6850 10650
Wire Wire Line
	6600 10750 7250 10750
Wire Bus Line
	6500 10300 6250 10300
Text Label 6250 10300 0    50   ~ 0
RSB
Text Label 6650 10450 0    50   ~ 0
RS2
Text Label 6650 10550 0    50   ~ 0
RS0
Text Label 6650 10650 0    50   ~ 0
RS1
Text Label 6650 10750 0    50   ~ 0
RS3
Wire Wire Line
	7850 10650 8050 10650
Wire Wire Line
	13650 9050 13250 9050
Wire Wire Line
	13250 9050 13250 9400
Wire Wire Line
	13250 9400 11450 9400
Wire Wire Line
	11450 9400 11450 10550
Wire Wire Line
	11450 10550 8650 10550
Text Label 13300 9050 0    50   ~ 0
UNLIEN
Wire Wire Line
	13650 9350 13050 9350
Wire Wire Line
	13050 9350 13050 8900
Wire Wire Line
	13050 8900 12550 8900
Wire Wire Line
	12550 8900 12550 8300
Text Label 13300 9350 0    50   ~ 0
BLKFRQ
Wire Notes Line
	9850 2250 7650 2250
Wire Notes Line
	7650 2250 7650 4150
Wire Notes Line
	7650 4150 9350 4150
Wire Notes Line
	9350 4150 9350 3800
Wire Notes Line
	9350 3800 9600 3800
Wire Notes Line
	9600 3800 9600 3450
Wire Notes Line
	9600 3450 9850 3450
Wire Notes Line
	9850 3450 9850 2250
Text Notes 9100 3750 0    50   ~ 0
Sync. Buffer
Wire Notes Line
	5900 9200 4400 9200
Wire Notes Line
	4400 9200 4400 5400
Wire Notes Line
	4400 5400 5900 5400
Text Notes 4500 5550 0    50   ~ 0
Display Memory
Wire Notes Line
	4200 5400 4200 11650
Wire Notes Line
	4200 11650 500  11650
Wire Notes Line
	500  11650 500  5400
Wire Notes Line
	500  5400 4200 5400
Text Notes 3000 5600 0    50   ~ 0
Display Address Multiplexer
Wire Notes Line
	9400 9500 9400 6450
Wire Notes Line
	9400 6450 10150 6450
Wire Notes Line
	10150 6450 10150 5250
Wire Notes Line
	10150 5250 5900 5250
Wire Notes Line
	5900 9500 9400 9500
Wire Notes Line
	5900 5250 5900 9500
Text Notes 7350 5550 0    50   ~ 0
Display Data Buffer
Wire Notes Line
	16050 8400 14200 8400
Wire Notes Line
	14200 8400 14200 7700
Wire Notes Line
	14200 7700 10200 7700
Wire Notes Line
	10200 7700 10200 5300
Wire Notes Line
	10200 5300 11900 5300
Wire Notes Line
	11900 5300 11900 5550
Wire Notes Line
	11900 5550 16050 5550
Wire Notes Line
	16050 5550 16050 8400
Text Notes 10550 5450 0    50   ~ 0
Character Generator
Wire Notes Line
	15900 8500 14100 8500
Wire Notes Line
	14100 8500 14100 7800
Wire Notes Line
	14100 7800 9500 7800
Wire Notes Line
	9500 7800 9500 9600
Wire Notes Line
	9500 9600 5850 9600
Wire Notes Line
	5850 9600 5850 10900
Wire Notes Line
	5850 10900 15900 10900
Wire Notes Line
	15900 10900 15900 8500
Text Notes 12350 7950 0    50   ~ 0
Attribute Generator
Wire Notes Line
	9400 4850 10300 4850
Wire Notes Line
	10300 4850 10300 5250
Wire Notes Line
	10300 5250 12050 5250
Wire Notes Line
	12050 5250 12050 5500
Wire Notes Line
	16100 4700 16100 500 
Wire Notes Line
	16100 500  9900 500 
Wire Notes Line
	9900 500  9900 3600
Wire Notes Line
	9900 3600 9700 3600
Wire Notes Line
	9700 3600 9700 3850
Wire Notes Line
	9700 3850 9400 3850
Wire Notes Line
	9400 3850 9400 4850
Text Notes 13900 750  0    50   ~ 0
CRT clock
Wire Notes Line
	9800 2200 7600 2200
Wire Notes Line
	7600 2200 7600 3950
Wire Notes Line
	7600 3950 6800 3950
Wire Notes Line
	6800 3950 6800 4150
Wire Notes Line
	6800 4150 6700 4150
Wire Notes Line
	6700 4150 6700 4550
Wire Notes Line
	6700 4550 4000 4550
Wire Notes Line
	4000 4550 4000 3400
Wire Notes Line
	4000 3400 2950 3400
Wire Notes Line
	2950 3400 2950 1800
Wire Notes Line
	2950 1800 1200 1800
Wire Notes Line
	1200 1800 1200 450 
Wire Notes Line
	1200 450  9800 450 
Wire Notes Line
	9800 450  9800 2200
Text Notes 8350 700  0    50   ~ 0
Display Memory Access Logic
Wire Notes Line
	13300 5500 13300 4700
Wire Notes Line
	13300 4700 16100 4700
Wire Notes Line
	12050 5500 13300 5500
Wire Wire Line
	14150 5350 14100 5350
Wire Wire Line
	14100 5350 14100 4800
Wire Wire Line
	14100 4800 15200 4800
Wire Wire Line
	15200 4800 15200 5250
Wire Wire Line
	15200 5250 15150 5250
Text Label 13700 5250 0    50   ~ 0
BLANK
Wire Wire Line
	13700 5250 14150 5250
Text Label 15300 5350 0    50   ~ 0
BLANK2
Wire Wire Line
	15150 5350 15600 5350
Wire Wire Line
	14150 6700 14000 6700
Wire Wire Line
	14000 6700 14000 6150
Wire Wire Line
	14000 6150 14150 6150
Text Label 14150 6600 0    50   ~ 0
-MCLEAR
Wire Wire Line
	14150 6600 14050 6600
Wire Wire Line
	14050 6600 14050 6250
Wire Wire Line
	14050 6250 14150 6250
Wire Notes Line
	9350 4200 9350 5200
Wire Notes Line
	500  1850 2900 1850
Wire Notes Line
	2900 1850 2900 3450
Wire Notes Line
	2900 3450 3950 3450
Wire Notes Line
	3950 3450 3950 4600
Wire Notes Line
	3950 4600 6750 4600
Wire Notes Line
	6750 4600 6750 4200
Wire Notes Line
	6750 4200 6850 4200
Wire Notes Line
	6850 4200 6850 4000
Wire Notes Line
	6850 4000 7600 4000
Wire Notes Line
	7600 4000 7600 4200
Wire Notes Line
	7600 4200 9350 4200
Wire Notes Line
	500  5200 9350 5200
Wire Notes Line
	500  1850 500  5200
Text Notes 3200 3600 0    50   ~ 0
CRT Controller
Text GLabel 15700 4350 0    50   Input ~ 0
DOTCLK
Wire Wire Line
	15700 4350 15800 4350
Connection ~ 15800 4350
Wire Wire Line
	15800 4350 15800 7850
Text GLabel 15300 1350 2    50   Input ~ 0
RP6-PIN6
Wire Wire Line
	13300 1250 15050 1250
Wire Wire Line
	15050 1250 15050 1350
Wire Wire Line
	15050 1350 15300 1350
Connection ~ 13300 1250
Wire Wire Line
	11500 6600 11850 6600
Wire Wire Line
	11500 6300 12050 6300
Wire Bus Line
	1300 500  5850 500 
Wire Bus Line
	1300 1950 1300 2100
Wire Bus Line
	3000 4350 3000 4650
Wire Bus Line
	11800 5650 11800 6600
Wire Bus Line
	5850 8600 5850 9400
Wire Bus Line
	6500 10300 6500 10650
Wire Bus Line
	1100 3050 1100 3650
Wire Bus Line
	1300 500  1300 1950
Wire Bus Line
	10250 5350 10250 6900
Wire Bus Line
	7750 6000 7750 9350
Wire Bus Line
	7550 6050 7550 8550
Wire Bus Line
	6050 7100 6050 9350
Wire Bus Line
	6050 6050 7150 6050
Wire Bus Line
	6050 6050 6050 6950
Wire Bus Line
	2950 2550 2950 3650
Wire Bus Line
	1150 5150 1150 10600
Wire Bus Line
	1100 3850 1100 10400
Wire Bus Line
	2800 7950 2800 10500
Wire Bus Line
	9250 6000 9250 9400
Wire Bus Line
	4250 5800 4250 9500
$EndSCHEMATC
