EESchema Schematic File Version 4
EELAYER 30 0
EELAYER END
$Descr A3 16535 11693
encoding utf-8
Sheet 4 12
Title "Mainboard - sheet 1"
Date ""
Rev ""
Comp ""
Comment1 ""
Comment2 ""
Comment3 ""
Comment4 ""
$EndDescr
$Comp
L 8085:8085 U23
U 1 1 619A4858
P 1850 3850
F 0 "U23" H 1800 5620 50  0000 C CNN
F 1 "8085" H 1800 5529 50  0000 C CNN
F 2 "DIL40" H 1850 3850 50  0001 L BNN
F 3 "" H 1850 3850 50  0001 L BNN
F 4 "" H 1850 3850 50  0001 L BNN "MPN"
F 5 "unknown" H 1850 3850 50  0001 L BNN "OC_FARNELL"
F 6 "unknown" H 1850 3850 50  0001 L BNN "OC_NEWARK"
F 7 "" H 1850 3850 50  0001 L BNN "MF"
	1    1850 3850
	1    0    0    -1  
$EndComp
$Comp
L Device:Crystal_Small X1
U 1 1 619A7225
P 800 4450
F 0 "X1" V 754 4538 50  0000 L CNN
F 1 "4.9152 MHz" V 845 4538 50  0000 L CNN
F 2 "" H 800 4450 50  0001 C CNN
F 3 "~" H 800 4450 50  0001 C CNN
	1    800  4450
	0    1    1    0   
$EndComp
$Comp
L Device:Jumper_NC_Small SW24
U 1 1 619A8A25
P 1000 4350
F 0 "SW24" H 1000 4562 50  0000 C CNN
F 1 "." H 1000 4471 50  0000 C CNN
F 2 "" H 1000 4350 50  0001 C CNN
F 3 "~" H 1000 4350 50  0001 C CNN
	1    1000 4350
	1    0    0    -1  
$EndComp
$Comp
L power:GND #PWR?
U 1 1 619A9382
P 1100 5550
F 0 "#PWR?" H 1100 5300 50  0001 C CNN
F 1 "GND" H 1105 5377 50  0000 C CNN
F 2 "" H 1100 5550 50  0001 C CNN
F 3 "" H 1100 5550 50  0001 C CNN
	1    1100 5550
	1    0    0    -1  
$EndComp
$Comp
L power:+5V #PWR?
U 1 1 619AA039
P 1100 5200
F 0 "#PWR?" H 1100 5050 50  0001 C CNN
F 1 "+5V" H 1115 5373 50  0000 C CNN
F 2 "" H 1100 5200 50  0001 C CNN
F 3 "" H 1100 5200 50  0001 C CNN
	1    1100 5200
	1    0    0    -1  
$EndComp
$Comp
L Transistor_BJT:BC548 Q70
U 1 1 619ACA7C
P 2800 1350
F 0 "Q70" H 2991 1396 50  0000 L CNN
F 1 "BC548" H 2991 1305 50  0000 L CNN
F 2 "Package_TO_SOT_THT:TO-92_Inline" H 3000 1275 50  0001 L CIN
F 3 "https://www.onsemi.com/pub/Collateral/BC550-D.pdf" H 2800 1350 50  0001 L CNN
	1    2800 1350
	1    0    0    -1  
$EndComp
$Comp
L Transistor_BJT:BC548 Q71
U 1 1 619ACBE8
P 4000 1350
F 0 "Q71" H 4191 1396 50  0000 L CNN
F 1 "BC548" H 4191 1305 50  0000 L CNN
F 2 "Package_TO_SOT_THT:TO-92_Inline" H 4200 1275 50  0001 L CIN
F 3 "https://www.onsemi.com/pub/Collateral/BC550-D.pdf" H 4000 1350 50  0001 L CNN
	1    4000 1350
	1    0    0    -1  
$EndComp
$Comp
L Device:C C130
U 1 1 619AD5CF
P 950 1950
F 0 "C130" H 1065 1996 50  0000 L CNN
F 1 "10 nF" H 1065 1905 50  0000 L CNN
F 2 "" H 988 1800 50  0001 C CNN
F 3 "~" H 950 1950 50  0001 C CNN
	1    950  1950
	1    0    0    -1  
$EndComp
$Comp
L power:GND #PWR?
U 1 1 619AE210
P 950 2250
F 0 "#PWR?" H 950 2000 50  0001 C CNN
F 1 "GND" H 955 2077 50  0000 C CNN
F 2 "" H 950 2250 50  0001 C CNN
F 3 "" H 950 2250 50  0001 C CNN
	1    950  2250
	1    0    0    -1  
$EndComp
$Comp
L Device:R R70
U 1 1 619AE72C
P 800 1550
F 0 "R70" H 870 1596 50  0000 L CNN
F 1 "47k" H 870 1505 50  0000 L CNN
F 2 "" V 730 1550 50  0001 C CNN
F 3 "~" H 800 1550 50  0001 C CNN
	1    800  1550
	1    0    0    -1  
$EndComp
$Comp
L Device:R R71
U 1 1 619AF294
P 1600 1500
F 0 "R71" H 1670 1546 50  0000 L CNN
F 1 "10k" H 1670 1455 50  0000 L CNN
F 2 "" V 1530 1500 50  0001 C CNN
F 3 "~" H 1600 1500 50  0001 C CNN
	1    1600 1500
	1    0    0    -1  
$EndComp
$Comp
L power:GND #PWR?
U 1 1 619AF5BA
P 1600 1750
F 0 "#PWR?" H 1600 1500 50  0001 C CNN
F 1 "GND" H 1605 1577 50  0000 C CNN
F 2 "" H 1600 1750 50  0001 C CNN
F 3 "" H 1600 1750 50  0001 C CNN
	1    1600 1750
	1    0    0    -1  
$EndComp
Wire Wire Line
	1600 1750 1600 1650
$Comp
L Device:C C70
U 1 1 619AFDB0
P 1950 1500
F 0 "C70" H 2065 1546 50  0000 L CNN
F 1 "10 nF" H 2065 1455 50  0000 L CNN
F 2 "" H 1988 1350 50  0001 C CNN
F 3 "~" H 1950 1500 50  0001 C CNN
	1    1950 1500
	1    0    0    -1  
$EndComp
$Comp
L power:GND #PWR?
U 1 1 619B0102
P 1950 1750
F 0 "#PWR?" H 1950 1500 50  0001 C CNN
F 1 "GND" H 1955 1577 50  0000 C CNN
F 2 "" H 1950 1750 50  0001 C CNN
F 3 "" H 1950 1750 50  0001 C CNN
	1    1950 1750
	1    0    0    -1  
$EndComp
Wire Wire Line
	1950 1750 1950 1650
$Comp
L Device:R R72
U 1 1 619B0998
P 2300 1350
F 0 "R72" V 2093 1350 50  0000 C CNN
F 1 "10k" V 2184 1350 50  0000 C CNN
F 2 "" V 2230 1350 50  0001 C CNN
F 3 "~" H 2300 1350 50  0001 C CNN
	1    2300 1350
	0    1    1    0   
$EndComp
Wire Wire Line
	2600 1350 2450 1350
Wire Wire Line
	2150 1350 1950 1350
Wire Wire Line
	1950 1350 1600 1350
Connection ~ 1950 1350
Wire Wire Line
	800  1700 800  1750
Wire Wire Line
	1600 1350 900  1350
Wire Wire Line
	800  1350 800  1400
Connection ~ 1600 1350
Wire Wire Line
	950  1800 950  1750
Wire Wire Line
	950  1750 800  1750
Connection ~ 800  1750
Wire Wire Line
	800  1750 800  3850
$Comp
L Connector:Conn_01x03_Male W5
U 1 1 619B6EDA
P 550 1100
F 0 "W5" H 658 1381 50  0000 C CNN
F 1 "W5" H 658 1290 50  0000 C CNN
F 2 "" H 550 1100 50  0001 C CNN
F 3 "~" H 550 1100 50  0001 C CNN
	1    550  1100
	1    0    0    -1  
$EndComp
Wire Wire Line
	750  1000 900  1000
Wire Wire Line
	900  1000 900  1350
Connection ~ 900  1350
Wire Wire Line
	900  1350 800  1350
Text Label 950  1350 0    50   ~ 0
LOW_MAINS
$Comp
L Device:CP C11
U 1 1 619B8CAD
P 3350 1700
F 0 "C11" H 3468 1746 50  0000 L CNN
F 1 "4.7 uF" H 3468 1655 50  0000 L CNN
F 2 "" H 3388 1550 50  0001 C CNN
F 3 "~" H 3350 1700 50  0001 C CNN
	1    3350 1700
	1    0    0    -1  
$EndComp
$Comp
L power:GND #PWR?
U 1 1 619B92F9
P 3350 1950
F 0 "#PWR?" H 3350 1700 50  0001 C CNN
F 1 "GND" H 3355 1777 50  0000 C CNN
F 2 "" H 3350 1950 50  0001 C CNN
F 3 "" H 3350 1950 50  0001 C CNN
	1    3350 1950
	1    0    0    -1  
$EndComp
Wire Wire Line
	3350 1950 3350 1850
$Comp
L power:GND #PWR?
U 1 1 619B9B94
P 2900 1700
F 0 "#PWR?" H 2900 1450 50  0001 C CNN
F 1 "GND" H 2905 1527 50  0000 C CNN
F 2 "" H 2900 1700 50  0001 C CNN
F 3 "" H 2900 1700 50  0001 C CNN
	1    2900 1700
	1    0    0    -1  
$EndComp
Wire Wire Line
	2900 1700 2900 1550
$Comp
L Device:R R74
U 1 1 619BA62A
P 3350 1250
F 0 "R74" H 3420 1296 50  0000 L CNN
F 1 "18k" H 3420 1205 50  0000 L CNN
F 2 "" V 3280 1250 50  0001 C CNN
F 3 "~" H 3350 1250 50  0001 C CNN
	1    3350 1250
	1    0    0    -1  
$EndComp
$Comp
L Device:R R73
U 1 1 619BAAD3
P 3350 850
F 0 "R73" H 3420 896 50  0000 L CNN
F 1 "47k" H 3420 805 50  0000 L CNN
F 2 "" V 3280 850 50  0001 C CNN
F 3 "~" H 3350 850 50  0001 C CNN
	1    3350 850 
	1    0    0    -1  
$EndComp
Wire Wire Line
	3350 1400 3350 1450
Wire Wire Line
	3350 1100 3350 1050
$Comp
L power:+5V #PWR?
U 1 1 619BBF2A
P 3050 700
F 0 "#PWR?" H 3050 550 50  0001 C CNN
F 1 "+5V" H 3065 873 50  0000 C CNN
F 2 "" H 3050 700 50  0001 C CNN
F 3 "" H 3050 700 50  0001 C CNN
	1    3050 700 
	1    0    0    -1  
$EndComp
Wire Wire Line
	3350 700  3050 700 
Wire Wire Line
	3050 700  1000 700 
Wire Wire Line
	1000 700  1000 1200
Wire Wire Line
	1000 1200 750  1200
Connection ~ 3050 700 
Wire Wire Line
	2900 1150 2900 1050
Wire Wire Line
	2900 1050 3350 1050
Connection ~ 3350 1050
Wire Wire Line
	3350 1050 3350 1000
$Comp
L Diode:1N4148 CR70
U 1 1 619BEB5B
P 3750 1050
F 0 "CR70" V 3704 1130 50  0000 L CNN
F 1 "1N4148" V 3795 1130 50  0000 L CNN
F 2 "Diode_THT:D_DO-35_SOD27_P7.62mm_Horizontal" H 3750 875 50  0001 C CNN
F 3 "https://assets.nexperia.com/documents/data-sheet/1N4148_1N4448.pdf" H 3750 1050 50  0001 C CNN
	1    3750 1050
	0    1    1    0   
$EndComp
Connection ~ 3350 1450
Wire Wire Line
	3350 1450 3350 1550
Wire Wire Line
	3750 1200 3750 1350
Wire Wire Line
	3750 1450 3350 1450
Wire Wire Line
	3750 900  3750 700 
Wire Wire Line
	3750 700  3350 700 
Connection ~ 3350 700 
$Comp
L Device:R R76
U 1 1 619C0CBD
P 4550 1750
F 0 "R76" H 4620 1796 50  0000 L CNN
F 1 "4k7" H 4620 1705 50  0000 L CNN
F 2 "" V 4480 1750 50  0001 C CNN
F 3 "~" H 4550 1750 50  0001 C CNN
	1    4550 1750
	1    0    0    -1  
$EndComp
$Comp
L Device:R R85
U 1 1 619C1856
P 4000 700
F 0 "R85" V 3793 700 50  0000 C CNN
F 1 "270R" V 3884 700 50  0000 C CNN
F 2 "" V 3930 700 50  0001 C CNN
F 3 "~" H 4000 700 50  0001 C CNN
	1    4000 700 
	0    1    1    0   
$EndComp
Wire Wire Line
	3850 700  3750 700 
Connection ~ 3750 700 
Wire Wire Line
	4150 700  4550 700 
$Comp
L Device:R R75
U 1 1 619C36F1
P 4550 950
F 0 "R75" H 4620 996 50  0000 L CNN
F 1 "4k7" H 4620 905 50  0000 L CNN
F 2 "" V 4480 950 50  0001 C CNN
F 3 "~" H 4550 950 50  0001 C CNN
	1    4550 950 
	1    0    0    -1  
$EndComp
Wire Wire Line
	4550 800  4550 700 
Connection ~ 4550 700 
Wire Wire Line
	4550 700  4850 700 
Wire Wire Line
	4550 1100 4550 1550
$Comp
L power:GND #PWR?
U 1 1 619C53AA
P 4550 1950
F 0 "#PWR?" H 4550 1700 50  0001 C CNN
F 1 "GND" H 4555 1777 50  0000 C CNN
F 2 "" H 4550 1950 50  0001 C CNN
F 3 "" H 4550 1950 50  0001 C CNN
	1    4550 1950
	1    0    0    -1  
$EndComp
Wire Wire Line
	4550 1950 4550 1900
$Comp
L Transistor_BJT:BC557 Q72
U 1 1 619C81FB
P 5150 1150
F 0 "Q72" H 5341 1104 50  0000 L CNN
F 1 "BC557" H 5341 1195 50  0000 L CNN
F 2 "Package_TO_SOT_THT:TO-92_Inline" H 5350 1075 50  0001 L CIN
F 3 "https://www.onsemi.com/pub/Collateral/BC556BTA-D.pdf" H 5150 1150 50  0001 L CNN
	1    5150 1150
	1    0    0    1   
$EndComp
$Comp
L Device:R R77
U 1 1 619C945B
P 4850 950
F 0 "R77" H 4920 996 50  0000 L CNN
F 1 "22k" H 4920 905 50  0000 L CNN
F 2 "" V 4780 950 50  0001 C CNN
F 3 "~" H 4850 950 50  0001 C CNN
	1    4850 950 
	1    0    0    -1  
$EndComp
Wire Wire Line
	4850 800  4850 700 
Connection ~ 4850 700 
Wire Wire Line
	4850 1100 4850 1150
Wire Wire Line
	5250 950  5250 700 
Wire Wire Line
	4850 700  5250 700 
$Comp
L Device:Q_NPN_CBE Q73
U 1 1 619CE832
P 5450 1850
F 0 "Q73" H 5641 1896 50  0000 L CNN
F 1 "BC489" H 5641 1805 50  0000 L CNN
F 2 "" H 5650 1950 50  0001 C CNN
F 3 "~" H 5450 1850 50  0001 C CNN
	1    5450 1850
	1    0    0    -1  
$EndComp
$Comp
L Device:R R78
U 1 1 619CFBAD
P 5250 1600
F 0 "R78" H 5320 1646 50  0000 L CNN
F 1 "47k" H 5320 1555 50  0000 L CNN
F 2 "" V 5180 1600 50  0001 C CNN
F 3 "~" H 5250 1600 50  0001 C CNN
	1    5250 1600
	1    0    0    -1  
$EndComp
Wire Wire Line
	5250 1450 5250 1400
Wire Wire Line
	5250 1750 5250 1850
$Comp
L Device:R R79
U 1 1 619D1E5A
P 5250 2050
F 0 "R79" H 5320 2096 50  0000 L CNN
F 1 "2k7" H 5320 2005 50  0000 L CNN
F 2 "" V 5180 2050 50  0001 C CNN
F 3 "~" H 5250 2050 50  0001 C CNN
	1    5250 2050
	1    0    0    -1  
$EndComp
Wire Wire Line
	5250 1900 5250 1850
Connection ~ 5250 1850
Wire Wire Line
	5550 2050 5550 2200
Wire Wire Line
	950  2100 950  2250
Text Label 500  2200 0    50   ~ 0
-30V_IN
Text Label 5700 1600 0    50   ~ 0
-30V
$Comp
L Diode:1N4148 CR71
U 1 1 619DA2DF
P 5750 1400
F 0 "CR71" H 5750 1183 50  0000 C CNN
F 1 "1N4148" H 5750 1274 50  0000 C CNN
F 2 "Diode_THT:D_DO-35_SOD27_P7.62mm_Horizontal" H 5750 1225 50  0001 C CNN
F 3 "https://assets.nexperia.com/documents/data-sheet/1N4148_1N4448.pdf" H 5750 1400 50  0001 C CNN
	1    5750 1400
	-1   0    0    1   
$EndComp
Wire Wire Line
	5600 1400 5250 1400
Connection ~ 5250 1400
Wire Wire Line
	5250 1400 5250 1350
$Comp
L Device:R R80
U 1 1 619DD3F4
P 6000 1600
F 0 "R80" H 6070 1646 50  0000 L CNN
F 1 "10k" H 6070 1555 50  0000 L CNN
F 2 "" V 5930 1600 50  0001 C CNN
F 3 "~" H 6000 1600 50  0001 C CNN
	1    6000 1600
	1    0    0    -1  
$EndComp
$Comp
L power:GND #PWR?
U 1 1 619DDA91
P 6000 1800
F 0 "#PWR?" H 6000 1550 50  0001 C CNN
F 1 "GND" H 6005 1627 50  0000 C CNN
F 2 "" H 6000 1800 50  0001 C CNN
F 3 "" H 6000 1800 50  0001 C CNN
	1    6000 1800
	1    0    0    -1  
$EndComp
Wire Wire Line
	6000 1800 6000 1750
Wire Wire Line
	5900 1400 6000 1400
Wire Wire Line
	6000 1450 6000 1400
Connection ~ 6000 1400
Wire Wire Line
	6000 1400 6050 1400
$Comp
L Device:R R81
U 1 1 619E1BFF
P 6200 1400
F 0 "R81" V 5993 1400 50  0000 C CNN
F 1 "10k" V 6084 1400 50  0000 C CNN
F 2 "" V 6130 1400 50  0001 C CNN
F 3 "~" H 6200 1400 50  0001 C CNN
	1    6200 1400
	0    1    1    0   
$EndComp
$Comp
L Device:R R82
U 1 1 619E20BC
P 6600 1400
F 0 "R82" V 6393 1400 50  0000 C CNN
F 1 "10k" V 6484 1400 50  0000 C CNN
F 2 "" V 6530 1400 50  0001 C CNN
F 3 "~" H 6600 1400 50  0001 C CNN
	1    6600 1400
	0    1    1    0   
$EndComp
Wire Wire Line
	6350 1400 6400 1400
$Comp
L Device:C C72
U 1 1 619E3EA0
P 6400 1800
F 0 "C72" H 6515 1846 50  0000 L CNN
F 1 "0.1 uF" H 6515 1755 50  0000 L CNN
F 2 "" H 6438 1650 50  0001 C CNN
F 3 "~" H 6400 1800 50  0001 C CNN
	1    6400 1800
	1    0    0    -1  
$EndComp
Wire Wire Line
	6400 1650 6400 1400
Connection ~ 6400 1400
Wire Wire Line
	6400 1400 6450 1400
Wire Wire Line
	6400 1950 6400 2150
$Comp
L Device:R R83
U 1 1 619E7592
P 6000 2150
F 0 "R83" V 6115 2150 50  0000 C CNN
F 1 "470R" V 6206 2150 50  0000 C CNN
F 2 "" V 5930 2150 50  0001 C CNN
F 3 "~" H 6000 2150 50  0001 C CNN
	1    6000 2150
	0    1    1    0   
$EndComp
$Comp
L power:+5V #PWR?
U 1 1 619E8053
P 5700 2150
F 0 "#PWR?" H 5700 2000 50  0001 C CNN
F 1 "+5V" H 5715 2323 50  0000 C CNN
F 2 "" H 5700 2150 50  0001 C CNN
F 3 "" H 5700 2150 50  0001 C CNN
	1    5700 2150
	1    0    0    -1  
$EndComp
Wire Wire Line
	6150 2150 6400 2150
Connection ~ 6400 2150
Text Label 6450 2150 0    50   ~ 0
RSSW
$Comp
L power:GND #PWR?
U 1 1 619EEC09
P 6400 2350
F 0 "#PWR?" H 6400 2100 50  0001 C CNN
F 1 "GND" H 6405 2177 50  0000 C CNN
F 2 "" H 6400 2350 50  0001 C CNN
F 3 "" H 6400 2350 50  0001 C CNN
	1    6400 2350
	1    0    0    -1  
$EndComp
$Comp
L Switch:SW_SPST SW?
U 1 1 619F1618
P 7200 2350
F 0 "SW?" V 7246 2448 50  0000 L CNN
F 1 "RESET_SWITCH" V 7155 2448 50  0000 L CNN
F 2 "" H 7200 2350 50  0001 C CNN
F 3 "~" H 7200 2350 50  0001 C CNN
	1    7200 2350
	0    1    -1   0   
$EndComp
$Comp
L Connector:Conn_01x03_Female W12
U 1 1 619F273F
P 6800 2250
F 0 "W12" H 6692 2017 50  0000 C CNN
F 1 "W12" H 6692 1926 50  0000 C CNN
F 2 "" H 6800 2250 50  0001 C CNN
F 3 "~" H 6800 2250 50  0001 C CNN
	1    6800 2250
	1    0    0    -1  
$EndComp
$Comp
L Connector:Conn_01x03_Male J12
U 1 1 619EBDB1
P 6850 2250
F 0 "J12" H 6958 2531 50  0000 C CNN
F 1 "J12" H 6958 2440 50  0000 C CNN
F 2 "" H 6850 2250 50  0001 C CNN
F 3 "~" H 6850 2250 50  0001 C CNN
	1    6850 2250
	1    0    0    -1  
$EndComp
Wire Wire Line
	7050 2150 7200 2150
Wire Wire Line
	7050 2350 7050 2550
Wire Wire Line
	700  2050 700  4050
Text Label 6800 1400 0    50   ~ 0
-RESET
Entry Wire Line
	2950 2350 3050 2450
Entry Wire Line
	2950 2450 3050 2550
Entry Wire Line
	2950 2550 3050 2650
Entry Wire Line
	2950 2650 3050 2750
Entry Wire Line
	2950 2750 3050 2850
Entry Wire Line
	2950 2850 3050 2950
Entry Wire Line
	2950 2950 3050 3050
Entry Wire Line
	2950 3050 3050 3150
Text Label 2650 2350 0    50   ~ 0
D0
Text Label 2650 2450 0    50   ~ 0
D1
Text Label 2650 2550 0    50   ~ 0
D2
Text Label 2650 2650 0    50   ~ 0
D3
Text Label 2650 2750 0    50   ~ 0
D4
Text Label 2650 2850 0    50   ~ 0
D5
Text Label 2650 2950 0    50   ~ 0
D6
Text Label 2650 3050 0    50   ~ 0
D7
$Comp
L Device:R_Network09 RP1
U 1 1 61A2BCA9
P 3550 2750
F 0 "RP1" H 4038 2796 50  0000 L CNN
F 1 "10k" H 4038 2705 50  0000 L CNN
F 2 "Resistor_THT:R_Array_SIP10" V 4125 2750 50  0001 C CNN
F 3 "http://www.vishay.com/docs/31509/csc.pdf" H 3550 2750 50  0001 C CNN
	1    3550 2750
	1    0    0    -1  
$EndComp
$Comp
L power:+5V #PWR?
U 1 1 61A2D98A
P 3150 2450
F 0 "#PWR?" H 3150 2300 50  0001 C CNN
F 1 "+5V" H 3165 2623 50  0000 C CNN
F 2 "" H 3150 2450 50  0001 C CNN
F 3 "" H 3150 2450 50  0001 C CNN
	1    3150 2450
	1    0    0    -1  
$EndComp
Wire Wire Line
	3150 2450 3150 2550
Entry Wire Line
	3150 3050 3250 3150
Entry Wire Line
	3250 3050 3350 3150
Entry Wire Line
	3350 3050 3450 3150
Entry Wire Line
	3450 3050 3550 3150
Entry Wire Line
	3550 3050 3650 3150
Entry Wire Line
	3650 3050 3750 3150
Entry Wire Line
	3750 3050 3850 3150
Entry Wire Line
	3850 3050 3950 3150
Wire Wire Line
	3150 3050 3150 2950
Wire Wire Line
	3250 3050 3250 2950
Wire Wire Line
	3350 3050 3350 2950
Wire Wire Line
	3450 3050 3450 2950
Wire Wire Line
	3550 3050 3550 2950
Wire Wire Line
	3650 3050 3650 2950
Wire Wire Line
	3750 3050 3750 2950
Wire Wire Line
	3850 3050 3850 2950
Text Label 3150 3050 0    50   ~ 0
D0
Text Label 3250 3050 0    50   ~ 0
D1
Text Label 3350 3050 0    50   ~ 0
D2
Text Label 3450 3050 0    50   ~ 0
D3
Text Label 3550 3050 0    50   ~ 0
D4
Text Label 3650 3050 0    50   ~ 0
D5
Text Label 3750 3050 0    50   ~ 0
D6
Text Label 3850 3050 0    50   ~ 0
D7
Wire Wire Line
	3950 2950 3950 3050
Wire Wire Line
	3950 3050 4000 3050
Text Label 4000 3050 0    50   ~ 0
-SIOINT
$Comp
L 74xx:74LS373 U26
U 1 1 61A59830
P 4350 4050
F 0 "U26" H 4450 4850 50  0000 C CNN
F 1 "74LS373" H 4550 4750 50  0000 C CNN
F 2 "" H 4350 4050 50  0001 C CNN
F 3 "http://www.ti.com/lit/gpn/sn74LS373" H 4350 4050 50  0001 C CNN
	1    4350 4050
	1    0    0    -1  
$EndComp
$Comp
L power:+5V #PWR?
U 1 1 61A5F95A
P 4350 2900
F 0 "#PWR?" H 4350 2750 50  0001 C CNN
F 1 "+5V" H 4365 3073 50  0000 C CNN
F 2 "" H 4350 2900 50  0001 C CNN
F 3 "" H 4350 2900 50  0001 C CNN
	1    4350 2900
	1    0    0    -1  
$EndComp
$Comp
L power:GND #PWR?
U 1 1 61A63A0B
P 4350 4900
F 0 "#PWR?" H 4350 4650 50  0001 C CNN
F 1 "GND" H 4355 4727 50  0000 C CNN
F 2 "" H 4350 4900 50  0001 C CNN
F 3 "" H 4350 4900 50  0001 C CNN
	1    4350 4900
	1    0    0    -1  
$EndComp
Entry Wire Line
	3650 4150 3750 4250
Entry Wire Line
	3650 4050 3750 4150
Entry Wire Line
	3650 3950 3750 4050
Entry Wire Line
	3650 3850 3750 3950
Entry Wire Line
	3650 3750 3750 3850
Entry Wire Line
	3650 3650 3750 3750
Entry Wire Line
	3650 3550 3750 3650
Entry Wire Line
	3650 3450 3750 3550
Wire Wire Line
	3750 4250 3850 4250
Wire Wire Line
	3750 4150 3850 4150
Wire Wire Line
	3850 4050 3750 4050
Wire Wire Line
	3750 3950 3850 3950
Wire Wire Line
	3850 3850 3750 3850
Wire Wire Line
	3750 3750 3850 3750
Wire Wire Line
	3850 3650 3750 3650
Wire Wire Line
	3750 3550 3850 3550
Text Label 3800 3550 0    50   ~ 0
D0
Text Label 3800 3650 0    50   ~ 0
D1
Text Label 3800 3750 0    50   ~ 0
D2
Text Label 3800 3850 0    50   ~ 0
D3
Text Label 3800 3950 0    50   ~ 0
D4
Text Label 3800 4050 0    50   ~ 0
D5
Text Label 3800 4150 0    50   ~ 0
D6
Text Label 3800 4250 0    50   ~ 0
D7
$Comp
L power:GND #PWR?
U 1 1 61A9868E
P 3800 4600
F 0 "#PWR?" H 3800 4350 50  0001 C CNN
F 1 "GND" H 3805 4427 50  0000 C CNN
F 2 "" H 3800 4600 50  0001 C CNN
F 3 "" H 3800 4600 50  0001 C CNN
	1    3800 4600
	1    0    0    -1  
$EndComp
Wire Wire Line
	3800 4600 3800 4550
Wire Wire Line
	3800 4550 3850 4550
Wire Wire Line
	4350 2900 4350 3250
Connection ~ 3650 3150
$Comp
L 74xx:74LS373 U83
U 1 1 61AA7EC1
P 4350 6300
F 0 "U83" H 4450 7100 50  0000 C CNN
F 1 "74LS373" H 4550 7000 50  0000 C CNN
F 2 "" H 4350 6300 50  0001 C CNN
F 3 "http://www.ti.com/lit/gpn/sn74LS373" H 4350 6300 50  0001 C CNN
	1    4350 6300
	1    0    0    -1  
$EndComp
$Comp
L power:GND #PWR?
U 1 1 61AA90BB
P 4350 7200
F 0 "#PWR?" H 4350 6950 50  0001 C CNN
F 1 "GND" H 4355 7027 50  0000 C CNN
F 2 "" H 4350 7200 50  0001 C CNN
F 3 "" H 4350 7200 50  0001 C CNN
	1    4350 7200
	1    0    0    -1  
$EndComp
$Comp
L power:+5V #PWR?
U 1 1 61AA94DA
P 4350 5400
F 0 "#PWR?" H 4350 5250 50  0001 C CNN
F 1 "+5V" H 4365 5573 50  0000 C CNN
F 2 "" H 4350 5400 50  0001 C CNN
F 3 "" H 4350 5400 50  0001 C CNN
	1    4350 5400
	1    0    0    -1  
$EndComp
Wire Wire Line
	4350 7200 4350 7100
Wire Wire Line
	4350 5500 4350 5400
Wire Wire Line
	3850 5800 3600 5800
Wire Wire Line
	3600 5800 3600 3250
Wire Wire Line
	3600 3250 2450 3250
Wire Wire Line
	3850 5900 3550 5900
Wire Wire Line
	3550 5900 3550 3350
Wire Wire Line
	3550 3350 2450 3350
Wire Wire Line
	3850 6000 3500 6000
Wire Wire Line
	3500 6000 3500 3450
Wire Wire Line
	3500 3450 2450 3450
Wire Wire Line
	3850 6100 3450 6100
Wire Wire Line
	3450 6100 3450 3550
Wire Wire Line
	3450 3550 2450 3550
Wire Wire Line
	3850 6200 3400 6200
Wire Wire Line
	3400 6200 3400 3650
Wire Wire Line
	3400 3650 2450 3650
Wire Wire Line
	3850 6300 3350 6300
Wire Wire Line
	3350 6300 3350 3750
Wire Wire Line
	3350 3750 2450 3750
Wire Wire Line
	3850 6400 3300 6400
Wire Wire Line
	3300 6400 3300 3850
Wire Wire Line
	3300 3850 2450 3850
Wire Wire Line
	3850 6500 3250 6500
Wire Wire Line
	3250 6500 3250 3950
Wire Wire Line
	3250 3950 2450 3950
Entry Wire Line
	4950 6400 5050 6500
Entry Wire Line
	4950 6500 5050 6600
Entry Wire Line
	4950 6300 5050 6400
Entry Wire Line
	4950 6200 5050 6300
Entry Wire Line
	4950 6100 5050 6200
Entry Wire Line
	4950 6000 5050 6100
Entry Wire Line
	4950 5900 5050 6000
Entry Wire Line
	4950 5800 5050 5900
Entry Wire Line
	4950 4250 5050 4350
Entry Wire Line
	4950 4150 5050 4250
Entry Wire Line
	4950 4050 5050 4150
Entry Wire Line
	4950 3950 5050 4050
Entry Wire Line
	4950 3850 5050 3950
Entry Wire Line
	4950 3750 5050 3850
Entry Wire Line
	4950 3650 5050 3750
Entry Wire Line
	4950 3550 5050 3650
Wire Wire Line
	4850 3550 4950 3550
Wire Wire Line
	4850 3650 4950 3650
Wire Wire Line
	4850 3750 4950 3750
Wire Wire Line
	4850 3850 4950 3850
Wire Wire Line
	4850 3950 4950 3950
Wire Wire Line
	4850 4050 4950 4050
Wire Wire Line
	4850 4150 4950 4150
Wire Wire Line
	4850 4250 4950 4250
Wire Wire Line
	4850 5800 4950 5800
Wire Wire Line
	4850 5900 4950 5900
Wire Wire Line
	4850 6000 4950 6000
Wire Wire Line
	4850 6100 4950 6100
Wire Wire Line
	4850 6200 4950 6200
Wire Wire Line
	4850 6300 4950 6300
Wire Wire Line
	4850 6400 4950 6400
Wire Wire Line
	4850 6500 4950 6500
Text Label 4850 3550 0    50   ~ 0
A0
Text Label 4850 3650 0    50   ~ 0
A1
Text Label 4850 3750 0    50   ~ 0
A2
Text Label 4850 3850 0    50   ~ 0
A3
Text Label 4850 3950 0    50   ~ 0
A4
Text Label 4850 4050 0    50   ~ 0
A5
Text Label 4850 4150 0    50   ~ 0
A6
Text Label 4850 4250 0    50   ~ 0
A7
Text Label 4850 5800 0    50   ~ 0
A8
Text Label 4850 5900 0    50   ~ 0
A9
Text Label 4850 6000 0    50   ~ 0
A10
Text Label 4850 6100 0    50   ~ 0
A11
Text Label 4850 6200 0    50   ~ 0
A12
Text Label 4850 6300 0    50   ~ 0
A13
Text Label 4850 6400 0    50   ~ 0
A14
Text Label 4850 6500 0    50   ~ 0
A15
Text Label 5750 3150 0    50   ~ 0
DBUS
Wire Bus Line
	5050 3250 6300 3250
Text Label 5750 3250 0    50   ~ 0
ABUS
Text Label 5750 3350 0    50   ~ 0
CBUS
Text Label 5100 4950 0    50   ~ 0
HLDA
Text Label 2850 4950 0    50   ~ 0
HLDA
$Comp
L Device:R R18
U 1 1 61BB4B04
P 600 3000
F 0 "R18" H 670 3046 50  0000 L CNN
F 1 "15k" H 670 2955 50  0000 L CNN
F 2 "" V 530 3000 50  0001 C CNN
F 3 "~" H 600 3000 50  0001 C CNN
	1    600  3000
	1    0    0    -1  
$EndComp
$Comp
L power:GND #PWR?
U 1 1 61BB5B18
P 600 3200
F 0 "#PWR?" H 600 2950 50  0001 C CNN
F 1 "GND" H 605 3027 50  0000 C CNN
F 2 "" H 600 3200 50  0001 C CNN
F 3 "" H 600 3200 50  0001 C CNN
	1    600  3200
	1    0    0    -1  
$EndComp
Wire Wire Line
	500  2850 500  5650
Connection ~ 600  2850
Wire Wire Line
	600  2850 500  2850
Entry Wire Line
	5250 5650 5350 5750
Text Label 5100 5650 0    50   ~ 0
HOLD
Text Label 550  2850 0    50   ~ 0
HOLD
Wire Wire Line
	500  5650 5250 5650
$Comp
L 74xx_IEEE:74LS240 U25
U 2 1 618E0646
P 4300 8150
F 0 "U25" H 4300 8766 50  0000 C CNN
F 1 "74LS240" H 4300 8675 50  0000 C CNN
F 2 "" H 4300 8150 50  0001 C CNN
F 3 "http://www.ti.com/lit/ds/symlink/sn74ls240.pdf" H 4300 8150 50  0001 C CNN
	2    4300 8150
	1    0    0    -1  
$EndComp
Entry Wire Line
	5250 8450 5350 8550
Text Label 5100 8050 0    50   ~ 0
S1
Connection ~ 3600 6800
Wire Wire Line
	3600 6800 3850 6800
Text Label 5050 8450 0    50   ~ 0
-S1
$Comp
L power:GND #PWR?
U 1 1 6193CEB1
P 2300 7500
F 0 "#PWR?" H 2300 7250 50  0001 C CNN
F 1 "GND" H 2305 7327 50  0000 C CNN
F 2 "" H 2300 7500 50  0001 C CNN
F 3 "" H 2300 7500 50  0001 C CNN
	1    2300 7500
	1    0    0    -1  
$EndComp
Wire Wire Line
	3350 8050 3250 8050
Text Label 5100 8350 0    50   ~ 0
ALE
$Comp
L Device:R R202
U 1 1 61971D68
P 2950 4300
F 0 "R202" H 3020 4346 50  0000 L CNN
F 1 "6k8" H 3020 4255 50  0000 L CNN
F 2 "" V 2880 4300 50  0001 C CNN
F 3 "~" H 2950 4300 50  0001 C CNN
	1    2950 4300
	1    0    0    -1  
$EndComp
$Comp
L power:+5V #PWR?
U 1 1 619731C1
P 2950 4500
F 0 "#PWR?" H 2950 4350 50  0001 C CNN
F 1 "+5V" H 2965 4673 50  0000 C CNN
F 2 "" H 2950 4500 50  0001 C CNN
F 3 "" H 2950 4500 50  0001 C CNN
	1    2950 4500
	-1   0    0    1   
$EndComp
Wire Wire Line
	2950 4500 2950 4450
Wire Wire Line
	2950 4150 2650 4150
Entry Wire Line
	5250 8550 5350 8650
Text Label 5050 8150 0    50   ~ 0
-WR
Text Label 5100 8550 0    50   ~ 0
WR
Wire Wire Line
	3250 8150 3350 8150
Wire Wire Line
	3350 8150 3350 8200
Wire Wire Line
	3650 8250 3750 8250
Entry Wire Line
	5250 8650 5350 8750
Text Label 5100 8650 0    50   ~ 0
RD
Text Label 5050 8250 0    50   ~ 0
-RD
Entry Wire Line
	5250 4800 5350 4900
Wire Wire Line
	5250 4800 3650 4800
Wire Wire Line
	3650 4800 3650 4450
Wire Wire Line
	3650 4450 3850 4450
Text Label 5150 4800 0    50   ~ 0
ALE
Entry Wire Line
	5250 7050 5350 7150
Wire Wire Line
	5250 7050 3700 7050
Wire Wire Line
	3700 7050 3700 6700
Wire Wire Line
	3700 6700 3850 6700
Text Label 5150 7050 0    50   ~ 0
ALE
$Comp
L 74xx_IEEE:74LS240 U5
U 2 1 61A4558C
P 2700 9350
F 0 "U5" H 2700 9966 50  0000 C CNN
F 1 "74LS240" H 2700 9875 50  0000 C CNN
F 2 "" H 2700 9350 50  0001 C CNN
F 3 "http://www.ti.com/lit/ds/symlink/sn74ls240.pdf" H 2700 9350 50  0001 C CNN
	2    2700 9350
	1    0    0    -1  
$EndComp
$Comp
L 74xx_IEEE:74LS240 U5
U 1 1 61A470FC
P 4300 9350
F 0 "U5" H 4300 9966 50  0000 C CNN
F 1 "74LS240" H 4300 9875 50  0000 C CNN
F 2 "" H 4300 9350 50  0001 C CNN
F 3 "http://www.ti.com/lit/ds/symlink/sn74ls240.pdf" H 4300 9350 50  0001 C CNN
	1    4300 9350
	1    0    0    -1  
$EndComp
Wire Wire Line
	3250 9350 3600 9350
Text Label 4950 9350 0    50   ~ 0
MCLEAR
Entry Wire Line
	5250 9750 5350 9850
Connection ~ 3600 9350
Wire Wire Line
	3600 9350 3750 9350
Text Label 4900 9650 0    50   ~ 0
-MCLEAR
Wire Wire Line
	1900 9450 2150 9450
Text Label 4950 9750 0    50   ~ 0
MCLEAR
Wire Wire Line
	3500 9250 3750 9250
Wire Wire Line
	3450 9450 3250 9450
Text Label 4900 9900 0    50   ~ 0
-MCLEA1
Text GLabel 5600 9000 2    50   Input ~ 0
-MCLEA2
Text GLabel 5600 9900 2    50   Input ~ 0
-MCLEA1
$Comp
L 74xx:74LS74 U10
U 1 1 61B53D94
P 2850 10300
F 0 "U10" H 2850 10781 50  0000 C CNN
F 1 "74LS74" H 2850 10690 50  0000 C CNN
F 2 "" H 2850 10300 50  0001 C CNN
F 3 "74xx/74hc_hct74.pdf" H 2850 10300 50  0001 C CNN
	1    2850 10300
	1    0    0    -1  
$EndComp
$Comp
L 74xx:74LS74 U10
U 2 1 61B555AC
P 3700 10300
F 0 "U10" H 3700 10781 50  0000 C CNN
F 1 "74LS74" H 3700 10690 50  0000 C CNN
F 2 "" H 3700 10300 50  0001 C CNN
F 3 "74xx/74hc_hct74.pdf" H 3700 10300 50  0001 C CNN
	2    3700 10300
	1    0    0    -1  
$EndComp
$Comp
L 74xx:74LS00 U2
U 4 1 61B5677A
P 1850 10300
F 0 "U2" H 1850 10625 50  0000 C CNN
F 1 "74LS00" H 1850 10534 50  0000 C CNN
F 2 "" H 1850 10300 50  0001 C CNN
F 3 "http://www.ti.com/lit/gpn/sn74ls00" H 1850 10300 50  0001 C CNN
	4    1850 10300
	1    0    0    -1  
$EndComp
Wire Wire Line
	2150 10300 2550 10300
$Comp
L power:GND #PWR?
U 1 1 61B6DF0C
P 2550 10050
F 0 "#PWR?" H 2550 9800 50  0001 C CNN
F 1 "GND" H 2555 9877 50  0000 C CNN
F 2 "" H 2550 10050 50  0001 C CNN
F 3 "" H 2550 10050 50  0001 C CNN
	1    2550 10050
	-1   0    0    1   
$EndComp
Wire Wire Line
	2550 10200 2550 10050
Entry Wire Line
	5250 10650 5350 10750
Wire Wire Line
	5250 10650 3300 10650
Wire Wire Line
	2850 10650 2850 10600
Wire Wire Line
	3700 10000 3300 10000
Wire Wire Line
	3300 10000 3300 10650
Connection ~ 3300 10650
Wire Wire Line
	3300 10650 2850 10650
Text Label 4900 10650 0    50   ~ 0
-MCLEAR
$Comp
L power:+5V #PWR?
U 1 1 61BC6E19
P 3700 10700
F 0 "#PWR?" H 3700 10550 50  0001 C CNN
F 1 "+5V" H 3715 10873 50  0000 C CNN
F 2 "" H 3700 10700 50  0001 C CNN
F 3 "" H 3700 10700 50  0001 C CNN
	1    3700 10700
	-1   0    0    1   
$EndComp
Wire Wire Line
	3700 10700 3700 10600
Wire Wire Line
	3400 10200 3150 10200
$Comp
L 74xx:74LS09 U46
U 4 1 61BF4F00
P 4550 10300
F 0 "U46" H 4550 10050 50  0000 C CNN
F 1 "74LS09" H 4550 9950 50  0000 C CNN
F 2 "" H 4550 10300 50  0001 C CNN
F 3 "http://www.ti.com/lit/gpn/sn74LS09" H 4550 10300 50  0001 C CNN
	4    4550 10300
	1    0    0    -1  
$EndComp
Wire Wire Line
	4000 10200 4150 10200
Wire Wire Line
	4150 10200 4150 9950
Wire Wire Line
	4150 9950 2850 9950
Wire Wire Line
	2850 9950 2850 10000
Connection ~ 4150 10200
Wire Wire Line
	4150 10200 4250 10200
$Comp
L power:+5V #PWR?
U 1 1 61C24EAF
P 4250 10700
F 0 "#PWR?" H 4250 10550 50  0001 C CNN
F 1 "+5V" H 4265 10873 50  0000 C CNN
F 2 "" H 4250 10700 50  0001 C CNN
F 3 "" H 4250 10700 50  0001 C CNN
	1    4250 10700
	-1   0    0    1   
$EndComp
Wire Wire Line
	4250 10700 4250 10400
Entry Wire Line
	5250 10300 5350 10400
Wire Wire Line
	5250 10300 4950 10300
Text Label 5100 10300 0    50   ~ 0
RDY
$Comp
L Device:R R24
U 1 1 61C55DDF
P 4950 10150
F 0 "R24" H 5020 10196 50  0000 L CNN
F 1 "1k" H 5020 10105 50  0000 L CNN
F 2 "" V 4880 10150 50  0001 C CNN
F 3 "~" H 4950 10150 50  0001 C CNN
	1    4950 10150
	1    0    0    -1  
$EndComp
Connection ~ 4950 10300
Wire Wire Line
	4950 10300 4850 10300
$Comp
L power:+5V #PWR?
U 1 1 61C56047
P 4900 10000
F 0 "#PWR?" H 4900 9850 50  0001 C CNN
F 1 "+5V" V 4915 10128 50  0000 L CNN
F 2 "" H 4900 10000 50  0001 C CNN
F 3 "" H 4900 10000 50  0001 C CNN
	1    4900 10000
	0    -1   -1   0   
$EndComp
Wire Wire Line
	4900 10000 4950 10000
Text GLabel 3400 10750 0    50   Input ~ 0
-CLK
Wire Wire Line
	3400 10750 3400 10300
NoConn ~ 4000 10400
NoConn ~ 3150 10400
$Comp
L 74xx:74LS157 U18
U 1 1 61CCFF39
P 6900 9450
F 0 "U18" H 7000 10350 50  0000 C CNN
F 1 "74LS157" H 7100 10250 50  0000 C CNN
F 2 "" H 6900 9450 50  0001 C CNN
F 3 "http://www.ti.com/lit/gpn/sn74LS157" H 6900 9450 50  0001 C CNN
	1    6900 9450
	1    0    0    -1  
$EndComp
$Comp
L power:GND #PWR?
U 1 1 61CD1BC8
P 6900 10600
F 0 "#PWR?" H 6900 10350 50  0001 C CNN
F 1 "GND" H 6905 10427 50  0000 C CNN
F 2 "" H 6900 10600 50  0001 C CNN
F 3 "" H 6900 10600 50  0001 C CNN
	1    6900 10600
	1    0    0    -1  
$EndComp
Wire Wire Line
	6900 10600 6900 10550
Wire Wire Line
	6900 10550 6300 10550
Wire Wire Line
	6300 10550 6300 10150
Wire Wire Line
	6300 10150 6400 10150
Connection ~ 6900 10550
Wire Wire Line
	6900 10550 6900 10450
$Comp
L power:+5V #PWR?
U 1 1 61D030F3
P 6900 8300
F 0 "#PWR?" H 6900 8150 50  0001 C CNN
F 1 "+5V" H 6915 8473 50  0000 C CNN
F 2 "" H 6900 8300 50  0001 C CNN
F 3 "" H 6900 8300 50  0001 C CNN
	1    6900 8300
	1    0    0    -1  
$EndComp
Wire Wire Line
	6900 8550 6900 8500
Wire Wire Line
	6400 9750 6250 9750
Wire Wire Line
	6250 9750 6250 9450
Wire Wire Line
	6250 9450 6400 9450
Wire Wire Line
	6250 9450 6250 8950
Wire Wire Line
	6250 8950 6400 8950
Connection ~ 6250 9450
Wire Wire Line
	6250 8950 6250 8500
Wire Wire Line
	6250 8500 6900 8500
Connection ~ 6250 8950
Connection ~ 6900 8500
Wire Wire Line
	6900 8500 6900 8300
Entry Wire Line
	5350 9250 5450 9150
Wire Wire Line
	5450 9150 6400 9150
Text Label 5450 9150 0    50   ~ 0
-RD
Entry Wire Line
	5350 9350 5450 9250
Wire Wire Line
	5450 9250 6400 9250
Text Label 5450 9250 0    50   ~ 0
-INTA
Entry Wire Line
	5250 8050 5350 8150
Wire Wire Line
	4850 8050 5250 8050
Entry Wire Line
	5250 8150 5350 8250
Entry Wire Line
	5250 8250 5350 8350
Entry Wire Line
	5250 8350 5350 8450
Wire Wire Line
	4850 8150 5250 8150
Wire Wire Line
	4850 8250 5250 8250
Wire Wire Line
	4850 8350 5250 8350
Wire Wire Line
	3750 7850 3600 7850
Wire Wire Line
	3600 7850 3600 6800
Wire Wire Line
	1650 6400 1650 8350
Wire Wire Line
	1700 6450 1700 8050
Wire Wire Line
	1750 6500 1750 8250
Wire Wire Line
	1800 6550 1800 8150
$Comp
L 74xx_IEEE:74LS240 U25
U 1 1 618DF926
P 2700 8150
F 0 "U25" H 2700 8766 50  0000 C CNN
F 1 "74LS240" H 2700 8675 50  0000 C CNN
F 2 "" H 2700 8150 50  0001 C CNN
F 3 "http://www.ti.com/lit/ds/symlink/sn74ls240.pdf" H 2700 8150 50  0001 C CNN
	1    2700 8150
	1    0    0    -1  
$EndComp
Wire Wire Line
	2150 7850 2100 7850
Wire Wire Line
	2100 7850 2100 7450
Wire Wire Line
	2100 7450 2300 7450
Wire Wire Line
	2300 7450 2300 7500
Wire Wire Line
	2150 8050 1700 8050
Wire Wire Line
	2150 8150 1800 8150
Wire Wire Line
	2150 8250 1750 8250
Wire Wire Line
	2150 8350 1650 8350
Wire Wire Line
	3600 8350 3600 8000
Wire Wire Line
	3600 8000 3350 8000
Wire Wire Line
	3350 8000 3350 8050
Wire Wire Line
	3600 8350 3750 8350
Wire Wire Line
	5250 8450 3450 8450
Wire Wire Line
	5250 8550 3550 8550
Wire Wire Line
	5250 8650 3650 8650
Wire Wire Line
	3650 8250 3650 8200
Wire Wire Line
	3650 8200 3350 8200
Connection ~ 3650 8250
Wire Wire Line
	3650 8250 3650 8650
Wire Wire Line
	3550 8150 3550 8250
Wire Wire Line
	3550 8150 3750 8150
Connection ~ 3550 8250
Wire Wire Line
	3550 8250 3550 8550
Wire Wire Line
	3250 8250 3550 8250
Wire Wire Line
	3450 8450 3450 8350
Wire Wire Line
	3450 8050 3750 8050
Connection ~ 3450 8350
Wire Wire Line
	3450 8350 3450 8050
Wire Wire Line
	3250 8350 3450 8350
Text Label 4900 9250 0    50   ~ 0
-MCLEA2
Entry Wire Line
	5250 9350 5350 9450
Wire Wire Line
	5250 9350 4850 9350
Wire Wire Line
	5250 9250 5250 9000
Wire Wire Line
	5250 9000 5600 9000
Wire Wire Line
	4850 9250 5250 9250
Entry Wire Line
	5250 9650 5350 9750
Wire Wire Line
	5250 9650 3600 9650
Wire Wire Line
	3600 9650 3600 9350
Wire Wire Line
	5250 9750 3500 9750
Connection ~ 3500 9750
Wire Wire Line
	3500 9750 3500 9250
Wire Wire Line
	3500 9750 1900 9750
Wire Wire Line
	1900 9750 1900 9450
Wire Wire Line
	3450 9900 5600 9900
Wire Wire Line
	3450 9450 3450 9900
Text Label 1250 11150 0    50   ~ 0
IRBUS
Entry Wire Line
	6150 11050 6250 11150
Entry Wire Line
	6050 11050 6150 11150
Wire Wire Line
	6150 11050 6150 9850
Wire Wire Line
	6150 9850 6400 9850
Text Label 6150 9850 0    50   ~ 0
-SIOINT
Wire Wire Line
	6400 9550 6050 9550
Wire Wire Line
	6050 9550 6050 11050
Text Label 6050 9550 0    50   ~ 0
-PRINT
Wire Wire Line
	1600 6350 1600 9350
Wire Wire Line
	1600 9350 2150 9350
Entry Wire Line
	850  11050 950  11150
Text Label 850  11050 2    50   ~ 0
VSYNC
$Comp
L 74xx:74LS00 U36
U 4 1 6248DB34
P 2300 10800
F 0 "U36" H 2300 11125 50  0000 C CNN
F 1 "74LS00" H 2300 11034 50  0000 C CNN
F 2 "" H 2300 10800 50  0001 C CNN
F 3 "http://www.ti.com/lit/gpn/sn74ls00" H 2300 10800 50  0001 C CNN
	4    2300 10800
	1    0    0    -1  
$EndComp
$Comp
L power:+5V #PWR?
U 1 1 62493E27
P 1900 10900
F 0 "#PWR?" H 1900 10750 50  0001 C CNN
F 1 "+5V" H 1915 11073 50  0000 C CNN
F 2 "" H 1900 10900 50  0001 C CNN
F 3 "" H 1900 10900 50  0001 C CNN
	1    1900 10900
	-1   0    0    1   
$EndComp
Wire Wire Line
	1900 10900 2000 10900
Entry Wire Line
	1700 11050 1800 11150
Wire Wire Line
	1700 11050 1700 10700
Wire Wire Line
	1700 10700 2000 10700
Text Label 1700 10700 0    50   ~ 0
-KBINT
Wire Wire Line
	750  3450 750  10550
Wire Wire Line
	750  10550 2650 10550
Wire Wire Line
	2650 10550 2650 10800
Wire Wire Line
	2650 10800 2600 10800
Text Label 750  3450 0    50   ~ 0
KBINT
$Comp
L 74xx:74LS00 U2
U 3 1 624EF375
P 8650 9350
F 0 "U2" H 8650 9675 50  0000 C CNN
F 1 "74LS00" H 8650 9584 50  0000 C CNN
F 2 "" H 8650 9350 50  0001 C CNN
F 3 "http://www.ti.com/lit/gpn/sn74ls00" H 8650 9350 50  0001 C CNN
	3    8650 9350
	1    0    0    -1  
$EndComp
$Comp
L 74xx:74LS374 U30
U 1 1 624F1BDF
P 10400 9250
F 0 "U30" H 10400 10231 50  0000 C CNN
F 1 "74LS374" H 10400 10140 50  0000 C CNN
F 2 "" H 10400 9250 50  0001 C CNN
F 3 "http://www.ti.com/lit/gpn/sn74LS374" H 10400 9250 50  0001 C CNN
	1    10400 9250
	1    0    0    -1  
$EndComp
Wire Wire Line
	7400 9450 7900 9450
Wire Wire Line
	7900 9450 7900 9250
Wire Wire Line
	7900 9250 8350 9250
Wire Wire Line
	7400 9150 7700 9150
Wire Wire Line
	7700 9150 7700 8950
Wire Wire Line
	7700 8950 9600 8950
Wire Wire Line
	9600 8950 9600 9750
Wire Wire Line
	9600 9750 9900 9750
Text Label 9650 9750 0    50   ~ 0
-INTCE
Wire Wire Line
	8350 9450 8050 9450
Wire Wire Line
	8050 9450 8050 9750
Wire Wire Line
	8050 9750 7800 9750
Wire Wire Line
	7900 9450 7900 9900
Wire Wire Line
	7900 9900 9350 9900
Wire Wire Line
	9350 9900 9350 9050
Wire Wire Line
	9350 9050 9900 9050
Connection ~ 7900 9450
Text Label 8550 9900 0    50   ~ 0
-PRINT1
Wire Wire Line
	7800 9750 7800 10000
Wire Wire Line
	7800 10000 9450 10000
Wire Wire Line
	9450 10000 9450 9150
Wire Wire Line
	9450 9150 9900 9150
Connection ~ 7800 9750
Wire Wire Line
	7800 9750 7400 9750
Text Label 8550 10000 0    50   ~ 0
-SIOIN1
$Comp
L power:+5V #PWR?
U 1 1 62591AFA
P 9700 8450
F 0 "#PWR?" H 9700 8300 50  0001 C CNN
F 1 "+5V" H 9715 8623 50  0000 C CNN
F 2 "" H 9700 8450 50  0001 C CNN
F 3 "" H 9700 8450 50  0001 C CNN
	1    9700 8450
	1    0    0    -1  
$EndComp
Wire Wire Line
	10400 8450 9700 8450
Wire Wire Line
	9700 8450 9700 8750
Wire Wire Line
	9700 8950 9900 8950
Connection ~ 9700 8450
Wire Wire Line
	9900 8850 9700 8850
Connection ~ 9700 8850
Wire Wire Line
	9700 8850 9700 8950
Wire Wire Line
	9900 8750 9700 8750
Connection ~ 9700 8750
Wire Wire Line
	9700 8750 9700 8850
Wire Wire Line
	9900 9250 9700 9250
Wire Wire Line
	9700 9250 9700 8950
Connection ~ 9700 8950
Wire Wire Line
	9900 9350 9700 9350
Wire Wire Line
	9700 9350 9700 9250
Connection ~ 9700 9250
Wire Wire Line
	7400 8850 7550 8850
Wire Wire Line
	7550 8850 7550 10100
Wire Wire Line
	7550 10100 9550 10100
Wire Wire Line
	9550 10100 9550 9450
Wire Wire Line
	9550 9450 9900 9450
Text Label 8550 10100 0    50   ~ 0
-INTCE
Entry Wire Line
	5350 8050 5450 7950
Wire Wire Line
	5450 7950 9100 7950
Wire Wire Line
	9100 7950 9100 9350
Wire Wire Line
	9100 9350 8950 9350
Text Label 5450 7950 0    50   ~ 0
INTR
Text Label 9100 9350 0    50   ~ 0
INTR
Entry Wire Line
	5350 7950 5450 7850
Wire Wire Line
	5450 7850 9300 7850
Wire Wire Line
	9300 7850 9300 9650
Wire Wire Line
	9300 9650 9900 9650
Text Label 5450 7850 0    50   ~ 0
ALE
Text Label 9700 9650 0    50   ~ 0
ALE
$Comp
L power:GND #PWR?
U 1 1 626C7047
P 10400 10150
F 0 "#PWR?" H 10400 9900 50  0001 C CNN
F 1 "GND" H 10405 9977 50  0000 C CNN
F 2 "" H 10400 10150 50  0001 C CNN
F 3 "" H 10400 10150 50  0001 C CNN
	1    10400 10150
	1    0    0    -1  
$EndComp
Wire Wire Line
	10400 10150 10400 10050
$Comp
L 74xx:74LS243 U42
U 1 1 626EBC41
P 12100 9100
F 0 "U42" H 12200 9650 50  0000 C CNN
F 1 "74LS243" H 12300 9550 50  0000 C CNN
F 2 "" H 12100 9100 50  0001 C CNN
F 3 "http://www.ti.com/lit/gpn/sn74LS243" H 12100 9100 50  0001 C CNN
	1    12100 9100
	-1   0    0    -1  
$EndComp
$Comp
L power:GND #PWR?
U 1 1 626EC647
P 12100 9750
F 0 "#PWR?" H 12100 9500 50  0001 C CNN
F 1 "GND" H 12105 9577 50  0000 C CNN
F 2 "" H 12100 9750 50  0001 C CNN
F 3 "" H 12100 9750 50  0001 C CNN
	1    12100 9750
	1    0    0    -1  
$EndComp
Wire Wire Line
	12100 9750 12100 9700
$Comp
L 74xx:74LS243 U7
U 1 1 627111D2
P 12100 7550
F 0 "U7" H 12200 8100 50  0000 C CNN
F 1 "74LS243" H 12300 8000 50  0000 C CNN
F 2 "" H 12100 7550 50  0001 C CNN
F 3 "http://www.ti.com/lit/gpn/sn74LS243" H 12100 7550 50  0001 C CNN
	1    12100 7550
	-1   0    0    -1  
$EndComp
$Comp
L power:GND #PWR?
U 1 1 6271247A
P 12100 8250
F 0 "#PWR?" H 12100 8000 50  0001 C CNN
F 1 "GND" H 12105 8077 50  0000 C CNN
F 2 "" H 12100 8250 50  0001 C CNN
F 3 "" H 12100 8250 50  0001 C CNN
	1    12100 8250
	1    0    0    -1  
$EndComp
Wire Wire Line
	12100 8250 12100 8150
$Comp
L power:+5V #PWR?
U 1 1 62737202
P 11900 8500
F 0 "#PWR?" H 11900 8350 50  0001 C CNN
F 1 "+5V" H 11915 8673 50  0000 C CNN
F 2 "" H 11900 8500 50  0001 C CNN
F 3 "" H 11900 8500 50  0001 C CNN
	1    11900 8500
	1    0    0    -1  
$EndComp
Wire Wire Line
	11900 8500 12100 8500
$Comp
L power:+5V #PWR?
U 1 1 6275B485
P 11900 6950
F 0 "#PWR?" H 11900 6800 50  0001 C CNN
F 1 "+5V" H 11915 7123 50  0000 C CNN
F 2 "" H 11900 6950 50  0001 C CNN
F 3 "" H 11900 6950 50  0001 C CNN
	1    11900 6950
	1    0    0    -1  
$EndComp
Wire Wire Line
	11900 6950 12100 6950
Entry Wire Line
	11150 8850 11250 8950
Entry Wire Line
	11150 8750 11250 8850
Entry Wire Line
	11150 8950 11250 9050
Entry Wire Line
	11150 9050 11250 9150
Entry Wire Line
	11150 9150 11250 9250
Entry Wire Line
	11150 9250 11250 9350
Entry Wire Line
	11150 9350 11250 9450
Entry Wire Line
	11150 9450 11250 9550
Wire Wire Line
	10900 8750 11150 8750
Wire Wire Line
	10900 8850 11150 8850
Wire Wire Line
	10900 8950 11150 8950
Wire Wire Line
	10900 9050 11150 9050
Wire Wire Line
	10900 9150 11150 9150
Wire Wire Line
	10900 9250 11150 9250
Wire Wire Line
	10900 9350 11150 9350
Wire Wire Line
	10900 9450 11150 9450
Text Label 10900 8750 0    50   ~ 0
D0
Text Label 10900 8850 0    50   ~ 0
D1
Text Label 10900 8950 0    50   ~ 0
D2
Text Label 10900 9050 0    50   ~ 0
D3
Text Label 10900 9150 0    50   ~ 0
D4
Text Label 10900 9250 0    50   ~ 0
D5
Text Label 10900 9350 0    50   ~ 0
D6
Text Label 10900 9450 0    50   ~ 0
D7
Entry Wire Line
	11250 7350 11350 7250
Entry Wire Line
	11250 7450 11350 7350
Entry Wire Line
	11250 7550 11350 7450
Entry Wire Line
	11250 7650 11350 7550
Wire Wire Line
	11350 7250 11600 7250
Wire Wire Line
	11350 7350 11600 7350
Wire Wire Line
	11350 7450 11600 7450
Wire Wire Line
	11350 7550 11600 7550
Entry Wire Line
	11250 8900 11350 8800
Entry Wire Line
	11250 9000 11350 8900
Entry Wire Line
	11250 9100 11350 9000
Entry Wire Line
	11250 9200 11350 9100
Wire Wire Line
	11350 9100 11600 9100
Wire Wire Line
	11350 9000 11600 9000
Wire Wire Line
	11350 8900 11600 8900
Wire Wire Line
	11350 8800 11600 8800
Text Label 11400 7250 0    50   ~ 0
D0
Text Label 11400 7350 0    50   ~ 0
D1
Text Label 11400 7450 0    50   ~ 0
D2
Text Label 11400 7550 0    50   ~ 0
D3
Text Label 11400 8800 0    50   ~ 0
D4
Text Label 11400 8900 0    50   ~ 0
D5
Text Label 11400 9000 0    50   ~ 0
D6
Text Label 11400 9100 0    50   ~ 0
D7
Wire Bus Line
	6200 3150 6200 7000
Wire Bus Line
	6200 7000 11250 7000
Connection ~ 6200 3150
$Comp
L 74xx:74LS32 U6
U 3 1 62C6804F
P 12350 6300
F 0 "U6" H 12350 5983 50  0000 C CNN
F 1 "74LS32" H 12350 6074 50  0000 C CNN
F 2 "" H 12350 6300 50  0001 C CNN
F 3 "http://www.ti.com/lit/gpn/sn74LS32" H 12350 6300 50  0001 C CNN
	3    12350 6300
	1    0    0    1   
$EndComp
$Comp
L 74xx:74LS32 U6
U 4 1 62C6A0F0
P 12350 5750
F 0 "U6" H 12350 5433 50  0000 C CNN
F 1 "74LS32" H 12350 5524 50  0000 C CNN
F 2 "" H 12350 5750 50  0001 C CNN
F 3 "http://www.ti.com/lit/gpn/sn74LS32" H 12350 5750 50  0001 C CNN
	4    12350 5750
	1    0    0    1   
$EndComp
$Comp
L 74xx:74LS00 U1
U 3 1 62C6C328
P 10750 6500
F 0 "U1" H 10750 6825 50  0000 C CNN
F 1 "74LS00" H 10750 6734 50  0000 C CNN
F 2 "" H 10750 6500 50  0001 C CNN
F 3 "http://www.ti.com/lit/gpn/sn74ls00" H 10750 6500 50  0001 C CNN
	3    10750 6500
	1    0    0    -1  
$EndComp
$Comp
L 74xx:74LS00 U36
U 1 1 62C6E1E6
P 11600 6400
F 0 "U36" H 11600 6083 50  0000 C CNN
F 1 "74LS00" H 11600 6174 50  0000 C CNN
F 2 "" H 11600 6400 50  0001 C CNN
F 3 "http://www.ti.com/lit/gpn/sn74ls00" H 11600 6400 50  0001 C CNN
	1    11600 6400
	1    0    0    1   
$EndComp
Wire Wire Line
	11900 6400 12050 6400
Wire Wire Line
	10450 6400 10400 6400
Wire Wire Line
	10400 6400 10400 6500
Wire Wire Line
	10400 6600 10450 6600
Wire Wire Line
	11050 6500 11300 6500
Wire Wire Line
	10400 6500 10200 6500
Connection ~ 10400 6500
Wire Wire Line
	10400 6500 10400 6600
Wire Wire Line
	10200 6500 10200 5850
Wire Wire Line
	10200 5850 12050 5850
Connection ~ 10200 6500
Text Label 11500 5850 0    50   ~ 0
IBUIN
Text Label 9950 6500 0    50   ~ 0
IBUIN
Wire Wire Line
	9900 6500 10200 6500
Wire Wire Line
	12600 7750 12800 7750
Wire Wire Line
	12800 7750 12800 5750
Wire Wire Line
	12800 5750 12650 5750
Wire Wire Line
	12800 7750 12800 9300
Wire Wire Line
	12800 9300 12600 9300
Connection ~ 12800 7750
Wire Wire Line
	12650 6300 12750 6300
Wire Wire Line
	12750 6300 12750 7850
Wire Wire Line
	12750 9400 12600 9400
Wire Wire Line
	12600 7850 12750 7850
Connection ~ 12750 7850
Wire Wire Line
	12750 7850 12750 9400
Text Label 13200 7150 0    50   ~ 0
DBBUS
Entry Wire Line
	12950 7250 13050 7350
Entry Wire Line
	12950 7350 13050 7450
Entry Wire Line
	12950 7450 13050 7550
Entry Wire Line
	12950 7550 13050 7650
Entry Wire Line
	12950 8800 13050 8900
Entry Wire Line
	12950 8900 13050 9000
Entry Wire Line
	12950 9000 13050 9100
Entry Wire Line
	12950 9100 13050 9200
Wire Wire Line
	12600 7250 12950 7250
Wire Wire Line
	12950 7350 12600 7350
Wire Wire Line
	12600 7450 12950 7450
Wire Wire Line
	12950 7550 12600 7550
Wire Wire Line
	12600 8800 12950 8800
Wire Wire Line
	12600 8900 12950 8900
Wire Wire Line
	12950 9000 12600 9000
Wire Wire Line
	12600 9100 12950 9100
Text Label 12600 7250 0    50   ~ 0
DB0
Text Label 12600 7350 0    50   ~ 0
DB1
Text Label 12600 7450 0    50   ~ 0
DB2
Text Label 12600 7550 0    50   ~ 0
DB3
Text Label 12600 8800 0    50   ~ 0
DB4
Text Label 12600 8900 0    50   ~ 0
DB5
Text Label 12600 9000 0    50   ~ 0
DB6
Text Label 12600 9100 0    50   ~ 0
DB7
Entry Wire Line
	12950 5350 13050 5450
Wire Wire Line
	12950 5350 11950 5350
Wire Wire Line
	11950 5350 11950 5650
Wire Wire Line
	11950 5650 12050 5650
Text Label 12800 5350 0    50   ~ 0
-RD
Wire Wire Line
	12050 6200 11900 6200
Wire Wire Line
	11900 6200 11900 5250
Entry Wire Line
	12950 5250 13050 5350
Wire Wire Line
	11900 5250 12950 5250
Text Label 12850 5250 0    50   ~ 0
ALE
Entry Wire Line
	12950 5150 13050 5250
Wire Wire Line
	12950 5150 11200 5150
Wire Wire Line
	11200 5150 11200 6300
Wire Wire Line
	11200 6300 11300 6300
Text Label 12850 5150 0    50   ~ 0
S1
Entry Wire Line
	5250 5450 5350 5550
Text Label 5100 5450 0    50   ~ 0
CLK
Entry Wire Line
	5250 4950 5350 5050
Wire Wire Line
	4350 4900 4350 4850
Entry Wire Line
	5250 5050 5350 5150
Text Label 5100 5050 0    50   ~ 0
-INTA
Entry Wire Line
	5250 4350 5350 4450
Text Label 5150 4350 0    50   ~ 0
S0
Wire Wire Line
	2850 4550 2850 4750
Wire Wire Line
	2850 4750 4900 4750
Wire Wire Line
	4900 4750 4900 4450
Wire Wire Line
	4900 4450 5250 4450
Entry Wire Line
	5250 4450 5350 4550
Text Label 5000 4450 0    50   ~ 0
IO_-M
Wire Wire Line
	600  3200 600  3150
Wire Wire Line
	650  7250 5250 7250
Wire Wire Line
	650  3400 650  7250
Entry Wire Line
	5250 7250 5350 7350
Text Label 5050 7250 0    50   ~ 0
INTR
Text GLabel 950  4850 0    50   Input ~ 0
-ACSUCS
Text Label 800  3850 0    50   ~ 0
PFAIL
$Comp
L 74xx:74LS74 U41
U 1 1 634BE6CF
P 10900 4150
F 0 "U41" H 11000 4550 50  0000 C CNN
F 1 "74LS74" H 11050 4450 50  0000 C CNN
F 2 "" H 10900 4150 50  0001 C CNN
F 3 "74xx/74hc_hct74.pdf" H 10900 4150 50  0001 C CNN
	1    10900 4150
	1    0    0    -1  
$EndComp
Wire Wire Line
	10900 4450 10900 4550
Wire Wire Line
	10900 4550 10200 4550
Text Label 10350 4550 0    50   ~ 0
WR
$Comp
L power:+5V #PWR?
U 1 1 634F5A14
P 10900 3750
F 0 "#PWR?" H 10900 3600 50  0001 C CNN
F 1 "+5V" H 10915 3923 50  0000 C CNN
F 2 "" H 10900 3750 50  0001 C CNN
F 3 "" H 10900 3750 50  0001 C CNN
	1    10900 3750
	1    0    0    -1  
$EndComp
Wire Wire Line
	10900 3750 10900 3850
Wire Wire Line
	10600 4050 10400 4050
Text Label 10400 4050 0    50   ~ 0
WR
Wire Wire Line
	10600 4150 10300 4150
Text Label 10300 4150 0    50   ~ 0
CLK
Text Notes 10300 4250 0    50   ~ 0
2.46 MHz
Text Label 11250 4250 0    50   ~ 0
-RAMWR
Wire Wire Line
	11200 4250 11600 4250
Text GLabel 11600 4250 2    50   Input ~ 0
-RAMWR
NoConn ~ 11200 4050
Wire Wire Line
	3800 1350 3750 1350
Connection ~ 3750 1350
Wire Wire Line
	3750 1350 3750 1450
Wire Wire Line
	4100 1150 4850 1150
Wire Wire Line
	4850 1150 4950 1150
Connection ~ 4850 1150
Wire Wire Line
	4100 1550 4550 1550
Connection ~ 4550 1550
Wire Wire Line
	4550 1550 4550 1600
Wire Wire Line
	5550 1650 5550 1600
Wire Wire Line
	5550 1600 5700 1600
Connection ~ 5250 2200
Wire Wire Line
	5250 2200 5550 2200
Wire Wire Line
	500  2200 5250 2200
Wire Wire Line
	5700 2150 5850 2150
Wire Wire Line
	6400 2150 6600 2150
Wire Wire Line
	6400 2350 6600 2350
Wire Wire Line
	7050 2550 7200 2550
Wire Wire Line
	6900 1400 6750 1400
Wire Wire Line
	6900 2650 6900 1400
Connection ~ 6300 3250
Wire Bus Line
	6300 3250 9050 3250
Entry Wire Line
	6300 4100 6400 4000
Wire Wire Line
	6400 4000 6750 4000
$Comp
L IM5623:IM5623 U27
U 1 1 640A8A4E
P 7150 4150
F 0 "U27" H 7150 4765 50  0000 C CNN
F 1 "IM5623" H 7150 4674 50  0000 C CNN
F 2 "MODULE" H 7150 4150 50  0001 C CNN
F 3 "DOCUMENTATION" H 7150 4150 50  0001 C CNN
	1    7150 4150
	1    0    0    -1  
$EndComp
Text Label 6450 4000 0    50   ~ 0
A15
Entry Wire Line
	6300 4200 6400 4100
Wire Wire Line
	6750 4100 6400 4100
Text Label 6450 4100 0    50   ~ 0
A14
Entry Wire Line
	6300 4300 6400 4200
Wire Wire Line
	6750 4200 6400 4200
Text Label 6450 4200 0    50   ~ 0
A11
Entry Wire Line
	6300 4400 6400 4300
Wire Wire Line
	6400 4300 6750 4300
Text Label 6450 4300 0    50   ~ 0
A12
Entry Wire Line
	6300 4500 6400 4400
Wire Wire Line
	6400 4400 6750 4400
Text Label 6450 4400 0    50   ~ 0
A13
Text GLabel 6500 3900 0    50   Input ~ 0
C0
Text GLabel 6500 3800 0    50   Input ~ 0
C1
Wire Wire Line
	6500 3900 6750 3900
Wire Wire Line
	6500 3800 6750 3800
$Comp
L power:GND #PWR?
U 1 1 641E1609
P 7150 4750
F 0 "#PWR?" H 7150 4500 50  0001 C CNN
F 1 "GND" H 7155 4577 50  0000 C CNN
F 2 "" H 7150 4750 50  0001 C CNN
F 3 "" H 7150 4750 50  0001 C CNN
	1    7150 4750
	1    0    0    -1  
$EndComp
Wire Wire Line
	7150 4750 7150 4650
Wire Wire Line
	7150 4650 6750 4650
Wire Wire Line
	6750 4650 6750 4500
Wire Wire Line
	7150 4650 7700 4650
Wire Wire Line
	7700 4650 7700 4100
Wire Wire Line
	7700 4000 7550 4000
Connection ~ 7150 4650
Wire Wire Line
	7550 4100 7700 4100
Connection ~ 7700 4100
Wire Wire Line
	7700 4100 7700 4000
Wire Wire Line
	7550 4200 7750 4200
Wire Wire Line
	7750 4200 7750 3950
Wire Wire Line
	7750 3950 8000 3950
Wire Wire Line
	7550 4300 7800 4300
Wire Wire Line
	7800 4300 7800 4050
Wire Wire Line
	7800 4050 8000 4050
Wire Wire Line
	7550 4400 7850 4400
Wire Wire Line
	7850 4400 7850 4150
Wire Wire Line
	7850 4150 8000 4150
Text Label 7600 4200 0    50   ~ 0
C10
Text Label 7600 4300 0    50   ~ 0
C11
Text Label 7600 4400 0    50   ~ 0
C12
Wire Wire Line
	7550 4500 7850 4500
Text Label 7600 4500 0    50   ~ 0
-IBUIN
$Comp
L power:+5V #PWR?
U 1 1 643BF775
P 8500 3600
F 0 "#PWR?" H 8500 3450 50  0001 C CNN
F 1 "+5V" H 8515 3773 50  0000 C CNN
F 2 "" H 8500 3600 50  0001 C CNN
F 3 "" H 8500 3600 50  0001 C CNN
	1    8500 3600
	1    0    0    -1  
$EndComp
$Comp
L power:+5V #PWR?
U 1 1 643C0142
P 7550 3650
F 0 "#PWR?" H 7550 3500 50  0001 C CNN
F 1 "+5V" H 7565 3823 50  0000 C CNN
F 2 "" H 7550 3650 50  0001 C CNN
F 3 "" H 7550 3650 50  0001 C CNN
	1    7550 3650
	1    0    0    -1  
$EndComp
Wire Wire Line
	8500 3650 8500 3600
$Comp
L 74xx:74LS138 U28
U 1 1 63636965
P 8500 4250
F 0 "U28" H 8650 4850 50  0000 C CNN
F 1 "74LS138" H 8700 4750 50  0000 C CNN
F 2 "" H 8500 4250 50  0001 C CNN
F 3 "http://www.ti.com/lit/gpn/sn74LS138" H 8500 4250 50  0001 C CNN
	1    8500 4250
	1    0    0    -1  
$EndComp
$Comp
L power:GND #PWR?
U 1 1 643F8833
P 8500 5050
F 0 "#PWR?" H 8500 4800 50  0001 C CNN
F 1 "GND" H 8505 4877 50  0000 C CNN
F 2 "" H 8500 5050 50  0001 C CNN
F 3 "" H 8500 5050 50  0001 C CNN
	1    8500 5050
	1    0    0    -1  
$EndComp
Wire Wire Line
	8500 5050 8500 4950
Wire Wire Line
	7550 3800 7550 3650
Wire Wire Line
	8000 4550 7950 4550
Entry Wire Line
	8050 3350 7950 3450
Wire Wire Line
	7950 3450 7950 4550
Text Label 7950 3600 0    50   ~ 0
ALE
Wire Wire Line
	8000 4650 7900 4650
Wire Wire Line
	7900 4650 7900 3450
Entry Wire Line
	7900 3450 8000 3350
Text Label 7900 3700 0    50   ~ 0
IO_-M
$Comp
L power:+5V #PWR?
U 1 1 64511FAE
P 8000 4400
F 0 "#PWR?" H 8000 4250 50  0001 C CNN
F 1 "+5V" H 8015 4573 50  0000 C CNN
F 2 "" H 8000 4400 50  0001 C CNN
F 3 "" H 8000 4400 50  0001 C CNN
	1    8000 4400
	1    0    0    -1  
$EndComp
Wire Wire Line
	8000 4400 8000 4450
NoConn ~ 9000 4650
Entry Wire Line
	9250 3950 9350 4050
Entry Wire Line
	9250 4050 9350 4150
Entry Wire Line
	9250 4150 9350 4250
Entry Wire Line
	9250 4250 9350 4350
Entry Wire Line
	9250 4350 9350 4450
Entry Wire Line
	9250 4450 9350 4550
Text Label 9000 3950 0    50   ~ 0
-CES0
Text Label 9000 4050 0    50   ~ 0
-CES1
Text Label 9000 4150 0    50   ~ 0
-CES2
Text Label 9000 4250 0    50   ~ 0
-CES3
Text Label 9000 4350 0    50   ~ 0
-CES4
Text Label 9000 4450 0    50   ~ 0
-CES5
Text Label 9000 4550 0    50   ~ 0
-CNVD
Wire Wire Line
	9000 3950 9250 3950
Wire Wire Line
	9000 4050 9250 4050
Wire Wire Line
	9250 4150 9000 4150
Wire Wire Line
	9000 4250 9250 4250
Wire Wire Line
	9250 4350 9000 4350
Wire Wire Line
	9000 4450 9250 4450
Wire Wire Line
	9250 4550 9000 4550
Wire Bus Line
	9350 3050 8750 3050
Connection ~ 9350 3050
Text Label 9400 3050 0    50   ~ 0
CEBUS
Text Label 10100 1950 0    50   ~ 0
-CES0
$Comp
L power:GND #PWR?
U 1 1 649BD7A8
P 8850 2800
F 0 "#PWR?" H 8850 2550 50  0001 C CNN
F 1 "GND" H 8855 2627 50  0000 C CNN
F 2 "" H 8850 2800 50  0001 C CNN
F 3 "" H 8850 2800 50  0001 C CNN
	1    8850 2800
	1    0    0    -1  
$EndComp
Wire Wire Line
	8850 2800 9250 2800
Entry Wire Line
	10650 2950 10750 3050
Text Label 10800 2550 2    50   ~ 0
-CES1
$Comp
L power:+5V #PWR?
U 1 1 64AAE7F7
P 10150 800
F 0 "#PWR?" H 10150 650 50  0001 C CNN
F 1 "+5V" H 10165 973 50  0000 C CNN
F 2 "" H 10150 800 50  0001 C CNN
F 3 "" H 10150 800 50  0001 C CNN
	1    10150 800 
	1    0    0    -1  
$EndComp
$Comp
L power:+5V #PWR?
U 1 1 64AAF32E
P 11250 700
F 0 "#PWR?" H 11250 550 50  0001 C CNN
F 1 "+5V" H 11265 873 50  0000 C CNN
F 2 "" H 11250 700 50  0001 C CNN
F 3 "" H 11250 700 50  0001 C CNN
	1    11250 700 
	1    0    0    -1  
$EndComp
$Comp
L power:+5V #PWR?
U 1 1 64AAF98A
P 12750 800
F 0 "#PWR?" H 12750 650 50  0001 C CNN
F 1 "+5V" H 12765 973 50  0000 C CNN
F 2 "" H 12750 800 50  0001 C CNN
F 3 "" H 12750 800 50  0001 C CNN
	1    12750 800 
	1    0    0    -1  
$EndComp
Text Label 12300 1950 2    50   ~ 0
-CES2
$Comp
L MK37000:MK37000 U31
U 1 1 6197C3D4
P 9700 1800
F 0 "U31" H 9700 2715 50  0000 C CNN
F 1 "MK37013P" H 9700 2624 50  0000 C CNN
F 2 "MODULE" H 9700 1800 50  0001 C CNN
F 3 "DOCUMENTATION" H 9700 1800 50  0001 C CNN
	1    9700 1800
	1    0    0    -1  
$EndComp
Wire Wire Line
	10150 800  10150 1150
Wire Wire Line
	10150 1150 10100 1150
Wire Wire Line
	9300 2450 9250 2450
Wire Wire Line
	9250 2450 9250 2800
Connection ~ 9250 2800
Connection ~ 10300 3150
Entry Wire Line
	10200 2450 10300 2550
Entry Wire Line
	10200 2350 10300 2450
Entry Wire Line
	10200 2250 10300 2350
Entry Wire Line
	10200 2150 10300 2250
Entry Wire Line
	10200 2050 10300 2150
Wire Wire Line
	10200 2050 10100 2050
Wire Wire Line
	10200 2150 10100 2150
Wire Wire Line
	10200 2250 10100 2250
Wire Wire Line
	10200 2350 10100 2350
Wire Wire Line
	10200 2450 10100 2450
Text Label 10100 2050 0    50   ~ 0
D7
Text Label 10100 2150 0    50   ~ 0
D6
Text Label 10100 2250 0    50   ~ 0
D5
Text Label 10100 2350 0    50   ~ 0
D4
Text Label 10100 2450 0    50   ~ 0
D3
Entry Wire Line
	10350 2950 10450 3050
Wire Wire Line
	10350 2950 10350 1950
Wire Wire Line
	10350 1950 10100 1950
Entry Wire Line
	9200 2150 9100 2250
Wire Bus Line
	6200 3150 9100 3150
Connection ~ 9100 3150
Wire Bus Line
	9100 3150 10300 3150
Entry Wire Line
	9200 2250 9100 2350
Entry Wire Line
	9200 2350 9100 2450
Wire Wire Line
	9200 2350 9300 2350
Wire Wire Line
	9200 2250 9300 2250
Wire Wire Line
	9200 2150 9300 2150
Text Label 9200 2150 0    50   ~ 0
D0
Text Label 9200 2250 0    50   ~ 0
D1
Text Label 9200 2350 0    50   ~ 0
D2
Connection ~ 9050 3250
Wire Bus Line
	9050 3250 10400 3250
Entry Wire Line
	9150 1250 9050 1350
Entry Wire Line
	9150 1350 9050 1450
Entry Wire Line
	9150 1450 9050 1550
Entry Wire Line
	9150 1550 9050 1650
Entry Wire Line
	9150 1650 9050 1750
Entry Wire Line
	9150 1750 9050 1850
Entry Wire Line
	9150 1850 9050 1950
Entry Wire Line
	9150 1950 9050 2050
Entry Wire Line
	9150 2050 9050 2150
Wire Wire Line
	9150 1250 9300 1250
Wire Wire Line
	9150 1350 9300 1350
Wire Wire Line
	9150 1450 9300 1450
Wire Wire Line
	9150 1550 9300 1550
Wire Wire Line
	9150 1650 9300 1650
Wire Wire Line
	9150 1750 9300 1750
Wire Wire Line
	9150 1850 9300 1850
Wire Wire Line
	9150 1950 9300 1950
Wire Wire Line
	9150 2050 9300 2050
Text Label 9150 1250 0    50   ~ 0
A12
Text Label 9150 1350 0    50   ~ 0
A7
Text Label 9150 1450 0    50   ~ 0
A6
Text Label 9150 1550 0    50   ~ 0
A5
Text Label 9150 1650 0    50   ~ 0
A4
Text Label 9150 1750 0    50   ~ 0
A3
Text Label 9150 1850 0    50   ~ 0
A2
Text Label 9150 1950 0    50   ~ 0
A1
Text Label 9150 2050 0    50   ~ 0
A0
Connection ~ 10400 3250
Entry Wire Line
	10300 1450 10400 1550
Entry Wire Line
	10300 1550 10400 1650
Entry Wire Line
	10300 1650 10400 1750
Entry Wire Line
	10300 1850 10400 1950
Wire Wire Line
	10100 1850 10300 1850
Wire Wire Line
	10100 1650 10300 1650
Wire Wire Line
	10100 1550 10300 1550
Wire Wire Line
	10100 1450 10300 1450
Text Label 10150 1450 0    50   ~ 0
A8
Text Label 10150 1550 0    50   ~ 0
A9
Text Label 10150 1650 0    50   ~ 0
A11
Text Label 10150 1850 0    50   ~ 0
A10
Text Label 10150 1750 0    50   ~ 0
-RD
$Comp
L power:+5V #PWR?
U 1 1 62351C50
P 10250 1100
F 0 "#PWR?" H 10250 950 50  0001 C CNN
F 1 "+5V" H 10265 1273 50  0000 C CNN
F 2 "" H 10250 1100 50  0001 C CNN
F 3 "" H 10250 1100 50  0001 C CNN
	1    10250 1100
	1    0    0    -1  
$EndComp
Wire Wire Line
	10250 1100 10250 1250
Wire Wire Line
	10250 1350 10100 1350
Wire Wire Line
	10100 1250 10250 1250
Connection ~ 10250 1250
Wire Wire Line
	10250 1250 10250 1350
$Comp
L power:+5V #PWR?
U 1 1 623DD387
P 9200 1050
F 0 "#PWR?" H 9200 900 50  0001 C CNN
F 1 "+5V" H 9215 1223 50  0000 C CNN
F 2 "" H 9200 1050 50  0001 C CNN
F 3 "" H 9200 1050 50  0001 C CNN
	1    9200 1050
	1    0    0    -1  
$EndComp
Wire Wire Line
	9200 1050 9200 1150
Wire Wire Line
	9200 1150 9300 1150
$Comp
L HM6116:HM6116 U38
U 1 1 6242997E
P 14900 1700
F 0 "U38" H 14900 2515 50  0000 C CNN
F 1 "HM6116" H 14900 2424 50  0000 C CNN
F 2 "MODULE" H 14900 1700 50  0001 C CNN
F 3 "DOCUMENTATION" H 14900 1700 50  0001 C CNN
	1    14900 1700
	1    0    0    -1  
$EndComp
$Comp
L power:+5V #PWR?
U 1 1 6242B119
P 15350 800
F 0 "#PWR?" H 15350 650 50  0001 C CNN
F 1 "+5V" H 15365 973 50  0000 C CNN
F 2 "" H 15350 800 50  0001 C CNN
F 3 "" H 15350 800 50  0001 C CNN
	1    15350 800 
	1    0    0    -1  
$EndComp
Wire Wire Line
	15350 800  15350 1150
Wire Wire Line
	15350 1150 15300 1150
Wire Bus Line
	10300 3150 11900 3150
Entry Wire Line
	15450 1650 15550 1750
Entry Wire Line
	15450 1550 15550 1650
Entry Wire Line
	15450 1750 15550 1850
Entry Wire Line
	15450 1850 15550 1950
Entry Wire Line
	15450 1950 15550 2050
Entry Wire Line
	15450 2050 15550 2150
Entry Wire Line
	15450 2150 15550 2250
Entry Wire Line
	15450 2250 15550 2350
Wire Wire Line
	15300 1550 15450 1550
Wire Wire Line
	15300 1650 15450 1650
Wire Wire Line
	15300 1750 15450 1750
Wire Wire Line
	15300 1850 15450 1850
Wire Wire Line
	15300 1950 15450 1950
Wire Wire Line
	15300 2050 15450 2050
Wire Wire Line
	15300 2150 15450 2150
Wire Wire Line
	15300 2250 15450 2250
Text Label 15300 2250 0    50   ~ 0
D0
Text Label 15300 2150 0    50   ~ 0
D1
Text Label 15300 2050 0    50   ~ 0
D2
Text Label 15300 1950 0    50   ~ 0
D3
Text Label 15300 1850 0    50   ~ 0
D4
Text Label 15300 1750 0    50   ~ 0
D5
Text Label 15300 1650 0    50   ~ 0
D6
Text Label 15300 1550 0    50   ~ 0
D7
Entry Wire Line
	14350 1250 14250 1350
Entry Wire Line
	14350 1150 14250 1250
Entry Wire Line
	14350 1350 14250 1450
Entry Wire Line
	14350 1450 14250 1550
Entry Wire Line
	14350 1550 14250 1650
Entry Wire Line
	14350 1650 14250 1750
Entry Wire Line
	14350 1750 14250 1850
Entry Wire Line
	14350 1850 14250 1950
Entry Wire Line
	14350 2050 14250 2150
Entry Wire Line
	14350 2150 14250 2250
Entry Wire Line
	14350 2250 14250 2350
Wire Wire Line
	14350 2250 14500 2250
Wire Wire Line
	14350 2150 14500 2150
Wire Wire Line
	14350 2050 14500 2050
Wire Wire Line
	14350 1850 14500 1850
Wire Wire Line
	14350 1750 14500 1750
Wire Wire Line
	14350 1650 14500 1650
Wire Wire Line
	14350 1550 14500 1550
Wire Wire Line
	14350 1450 14500 1450
Wire Wire Line
	14350 1350 14500 1350
Wire Wire Line
	14350 1250 14500 1250
Wire Wire Line
	14350 1150 14500 1150
Text Label 14350 2250 0    50   ~ 0
A8
Text Label 14350 2150 0    50   ~ 0
A9
Text Label 14350 2050 0    50   ~ 0
A10
Text Label 14350 1850 0    50   ~ 0
A0
Text Label 14350 1750 0    50   ~ 0
A1
Text Label 14350 1650 0    50   ~ 0
A2
Text Label 14350 1550 0    50   ~ 0
A3
Text Label 14350 1450 0    50   ~ 0
A4
Text Label 14350 1350 0    50   ~ 0
A5
Text Label 14350 1250 0    50   ~ 0
A6
Text Label 14350 1150 0    50   ~ 0
A7
$Comp
L power:GND #PWR?
U 1 1 62B36570
P 14450 2450
F 0 "#PWR?" H 14450 2200 50  0001 C CNN
F 1 "GND" H 14455 2277 50  0000 C CNN
F 2 "" H 14450 2450 50  0001 C CNN
F 3 "" H 14450 2450 50  0001 C CNN
	1    14450 2450
	1    0    0    -1  
$EndComp
Wire Wire Line
	14450 2450 14450 1950
Wire Wire Line
	14450 1950 14500 1950
Entry Wire Line
	15600 2950 15500 3050
Wire Wire Line
	15600 2950 15600 1450
Wire Wire Line
	15600 1450 15300 1450
Text Label 15350 1450 0    50   ~ 0
-CES5
Connection ~ 13050 3350
Wire Wire Line
	15300 1350 15650 1350
Wire Wire Line
	15650 1350 15650 3250
Entry Wire Line
	15650 3250 15550 3350
Wire Wire Line
	15300 1250 15750 1250
Wire Wire Line
	15750 1250 15750 3250
Entry Wire Line
	15750 3250 15650 3350
Text Label 15350 1350 0    50   ~ 0
-RD
Text Label 15350 1250 0    50   ~ 0
-WR
Entry Wire Line
	13350 1750 13450 1850
Wire Wire Line
	13200 1750 13350 1750
Text Label 13200 2450 0    50   ~ 0
D0
Text Label 13200 2350 0    50   ~ 0
D1
Text Label 13200 2250 0    50   ~ 0
D2
Text Label 13200 2150 0    50   ~ 0
D3
Text Label 13200 2050 0    50   ~ 0
D4
Text Label 13200 1950 0    50   ~ 0
D5
Text Label 13200 1850 0    50   ~ 0
D6
Text Label 13200 1750 0    50   ~ 0
D7
Text Label 12150 2450 0    50   ~ 0
A8
Text Label 12150 2350 0    50   ~ 0
A9
Text Label 12150 2050 0    50   ~ 0
A10
Text Label 12150 1850 0    50   ~ 0
A0
Text Label 12150 1750 0    50   ~ 0
A1
Text Label 12150 1650 0    50   ~ 0
A2
Text Label 12150 1550 0    50   ~ 0
A3
Text Label 12150 1450 0    50   ~ 0
A4
Text Label 12150 1350 0    50   ~ 0
A5
Text Label 12150 1250 0    50   ~ 0
A6
Text Label 12150 1150 0    50   ~ 0
A7
Entry Wire Line
	10700 1150 10600 1250
Wire Bus Line
	10400 3250 10600 3250
Connection ~ 10600 3250
Wire Bus Line
	10600 3250 12050 3250
Entry Wire Line
	10700 1250 10600 1350
Entry Wire Line
	10700 1350 10600 1450
Entry Wire Line
	10700 1450 10600 1550
Entry Wire Line
	10700 1550 10600 1650
Entry Wire Line
	10700 1650 10600 1750
Entry Wire Line
	10700 1750 10600 1850
Entry Wire Line
	10700 1850 10600 1950
Entry Wire Line
	10700 2050 10600 2150
Entry Wire Line
	10450 2700 10550 2800
Wire Bus Line
	10550 2800 10550 3350
Wire Bus Line
	10550 3350 13050 3350
Connection ~ 10550 3350
Wire Wire Line
	10450 2700 10450 1750
$Comp
L 2716:2716 U33
U 1 1 649C5E00
P 12750 1800
F 0 "U33" H 12900 2700 50  0000 C CNN
F 1 "2716" H 12900 2600 50  0000 C CNN
F 2 "MODULE" H 12750 1800 50  0001 C CNN
F 3 "DOCUMENTATION" H 12750 1800 50  0001 C CNN
	1    12750 1800
	1    0    0    -1  
$EndComp
Connection ~ 12050 3250
Entry Wire Line
	12050 1250 12150 1150
Entry Wire Line
	12050 1350 12150 1250
Entry Wire Line
	12050 1450 12150 1350
Entry Wire Line
	12050 1550 12150 1450
Entry Wire Line
	12050 1650 12150 1550
Entry Wire Line
	12050 1750 12150 1650
Entry Wire Line
	12050 1850 12150 1750
Entry Wire Line
	12050 1950 12150 1850
Wire Wire Line
	12100 1950 12100 2950
Entry Wire Line
	12100 2950 12200 3050
Entry Wire Line
	12050 2150 12150 2050
Entry Wire Line
	12050 2450 12150 2350
Entry Wire Line
	12050 2550 12150 2450
Wire Wire Line
	12100 1950 12300 1950
Wire Bus Line
	12050 3250 14250 3250
Wire Wire Line
	12150 2050 12300 2050
Wire Wire Line
	12150 2450 12300 2450
Wire Wire Line
	12150 2350 12300 2350
Wire Wire Line
	12150 1850 12300 1850
Wire Wire Line
	12150 1750 12300 1750
Wire Wire Line
	12150 1650 12300 1650
Wire Wire Line
	12150 1550 12300 1550
Wire Wire Line
	12150 1450 12300 1450
Wire Wire Line
	12150 1350 12300 1350
Wire Wire Line
	12150 1250 12300 1250
Wire Wire Line
	12150 1150 12300 1150
Wire Wire Line
	12750 800  12750 900 
Connection ~ 13450 3150
Entry Wire Line
	13350 1850 13450 1950
Entry Wire Line
	13350 1950 13450 2050
Entry Wire Line
	13350 2050 13450 2150
Entry Wire Line
	13350 2150 13450 2250
Entry Wire Line
	13350 2250 13450 2350
Entry Wire Line
	13350 2350 13450 2450
Entry Wire Line
	13350 2450 13450 2550
Wire Wire Line
	13200 1850 13350 1850
Wire Wire Line
	13200 1950 13350 1950
Wire Wire Line
	13200 2050 13350 2050
Wire Wire Line
	13200 2150 13350 2150
Wire Wire Line
	13200 2250 13350 2250
Wire Wire Line
	13200 2350 13350 2350
Wire Wire Line
	13200 2450 13350 2450
$Comp
L Memory_EPROM:2764 U32
U 1 1 65ACE28F
P 11250 1750
F 0 "U32" H 11350 2800 50  0000 C CNN
F 1 "2764" H 11400 2700 50  0000 C CNN
F 2 "Package_DIP:DIP-28_W15.24mm" H 11250 1750 50  0001 C CNN
F 3 "https://downloads.reactivemicro.com/Electronics/ROM/2764%20EPROM.pdf" H 11250 1750 50  0001 C CNN
	1    11250 1750
	1    0    0    -1  
$EndComp
Wire Wire Line
	11250 2850 11250 2900
Connection ~ 11250 2900
Wire Wire Line
	9250 2900 9250 2800
Wire Wire Line
	9250 2900 11250 2900
Wire Wire Line
	11250 2900 12750 2900
Wire Wire Line
	12750 2700 12750 2900
Wire Wire Line
	11250 700  11250 750 
Entry Wire Line
	11800 950  11900 1050
Entry Wire Line
	11800 1050 11900 1150
Entry Wire Line
	11800 1150 11900 1250
Entry Wire Line
	11800 1250 11900 1350
Entry Wire Line
	11800 1350 11900 1450
Entry Wire Line
	11800 1450 11900 1550
Entry Wire Line
	11800 1550 11900 1650
Text Label 11700 950  0    50   ~ 0
D0
Text Label 11700 1050 0    50   ~ 0
D1
Text Label 11700 1150 0    50   ~ 0
D2
Text Label 11700 1250 0    50   ~ 0
D3
Text Label 11700 1350 0    50   ~ 0
D4
Text Label 11700 1450 0    50   ~ 0
D5
Text Label 11700 1550 0    50   ~ 0
D6
Text Label 11700 1650 0    50   ~ 0
D7
Entry Wire Line
	11800 1650 11900 1750
Connection ~ 11900 3150
Wire Bus Line
	11900 3150 13450 3150
Wire Wire Line
	11650 950  11800 950 
Wire Wire Line
	11650 1050 11800 1050
Wire Wire Line
	11650 1150 11800 1150
Wire Wire Line
	11650 1250 11800 1250
Wire Wire Line
	11650 1350 11800 1350
Wire Wire Line
	11650 1450 11800 1450
Wire Wire Line
	11650 1550 11800 1550
Wire Wire Line
	11650 1650 11800 1650
Wire Wire Line
	10850 2550 10650 2550
Wire Wire Line
	10650 2550 10650 2950
Entry Wire Line
	10700 950  10600 1050
Entry Wire Line
	10700 1050 10600 1150
Entry Wire Line
	10700 1950 10600 2050
Entry Wire Line
	10700 2150 10600 2250
Wire Wire Line
	10700 950  10850 950 
Wire Wire Line
	10700 1050 10850 1050
Wire Wire Line
	10700 1150 10850 1150
Wire Wire Line
	10700 1250 10850 1250
Wire Wire Line
	10700 1350 10850 1350
Wire Wire Line
	10700 1450 10850 1450
Wire Wire Line
	10700 1550 10850 1550
Wire Wire Line
	10700 1650 10850 1650
Wire Wire Line
	10700 1750 10850 1750
Wire Wire Line
	10700 1850 10850 1850
Wire Wire Line
	10700 1950 10850 1950
Wire Wire Line
	10700 2050 10850 2050
Wire Wire Line
	10700 2150 10850 2150
Text Label 10750 950  0    50   ~ 0
A0
Text Label 10750 1050 0    50   ~ 0
A1
Text Label 10750 1150 0    50   ~ 0
A2
Text Label 10750 1250 0    50   ~ 0
A3
Text Label 10750 1350 0    50   ~ 0
A4
Text Label 10750 1450 0    50   ~ 0
A5
Text Label 10750 1550 0    50   ~ 0
A6
Text Label 10750 1650 0    50   ~ 0
A7
Text Label 10750 1750 0    50   ~ 0
A8
Text Label 10750 1850 0    50   ~ 0
A9
Text Label 10700 1950 0    50   ~ 0
A10
Text Label 10700 2050 0    50   ~ 0
A11
Text Label 10700 2150 0    50   ~ 0
A12
Text GLabel 1450 10400 0    50   Input ~ 0
-WAIT
Wire Wire Line
	1450 10400 1550 10400
Text GLabel 1450 10200 0    50   Input ~ 0
-CSIO
Wire Wire Line
	1450 10200 1550 10200
Wire Wire Line
	7550 3900 7750 3900
Text Label 7550 3900 0    50   ~ 0
-INTDIS
$Comp
L Device:R R1
U 1 1 671EDC8A
P 6100 8400
F 0 "R1" H 6170 8446 50  0000 L CNN
F 1 "1k" H 6170 8355 50  0000 L CNN
F 2 "" V 6030 8400 50  0001 C CNN
F 3 "~" H 6100 8400 50  0001 C CNN
	1    6100 8400
	1    0    0    -1  
$EndComp
$Comp
L power:+5V #PWR?
U 1 1 671EDF03
P 6100 8200
F 0 "#PWR?" H 6100 8050 50  0001 C CNN
F 1 "+5V" H 6115 8373 50  0000 C CNN
F 2 "" H 6100 8200 50  0001 C CNN
F 3 "" H 6100 8200 50  0001 C CNN
	1    6100 8200
	1    0    0    -1  
$EndComp
Wire Wire Line
	6100 10050 6400 10050
Wire Wire Line
	6100 8200 6100 8250
Wire Wire Line
	6100 8550 6100 8650
$Comp
L Device:Jumper_NO_Small TP2
U 1 1 673710F5
P 5900 8650
F 0 "TP2" H 5900 8835 50  0000 C CNN
F 1 "." H 5900 8744 50  0000 C CNN
F 2 "" H 5900 8650 50  0001 C CNN
F 3 "~" H 5900 8650 50  0001 C CNN
	1    5900 8650
	1    0    0    -1  
$EndComp
$Comp
L power:GND #PWR?
U 1 1 6737252A
P 5650 8700
F 0 "#PWR?" H 5650 8450 50  0001 C CNN
F 1 "GND" H 5655 8527 50  0000 C CNN
F 2 "" H 5650 8700 50  0001 C CNN
F 3 "" H 5650 8700 50  0001 C CNN
	1    5650 8700
	1    0    0    -1  
$EndComp
Wire Wire Line
	5650 8700 5650 8650
Wire Wire Line
	5650 8650 5800 8650
Wire Wire Line
	6000 8650 6100 8650
Connection ~ 6100 8650
Wire Wire Line
	6100 8650 6100 10050
Text Label 6100 8800 0    50   ~ 0
-INTDIS
Entry Wire Line
	5250 5150 5350 5250
Text Label 5100 5150 0    50   ~ 0
RDY
NoConn ~ 1150 3550
NoConn ~ 2450 5250
Wire Wire Line
	3200 4950 3200 6800
Connection ~ 3200 4950
Wire Wire Line
	3200 4950 5250 4950
Wire Wire Line
	3200 6800 3600 6800
Wire Wire Line
	2800 5150 2800 2150
Wire Wire Line
	2800 5150 5250 5150
Wire Wire Line
	2750 4750 2750 6550
Wire Wire Line
	1800 6550 2750 6550
Wire Wire Line
	2700 4850 2700 6500
Wire Wire Line
	1750 6500 2700 6500
Wire Wire Line
	2650 6450 2650 4150
Connection ~ 2650 4150
Wire Wire Line
	1700 6450 2650 6450
Wire Wire Line
	2600 6400 2600 4450
Wire Wire Line
	1650 6400 2600 6400
Wire Wire Line
	2550 6350 2550 5150
Wire Wire Line
	1600 6350 2550 6350
Wire Wire Line
	2450 2350 2950 2350
Wire Wire Line
	2450 2450 2950 2450
Wire Wire Line
	2450 2550 2950 2550
Wire Wire Line
	2450 2650 2950 2650
Wire Wire Line
	2450 2750 2950 2750
Wire Wire Line
	2450 2850 2950 2850
Wire Wire Line
	2450 2950 2950 2950
Wire Wire Line
	2450 3050 2950 3050
Wire Wire Line
	2450 4150 2650 4150
Wire Wire Line
	2450 4450 2600 4450
Wire Wire Line
	2450 4550 2850 4550
Wire Wire Line
	2450 4750 2750 4750
Wire Wire Line
	2450 4850 2700 4850
Wire Wire Line
	2450 4950 3200 4950
Wire Wire Line
	2450 5050 5250 5050
Wire Wire Line
	2450 5150 2550 5150
Wire Wire Line
	2450 5450 5250 5450
Wire Wire Line
	1150 2550 1100 2550
Wire Wire Line
	1100 2550 1100 2150
Wire Wire Line
	1100 2150 2800 2150
Wire Wire Line
	750  3450 1150 3450
Wire Wire Line
	850  3650 1150 3650
Wire Wire Line
	600  2850 1150 2850
Wire Wire Line
	850  3650 850  11050
Wire Wire Line
	1100 4350 1150 4350
Wire Wire Line
	800  4350 900  4350
Wire Wire Line
	800  4550 1150 4550
Wire Wire Line
	800  3850 1150 3850
Wire Wire Line
	700  4050 1150 4050
Wire Wire Line
	950  4850 1150 4850
Wire Wire Line
	1100 5200 1100 5250
Wire Wire Line
	1100 5250 1150 5250
Wire Wire Line
	1100 5550 1100 5450
Wire Wire Line
	1100 5450 1150 5450
Wire Wire Line
	1050 3400 1050 3150
Wire Wire Line
	1050 3150 1150 3150
Wire Wire Line
	650  3400 1050 3400
Wire Notes Line
	9400 3400 9400 5300
Wire Notes Line
	9400 5300 6250 5300
Wire Notes Line
	6250 5300 6250 3400
Text Notes 6300 5250 0    50   ~ 0
Address Decoder
Entry Wire Line
	10400 3450 10500 3350
Wire Wire Line
	10400 3450 10400 4050
Entry Wire Line
	10300 3450 10400 3350
Wire Wire Line
	10300 3450 10300 4150
Entry Wire Line
	10200 3450 10300 3350
Wire Wire Line
	10200 3450 10200 4550
Wire Notes Line
	8700 600  8700 3400
Wire Notes Line
	9950 3400 9950 4600
Wire Notes Line
	9950 4600 12150 4600
Wire Notes Line
	12150 4600 12150 3450
Wire Notes Line
	12150 3450 15850 3450
Wire Notes Line
	15850 3450 15850 600 
Wire Notes Line
	15850 600  8700 600 
Wire Notes Line
	6250 3400 9950 3400
Text Notes 8800 750  0    50   ~ 0
CPU Memory
Wire Notes Line
	11350 9850 11350 6700
Wire Notes Line
	11350 6700 9800 6700
Wire Notes Line
	9800 6700 9800 4950
Wire Notes Line
	9800 4950 13000 4950
Wire Notes Line
	13000 4950 13000 9850
Wire Notes Line
	13000 9850 11350 9850
Text Notes 9850 5100 0    50   ~ 0
Data bus buffer
Wire Notes Line
	500  9700 5450 9700
Wire Notes Line
	5450 9700 5450 8000
Wire Notes Line
	5450 8000 11100 8000
Wire Notes Line
	11100 8000 11100 11200
Wire Notes Line
	11100 11200 500  11200
Wire Notes Line
	500  9700 500  11200
Text Notes 7450 8150 0    50   ~ 0
Interrupt logic
Wire Notes Line
	5400 9650 1550 9650
Wire Notes Line
	1550 9650 1550 6750
Wire Notes Line
	1550 6750 3150 6750
Wire Notes Line
	3150 6750 3150 3200
Wire Notes Line
	3150 3200 5400 3200
Wire Notes Line
	5400 3200 5400 9650
Text Notes 2250 6900 0    50   ~ 0
CPU buffer
Wire Notes Line
	3100 6700 450  6700
Wire Notes Line
	450  6700 450  2000
Wire Notes Line
	450  2000 3050 2000
Wire Notes Line
	3050 2000 3050 2250
Wire Notes Line
	3050 2250 4200 2250
Wire Notes Line
	4200 2250 4200 3100
Wire Notes Line
	4200 3100 3100 3100
Wire Notes Line
	3100 3100 3100 6700
Text Notes 3450 2400 0    50   ~ 0
CPU
Wire Wire Line
	4450 2050 4450 2650
Wire Wire Line
	4450 2650 6900 2650
Wire Wire Line
	700  2050 4450 2050
Wire Notes Line
	500  500  500  1950
Wire Notes Line
	500  1950 3150 1950
Wire Notes Line
	3150 1950 3150 2150
Wire Notes Line
	3150 2150 4300 2150
Wire Notes Line
	4300 2150 4300 2700
Wire Notes Line
	4300 2700 7850 2700
Wire Notes Line
	7850 2700 7850 500 
Wire Notes Line
	7850 500  500  500 
Text Notes 5200 650  0    50   ~ 0
Power up / down and reset
$Comp
L Connector_Generic:Conn_02x20_Odd_Even W10
U 1 1 619BF6EC
P 15350 5600
F 0 "W10" H 15400 6717 50  0000 C CNN
F 1 "Extension" H 15400 6626 50  0000 C CNN
F 2 "" H 15350 5600 50  0001 C CNN
F 3 "~" H 15350 5600 50  0001 C CNN
	1    15350 5600
	1    0    0    -1  
$EndComp
$Comp
L power:+5V #PWR?
U 1 1 619C4D91
P 15800 6650
F 0 "#PWR?" H 15800 6500 50  0001 C CNN
F 1 "+5V" H 15815 6823 50  0000 C CNN
F 2 "" H 15800 6650 50  0001 C CNN
F 3 "" H 15800 6650 50  0001 C CNN
	1    15800 6650
	1    0    0    -1  
$EndComp
Wire Wire Line
	15650 6600 15700 6600
Wire Wire Line
	15650 6500 15700 6500
Wire Wire Line
	15700 6500 15700 6600
Connection ~ 15700 6600
Wire Wire Line
	15150 6600 15150 6700
Wire Wire Line
	15150 6700 15700 6700
Wire Wire Line
	15700 6700 15700 6600
$Comp
L power:GND #PWR?
U 1 1 61B0EE83
P 15400 6800
F 0 "#PWR?" H 15400 6550 50  0001 C CNN
F 1 "GND" H 15405 6627 50  0000 C CNN
F 2 "" H 15400 6800 50  0001 C CNN
F 3 "" H 15400 6800 50  0001 C CNN
	1    15400 6800
	1    0    0    -1  
$EndComp
Wire Wire Line
	15650 6400 16000 6400
Wire Wire Line
	16000 6400 16000 6800
Wire Wire Line
	15100 6400 15100 6500
Wire Wire Line
	15100 6400 15150 6400
Wire Wire Line
	15150 6500 15100 6500
Connection ~ 15100 6500
Wire Wire Line
	15100 6500 15100 6800
Wire Wire Line
	15700 6700 15800 6700
Connection ~ 15700 6700
Entry Wire Line
	14450 6200 14350 6100
Wire Wire Line
	14450 6200 15150 6200
Text Label 14450 6200 0    50   ~ 0
-CES3
Connection ~ 14350 3050
Wire Bus Line
	14350 3050 15500 3050
Wire Bus Line
	13450 3150 15550 3150
Text Label 14400 3050 0    50   ~ 0
CEBUS
Text Label 14400 3150 0    50   ~ 0
DBUS
Text Label 14400 3350 0    50   ~ 0
CBUS
Wire Bus Line
	13050 3350 14700 3350
Connection ~ 14700 3350
Entry Wire Line
	14700 4700 14800 4800
Wire Wire Line
	14800 4800 15150 4800
Text Label 14800 4800 0    50   ~ 0
IO_-M
Entry Wire Line
	14700 5900 14800 6000
Wire Wire Line
	14800 6000 15150 6000
Text Label 14800 6000 0    50   ~ 0
HOLD
Entry Wire Line
	14700 4800 14800 4900
Wire Wire Line
	14800 4900 15150 4900
Text Label 14800 4900 0    50   ~ 0
CLK
Entry Wire Line
	14700 4900 14800 5000
Wire Wire Line
	14800 5000 15150 5000
Text Label 14800 5000 0    50   ~ 0
RDY
Entry Wire Line
	14700 4600 14800 4700
Wire Wire Line
	14800 4700 15150 4700
Text Label 14800 4700 0    50   ~ 0
ALE
Entry Wire Line
	14700 5800 14800 5900
Wire Wire Line
	14800 5900 15150 5900
Text Label 14800 5900 0    50   ~ 0
S1
$Comp
L power:-12V #PWR?
U 1 1 622A5499
P 15800 6300
F 0 "#PWR?" H 15800 6400 50  0001 C CNN
F 1 "-12V" H 15815 6473 50  0000 C CNN
F 2 "" H 15800 6300 50  0001 C CNN
F 3 "" H 15800 6300 50  0001 C CNN
	1    15800 6300
	1    0    0    -1  
$EndComp
Wire Wire Line
	15650 6300 15800 6300
$Comp
L power:+12V #PWR?
U 1 1 6231A819
P 14850 6450
F 0 "#PWR?" H 14850 6300 50  0001 C CNN
F 1 "+12V" H 14865 6623 50  0000 C CNN
F 2 "" H 14850 6450 50  0001 C CNN
F 3 "" H 14850 6450 50  0001 C CNN
	1    14850 6450
	1    0    0    -1  
$EndComp
Wire Wire Line
	15150 6300 15000 6300
Wire Wire Line
	15000 6300 15000 6500
Wire Wire Line
	15000 6500 14850 6500
Wire Wire Line
	14850 6500 14850 6450
Connection ~ 14250 3250
Entry Wire Line
	15850 5700 15950 5600
Wire Wire Line
	15650 5700 15850 5700
Text Label 15650 5700 0    50   ~ 0
A14
Entry Wire Line
	15850 5600 15950 5500
Wire Wire Line
	15850 5600 15650 5600
Text Label 15650 5600 0    50   ~ 0
A12
Entry Wire Line
	15850 5500 15950 5400
Wire Wire Line
	15850 5500 15650 5500
Text Label 15650 5500 0    50   ~ 0
A10
Entry Wire Line
	15850 5400 15950 5300
Wire Wire Line
	15850 5400 15650 5400
Text Label 15650 5400 0    50   ~ 0
A8
Entry Wire Line
	14700 5650 14800 5750
Wire Wire Line
	14800 5750 15700 5750
Wire Wire Line
	15700 5750 15700 5800
Wire Wire Line
	15700 5800 15650 5800
Wire Bus Line
	14350 3050 14350 6100
Text Label 14800 5750 0    50   ~ 0
S0
Text Label 14400 3250 0    50   ~ 0
ABUS
Entry Wire Line
	14700 6050 14800 6150
Wire Wire Line
	14800 6150 15700 6150
Wire Wire Line
	15700 6150 15700 6200
Wire Wire Line
	15700 6200 15650 6200
Text Label 14800 6150 0    50   ~ 0
-CDMA
Entry Wire Line
	14700 6000 14800 6100
Wire Wire Line
	14800 6100 15150 6100
Text Label 14800 6100 0    50   ~ 0
-DMARQB
Entry Wire Line
	14700 5750 14800 5850
Wire Wire Line
	14800 5850 15700 5850
Wire Wire Line
	15700 5850 15700 5900
Wire Wire Line
	15700 5900 15650 5900
Text Label 14800 5850 0    50   ~ 0
-DMARQA
Wire Bus Line
	14250 3250 14500 3250
Connection ~ 14500 3250
Entry Wire Line
	14500 5400 14600 5500
Wire Wire Line
	14600 5500 15150 5500
Text Label 14600 5500 0    50   ~ 0
A9
Entry Wire Line
	14500 5500 14600 5600
Wire Wire Line
	14600 5600 15150 5600
Text Label 14600 5600 0    50   ~ 0
A11
Entry Wire Line
	14500 5600 14600 5700
Wire Wire Line
	14600 5700 15150 5700
Text Label 14600 5700 0    50   ~ 0
A13
Entry Wire Line
	14500 5700 14600 5800
Text Label 14600 5800 0    50   ~ 0
A15
Wire Bus Line
	13050 7150 14100 7150
Entry Wire Line
	15800 5000 15900 5100
Wire Wire Line
	15800 5000 15650 5000
Text Label 15650 5000 0    50   ~ 0
DB0
Entry Wire Line
	15800 5100 15900 5200
Wire Wire Line
	15800 5100 15650 5100
Text Label 15650 5100 0    50   ~ 0
DB2
Entry Wire Line
	15800 5200 15900 5300
Wire Wire Line
	15800 5200 15650 5200
Text Label 15650 5200 0    50   ~ 0
DB4
Entry Wire Line
	15800 5300 15900 5400
Wire Wire Line
	15800 5300 15650 5300
Text Label 15650 5300 0    50   ~ 0
DB6
Connection ~ 14100 7150
Wire Bus Line
	14100 7150 15900 7150
Entry Wire Line
	14100 5200 14200 5100
Wire Wire Line
	14200 5100 15150 5100
Text Label 14200 5100 0    50   ~ 0
DB1
Entry Wire Line
	14100 5300 14200 5200
Wire Wire Line
	14200 5200 15150 5200
Text Label 14200 5200 0    50   ~ 0
DB3
Entry Wire Line
	14100 5400 14200 5300
Wire Wire Line
	14200 5300 15150 5300
Text Label 14200 5300 0    50   ~ 0
DB5
Entry Wire Line
	14100 5500 14200 5400
Text Label 14200 5400 0    50   ~ 0
DB7
Wire Bus Line
	14700 4400 15900 4400
Wire Bus Line
	14700 3350 14700 4400
Connection ~ 14700 4400
Entry Wire Line
	15800 4700 15900 4600
Entry Wire Line
	15800 4800 15900 4700
Entry Wire Line
	15800 4900 15900 4800
Wire Wire Line
	15650 4900 15800 4900
Wire Wire Line
	15650 4800 15800 4800
Wire Wire Line
	15650 4700 15800 4700
Text Label 15650 4900 0    50   ~ 0
-MCLEAR
Text Label 15650 4800 0    50   ~ 0
-RD
Text Label 15650 4700 0    50   ~ 0
-WR
Entry Wire Line
	16000 5050 15900 4950
Wire Wire Line
	16000 5050 16000 6000
Wire Wire Line
	16000 6000 15650 6000
Text Label 15650 6000 0    50   ~ 0
HLDA
NoConn ~ 15650 6100
Wire Wire Line
	15800 6650 15800 6700
Connection ~ 15400 6800
Wire Wire Line
	15400 6800 15100 6800
Wire Wire Line
	15400 6800 16000 6800
Text GLabel 9750 4550 2    50   Input ~ 0
-CNVD
Entry Wire Line
	9350 4650 9450 4550
Entry Wire Line
	9250 4550 9350 4650
Text Label 9450 4550 0    50   ~ 0
-CNVD
Wire Wire Line
	9450 4550 9750 4550
Text GLabel 1250 10650 0    50   Input ~ 0
-KBINT
Text GLabel 1250 10750 0    50   Input ~ 0
-SIOINT
Text GLabel 1250 10850 0    50   Input ~ 0
VSYNC
Text GLabel 1250 10950 0    50   Input ~ 0
-PRINT
Entry Wire Line
	1650 11050 1750 11150
Entry Wire Line
	1600 11050 1700 11150
Entry Wire Line
	1550 11050 1650 11150
Entry Wire Line
	1500 11050 1600 11150
Wire Wire Line
	1500 11050 1500 10950
Wire Wire Line
	1500 10950 1250 10950
Wire Wire Line
	1550 11050 1550 10850
Wire Wire Line
	1550 10850 1250 10850
Wire Wire Line
	1600 11050 1600 10750
Wire Wire Line
	1600 10750 1250 10750
Wire Wire Line
	1650 11050 1650 10650
Wire Wire Line
	1650 10650 1250 10650
Wire Bus Line
	14700 3350 15650 3350
Wire Wire Line
	14200 5400 15150 5400
Wire Wire Line
	14600 5800 15150 5800
Wire Wire Line
	2450 4350 5250 4350
Wire Wire Line
	10100 1750 10450 1750
Wire Bus Line
	9100 2250 9100 3150
Wire Bus Line
	14500 3250 15950 3250
Wire Bus Line
	15900 4400 15900 4950
Wire Bus Line
	14100 5200 14100 7150
Wire Bus Line
	15900 5100 15900 7150
Wire Bus Line
	14500 3250 14500 5700
Wire Bus Line
	15950 3250 15950 5600
Wire Bus Line
	10400 1550 10400 3250
Wire Bus Line
	9350 3050 14350 3050
Wire Bus Line
	13050 3350 13050 6950
Wire Bus Line
	3650 3150 6200 3150
Wire Bus Line
	3050 3150 3650 3150
Wire Bus Line
	3050 2450 3050 3150
Wire Bus Line
	6300 3250 6300 4550
Wire Bus Line
	9350 3050 9350 4650
Wire Bus Line
	10300 2150 10300 3150
Wire Bus Line
	5350 3350 10550 3350
Wire Bus Line
	950  11150 6250 11150
Wire Bus Line
	3650 3150 3650 4150
Wire Bus Line
	14700 4400 14700 6050
Wire Bus Line
	11900 1050 11900 3150
Wire Bus Line
	13450 1850 13450 3150
Wire Bus Line
	12050 1250 12050 3250
Wire Bus Line
	14250 1250 14250 3250
Wire Bus Line
	15550 1650 15550 3150
Wire Bus Line
	9050 1350 9050 3250
Wire Bus Line
	13050 7150 13050 9200
Wire Bus Line
	11250 7000 11250 9550
Wire Bus Line
	10600 1050 10600 3250
Wire Bus Line
	5050 3250 5050 6600
Wire Bus Line
	5350 3350 5350 10750
$EndSCHEMATC
