EESchema Schematic File Version 4
EELAYER 30 0
EELAYER END
$Descr A3 16535 11693
encoding utf-8
Sheet 5 12
Title "Mainboard - sheet 2"
Date ""
Rev ""
Comp ""
Comment1 ""
Comment2 ""
Comment3 ""
Comment4 ""
$EndDescr
$Comp
L Connector:DB9_Female E1
U 1 1 6382C757
P 15000 3500
F 0 "E1" H 15180 3546 50  0000 L CNN
F 1 "keyboard interface" H 15180 3455 50  0000 L CNN
F 2 "" H 15000 3500 50  0001 C CNN
F 3 " ~" H 15000 3500 50  0001 C CNN
	1    15000 3500
	1    0    0    -1  
$EndComp
$Comp
L Connector:DB9_Female E2
U 1 1 6382D11D
P 15000 1350
F 0 "E2" H 15180 1396 50  0000 L CNN
F 1 "printer interface V.11" H 15180 1305 50  0000 L CNN
F 2 "" H 15000 1350 50  0001 C CNN
F 3 " ~" H 15000 1350 50  0001 C CNN
	1    15000 1350
	1    0    0    -1  
$EndComp
$Comp
L Connector_Generic:Conn_01x08 W14
U 1 1 6382EDC0
P 14900 2400
F 0 "W14" H 14980 2392 50  0000 L CNN
F 1 "Printer optional interface" H 14980 2301 50  0000 L CNN
F 2 "" H 14900 2400 50  0001 C CNN
F 3 "~" H 14900 2400 50  0001 C CNN
	1    14900 2400
	1    0    0    -1  
$EndComp
$Comp
L 74xx:74LS138 U9
U 1 1 63832AB4
P 2300 1600
F 0 "U9" H 2400 2150 50  0000 C CNN
F 1 "74LS138" H 2500 2050 50  0000 C CNN
F 2 "" H 2300 1600 50  0001 C CNN
F 3 "http://www.ti.com/lit/gpn/sn74LS138" H 2300 1600 50  0001 C CNN
	1    2300 1600
	1    0    0    -1  
$EndComp
$Comp
L power:+5V #PWR?
U 1 1 63833AF4
P 2300 900
F 0 "#PWR?" H 2300 750 50  0001 C CNN
F 1 "+5V" H 2315 1073 50  0000 C CNN
F 2 "" H 2300 900 50  0001 C CNN
F 3 "" H 2300 900 50  0001 C CNN
	1    2300 900 
	1    0    0    -1  
$EndComp
Wire Wire Line
	2300 900  2300 1000
$Comp
L power:GND #PWR?
U 1 1 6383404E
P 2300 2400
F 0 "#PWR?" H 2300 2150 50  0001 C CNN
F 1 "GND" H 2305 2227 50  0000 C CNN
F 2 "" H 2300 2400 50  0001 C CNN
F 3 "" H 2300 2400 50  0001 C CNN
	1    2300 2400
	1    0    0    -1  
$EndComp
Wire Wire Line
	2300 2400 2300 2300
$Comp
L Interface_UART:MC6850 U19
U 1 1 638347F9
P 7350 2100
F 0 "U19" H 7500 3450 50  0000 C CNN
F 1 "MC6850" H 7550 3350 50  0000 C CNN
F 2 "Package_DIP:DIP-40_W15.24mm" H 7400 950 50  0001 L CNN
F 3 "http://pdf.datasheetcatalog.com/datasheet/motorola/MC6850.pdf" H 7350 2100 50  0001 C CNN
	1    7350 2100
	1    0    0    -1  
$EndComp
$Comp
L Interface_UART:MC6850 U12
U 1 1 638398D6
P 10900 5750
F 0 "U12" H 11050 7100 50  0000 C CNN
F 1 "MC6850" H 11100 7000 50  0000 C CNN
F 2 "Package_DIP:DIP-40_W15.24mm" H 10950 4600 50  0001 L CNN
F 3 "http://pdf.datasheetcatalog.com/datasheet/motorola/MC6850.pdf" H 10900 5750 50  0001 C CNN
	1    10900 5750
	1    0    0    -1  
$EndComp
$Comp
L Timer:8253 U13
U 1 1 6383B7F6
P 1650 6600
F 0 "U13" H 1800 7600 50  0000 C CNN
F 1 "8253" H 1800 7500 50  0000 C CNN
F 2 "Package_DIP:DIP-24_W15.24mm" H 1700 6850 50  0001 C CNN
F 3 "http://www.cpcwiki.eu/imgs/e/e3/8253.pdf" H 1200 7500 50  0001 C CNN
	1    1650 6600
	1    0    0    -1  
$EndComp
$Comp
L ER3400:ER3400 U43
U 1 1 6384082D
P 6250 7700
F 0 "U43" H 6300 7050 50  0000 C CNN
F 1 "ER3400" H 6350 6950 50  0000 C CNN
F 2 "MODULE" H 6250 7700 50  0001 C CNN
F 3 "DOCUMENTATION" H 6250 7700 50  0001 C CNN
	1    6250 7700
	1    0    0    -1  
$EndComp
$Comp
L 74xx:74LS243 U44
U 1 1 63843B1A
P 8000 7950
F 0 "U44" H 8100 8500 50  0000 C CNN
F 1 "74LS243" H 8200 8400 50  0000 C CNN
F 2 "" H 8000 7950 50  0001 C CNN
F 3 "http://www.ti.com/lit/gpn/sn74LS243" H 8000 7950 50  0001 C CNN
	1    8000 7950
	1    0    0    -1  
$EndComp
$Comp
L 74xx:74LS32 U45
U 2 1 63844B5D
P 5500 5850
F 0 "U45" H 5500 6175 50  0000 C CNN
F 1 "74LS32" H 5500 6084 50  0000 C CNN
F 2 "" H 5500 5850 50  0001 C CNN
F 3 "http://www.ti.com/lit/gpn/sn74LS32" H 5500 5850 50  0001 C CNN
	2    5500 5850
	1    0    0    -1  
$EndComp
$Comp
L 74xx:74LS32 U45
U 3 1 63846183
P 6300 5750
F 0 "U45" H 6300 6075 50  0000 C CNN
F 1 "74LS32" H 6300 5984 50  0000 C CNN
F 2 "" H 6300 5750 50  0001 C CNN
F 3 "http://www.ti.com/lit/gpn/sn74LS32" H 6300 5750 50  0001 C CNN
	3    6300 5750
	1    0    0    -1  
$EndComp
$Comp
L Device:R_Network09 RP3
U 1 1 6384CD25
P 4500 6850
F 0 "RP3" H 4988 6896 50  0000 L CNN
F 1 "2.2k" H 4988 6805 50  0000 L CNN
F 2 "Resistor_THT:R_Array_SIP10" V 5075 6850 50  0001 C CNN
F 3 "http://www.vishay.com/docs/31509/csc.pdf" H 4500 6850 50  0001 C CNN
	1    4500 6850
	1    0    0    -1  
$EndComp
$Comp
L power:+5V #PWR?
U 1 1 63852185
P 4100 6600
F 0 "#PWR?" H 4100 6450 50  0001 C CNN
F 1 "+5V" H 4115 6773 50  0000 C CNN
F 2 "" H 4100 6600 50  0001 C CNN
F 3 "" H 4100 6600 50  0001 C CNN
	1    4100 6600
	1    0    0    -1  
$EndComp
Wire Wire Line
	4100 6600 4100 6650
Wire Wire Line
	4900 7050 4900 7650
Wire Wire Line
	4900 7650 5700 7650
Wire Wire Line
	4800 7050 4800 7750
Wire Wire Line
	4800 7750 5700 7750
Wire Wire Line
	4700 7050 4700 7850
Wire Wire Line
	4700 7850 5700 7850
Wire Wire Line
	4600 7050 4600 7950
Wire Wire Line
	4600 7950 5700 7950
Wire Wire Line
	4500 7050 4500 8050
Wire Wire Line
	4500 8050 5700 8050
Wire Wire Line
	4400 7050 4400 8150
Wire Wire Line
	4400 8150 5700 8150
Wire Wire Line
	4300 7050 4300 7250
Wire Wire Line
	4300 7250 5700 7250
Wire Wire Line
	4100 7050 4100 7350
Wire Wire Line
	4100 7350 5700 7350
$Comp
L power:+5V #PWR?
U 1 1 63857914
P 6150 6900
F 0 "#PWR?" H 6150 6750 50  0001 C CNN
F 1 "+5V" H 6165 7073 50  0000 C CNN
F 2 "" H 6150 6900 50  0001 C CNN
F 3 "" H 6150 6900 50  0001 C CNN
	1    6150 6900
	1    0    0    -1  
$EndComp
Wire Wire Line
	6150 6900 6150 7000
$Comp
L power:-12V #PWR?
U 1 1 63858A4F
P 6250 6650
F 0 "#PWR?" H 6250 6750 50  0001 C CNN
F 1 "-12V" H 6265 6823 50  0000 C CNN
F 2 "" H 6250 6650 50  0001 C CNN
F 3 "" H 6250 6650 50  0001 C CNN
	1    6250 6650
	1    0    0    -1  
$EndComp
Wire Wire Line
	6250 6650 6250 7000
Wire Wire Line
	6350 7000 6350 6800
Text Label 6350 6800 0    50   ~ 0
-30V
$Comp
L Device:R_Network09 RP4
U 1 1 6385A427
P 4450 9300
F 0 "RP4" H 5100 9250 50  0000 R CNN
F 1 "4.7k" H 5100 9350 50  0000 R CNN
F 2 "Resistor_THT:R_Array_SIP10" V 5025 9300 50  0001 C CNN
F 3 "http://www.vishay.com/docs/31509/csc.pdf" H 4450 9300 50  0001 C CNN
	1    4450 9300
	1    0    0    1   
$EndComp
$Comp
L power:+5V #PWR?
U 1 1 6385CE22
P 3850 9400
F 0 "#PWR?" H 3850 9250 50  0001 C CNN
F 1 "+5V" H 3865 9573 50  0000 C CNN
F 2 "" H 3850 9400 50  0001 C CNN
F 3 "" H 3850 9400 50  0001 C CNN
	1    3850 9400
	1    0    0    -1  
$EndComp
Wire Wire Line
	4050 7450 5700 7450
Wire Wire Line
	5700 7550 4150 7550
$Comp
L power:GND #PWR?
U 1 1 6385F45C
P 6150 8500
F 0 "#PWR?" H 6150 8250 50  0001 C CNN
F 1 "GND" H 6155 8327 50  0000 C CNN
F 2 "" H 6150 8500 50  0001 C CNN
F 3 "" H 6150 8500 50  0001 C CNN
	1    6150 8500
	1    0    0    -1  
$EndComp
Wire Wire Line
	6150 8500 6150 8400
Wire Wire Line
	4350 8750 7000 8750
Wire Wire Line
	7000 8750 7000 8050
Wire Wire Line
	7000 8050 6800 8050
Text Label 1750 3700 0    50   ~ 0
DBUS
Wire Bus Line
	1500 3900 3350 3900
Text Label 1750 3900 0    50   ~ 0
ABUS
Text Label 1750 4100 0    50   ~ 0
CBUS
Connection ~ 3350 3900
Entry Wire Line
	3350 8650 3450 8750
Wire Wire Line
	3450 8750 4350 8750
Connection ~ 4350 8750
Text Label 6800 8050 0    50   ~ 0
A10
Entry Wire Line
	3350 7250 3450 7350
Entry Wire Line
	3350 7150 3450 7250
Wire Wire Line
	3450 7250 4300 7250
Connection ~ 4300 7250
Wire Wire Line
	3450 7350 4100 7350
Connection ~ 4100 7350
Entry Wire Line
	3350 7350 3450 7450
Entry Wire Line
	3350 7450 3450 7550
Wire Wire Line
	3450 7450 4050 7450
Connection ~ 4050 7450
Wire Wire Line
	3450 7550 4150 7550
Connection ~ 4150 7550
Text Label 3450 7250 0    50   ~ 0
A6
Text Label 3450 7350 0    50   ~ 0
A7
Text Label 3450 7450 0    50   ~ 0
A8
Text Label 3450 7550 0    50   ~ 0
A9
Entry Wire Line
	3350 7550 3450 7650
Wire Wire Line
	3450 7650 4900 7650
Connection ~ 4900 7650
Text Label 3450 7650 0    50   ~ 0
A0
Entry Wire Line
	3350 7650 3450 7750
Wire Wire Line
	3450 7750 4800 7750
Connection ~ 4800 7750
Text Label 3450 7750 0    50   ~ 0
A1
Entry Wire Line
	3350 7750 3450 7850
Wire Wire Line
	3450 7850 4700 7850
Connection ~ 4700 7850
Text Label 3450 7850 0    50   ~ 0
A2
Entry Wire Line
	3350 7850 3450 7950
Wire Wire Line
	3450 7950 4600 7950
Connection ~ 4600 7950
Text Label 3450 7950 0    50   ~ 0
A3
Entry Wire Line
	3350 7950 3450 8050
Wire Wire Line
	3450 8050 4500 8050
Connection ~ 4500 8050
Text Label 3450 8050 0    50   ~ 0
A4
Entry Wire Line
	3350 8050 3450 8150
Wire Wire Line
	3450 8150 4400 8150
Connection ~ 4400 8150
Text Label 3450 8150 0    50   ~ 0
A5
Text Label 3450 8750 0    50   ~ 0
A10
Entry Wire Line
	3150 4100 3250 4200
Wire Wire Line
	6900 8150 6800 8150
Wire Wire Line
	3250 4200 3250 8800
Text Label 3250 4250 0    50   ~ 0
-S1
Text Label 6800 8150 0    50   ~ 0
-S1
Wire Wire Line
	3250 8800 4250 8800
Wire Wire Line
	6900 8800 6900 8150
Connection ~ 4250 8800
Wire Wire Line
	4250 8800 6900 8800
Text GLabel 6850 6900 0    50   Input ~ 0
-RAMWR
Wire Wire Line
	6800 7550 6900 7550
$Comp
L 74xx:74LS00 U36
U 3 1 63885CD2
P 4750 5950
F 0 "U36" H 4750 6275 50  0000 C CNN
F 1 "74LS00" H 4750 6184 50  0000 C CNN
F 2 "" H 4750 5950 50  0001 C CNN
F 3 "http://www.ti.com/lit/gpn/sn74ls00" H 4750 5950 50  0001 C CNN
	3    4750 5950
	1    0    0    -1  
$EndComp
Wire Wire Line
	4450 5850 4350 5850
Wire Wire Line
	4350 5850 4350 5950
Wire Wire Line
	4350 6050 4450 6050
Wire Wire Line
	5050 5950 5200 5950
Connection ~ 4350 5950
Wire Wire Line
	4350 5950 4350 6050
Text Label 4050 5950 0    50   ~ 0
NVSEL
Text GLabel 4750 5450 0    50   Input ~ 0
-CNVD
Wire Wire Line
	4750 5450 4950 5450
Wire Wire Line
	4950 5450 4950 5750
Wire Wire Line
	4950 5750 5200 5750
Text Label 4950 5750 0    50   ~ 0
-CNVD
Wire Wire Line
	4450 8850 7050 8850
Wire Wire Line
	7050 8850 7050 7450
Wire Wire Line
	7050 7450 6800 7450
Wire Wire Line
	7050 7450 7050 6000
Wire Wire Line
	7050 6000 5900 6000
Wire Wire Line
	5900 6000 5900 5850
Wire Wire Line
	5900 5850 5800 5850
Connection ~ 7050 7450
Wire Wire Line
	5900 5850 6000 5850
Connection ~ 5900 5850
Text GLabel 5800 6100 0    50   Input ~ 0
-WAIT
Wire Wire Line
	5900 6100 5900 6000
Connection ~ 5900 6000
Wire Wire Line
	6800 7650 7100 7650
Wire Wire Line
	6800 7750 7150 7750
Wire Wire Line
	6800 7850 7200 7850
Wire Wire Line
	6800 7950 7250 7950
Wire Wire Line
	4050 7450 4050 9100
Wire Wire Line
	4150 7550 4150 9100
Wire Wire Line
	4250 8800 4250 9100
Wire Wire Line
	4350 8750 4350 9100
Wire Wire Line
	4450 8850 4450 9100
Wire Wire Line
	4550 8900 7100 8900
Wire Wire Line
	7100 8900 7100 7650
Connection ~ 7100 7650
Wire Wire Line
	7100 7650 7500 7650
Wire Wire Line
	4650 8950 7150 8950
Wire Wire Line
	7150 8950 7150 7750
Connection ~ 7150 7750
Wire Wire Line
	7150 7750 7500 7750
Wire Wire Line
	4750 9000 7200 9000
Wire Wire Line
	7200 9000 7200 7850
Connection ~ 7200 7850
Wire Wire Line
	7200 7850 7500 7850
Wire Wire Line
	4850 9050 7250 9050
Wire Wire Line
	7250 9050 7250 7950
Connection ~ 7250 7950
Wire Wire Line
	7250 7950 7500 7950
Wire Wire Line
	7500 8150 7300 8150
Wire Wire Line
	7300 8150 7300 5750
Wire Wire Line
	7300 5750 6600 5750
Wire Wire Line
	6900 8800 7300 8800
Wire Wire Line
	7300 8800 7300 8250
Wire Wire Line
	7300 8250 7500 8250
Connection ~ 6900 8800
$Comp
L power:GND #PWR?
U 1 1 639DB8D9
P 8000 8600
F 0 "#PWR?" H 8000 8350 50  0001 C CNN
F 1 "GND" H 8005 8427 50  0000 C CNN
F 2 "" H 8000 8600 50  0001 C CNN
F 3 "" H 8000 8600 50  0001 C CNN
	1    8000 8600
	1    0    0    -1  
$EndComp
$Comp
L power:+5V #PWR?
U 1 1 639DEC44
P 8000 7300
F 0 "#PWR?" H 8000 7150 50  0001 C CNN
F 1 "+5V" H 8015 7473 50  0000 C CNN
F 2 "" H 8000 7300 50  0001 C CNN
F 3 "" H 8000 7300 50  0001 C CNN
	1    8000 7300
	1    0    0    -1  
$EndComp
Wire Wire Line
	8000 7300 8000 7350
Wire Wire Line
	8000 8600 8000 8550
$Comp
L 74xx:74LS393 U8
U 1 1 639E52E6
P 2400 8550
F 0 "U8" H 2400 8917 50  0000 C CNN
F 1 "74LS393" H 2400 8826 50  0000 C CNN
F 2 "" H 2400 8550 50  0001 C CNN
F 3 "74xx\\74LS393.pdf" H 2400 8550 50  0001 C CNN
	1    2400 8550
	1    0    0    -1  
$EndComp
$Comp
L 74xx:74LS393 U8
U 2 1 639E5F31
P 1200 8550
F 0 "U8" H 1200 8917 50  0000 C CNN
F 1 "74LS393" H 1200 8826 50  0000 C CNN
F 2 "" H 1200 8550 50  0001 C CNN
F 3 "74xx\\74LS393.pdf" H 1200 8550 50  0001 C CNN
	2    1200 8550
	1    0    0    -1  
$EndComp
$Comp
L power:GND #PWR?
U 1 1 639E69CB
P 1650 7650
F 0 "#PWR?" H 1650 7400 50  0001 C CNN
F 1 "GND" H 1655 7477 50  0000 C CNN
F 2 "" H 1650 7650 50  0001 C CNN
F 3 "" H 1650 7650 50  0001 C CNN
	1    1650 7650
	1    0    0    -1  
$EndComp
$Comp
L power:+5V #PWR?
U 1 1 639EA474
P 1650 5550
F 0 "#PWR?" H 1650 5400 50  0001 C CNN
F 1 "+5V" H 1665 5723 50  0000 C CNN
F 2 "" H 1650 5550 50  0001 C CNN
F 3 "" H 1650 5550 50  0001 C CNN
	1    1650 5550
	1    0    0    -1  
$EndComp
$Comp
L 74xx:74LS377 U29
U 1 1 639EDF79
P 14050 6550
F 0 "U29" H 14150 7300 50  0000 C CNN
F 1 "74LS377" H 14250 7200 50  0000 C CNN
F 2 "" H 14050 6550 50  0001 C CNN
F 3 "http://www.ti.com/lit/gpn/sn74LS377" H 14050 6550 50  0001 C CNN
	1    14050 6550
	1    0    0    -1  
$EndComp
$Comp
L 74xx:74LS377 U81
U 1 1 639F033C
P 14050 8700
F 0 "U81" H 14150 9450 50  0000 C CNN
F 1 "74LS377" H 14250 9350 50  0000 C CNN
F 2 "" H 14050 8700 50  0001 C CNN
F 3 "http://www.ti.com/lit/gpn/sn74LS377" H 14050 8700 50  0001 C CNN
	1    14050 8700
	1    0    0    -1  
$EndComp
$Comp
L power:GND #PWR?
U 1 1 639F172B
P 14050 7400
F 0 "#PWR?" H 14050 7150 50  0001 C CNN
F 1 "GND" H 14055 7227 50  0000 C CNN
F 2 "" H 14050 7400 50  0001 C CNN
F 3 "" H 14050 7400 50  0001 C CNN
	1    14050 7400
	1    0    0    -1  
$EndComp
Wire Wire Line
	14050 7400 14050 7350
$Comp
L power:+5V #PWR?
U 1 1 639F4E0E
P 14050 7850
F 0 "#PWR?" H 14050 7700 50  0001 C CNN
F 1 "+5V" H 14065 8023 50  0000 C CNN
F 2 "" H 14050 7850 50  0001 C CNN
F 3 "" H 14050 7850 50  0001 C CNN
	1    14050 7850
	1    0    0    -1  
$EndComp
$Comp
L power:+5V #PWR?
U 1 1 639F81D2
P 14050 5700
F 0 "#PWR?" H 14050 5550 50  0001 C CNN
F 1 "+5V" H 14065 5873 50  0000 C CNN
F 2 "" H 14050 5700 50  0001 C CNN
F 3 "" H 14050 5700 50  0001 C CNN
	1    14050 5700
	1    0    0    -1  
$EndComp
Wire Wire Line
	14050 5700 14050 5750
$Comp
L power:GND #PWR?
U 1 1 639FC040
P 14050 9550
F 0 "#PWR?" H 14050 9300 50  0001 C CNN
F 1 "GND" H 14055 9377 50  0000 C CNN
F 2 "" H 14050 9550 50  0001 C CNN
F 3 "" H 14050 9550 50  0001 C CNN
	1    14050 9550
	1    0    0    -1  
$EndComp
Wire Wire Line
	4550 9100 4550 8900
Wire Wire Line
	4650 9100 4650 8950
Wire Wire Line
	4750 9100 4750 9000
Wire Wire Line
	4850 9100 4850 9050
Wire Wire Line
	4050 9500 4050 9550
Wire Bus Line
	550  9800 8750 9800
Text Label 750  9800 0    50   ~ 0
DBBUS
Entry Wire Line
	8650 7650 8750 7750
Entry Wire Line
	8650 7750 8750 7850
Entry Wire Line
	8650 7850 8750 7950
Entry Wire Line
	8650 7950 8750 8050
Connection ~ 8750 9800
Wire Bus Line
	8750 9800 11900 9800
Wire Wire Line
	8500 7650 8650 7650
Wire Wire Line
	8500 7750 8650 7750
Wire Wire Line
	8500 7850 8650 7850
Wire Wire Line
	8500 7950 8650 7950
Text Label 8500 7650 0    50   ~ 0
DB0
Text Label 8500 7750 0    50   ~ 0
DB1
Text Label 8500 7850 0    50   ~ 0
DB2
Text Label 8500 7950 0    50   ~ 0
DB3
Entry Wire Line
	13250 6150 13350 6050
Entry Wire Line
	13250 6250 13350 6150
Entry Wire Line
	13250 6350 13350 6250
Entry Wire Line
	13250 6450 13350 6350
Entry Wire Line
	13250 6550 13350 6450
Entry Wire Line
	13250 6650 13350 6550
Entry Wire Line
	13250 6750 13350 6650
Entry Wire Line
	13250 8300 13350 8200
Entry Wire Line
	13250 8400 13350 8300
Entry Wire Line
	13250 8500 13350 8400
Entry Wire Line
	13250 8600 13350 8500
Entry Wire Line
	13250 8700 13350 8600
Entry Wire Line
	13250 8800 13350 8700
Entry Wire Line
	13250 8900 13350 8800
Entry Wire Line
	13250 9000 13350 8900
Wire Wire Line
	13350 8900 13550 8900
Wire Wire Line
	13350 8800 13550 8800
Wire Wire Line
	13350 8700 13550 8700
Wire Wire Line
	13350 8600 13550 8600
Wire Wire Line
	13350 8500 13550 8500
Wire Wire Line
	13350 8400 13550 8400
Wire Wire Line
	13350 8300 13550 8300
Wire Wire Line
	13350 8200 13550 8200
Wire Wire Line
	13350 6050 13550 6050
Wire Wire Line
	13350 6150 13550 6150
Wire Wire Line
	13350 6250 13550 6250
Wire Wire Line
	13350 6350 13550 6350
Wire Wire Line
	13350 6450 13550 6450
Wire Wire Line
	13350 6550 13550 6550
Wire Wire Line
	13350 6650 13550 6650
Entry Wire Line
	13250 6850 13350 6750
Wire Wire Line
	13350 6750 13550 6750
Text Label 13350 6050 0    50   ~ 0
DB0
Text Label 13350 6150 0    50   ~ 0
DB1
Text Label 13350 6250 0    50   ~ 0
DB2
Text Label 13350 6350 0    50   ~ 0
DB3
Text Label 13350 6450 0    50   ~ 0
DB4
Text Label 13350 6550 0    50   ~ 0
DB5
Text Label 13350 6650 0    50   ~ 0
DB6
Text Label 13350 6750 0    50   ~ 0
DB7
Text Label 13350 8200 0    50   ~ 0
DB0
Text Label 13350 8300 0    50   ~ 0
DB1
Text Label 13350 8400 0    50   ~ 0
DB2
Text Label 13350 8500 0    50   ~ 0
DB3
Text Label 13350 8600 0    50   ~ 0
DB4
Text Label 13350 8700 0    50   ~ 0
DB5
Text Label 13350 8800 0    50   ~ 0
DB6
Text Label 13350 8900 0    50   ~ 0
DB7
Wire Wire Line
	14050 7850 14050 7900
Wire Wire Line
	14050 9500 14050 9550
Entry Wire Line
	1500 1400 1600 1300
Entry Wire Line
	1500 1500 1600 1400
Entry Wire Line
	1500 1600 1600 1500
Entry Wire Line
	1500 2100 1600 2000
Connection ~ 1500 3900
Wire Wire Line
	1600 2000 1800 2000
Wire Wire Line
	1600 1500 1800 1500
Wire Wire Line
	1600 1400 1800 1400
Wire Wire Line
	1600 1300 1800 1300
Text Label 1600 1300 0    50   ~ 0
A12
Text Label 1600 1400 0    50   ~ 0
A13
Text Label 1600 1500 0    50   ~ 0
A14
Text Label 1600 2000 0    50   ~ 0
A15
Wire Wire Line
	1800 1900 1400 1900
Wire Wire Line
	1800 1800 1350 1800
Entry Wire Line
	1400 4000 1500 4100
Entry Wire Line
	1350 4000 1450 4100
Wire Wire Line
	1400 1900 1400 4000
Wire Wire Line
	1350 1800 1350 4000
Text Label 1550 1900 0    50   ~ 0
ALE
Text Label 1550 1800 0    50   ~ 0
IO_-M
Text Label 2800 1300 0    50   ~ 0
-CSIO
Text Label 2800 1400 0    50   ~ 0
-CKBPR
Text Label 2800 1500 0    50   ~ 0
-CTIM
Text Label 2800 1600 0    50   ~ 0
-CCRT
Text Label 2800 1700 0    50   ~ 0
-CDMA
Text Label 2800 1800 0    50   ~ 0
-SCE1
Text Label 2800 1900 0    50   ~ 0
-SCE2
Text Label 2800 2000 0    50   ~ 0
-ATRTE
Wire Wire Line
	2800 1700 3600 1700
Entry Wire Line
	3600 4000 3700 4100
Wire Wire Line
	3600 1700 3600 4000
Wire Wire Line
	6000 5650 5850 5650
Entry Wire Line
	5850 4200 5950 4100
Wire Wire Line
	5850 4200 5850 5650
Text Label 5850 4250 0    50   ~ 0
-RD
Text Label 5850 5650 0    50   ~ 0
-RD
Wire Wire Line
	3800 4400 3800 1900
Wire Wire Line
	2800 1900 3800 1900
Text Label 13300 9200 0    50   ~ 0
-SCE2
Wire Wire Line
	13000 9200 13550 9200
Wire Wire Line
	13550 7050 13100 7050
Wire Wire Line
	3850 4300 3850 1800
Wire Wire Line
	2800 1800 3850 1800
Text Label 13300 7050 0    50   ~ 0
-SCE1
Entry Wire Line
	7850 4100 7950 4200
Text Label 7950 4200 0    50   ~ 0
-WR
Wire Wire Line
	13550 9100 12900 9100
Wire Wire Line
	13550 6950 12900 6950
Wire Wire Line
	12900 6950 12900 7400
Text Label 13300 6950 0    50   ~ 0
-WR
Text Label 13300 9100 0    50   ~ 0
-WR
Wire Wire Line
	14550 8200 14950 8200
Wire Wire Line
	14550 8300 14950 8300
Wire Wire Line
	14550 8400 14950 8400
Wire Wire Line
	14550 8500 14950 8500
Wire Wire Line
	14550 8600 14950 8600
Wire Wire Line
	14550 8700 14950 8700
Wire Wire Line
	14550 8800 14950 8800
Wire Wire Line
	14550 8900 14950 8900
Wire Wire Line
	14550 6750 14950 6750
Wire Wire Line
	14550 6650 14950 6650
Wire Wire Line
	14550 6550 14950 6550
Wire Wire Line
	14550 6450 14950 6450
Wire Wire Line
	14550 6350 14950 6350
Wire Wire Line
	14550 6250 14900 6250
Wire Wire Line
	14550 6150 14950 6150
Wire Wire Line
	14550 6050 14950 6050
Text Label 14600 8200 0    50   ~ 0
ATRW
Text Label 14600 8300 0    50   ~ 0
CHRW
Text Label 14600 8400 0    50   ~ 0
BKCUR
Text Label 14600 8500 0    50   ~ 0
VOF
Text Label 14600 8600 0    50   ~ 0
CEN
Text Label 14600 8700 0    50   ~ 0
-SELDM
Text Label 14600 8800 0    50   ~ 0
-BAC
Text Label 14600 8900 0    50   ~ 0
-DISSEL
Text Label 14600 6050 0    50   ~ 0
C0
Text Label 14600 6150 0    50   ~ 0
C1
Text Label 14600 6250 0    50   ~ 0
NVSEL
Text Label 14600 6350 0    50   ~ 0
V24EN
Text Label 14600 6450 0    50   ~ 0
ECSA
Text Label 14600 6550 0    50   ~ 0
-SSE
Text Label 14600 6650 0    50   ~ 0
-SETSEL
Text Label 14600 6750 0    50   ~ 0
DISBRD
Wire Wire Line
	14900 6250 14900 5450
Wire Wire Line
	3800 4450 3800 5950
Wire Wire Line
	3800 5950 4350 5950
Connection ~ 14900 6250
Wire Wire Line
	14900 6250 14950 6250
$Comp
L 74xx:74LS240 U82
U 1 1 63C17F60
P 11150 8500
F 0 "U82" H 11250 9250 50  0000 C CNN
F 1 "74LS240" H 11350 9150 50  0000 C CNN
F 2 "" H 11150 8500 50  0001 C CNN
F 3 "http://www.ti.com/lit/ds/symlink/sn74ls240.pdf" H 11150 8500 50  0001 C CNN
	1    11150 8500
	1    0    0    -1  
$EndComp
$Comp
L power:+5V #PWR?
U 1 1 63C19C4A
P 11150 7650
F 0 "#PWR?" H 11150 7500 50  0001 C CNN
F 1 "+5V" H 11165 7823 50  0000 C CNN
F 2 "" H 11150 7650 50  0001 C CNN
F 3 "" H 11150 7650 50  0001 C CNN
	1    11150 7650
	1    0    0    -1  
$EndComp
$Comp
L power:GND #PWR?
U 1 1 63C23B77
P 11150 9350
F 0 "#PWR?" H 11150 9100 50  0001 C CNN
F 1 "GND" H 11155 9177 50  0000 C CNN
F 2 "" H 11150 9350 50  0001 C CNN
F 3 "" H 11150 9350 50  0001 C CNN
	1    11150 9350
	1    0    0    -1  
$EndComp
Entry Wire Line
	11800 8000 11900 8100
Entry Wire Line
	11800 8100 11900 8200
Entry Wire Line
	11800 8200 11900 8300
Entry Wire Line
	11800 8300 11900 8400
Entry Wire Line
	11800 8400 11900 8500
Entry Wire Line
	11800 8500 11900 8600
Entry Wire Line
	11800 8600 11900 8700
Entry Wire Line
	11800 8700 11900 8800
Wire Wire Line
	11800 8700 11650 8700
Wire Wire Line
	11650 8600 11800 8600
Wire Wire Line
	11650 8500 11800 8500
Wire Wire Line
	11650 8400 11800 8400
Wire Wire Line
	11650 8300 11800 8300
Wire Wire Line
	11650 8200 11800 8200
Wire Wire Line
	11650 8100 11800 8100
Wire Wire Line
	11650 8000 11800 8000
Text Label 11650 8000 0    50   ~ 0
DB0
Text Label 11650 8100 0    50   ~ 0
DB1
Text Label 11650 8200 0    50   ~ 0
DB2
Text Label 11650 8300 0    50   ~ 0
DB3
Text Label 11650 8700 0    50   ~ 0
DB4
Text Label 11650 8600 0    50   ~ 0
DB5
Text Label 11650 8500 0    50   ~ 0
DB6
Text Label 11650 8400 0    50   ~ 0
DB7
$Comp
L Device:R_Network09 RP5
U 1 1 63CA917E
P 9150 8800
F 0 "RP5" V 8533 8800 50  0000 C CNN
F 1 "2.2k" V 8624 8800 50  0000 C CNN
F 2 "Resistor_THT:R_Array_SIP10" V 9725 8800 50  0001 C CNN
F 3 "http://www.vishay.com/docs/31509/csc.pdf" H 9150 8800 50  0001 C CNN
	1    9150 8800
	0    -1   1    0   
$EndComp
Wire Wire Line
	10650 8100 10250 8100
Wire Wire Line
	10650 8000 10250 8000
Wire Wire Line
	10650 8200 10250 8200
Wire Wire Line
	10650 8300 10250 8300
$Comp
L 74xx:74LS32 U6
U 1 1 63D042F8
P 9550 8000
F 0 "U6" H 9550 8325 50  0000 C CNN
F 1 "74LS32" H 9550 8234 50  0000 C CNN
F 2 "" H 9550 8000 50  0001 C CNN
F 3 "http://www.ti.com/lit/gpn/sn74LS32" H 9550 8000 50  0001 C CNN
	1    9550 8000
	1    0    0    -1  
$EndComp
Text Label 10300 8100 0    50   ~ 0
MOBAC
Text Label 10300 8200 0    50   ~ 0
-CAR
Text Label 10300 8300 0    50   ~ 0
-CI
Text Label 10300 8700 0    50   ~ 0
INSP
Text Label 10300 8000 0    50   ~ 0
RXPR1
$Comp
L power:+5V #PWR?
U 1 1 63D08CB1
P 8900 8350
F 0 "#PWR?" H 8900 8200 50  0001 C CNN
F 1 "+5V" H 8915 8523 50  0000 C CNN
F 2 "" H 8900 8350 50  0001 C CNN
F 3 "" H 8900 8350 50  0001 C CNN
	1    8900 8350
	1    0    0    -1  
$EndComp
$Comp
L Device:Jumper_NO_Small JP?
U 1 1 63D46F8A
P 9600 9400
F 0 "JP?" V 9554 9448 50  0000 L CNN
F 1 "C" V 9645 9448 50  0000 L CNN
F 2 "" H 9600 9400 50  0001 C CNN
F 3 "~" H 9600 9400 50  0001 C CNN
	1    9600 9400
	0    1    1    0   
$EndComp
$Comp
L power:GND #PWR?
U 1 1 63D47C2D
P 9600 9550
F 0 "#PWR?" H 9600 9300 50  0001 C CNN
F 1 "GND" H 9605 9377 50  0000 C CNN
F 2 "" H 9600 9550 50  0001 C CNN
F 3 "" H 9600 9550 50  0001 C CNN
	1    9600 9550
	1    0    0    -1  
$EndComp
$Comp
L Device:Jumper_NO_Small JP?
U 1 1 63D4855D
P 9750 9400
F 0 "JP?" V 9704 9448 50  0000 L CNN
F 1 "A" V 9795 9448 50  0000 L CNN
F 2 "" H 9750 9400 50  0001 C CNN
F 3 "~" H 9750 9400 50  0001 C CNN
	1    9750 9400
	0    1    1    0   
$EndComp
$Comp
L Device:Jumper_NO_Small JP?
U 1 1 63D48AE5
P 9900 9400
F 0 "JP?" V 9854 9448 50  0000 L CNN
F 1 "B" V 9945 9448 50  0000 L CNN
F 2 "" H 9900 9400 50  0001 C CNN
F 3 "~" H 9900 9400 50  0001 C CNN
	1    9900 9400
	0    1    1    0   
$EndComp
$Comp
L power:GND #PWR?
U 1 1 63D48EA1
P 9750 9550
F 0 "#PWR?" H 9750 9300 50  0001 C CNN
F 1 "GND" H 9755 9377 50  0000 C CNN
F 2 "" H 9750 9550 50  0001 C CNN
F 3 "" H 9750 9550 50  0001 C CNN
	1    9750 9550
	1    0    0    -1  
$EndComp
$Comp
L power:GND #PWR?
U 1 1 63D49131
P 9900 9550
F 0 "#PWR?" H 9900 9300 50  0001 C CNN
F 1 "GND" H 9905 9377 50  0000 C CNN
F 2 "" H 9900 9550 50  0001 C CNN
F 3 "" H 9900 9550 50  0001 C CNN
	1    9900 9550
	1    0    0    -1  
$EndComp
Wire Wire Line
	9600 9550 9600 9500
Wire Wire Line
	9750 9550 9750 9500
Wire Wire Line
	9900 9550 9900 9500
Wire Notes Line
	9550 9250 9550 9550
Wire Notes Line
	9550 9550 10200 9550
Wire Notes Line
	10200 9550 10200 9250
Wire Notes Line
	9550 9250 10200 9250
Text Notes 10050 9550 0    50   ~ 0
TP1
Wire Wire Line
	8900 4400 8900 7450
Wire Wire Line
	8900 7900 9250 7900
Wire Wire Line
	3800 4400 8900 4400
Text Label 8950 7900 0    50   ~ 0
-SCE2
Entry Wire Line
	7600 4100 7700 4200
Wire Wire Line
	7700 4200 7700 4500
Wire Wire Line
	7700 4500 8850 4500
Wire Wire Line
	8850 4500 8850 8100
Wire Wire Line
	8850 8100 9250 8100
Text Label 8950 8100 0    50   ~ 0
-RD
Text Label 7700 4200 0    50   ~ 0
-RD
$Comp
L power:+5V #PWR?
U 1 1 63DE0B58
P 7350 750
F 0 "#PWR?" H 7350 600 50  0001 C CNN
F 1 "+5V" H 7365 923 50  0000 C CNN
F 2 "" H 7350 750 50  0001 C CNN
F 3 "" H 7350 750 50  0001 C CNN
	1    7350 750 
	1    0    0    -1  
$EndComp
Wire Wire Line
	7350 750  7350 800 
$Comp
L power:GND #PWR?
U 1 1 63DF0339
P 7350 3350
F 0 "#PWR?" H 7350 3100 50  0001 C CNN
F 1 "GND" H 7355 3177 50  0000 C CNN
F 2 "" H 7350 3350 50  0001 C CNN
F 3 "" H 7350 3350 50  0001 C CNN
	1    7350 3350
	1    0    0    -1  
$EndComp
Wire Wire Line
	7350 3350 7350 3300
Entry Wire Line
	6450 3800 6350 3900
Wire Wire Line
	6450 3800 6450 2000
Wire Wire Line
	6450 2000 6850 2000
Text Label 6650 2000 0    50   ~ 0
A0
Entry Wire Line
	6550 3800 6450 3900
Wire Wire Line
	6550 3800 6550 2200
Wire Wire Line
	6550 2200 6850 2200
Text Label 6650 2200 0    50   ~ 0
A3
Wire Wire Line
	3900 1400 3900 2300
Wire Wire Line
	3900 2300 6850 2300
Wire Wire Line
	2800 1400 3900 1400
Text Label 5850 2300 0    50   ~ 0
-CKBPR
Entry Wire Line
	6200 4000 6100 4100
Wire Wire Line
	6200 4000 6200 1900
Wire Wire Line
	6200 1900 6850 1900
Text Label 6650 1900 0    50   ~ 0
S1
Text Label 6200 4000 0    50   ~ 0
S1
Wire Wire Line
	3200 7200 3200 2700
Wire Wire Line
	3200 2700 6800 2700
Wire Wire Line
	6850 2600 6800 2600
Wire Wire Line
	6800 2600 6800 2700
Connection ~ 6800 2700
Wire Wire Line
	6800 2700 6850 2700
Text Label 2700 7200 0    50   ~ 0
PRCLK
Text Label 5850 2700 0    50   ~ 0
PRCLK
Entry Wire Line
	6600 1000 6500 1100
Entry Wire Line
	6600 1100 6500 1200
Entry Wire Line
	6600 1200 6500 1300
Entry Wire Line
	6600 1300 6500 1400
Entry Wire Line
	6600 1400 6500 1500
Entry Wire Line
	6600 1500 6500 1600
Entry Wire Line
	6600 1600 6500 1700
Entry Wire Line
	6600 1700 6500 1800
Connection ~ 6500 3700
Wire Wire Line
	6600 1700 6850 1700
Wire Wire Line
	6600 1600 6850 1600
Wire Wire Line
	6600 1500 6850 1500
Wire Wire Line
	6600 1400 6850 1400
Wire Wire Line
	6600 1300 6850 1300
Wire Wire Line
	6600 1200 6850 1200
Wire Wire Line
	6600 1100 6850 1100
Wire Wire Line
	6600 1000 6850 1000
Text Label 6650 1000 0    50   ~ 0
D0
Text Label 6650 1100 0    50   ~ 0
D1
Text Label 6650 1200 0    50   ~ 0
D2
Text Label 6650 1300 0    50   ~ 0
D3
Text Label 6650 1400 0    50   ~ 0
D4
Text Label 6650 1500 0    50   ~ 0
D5
Text Label 6650 1600 0    50   ~ 0
D6
Text Label 6650 1700 0    50   ~ 0
D7
Wire Wire Line
	6850 3000 6800 3000
Connection ~ 7350 3350
Wire Wire Line
	6850 3100 6800 3100
Wire Wire Line
	6800 3000 6800 3100
Connection ~ 6800 3100
Wire Wire Line
	6800 3100 6800 3350
Wire Wire Line
	6800 3350 7350 3350
NoConn ~ 7750 3000
$Comp
L Device:R R7
U 1 1 63FFE831
P 8050 950
F 0 "R7" H 8120 996 50  0000 L CNN
F 1 "6k8" H 8120 905 50  0000 L CNN
F 2 "" V 7980 950 50  0001 C CNN
F 3 "~" H 8050 950 50  0001 C CNN
	1    8050 950 
	1    0    0    -1  
$EndComp
Wire Wire Line
	7750 1200 8050 1200
Wire Wire Line
	8050 1100 8050 1200
Connection ~ 8050 1200
$Comp
L power:+5V #PWR?
U 1 1 6403A7AE
P 8050 750
F 0 "#PWR?" H 8050 600 50  0001 C CNN
F 1 "+5V" H 8065 923 50  0000 C CNN
F 2 "" H 8050 750 50  0001 C CNN
F 3 "" H 8050 750 50  0001 C CNN
	1    8050 750 
	1    0    0    -1  
$EndComp
Wire Wire Line
	8050 750  8050 800 
Text Label 8150 1200 0    50   ~ 0
-PRINT
Wire Wire Line
	6850 2400 6600 2400
Text Label 6600 2400 0    50   ~ 0
R_W
Wire Wire Line
	6850 2900 6650 2900
Wire Wire Line
	6650 2900 6650 3600
Wire Wire Line
	6650 3600 7950 3600
Wire Wire Line
	7950 3600 7950 2950
Wire Wire Line
	7750 2900 7850 2900
Wire Wire Line
	7850 2900 7850 1500
$Comp
L AM26LS31:AM26LS31CNE4 U49
U 1 1 640909AA
P 11550 950
F 0 "U49" H 12050 1215 50  0000 C CNN
F 1 "AM26LS31CNE4" H 12050 1124 50  0000 C CNN
F 2 "AM26LS31" H 11550 2150 50  0001 L CNN
F 3 "http://www.ti.com/general/docs/lit/getliterature.tsp?genericPartNumber=AM26LS31&fileType=pdf" H 11550 1450 50  0001 L CNN
F 4 "MS-001*" H 11550 1550 50  0001 L CNN "Code  JEDEC"
F 5 "Package Specification" H 11550 1650 50  0001 L CNN "Component Link 2 Description"
F 6 "http://www.ti.com/lit/ml/mpdi002c/mpdi002c.pdf" H 11550 1750 50  0001 L CNN "Component Link 2 URL"
F 7 "SLLS114I" H 11550 1850 50  0001 L CNN "Datasheet Version"
F 8 "4" H 11550 1950 50  0001 L CNN "Drivers Per Package"
F 9 "2" H 11550 2050 50  0001 L CNN "ESDk V"
F 10 "80" H 11550 2250 50  0001 L CNN "ICC Maxm A"
F 11 "Through-hole" H 11550 2350 50  0001 L CNN "Mounting Technology"
F 12 "16-Pin Plastic Dual-In-Line Package, Row Spacing 7.62 mm, Pitch 2.54 mm" H 11550 2450 50  0001 L CNN "Package Description"
F 13 "revE, Dec-2002" H 11550 2550 50  0001 L CNN "Package Version"
F 14 "Catalog" H 11550 2650 50  0001 L CNN "Rating"
F 15 "RS-422" H 11550 2750 50  0001 L CNN "Sub Family"
F 16 "5" H 11550 2850 50  0001 L CNN "Supply VoltagesV"
F 17 "IC" H 11550 2950 50  0001 L CNN "category"
F 18 "65d75005137963e0" H 11550 3050 50  0001 L CNN "library id"
F 19 "Texas Instruments" H 11550 3150 50  0001 L CNN "manufacturer"
F 20 "4 TX / 0 RX" H 11550 3250 50  0001 L CNN "of TXRX"
F 21 "N16" H 11550 3350 50  0001 L CNN "package"
F 22 "Yes" H 11550 3450 50  0001 L CNN "rohs"
F 23 "F4D3E606-358B-4494-ACF6-CE0A22313FCF" H 11550 3550 50  0001 L CNN "vault revision"
F 24 "yes" H 11550 3650 50  0001 L CNN "imported"
	1    11550 950 
	1    0    0    -1  
$EndComp
$Comp
L AM26LS32:AM26LS32ACN U22
U 1 1 64093AF8
P 12450 2700
F 0 "U22" H 12850 2965 50  0000 C CNN
F 1 "AM26LS32ACN" H 12850 2874 50  0000 C CNN
F 2 "Texas_Instruments-AM26LS32ACN-*" H 12450 3100 50  0001 L CNN
F 3 "http://www.ti.com/general/docs/lit/getliterature.tsp?genericPartNumber=AM26LS32AC&fileType=pdf" H 12450 3200 50  0001 L CNN
F 4 "MS-001*" H 12450 3300 50  0001 L CNN "Code  JEDEC"
F 5 "Package Specification" H 12450 3400 50  0001 L CNN "Component Link 2 Description"
F 6 "http://www.ti.com/lit/ml/mpdi002c/mpdi002c.pdf" H 12450 3500 50  0001 L CNN "Component Link 2 URL"
F 7 "SLLS115E" H 12450 3600 50  0001 L CNN "Datasheet Version"
F 8 "70" H 12450 3700 50  0001 L CNN "ICC Maxm A"
F 9 "Through-hole" H 12450 3800 50  0001 L CNN "Mounting Technology"
F 10 "16-Pin Plastic Dual-In-Line Package, Row Spacing 7.62 mm, Pitch 2.54 mm" H 12450 3900 50  0001 L CNN "Package Description"
F 11 "revE, Dec-2002" H 12450 4000 50  0001 L CNN "Package Version"
F 12 "Catalog" H 12450 4100 50  0001 L CNN "Rating"
F 13 "4" H 12450 4200 50  0001 L CNN "Receivers Per Package"
F 14 "RS-422" H 12450 4300 50  0001 L CNN "Sub Family"
F 15 "IC" H 12450 4400 50  0001 L CNN "category"
F 16 "13586529" H 12450 4500 50  0001 L CNN "ciiva ids"
F 17 "09c09c5c08df53c0" H 12450 4600 50  0001 L CNN "library id"
F 18 "Texas Instruments" H 12450 4700 50  0001 L CNN "manufacturer"
F 19 "0 TX / 4 RX" H 12450 4800 50  0001 L CNN "of TXRX"
F 20 "N0016A" H 12450 4900 50  0001 L CNN "package"
F 21 "1464334793" H 12450 5000 50  0001 L CNN "release date"
F 22 "Yes" H 12450 5100 50  0001 L CNN "rohs"
F 23 "01939A46-2924-4BA3-AE5E-9AF6D570F9E1" H 12450 5200 50  0001 L CNN "vault revision"
F 24 "yes" H 12450 5300 50  0001 L CNN "imported"
	1    12450 2700
	-1   0    0    -1  
$EndComp
$Comp
L power:GND #PWR?
U 1 1 640AB44A
P 12500 2100
F 0 "#PWR?" H 12500 1850 50  0001 C CNN
F 1 "GND" H 12505 1927 50  0000 C CNN
F 2 "" H 12500 2100 50  0001 C CNN
F 3 "" H 12500 2100 50  0001 C CNN
	1    12500 2100
	1    0    0    -1  
$EndComp
Wire Wire Line
	12450 2050 12500 2050
Wire Wire Line
	12500 2050 12500 2100
$Comp
L power:+5V #PWR?
U 1 1 640C1CCE
P 11550 2150
F 0 "#PWR?" H 11550 2000 50  0001 C CNN
F 1 "+5V" H 11565 2323 50  0000 C CNN
F 2 "" H 11550 2150 50  0001 C CNN
F 3 "" H 11550 2150 50  0001 C CNN
	1    11550 2150
	1    0    0    -1  
$EndComp
Wire Wire Line
	11650 2050 11600 2050
Wire Wire Line
	11600 2050 11600 2200
Wire Wire Line
	11600 2200 11550 2200
Wire Wire Line
	11550 2200 11550 2150
$Comp
L power:GND #PWR?
U 1 1 640D7EB1
P 11600 3950
F 0 "#PWR?" H 11600 3700 50  0001 C CNN
F 1 "GND" H 11605 3777 50  0000 C CNN
F 2 "" H 11600 3950 50  0001 C CNN
F 3 "" H 11600 3950 50  0001 C CNN
	1    11600 3950
	1    0    0    -1  
$EndComp
Wire Wire Line
	11600 3950 11600 3900
Wire Wire Line
	11600 3900 11650 3900
$Comp
L power:+5V #PWR?
U 1 1 640EF476
P 12550 4000
F 0 "#PWR?" H 12550 3850 50  0001 C CNN
F 1 "+5V" H 12565 4173 50  0000 C CNN
F 2 "" H 12550 4000 50  0001 C CNN
F 3 "" H 12550 4000 50  0001 C CNN
	1    12550 4000
	1    0    0    -1  
$EndComp
Wire Wire Line
	12450 3900 12500 3900
Wire Wire Line
	12500 3900 12500 4050
Wire Wire Line
	12500 4050 12550 4050
Wire Wire Line
	12550 4050 12550 4000
Wire Wire Line
	11650 1150 10750 1150
Wire Wire Line
	8900 1150 8900 1500
Wire Wire Line
	7850 1500 8900 1500
Text Label 11200 1150 0    50   ~ 0
TXP1
Wire Wire Line
	12450 1250 13450 1250
Wire Wire Line
	13450 1250 13450 1150
Wire Wire Line
	13450 1150 14700 1150
Wire Wire Line
	12450 1150 13350 1150
Wire Wire Line
	13350 1150 13350 1200
Wire Wire Line
	13350 1200 13550 1200
Wire Wire Line
	13550 1200 13550 1250
Wire Wire Line
	13550 1250 14700 1250
Text Label 14350 1150 0    50   ~ 0
-TXPR
Text Label 14400 1250 0    50   ~ 0
TXPR
Wire Wire Line
	12450 2900 13500 2900
Text Label 14400 1650 0    50   ~ 0
RXPR
Text Label 14350 1550 0    50   ~ 0
-RXPR
$Comp
L Device:R R9
U 1 1 641824ED
P 13950 1600
F 0 "R9" V 13743 1600 50  0000 C CNN
F 1 "270R" V 13834 1600 50  0000 C CNN
F 2 "" V 13880 1600 50  0001 C CNN
F 3 "~" H 13950 1600 50  0001 C CNN
	1    13950 1600
	0    1    1    0   
$EndComp
Wire Wire Line
	14100 1600 14200 1600
Wire Wire Line
	14200 1600 14200 1650
Connection ~ 14200 1650
Wire Wire Line
	14200 1650 14700 1650
Wire Wire Line
	13800 1600 13750 1600
Wire Wire Line
	13750 1600 13750 1550
Connection ~ 13750 1550
Wire Wire Line
	13750 1550 14700 1550
$Comp
L Device:R_Network07 RP8
U 1 1 641B5DA7
P 13800 4300
F 0 "RP8" H 13420 4254 50  0000 R CNN
F 1 "2.7k" H 13420 4345 50  0000 R CNN
F 2 "Resistor_THT:R_Array_SIP8" V 14275 4300 50  0001 C CNN
F 3 "http://www.vishay.com/docs/31509/csc.pdf" H 13800 4300 50  0001 C CNN
	1    13800 4300
	-1   0    0    1   
$EndComp
$Comp
L power:GND #PWR?
U 1 1 641BAADB
P 14100 4550
F 0 "#PWR?" H 14100 4300 50  0001 C CNN
F 1 "GND" H 14105 4377 50  0000 C CNN
F 2 "" H 14100 4550 50  0001 C CNN
F 3 "" H 14100 4550 50  0001 C CNN
	1    14100 4550
	1    0    0    -1  
$EndComp
Wire Wire Line
	14100 4500 14100 4550
$Comp
L Device:R_Network07 RP9
U 1 1 641EF5B3
P 13850 850
F 0 "RP9" H 13470 896 50  0000 R CNN
F 1 "2.7k" H 13470 805 50  0000 R CNN
F 2 "Resistor_THT:R_Array_SIP8" V 14325 850 50  0001 C CNN
F 3 "http://www.vishay.com/docs/31509/csc.pdf" H 13850 850 50  0001 C CNN
	1    13850 850 
	-1   0    0    -1  
$EndComp
$Comp
L power:+5V #PWR?
U 1 1 641F2D7F
P 13950 700
F 0 "#PWR?" H 13950 550 50  0001 C CNN
F 1 "+5V" H 13965 873 50  0000 C CNN
F 2 "" H 13950 700 50  0001 C CNN
F 3 "" H 13950 700 50  0001 C CNN
	1    13950 700 
	1    0    0    -1  
$EndComp
Wire Wire Line
	13950 700  14050 700 
Wire Wire Line
	14050 700  14050 650 
Wire Wire Line
	14050 650  14150 650 
Wire Wire Line
	14150 1650 14150 1050
Connection ~ 14150 1650
Wire Wire Line
	14150 1650 14200 1650
$Comp
L power:GND #PWR?
U 1 1 64228E3E
P 14550 750
F 0 "#PWR?" H 14550 500 50  0001 C CNN
F 1 "GND" H 14555 577 50  0000 C CNN
F 2 "" H 14550 750 50  0001 C CNN
F 3 "" H 14550 750 50  0001 C CNN
	1    14550 750 
	-1   0    0    1   
$EndComp
Wire Wire Line
	14700 1050 14550 1050
Wire Wire Line
	14550 1050 14550 750 
Wire Wire Line
	14700 2400 10750 2400
Wire Wire Line
	10750 2400 10750 1150
Connection ~ 10750 1150
Wire Wire Line
	10750 1150 8900 1150
$Comp
L 74xx:74LS32 U45
U 1 1 64260412
P 8750 2950
F 0 "U45" H 8750 3275 50  0000 C CNN
F 1 "74LS32" H 8750 3184 50  0000 C CNN
F 2 "" H 8750 2950 50  0001 C CNN
F 3 "http://www.ti.com/lit/gpn/sn74LS32" H 8750 2950 50  0001 C CNN
	1    8750 2950
	-1   0    0    -1  
$EndComp
Wire Wire Line
	8450 2950 7950 2950
Text Label 8050 2950 0    50   ~ 0
RXPR1
Wire Wire Line
	14700 2300 10650 2300
Wire Wire Line
	10650 2300 10650 3050
Wire Wire Line
	10650 3050 9050 3050
Text Label 14400 2300 0    50   ~ 0
RXPD
$Comp
L power:+5V #PWR?
U 1 1 6429CF5E
P 14500 2050
F 0 "#PWR?" H 14500 1900 50  0001 C CNN
F 1 "+5V" H 14515 2223 50  0000 C CNN
F 2 "" H 14500 2050 50  0001 C CNN
F 3 "" H 14500 2050 50  0001 C CNN
	1    14500 2050
	1    0    0    -1  
$EndComp
$Comp
L power:GND #PWR?
U 1 1 6429DB27
P 14300 2050
F 0 "#PWR?" H 14300 1800 50  0001 C CNN
F 1 "GND" H 14305 1877 50  0000 C CNN
F 2 "" H 14300 2050 50  0001 C CNN
F 3 "" H 14300 2050 50  0001 C CNN
	1    14300 2050
	-1   0    0    1   
$EndComp
Wire Wire Line
	14500 2050 14500 2100
Wire Wire Line
	14500 2100 14700 2100
Wire Wire Line
	14700 2200 14300 2200
Wire Wire Line
	14300 2200 14300 2050
$Comp
L power:+12V #PWR?
U 1 1 642D7E1B
P 14300 2650
F 0 "#PWR?" H 14300 2500 50  0001 C CNN
F 1 "+12V" H 14315 2823 50  0000 C CNN
F 2 "" H 14300 2650 50  0001 C CNN
F 3 "" H 14300 2650 50  0001 C CNN
	1    14300 2650
	1    0    0    -1  
$EndComp
$Comp
L power:-12V #PWR?
U 1 1 642D9395
P 14050 2650
F 0 "#PWR?" H 14050 2750 50  0001 C CNN
F 1 "-12V" H 14065 2823 50  0000 C CNN
F 2 "" H 14050 2650 50  0001 C CNN
F 3 "" H 14050 2650 50  0001 C CNN
	1    14050 2650
	1    0    0    -1  
$EndComp
Wire Wire Line
	14300 2650 14300 2700
Wire Wire Line
	14450 2700 14450 2500
Wire Wire Line
	14450 2500 14700 2500
Wire Wire Line
	14300 2700 14450 2700
Wire Wire Line
	14700 2600 14500 2600
Wire Wire Line
	14500 2600 14500 2750
Wire Wire Line
	14500 2750 14050 2750
Wire Wire Line
	14050 2750 14050 2650
Wire Wire Line
	14700 2700 14550 2700
Wire Wire Line
	14550 2700 14550 2850
Wire Wire Line
	14550 2850 14050 2850
Wire Wire Line
	14700 2800 14600 2800
Wire Wire Line
	14600 2800 14600 2950
Wire Wire Line
	14600 2950 14050 2950
Text Label 14050 2850 0    50   ~ 0
+12VFL
Text Label 14100 2950 0    50   ~ 0
GNDFL
$Comp
L 74xx:74LS00 U1
U 2 1 64356C2B
P 9500 2850
F 0 "U1" H 9500 3175 50  0000 C CNN
F 1 "74LS00" H 9500 3084 50  0000 C CNN
F 2 "" H 9500 2850 50  0001 C CNN
F 3 "http://www.ti.com/lit/gpn/sn74ls00" H 9500 2850 50  0001 C CNN
	2    9500 2850
	-1   0    0    -1  
$EndComp
Wire Wire Line
	9200 2850 9050 2850
Wire Wire Line
	9800 2750 9850 2750
Wire Wire Line
	9850 2950 9800 2950
Connection ~ 9850 2900
Wire Wire Line
	9850 2900 9850 2950
Wire Wire Line
	9850 2750 9850 2900
Wire Wire Line
	9850 2900 11650 2900
Wire Wire Line
	9850 8000 9950 8000
Wire Wire Line
	9950 9000 9950 8000
Wire Wire Line
	8900 8350 8900 8400
Wire Wire Line
	8900 8400 8950 8400
Connection ~ 9750 8400
Wire Wire Line
	9750 8400 9350 8400
Wire Wire Line
	9750 8400 9750 9300
Wire Wire Line
	9750 8400 10650 8400
Connection ~ 9600 8500
Wire Wire Line
	9600 8500 9350 8500
Wire Wire Line
	9600 8500 9600 9300
Wire Wire Line
	9600 8500 10650 8500
Wire Wire Line
	9500 8700 9500 8600
Wire Wire Line
	9500 8600 9900 8600
Wire Wire Line
	9350 8700 9500 8700
Connection ~ 9900 8600
Wire Wire Line
	9900 8600 9900 9300
Wire Wire Line
	9900 8600 10650 8600
Wire Wire Line
	9350 8600 9450 8600
Wire Wire Line
	9450 8750 10000 8750
Wire Wire Line
	10000 8750 10000 8700
Wire Wire Line
	9450 8600 9450 8750
Wire Wire Line
	10000 8700 10650 8700
Connection ~ 10650 8400
Wire Wire Line
	10650 8400 11000 8400
Connection ~ 10650 8500
Wire Wire Line
	10650 8500 11000 8500
Connection ~ 10650 8600
Wire Wire Line
	10650 8600 11000 8600
Connection ~ 10650 8700
Wire Wire Line
	10650 8700 11000 8700
Wire Wire Line
	10650 8900 10550 8900
Wire Wire Line
	10550 8900 10550 9000
Wire Wire Line
	9950 9000 10550 9000
Connection ~ 10550 9000
Wire Wire Line
	10550 9000 10650 9000
Wire Wire Line
	11150 9350 11150 9300
Wire Wire Line
	11150 7650 11150 7700
Connection ~ 11900 9800
Wire Bus Line
	11900 9800 13250 9800
Wire Wire Line
	9000 4200 9000 7400
Wire Wire Line
	9000 7400 12900 7400
Wire Wire Line
	9000 4200 7950 4200
Connection ~ 12900 7400
Wire Wire Line
	12900 7400 12900 9100
Wire Wire Line
	8900 7450 13000 7450
Connection ~ 8900 7450
Wire Wire Line
	8900 7450 8900 7900
Wire Wire Line
	13000 7450 13000 9200
Wire Wire Line
	9050 4300 9050 7350
Wire Wire Line
	9050 7350 13100 7350
Wire Wire Line
	13100 7350 13100 7050
Wire Wire Line
	9050 4300 3850 4300
Wire Wire Line
	9100 4450 9100 7300
Wire Wire Line
	9100 7300 12850 7300
Wire Wire Line
	12850 7300 12850 5450
Wire Wire Line
	12850 5450 14900 5450
Wire Wire Line
	9100 4450 3800 4450
$Comp
L power:+5V #PWR?
U 1 1 647BE7BF
P 10900 4400
F 0 "#PWR?" H 10900 4250 50  0001 C CNN
F 1 "+5V" H 10915 4573 50  0000 C CNN
F 2 "" H 10900 4400 50  0001 C CNN
F 3 "" H 10900 4400 50  0001 C CNN
	1    10900 4400
	1    0    0    -1  
$EndComp
Wire Wire Line
	10900 4400 10900 4450
$Comp
L power:GND #PWR?
U 1 1 647E1CF9
P 10900 7000
F 0 "#PWR?" H 10900 6750 50  0001 C CNN
F 1 "GND" H 10905 6827 50  0000 C CNN
F 2 "" H 10900 7000 50  0001 C CNN
F 3 "" H 10900 7000 50  0001 C CNN
	1    10900 7000
	1    0    0    -1  
$EndComp
Wire Wire Line
	10900 7000 10900 6950
$Comp
L 74xx:74LS00 U1
U 4 1 6480559E
P 9600 5850
F 0 "U1" H 9600 6175 50  0000 C CNN
F 1 "74LS00" H 9600 6084 50  0000 C CNN
F 2 "" H 9600 5850 50  0001 C CNN
F 3 "http://www.ti.com/lit/gpn/sn74ls00" H 9600 5850 50  0001 C CNN
	4    9600 5850
	1    0    0    -1  
$EndComp
Entry Wire Line
	9100 3900 9200 4000
Wire Wire Line
	9200 4000 9200 5750
Wire Wire Line
	9200 5950 9300 5950
Wire Wire Line
	9300 5750 9200 5750
Connection ~ 9200 5750
Wire Wire Line
	9200 5750 9200 5950
Text Label 9200 4000 0    50   ~ 0
A3
Wire Wire Line
	9900 5850 10400 5850
$Comp
L power:+5V #PWR?
U 1 1 648973AD
P 9850 5700
F 0 "#PWR?" H 9850 5550 50  0001 C CNN
F 1 "+5V" H 9865 5873 50  0000 C CNN
F 2 "" H 9850 5700 50  0001 C CNN
F 3 "" H 9850 5700 50  0001 C CNN
	1    9850 5700
	1    0    0    -1  
$EndComp
Wire Wire Line
	10400 5750 9850 5750
Wire Wire Line
	9850 5750 9850 5700
Wire Wire Line
	3900 2300 3900 3850
Wire Wire Line
	3900 3850 9950 3850
Wire Wire Line
	9950 3850 9950 5950
Wire Wire Line
	9950 5950 10400 5950
Connection ~ 3900 2300
Text Label 10000 5950 0    50   ~ 0
-CKBPR
Entry Wire Line
	10100 4550 10200 4650
Entry Wire Line
	10100 4650 10200 4750
Entry Wire Line
	10100 4750 10200 4850
Entry Wire Line
	10100 4850 10200 4950
Entry Wire Line
	10100 4950 10200 5050
Entry Wire Line
	10100 5050 10200 5150
Entry Wire Line
	10100 5150 10200 5250
Entry Wire Line
	10100 5250 10200 5350
Wire Wire Line
	10200 4650 10400 4650
Wire Wire Line
	10200 4750 10400 4750
Wire Wire Line
	10200 4850 10400 4850
Wire Wire Line
	10200 4950 10400 4950
Wire Wire Line
	10200 5050 10400 5050
Wire Wire Line
	10200 5150 10400 5150
Wire Wire Line
	10200 5250 10400 5250
Wire Wire Line
	10200 5350 10400 5350
Text Label 10250 4650 0    50   ~ 0
D0
Text Label 10250 4750 0    50   ~ 0
D1
Text Label 10250 4850 0    50   ~ 0
D2
Text Label 10250 4950 0    50   ~ 0
D3
Text Label 10250 5050 0    50   ~ 0
D4
Text Label 10250 5150 0    50   ~ 0
D5
Text Label 10250 5250 0    50   ~ 0
D6
Text Label 10250 5350 0    50   ~ 0
D7
Wire Bus Line
	6500 3700 10100 3700
Entry Wire Line
	9300 3900 9400 4000
Wire Wire Line
	9400 4000 9400 5450
Wire Wire Line
	9400 5450 10000 5450
Wire Wire Line
	10000 5450 10000 5650
Wire Wire Line
	10000 5650 10400 5650
Text Label 9400 4000 0    50   ~ 0
A0
Entry Wire Line
	9450 4100 9550 4200
Wire Wire Line
	9550 4200 9550 5400
Wire Wire Line
	9550 5400 10050 5400
Wire Wire Line
	10050 5400 10050 5550
Wire Wire Line
	10050 5550 10400 5550
Text Label 9550 4200 0    50   ~ 0
S1
Text Label 10050 6050 0    50   ~ 0
R_W
Wire Wire Line
	10400 6650 10350 6650
Wire Wire Line
	10350 6650 10350 6750
Wire Wire Line
	10350 7000 10900 7000
Connection ~ 10900 7000
Wire Wire Line
	10400 6750 10350 6750
Connection ~ 10350 6750
Wire Wire Line
	10350 6750 10350 7000
NoConn ~ 11300 6650
Wire Wire Line
	10400 6550 10200 6550
Wire Wire Line
	10200 6550 10200 7250
Wire Wire Line
	10200 7250 11450 7250
Wire Wire Line
	11300 6550 11400 6550
$Comp
L Device:R R6
U 1 1 64CC373A
P 12050 4600
F 0 "R6" H 12120 4646 50  0000 L CNN
F 1 "6k8" H 12120 4555 50  0000 L CNN
F 2 "" V 11980 4600 50  0001 C CNN
F 3 "~" H 12050 4600 50  0001 C CNN
	1    12050 4600
	1    0    0    -1  
$EndComp
$Comp
L power:+5V #PWR?
U 1 1 64CC4166
P 12050 4400
F 0 "#PWR?" H 12050 4250 50  0001 C CNN
F 1 "+5V" H 12065 4573 50  0000 C CNN
F 2 "" H 12050 4400 50  0001 C CNN
F 3 "" H 12050 4400 50  0001 C CNN
	1    12050 4400
	1    0    0    -1  
$EndComp
Text Label 14400 4850 0    50   ~ 0
-KBINT
$Comp
L power:GND #PWR?
U 1 1 64D74AC6
P 11300 1850
F 0 "#PWR?" H 11300 1600 50  0001 C CNN
F 1 "GND" H 11305 1677 50  0000 C CNN
F 2 "" H 11300 1850 50  0001 C CNN
F 3 "" H 11300 1850 50  0001 C CNN
	1    11300 1850
	1    0    0    -1  
$EndComp
$Comp
L power:+5V #PWR?
U 1 1 64DA1903
P 11300 1750
F 0 "#PWR?" H 11300 1600 50  0001 C CNN
F 1 "+5V" H 11315 1923 50  0000 C CNN
F 2 "" H 11300 1750 50  0001 C CNN
F 3 "" H 11300 1750 50  0001 C CNN
	1    11300 1750
	1    0    0    -1  
$EndComp
Wire Wire Line
	12050 4750 12050 4850
Connection ~ 12050 4850
Wire Wire Line
	12050 4850 14850 4850
Wire Wire Line
	12050 4450 12050 4400
Wire Wire Line
	11300 4850 12050 4850
Wire Wire Line
	11400 950  11650 950 
Wire Wire Line
	11400 950  11400 6550
Wire Wire Line
	11300 1850 11650 1850
Wire Wire Line
	11300 1750 11650 1750
Text Label 11400 950  0    50   ~ 0
TXKB1
Wire Wire Line
	13500 2900 13500 4100
Wire Wire Line
	12450 950  13300 950 
Wire Wire Line
	13300 950  13300 3400
Wire Wire Line
	13300 3400 14700 3400
Text Label 14400 3400 0    50   ~ 0
TXKB
Wire Wire Line
	12450 1050 13250 1050
Wire Wire Line
	13250 1050 13250 3300
Wire Wire Line
	13250 3300 14700 3300
Text Label 14350 3300 0    50   ~ 0
-TXKB
Wire Wire Line
	11450 2700 11650 2700
Wire Wire Line
	11450 2700 11450 7250
Text Label 11450 2700 0    50   ~ 0
RXKB1
$Comp
L power:GND #PWR?
U 1 1 64FC428E
P 12750 3700
F 0 "#PWR?" H 12750 3450 50  0001 C CNN
F 1 "GND" H 12755 3527 50  0000 C CNN
F 2 "" H 12750 3700 50  0001 C CNN
F 3 "" H 12750 3700 50  0001 C CNN
	1    12750 3700
	1    0    0    -1  
$EndComp
$Comp
L power:+5V #PWR?
U 1 1 64FC51E1
P 12750 3600
F 0 "#PWR?" H 12750 3450 50  0001 C CNN
F 1 "+5V" H 12765 3773 50  0000 C CNN
F 2 "" H 12750 3600 50  0001 C CNN
F 3 "" H 12750 3600 50  0001 C CNN
	1    12750 3600
	1    0    0    -1  
$EndComp
Wire Wire Line
	12450 3700 12750 3700
Wire Wire Line
	12450 3600 12750 3600
Wire Wire Line
	12450 2700 13200 2700
Wire Wire Line
	13200 2700 13200 3800
Wire Wire Line
	13200 3800 13650 3800
Wire Wire Line
	12450 2800 13150 2800
Wire Wire Line
	13150 2800 13150 3700
Text Label 14400 3800 0    50   ~ 0
RXKB
Text Label 14350 3700 0    50   ~ 0
-RXKB
$Comp
L Device:R R8
U 1 1 65082B35
P 13950 3750
F 0 "R8" V 13743 3750 50  0000 C CNN
F 1 "270R" V 13834 3750 50  0000 C CNN
F 2 "" V 13880 3750 50  0001 C CNN
F 3 "~" H 13950 3750 50  0001 C CNN
	1    13950 3750
	0    1    1    0   
$EndComp
Wire Wire Line
	14100 3750 14150 3750
Wire Wire Line
	14150 3750 14150 3800
Connection ~ 14150 3800
Wire Wire Line
	14150 3800 14700 3800
Wire Wire Line
	13800 3750 13750 3750
Wire Wire Line
	13750 3750 13750 3700
Connection ~ 13750 3700
Wire Wire Line
	13850 1650 13850 3000
Wire Wire Line
	13850 1650 14150 1650
Wire Wire Line
	12450 3000 13850 3000
Wire Wire Line
	13150 3700 13700 3700
Connection ~ 13500 2900
Wire Wire Line
	13750 3700 14700 3700
Wire Wire Line
	13500 2900 13500 1550
Wire Wire Line
	13500 1550 13750 1550
Wire Wire Line
	13650 1050 13650 3800
Connection ~ 13650 3800
Wire Wire Line
	13650 3800 14150 3800
Wire Wire Line
	13700 4100 13700 3700
Connection ~ 13700 3700
Wire Wire Line
	13700 3700 13750 3700
$Comp
L power:GND #PWR?
U 1 1 6529F990
P 14450 3200
F 0 "#PWR?" H 14450 2950 50  0001 C CNN
F 1 "GND" H 14455 3027 50  0000 C CNN
F 2 "" H 14450 3200 50  0001 C CNN
F 3 "" H 14450 3200 50  0001 C CNN
	1    14450 3200
	-1   0    0    1   
$EndComp
Wire Wire Line
	14450 3200 14700 3200
$Comp
L 74xx:74LS240_Split U5
U 3 1 652D45FB
P 2700 6200
F 0 "U5" H 2700 6517 50  0000 C CNN
F 1 "74LS240_Split" H 2700 6426 50  0000 C CNN
F 2 "" H 2700 6200 50  0001 C CNN
F 3 "http://www.ti.com/lit/ds/symlink/sn74ls240.pdf" H 2700 6200 50  0001 C CNN
	3    2700 6200
	1    0    0    -1  
$EndComp
Wire Wire Line
	1650 5600 1650 5550
Wire Wire Line
	1650 7600 1650 7650
$Comp
L power:+5V #PWR?
U 1 1 65339D46
P 2350 5550
F 0 "#PWR?" H 2350 5400 50  0001 C CNN
F 1 "+5V" H 2365 5723 50  0000 C CNN
F 2 "" H 2350 5550 50  0001 C CNN
F 3 "" H 2350 5550 50  0001 C CNN
	1    2350 5550
	1    0    0    -1  
$EndComp
Wire Wire Line
	2350 5550 2350 6100
Wire Wire Line
	2350 7100 2250 7100
Wire Wire Line
	2250 6600 2350 6600
Connection ~ 2350 6600
Wire Wire Line
	2350 6600 2350 7100
Wire Wire Line
	2250 6100 2350 6100
Connection ~ 2350 6100
Wire Wire Line
	2350 6100 2350 6600
Wire Wire Line
	2400 6200 2250 6200
Wire Wire Line
	3000 6200 3450 6200
Text GLabel 3450 6200 2    50   Input ~ 0
CIA
Text Label 3000 6200 0    50   ~ 0
CIA
Entry Wire Line
	550  4200 650  4100
Wire Wire Line
	550  4200 550  8950
Wire Wire Line
	550  8950 650  8950
Wire Wire Line
	1900 8950 1900 8750
Text Label 1100 8950 0    50   ~ 0
MCLEAR
Text Label 550  4250 0    50   ~ 0
MCLEAR
Text GLabel 700  8200 2    50   Input ~ 0
-CLK
Wire Wire Line
	700  8200 650  8200
Wire Wire Line
	650  8200 650  8450
Wire Wire Line
	650  8450 700  8450
Wire Wire Line
	1700 8750 1850 8750
Wire Wire Line
	1850 8750 1850 8450
Wire Wire Line
	1850 8450 1900 8450
Wire Wire Line
	2250 7200 3200 7200
Wire Wire Line
	1700 8450 1800 8450
Wire Wire Line
	1800 8450 1800 7550
Wire Wire Line
	1800 7550 2400 7550
Wire Wire Line
	2400 6000 2250 6000
Wire Wire Line
	2400 6000 2400 6500
Wire Wire Line
	2400 6500 2250 6500
Connection ~ 2400 6500
Wire Wire Line
	2400 6500 2400 7000
Wire Wire Line
	2250 7000 2400 7000
Connection ~ 2400 7000
Wire Wire Line
	2400 7000 2400 7550
Text Label 1850 7550 0    50   ~ 0
CLKH
Wire Wire Line
	2250 6700 3450 6700
Text GLabel 3450 6700 2    50   Input ~ 0
CIB
Text Label 2950 6700 0    50   ~ 0
CIB
Wire Wire Line
	3550 1500 3550 2650
Wire Wire Line
	3550 2650 700  2650
Wire Wire Line
	700  2650 700  7300
Wire Wire Line
	700  7300 1050 7300
Wire Wire Line
	2800 1500 3550 1500
Text Label 750  7300 0    50   ~ 0
-CTIM
Wire Wire Line
	1050 7100 750  7100
Entry Wire Line
	750  4000 850  3900
Wire Wire Line
	1050 7000 800  7000
Entry Wire Line
	800  4000 900  3900
Wire Wire Line
	750  4000 750  7100
Wire Wire Line
	800  4000 800  7000
Text Label 750  4350 0    50   ~ 0
A1
Text Label 800  4450 0    50   ~ 0
A0
Wire Wire Line
	1050 6900 850  6900
Entry Wire Line
	850  4200 950  4100
Wire Wire Line
	1050 6800 900  6800
Entry Wire Line
	900  4200 1000 4100
Wire Wire Line
	850  4200 850  6900
Wire Wire Line
	900  4200 900  6800
Text Label 850  4550 0    50   ~ 0
-WR
Text Label 900  4650 0    50   ~ 0
-RD
Entry Wire Line
	500  5800 600  5900
Entry Wire Line
	500  5900 600  6000
Entry Wire Line
	500  6000 600  6100
Entry Wire Line
	500  6100 600  6200
Entry Wire Line
	500  6200 600  6300
Entry Wire Line
	500  6300 600  6400
Entry Wire Line
	500  6400 600  6500
Entry Wire Line
	500  6500 600  6600
Wire Bus Line
	500  3700 6500 3700
Wire Wire Line
	600  6600 1050 6600
Wire Wire Line
	600  6500 1050 6500
Wire Wire Line
	600  6400 1050 6400
Wire Wire Line
	600  6300 1050 6300
Wire Wire Line
	600  6200 1050 6200
Wire Wire Line
	600  6100 1050 6100
Wire Wire Line
	600  6000 1050 6000
Wire Wire Line
	600  5900 1050 5900
Text Label 950  5900 0    50   ~ 0
D0
Text Label 950  6000 0    50   ~ 0
D1
Text Label 950  6100 0    50   ~ 0
D2
Text Label 950  6200 0    50   ~ 0
D3
Text Label 950  6300 0    50   ~ 0
D4
Text Label 950  6400 0    50   ~ 0
D5
Text Label 950  6500 0    50   ~ 0
D6
Text Label 950  6600 0    50   ~ 0
D7
Text Label 900  6800 0    50   ~ 0
-RD
Text Label 900  6900 0    50   ~ 0
-WR
Text Label 900  7000 0    50   ~ 0
A0
Text Label 900  7100 0    50   ~ 0
A1
Wire Wire Line
	700  8750 650  8750
Wire Wire Line
	650  8750 650  8950
Connection ~ 650  8950
Wire Wire Line
	650  8950 1900 8950
NoConn ~ 1700 8650
NoConn ~ 1700 8550
NoConn ~ 2900 8450
NoConn ~ 2900 8650
NoConn ~ 2900 8750
Wire Wire Line
	2900 8550 3200 8550
Wire Wire Line
	3200 8550 3200 9750
Text Label 2950 8550 0    50   ~ 0
LACLK
Text Label 10100 6350 0    50   ~ 0
LACLK
Wire Wire Line
	1850 8750 1850 9700
Connection ~ 1850 8750
Wire Wire Line
	8800 9750 8800 6350
Wire Wire Line
	8800 6350 10400 6350
Wire Wire Line
	3200 9750 8800 9750
Wire Wire Line
	8700 9700 8700 6250
Wire Wire Line
	8700 6250 10400 6250
Wire Wire Line
	1850 9700 8700 9700
Text Label 10100 6250 0    50   ~ 0
KBCLK
Text Label 2050 9700 0    50   ~ 0
KBCLK
Text GLabel 8600 900  0    50   Input ~ 0
-PRINT
Wire Wire Line
	8700 1200 8700 900 
Wire Wire Line
	8700 900  8600 900 
Wire Wire Line
	8050 1200 8700 1200
Text GLabel 3200 1300 2    50   Input ~ 0
-CSIO
Text GLabel 3200 1600 2    50   Input ~ 0
-CCRT
Wire Wire Line
	2800 1600 3200 1600
Text GLabel 3200 2000 2    50   Input ~ 0
-ATRTE
Wire Wire Line
	2800 2000 3200 2000
Wire Wire Line
	2800 1300 3200 1300
Wire Notes Line
	1200 2400 3950 2400
Wire Notes Line
	3950 2400 3950 500 
Wire Notes Line
	3950 500  1200 500 
Wire Notes Line
	1200 500  1200 2400
Text Notes 2200 600  0    50   ~ 0
I/O logic
Wire Notes Line
	3300 9400 3300 5300
Wire Notes Line
	3300 5300 600  5300
Wire Notes Line
	600  5300 600  9400
Wire Notes Line
	600  9400 3300 9400
Text Notes 2650 5450 0    50   ~ 0
timing logic
Wire Wire Line
	4200 7050 4200 7150
Wire Wire Line
	4200 7150 5250 7150
Wire Wire Line
	5250 7150 5250 6400
Wire Wire Line
	6900 6900 6900 7550
Connection ~ 6900 6900
Wire Wire Line
	6900 6900 6850 6900
Wire Wire Line
	6900 6900 6900 6400
Wire Wire Line
	6900 6400 5250 6400
Wire Wire Line
	5800 6100 5900 6100
Wire Wire Line
	3850 9400 3850 9550
Wire Wire Line
	3850 9550 4050 9550
Wire Notes Line
	3450 9600 8650 9600
Wire Notes Line
	8650 9600 8650 5250
Wire Notes Line
	8650 5250 3450 5250
Wire Notes Line
	3450 5250 3450 9600
Text Notes 7400 5400 0    50   ~ 0
Non-volatile memory
Text GLabel 9900 6050 0    50   Input ~ 0
R_W
Wire Wire Line
	9900 6050 10400 6050
Text GLabel 14850 4850 2    50   Input ~ 0
-KBINT
Text GLabel 14950 8200 2    50   Input ~ 0
ATRW
Text GLabel 14950 8300 2    50   Input ~ 0
CHRW
Text GLabel 14950 8400 2    50   Input ~ 0
BKCUR
Text GLabel 14950 8500 2    50   Input ~ 0
VOF
Text GLabel 14950 8600 2    50   Input ~ 0
CEN
Text GLabel 14950 8700 2    50   Input ~ 0
-SELDM
Text GLabel 14950 8800 2    50   Input ~ 0
-BAC
Text GLabel 14950 8900 2    50   Input ~ 0
-DISSEL
Text GLabel 14950 6050 2    50   Input ~ 0
C0
Text GLabel 14950 6150 2    50   Input ~ 0
C1
Text GLabel 14950 6250 2    50   Input ~ 0
NVSEL
Text GLabel 14950 6350 2    50   Input ~ 0
V24EN
Text GLabel 14950 6450 2    50   Input ~ 0
ECSA
Text GLabel 14950 6550 2    50   Input ~ 0
-SSE
Text GLabel 14950 6650 2    50   Input ~ 0
-SETSEL
Text GLabel 14950 6750 2    50   Input ~ 0
DISBRD
Wire Notes Line
	8850 9900 8850 7550
Wire Notes Line
	8850 7550 12050 7550
Wire Notes Line
	12050 7550 12050 9900
Wire Notes Line
	12050 9900 8850 9900
Text Notes 11550 7650 0    50   ~ 0
status port
Wire Notes Line
	12800 9900 12800 5350
Wire Notes Line
	12800 5350 15950 5350
Wire Notes Line
	15950 5350 15950 9900
Wire Notes Line
	15950 9900 12800 9900
Text Notes 15150 5500 0    50   ~ 0
control port 1 & 2
Wire Notes Line
	5850 3650 5850 500 
Wire Notes Line
	5850 500  11050 500 
Wire Notes Line
	11050 500  11050 3650
Wire Notes Line
	11050 3650 5850 3650
Text Notes 10350 650  0    50   ~ 0
printer interface
Wire Notes Line
	9150 7250 9150 3750
Wire Notes Line
	9150 3750 12650 3750
Wire Notes Line
	12650 3750 12650 7250
Wire Notes Line
	12650 7250 9150 7250
Text Notes 10500 3900 0    50   ~ 0
keyboard interface
Text Notes 3550 9750 0    50   ~ 0
(38.4 kHz)
Text Notes 2300 9700 0    50   ~ 0
(153.6 kHz)
Text Label 3300 9750 0    50   ~ 0
LACLK
Wire Bus Line
	650  3900 1500 3900
Wire Bus Line
	8750 7750 8750 9800
Wire Bus Line
	3350 3900 9300 3900
Wire Bus Line
	1500 1400 1500 3900
Wire Bus Line
	6500 1100 6500 3700
Wire Bus Line
	3350 3900 3350 8650
Wire Bus Line
	11900 8100 11900 9800
Wire Bus Line
	10100 3700 10100 5250
Wire Bus Line
	650  4100 9450 4100
Wire Bus Line
	500  3700 500  6500
Wire Bus Line
	13250 6150 13250 9800
$EndSCHEMATC
