EESchema Schematic File Version 4
EELAYER 30 0
EELAYER END
$Descr A3 16535 11693
encoding utf-8
Sheet 7 12
Title "Mainboard - sheet 4"
Date ""
Rev ""
Comp ""
Comment1 ""
Comment2 ""
Comment3 ""
Comment4 ""
$EndDescr
$Comp
L Connector:Conn_01x03_Male W16
U 1 1 61A66A04
P 1200 1250
F 0 "W16" H 1308 1531 50  0000 C CNN
F 1 "intensity" H 1308 1440 50  0000 C CNN
F 2 "" H 1200 1250 50  0001 C CNN
F 3 "~" H 1200 1250 50  0001 C CNN
	1    1200 1250
	1    0    0    -1  
$EndComp
$Comp
L power:GND #PWR?
U 1 1 61A67D0B
P 1500 1400
F 0 "#PWR?" H 1500 1150 50  0001 C CNN
F 1 "GND" H 1505 1227 50  0000 C CNN
F 2 "" H 1500 1400 50  0001 C CNN
F 3 "" H 1500 1400 50  0001 C CNN
	1    1500 1400
	1    0    0    -1  
$EndComp
Wire Wire Line
	1400 1350 1500 1350
Wire Wire Line
	1500 1350 1500 1400
$Comp
L power:+5V #PWR?
U 1 1 61A682F6
P 1500 1100
F 0 "#PWR?" H 1500 950 50  0001 C CNN
F 1 "+5V" H 1515 1273 50  0000 C CNN
F 2 "" H 1500 1100 50  0001 C CNN
F 3 "" H 1500 1100 50  0001 C CNN
	1    1500 1100
	1    0    0    -1  
$EndComp
Wire Wire Line
	1400 1150 1500 1150
Wire Wire Line
	1500 1150 1500 1100
Wire Wire Line
	1400 1250 1750 1250
Text Label 1550 1250 0    50   ~ 0
BRI
$Comp
L Device:R_POT R50
U 1 1 61A69284
P 750 1250
F 0 "R50" H 681 1296 50  0000 R CNN
F 1 "1k" H 681 1205 50  0000 R CNN
F 2 "" H 750 1250 50  0001 C CNN
F 3 "~" H 750 1250 50  0001 C CNN
	1    750  1250
	1    0    0    -1  
$EndComp
$Comp
L Connector:Conn_01x03_Female J?
U 1 1 61A69E92
P 1150 1250
F 0 "J?" H 1042 1535 50  0000 C CNN
F 1 "Int." H 1042 1444 50  0000 C CNN
F 2 "" H 1150 1250 50  0001 C CNN
F 3 "~" H 1150 1250 50  0001 C CNN
	1    1150 1250
	1    0    0    -1  
$EndComp
Wire Wire Line
	900  1250 950  1250
Wire Wire Line
	950  1150 850  1150
Wire Wire Line
	850  1150 850  1100
Wire Wire Line
	850  1100 750  1100
Wire Wire Line
	950  1350 850  1350
Wire Wire Line
	850  1350 850  1400
Wire Wire Line
	850  1400 750  1400
$Comp
L Connector:Conn_01x10_Male W6C
U 1 1 61A70308
P 800 10650
F 0 "W6C" H 908 11231 50  0000 C CNN
F 1 "W6C" H 908 11140 50  0000 C CNN
F 2 "" H 800 10650 50  0001 C CNN
F 3 "~" H 800 10650 50  0001 C CNN
	1    800  10650
	1    0    0    -1  
$EndComp
$Comp
L Connector:Conn_01x07_Male W6A
U 1 1 61C1D079
P 800 8550
F 0 "W6A" H 908 9031 50  0000 C CNN
F 1 "W6A" H 908 8940 50  0000 C CNN
F 2 "" H 800 8550 50  0001 C CNN
F 3 "~" H 800 8550 50  0001 C CNN
	1    800  8550
	1    0    0    -1  
$EndComp
$Comp
L Connector:Conn_01x07_Male W6B
U 1 1 61C1D9AA
P 800 9600
F 0 "W6B" H 908 10081 50  0000 C CNN
F 1 "W6B" H 908 9990 50  0000 C CNN
F 2 "" H 800 9600 50  0001 C CNN
F 3 "~" H 800 9600 50  0001 C CNN
	1    800  9600
	1    0    0    -1  
$EndComp
$Comp
L Connector:Conn_01x03_Male W9
U 1 1 61C1F4CC
P 15050 1450
F 0 "W9" H 15022 1474 50  0000 R CNN
F 1 "W9" H 15022 1383 50  0000 R CNN
F 2 "" H 15050 1450 50  0001 C CNN
F 3 "~" H 15050 1450 50  0001 C CNN
	1    15050 1450
	-1   0    0    -1  
$EndComp
$Comp
L Connector:Conn_01x03_Male W20
U 1 1 61C1FBEF
P 15050 1950
F 0 "W20" H 15022 1974 50  0000 R CNN
F 1 "W20" H 15022 1883 50  0000 R CNN
F 2 "" H 15050 1950 50  0001 C CNN
F 3 "~" H 15050 1950 50  0001 C CNN
	1    15050 1950
	-1   0    0    -1  
$EndComp
$Comp
L Connector:Conn_01x08_Male W11
U 1 1 61C208AB
P 15050 2650
F 0 "W11" H 15022 2624 50  0000 R CNN
F 1 "W11" H 15022 2533 50  0000 R CNN
F 2 "" H 15050 2650 50  0001 C CNN
F 3 "~" H 15050 2650 50  0001 C CNN
	1    15050 2650
	-1   0    0    -1  
$EndComp
$Comp
L Connector:Conn_01x08_Male W17
U 1 1 61C219F1
P 15050 3550
F 0 "W17" H 15022 3524 50  0000 R CNN
F 1 "W17" H 15022 3433 50  0000 R CNN
F 2 "" H 15050 3550 50  0001 C CNN
F 3 "~" H 15050 3550 50  0001 C CNN
	1    15050 3550
	-1   0    0    -1  
$EndComp
$Comp
L Connector:Conn_01x08_Male W13
U 1 1 61C225FB
P 15050 4450
F 0 "W13" H 15022 4424 50  0000 R CNN
F 1 "W13" H 15022 4333 50  0000 R CNN
F 2 "" H 15050 4450 50  0001 C CNN
F 3 "~" H 15050 4450 50  0001 C CNN
	1    15050 4450
	-1   0    0    -1  
$EndComp
$Comp
L Connector:DB15_Female E6
U 1 1 61C24C06
P 15150 6100
F 0 "E6" H 15305 6146 50  0000 L CNN
F 1 "Line interface V.11" H 15305 6055 50  0000 L CNN
F 2 "" H 15150 6100 50  0001 C CNN
F 3 " ~" H 15150 6100 50  0001 C CNN
	1    15150 6100
	1    0    0    -1  
$EndComp
$Comp
L Connector:DB25_Female E3
U 1 1 61C274B6
P 15150 8450
F 0 "E3" H 15330 8496 50  0000 L CNN
F 1 "Line interface V.24" H 15330 8405 50  0000 L CNN
F 2 "" H 15150 8450 50  0001 C CNN
F 3 " ~" H 15150 8450 50  0001 C CNN
	1    15150 8450
	1    0    0    -1  
$EndComp
$Comp
L Z80SIO/2:Z80SIO2 U11
U 1 1 61C35FBE
P 5500 5250
F 0 "U11" H 5650 6450 50  0000 C CNN
F 1 "Z80SIO2" H 5700 6350 50  0000 C CNN
F 2 "MODULE" H 5500 5250 50  0001 C CNN
F 3 "DOCUMENTATION" H 5500 5250 50  0001 C CNN
	1    5500 5250
	1    0    0    -1  
$EndComp
$Comp
L 74xx:74LS08 U86
U 1 1 61C3A850
P 2550 1350
F 0 "U86" H 2550 1033 50  0000 C CNN
F 1 "74S08" H 2550 1124 50  0000 C CNN
F 2 "" H 2550 1350 50  0001 C CNN
F 3 "http://www.ti.com/lit/gpn/sn74LS08" H 2550 1350 50  0001 C CNN
	1    2550 1350
	1    0    0    1   
$EndComp
$Comp
L 74xx:74LS08 U86
U 3 1 61C4AC26
P 4050 1450
F 0 "U86" H 4050 1775 50  0000 C CNN
F 1 "74S08" H 4050 1684 50  0000 C CNN
F 2 "" H 4050 1450 50  0001 C CNN
F 3 "http://www.ti.com/lit/gpn/sn74LS08" H 4050 1450 50  0001 C CNN
	3    4050 1450
	1    0    0    -1  
$EndComp
$Comp
L 74xx:74LS74 U75
U 2 1 61C4C860
P 3300 1450
F 0 "U75" H 3450 1800 50  0000 C CNN
F 1 "74S74" H 3500 1700 50  0000 C CNN
F 2 "" H 3300 1450 50  0001 C CNN
F 3 "74xx/74hc_hct74.pdf" H 3300 1450 50  0001 C CNN
	2    3300 1450
	1    0    0    -1  
$EndComp
$Comp
L 74xx:74LS86 U76
U 1 1 61C4D811
P 4850 1550
F 0 "U76" H 4850 1875 50  0000 C CNN
F 1 "74S86" H 4850 1784 50  0000 C CNN
F 2 "" H 4850 1550 50  0001 C CNN
F 3 "74xx/74ls86.pdf" H 4850 1550 50  0001 C CNN
	1    4850 1550
	1    0    0    -1  
$EndComp
$Comp
L 74xx:74LS374 U78
U 1 1 61C50119
P 6000 2000
F 0 "U78" H 6150 2800 50  0000 C CNN
F 1 "74LS374" H 6200 2700 50  0000 C CNN
F 2 "" H 6000 2000 50  0001 C CNN
F 3 "http://www.ti.com/lit/gpn/sn74LS374" H 6000 2000 50  0001 C CNN
	1    6000 2000
	1    0    0    -1  
$EndComp
$Comp
L power:+5V #PWR?
U 1 1 61C5163D
P 5750 1350
F 0 "#PWR?" H 5750 1200 50  0001 C CNN
F 1 "+5V" H 5765 1523 50  0000 C CNN
F 2 "" H 5750 1350 50  0001 C CNN
F 3 "" H 5750 1350 50  0001 C CNN
	1    5750 1350
	1    0    0    -1  
$EndComp
Wire Wire Line
	5750 1350 5900 1350
Wire Wire Line
	5900 1350 5900 1200
Wire Wire Line
	5900 1200 6000 1200
$Comp
L power:GND #PWR?
U 1 1 61C52866
P 5750 2650
F 0 "#PWR?" H 5750 2400 50  0001 C CNN
F 1 "GND" H 5755 2477 50  0000 C CNN
F 2 "" H 5750 2650 50  0001 C CNN
F 3 "" H 5750 2650 50  0001 C CNN
	1    5750 2650
	1    0    0    -1  
$EndComp
Wire Wire Line
	5750 2650 5900 2650
Wire Wire Line
	5900 2650 5900 2800
Wire Wire Line
	5900 2800 6000 2800
Wire Wire Line
	6500 1500 6600 1500
Wire Wire Line
	6600 1500 6600 1100
Wire Wire Line
	6600 1100 5450 1100
Wire Wire Line
	5450 1100 5450 1700
Wire Wire Line
	5450 1700 5500 1700
Wire Wire Line
	6500 1700 6650 1700
Wire Wire Line
	6650 1700 6650 1050
Wire Wire Line
	6650 1050 5400 1050
Wire Wire Line
	5400 1050 5400 1600
Wire Wire Line
	5400 1600 5500 1600
Wire Wire Line
	2850 1350 3000 1350
Wire Wire Line
	3600 1350 3750 1350
Wire Wire Line
	4350 1450 4550 1450
Wire Wire Line
	5150 1550 5200 1550
Wire Wire Line
	5200 1550 5200 1500
Wire Wire Line
	5200 1500 5500 1500
Wire Wire Line
	6500 1900 6700 1900
Wire Wire Line
	6700 1900 6700 1000
Wire Wire Line
	6700 1000 5350 1000
Wire Wire Line
	5350 1000 5350 2000
Wire Wire Line
	5350 2000 5500 2000
Wire Wire Line
	6500 2000 6750 2000
Wire Wire Line
	6750 2000 6750 950 
Wire Wire Line
	6750 950  5300 950 
Wire Wire Line
	5300 950  5300 2100
Wire Wire Line
	5300 2100 5500 2100
NoConn ~ 3600 1550
Text GLabel 950  2200 0    50   Input ~ 0
DOTS
$Comp
L Device:Jumper_NO_Small SW13
U 1 1 61D42637
P 2000 1450
F 0 "SW13" H 2000 1357 50  0000 C CNN
F 1 "." H 2000 1266 50  0000 C CNN
F 2 "" H 2000 1450 50  0001 C CNN
F 3 "~" H 2000 1450 50  0001 C CNN
	1    2000 1450
	1    0    0    -1  
$EndComp
Wire Wire Line
	2100 1450 2250 1450
Text GLabel 950  2300 0    50   Input ~ 0
-CHRLD
Wire Wire Line
	1850 1700 1850 1450
Wire Wire Line
	1850 1450 1900 1450
Text GLabel 2650 1700 0    50   Input ~ 0
DOTCLK
Wire Wire Line
	3000 1450 2850 1450
Wire Wire Line
	2850 1450 2850 1700
Wire Wire Line
	2850 1700 2650 1700
Text GLabel 950  2600 0    50   Input ~ 0
-MCLEA2
Wire Wire Line
	3300 1750 3300 1850
Text GLabel 2950 2000 0    50   Input ~ 0
INVIS
Wire Wire Line
	2950 2000 3700 2000
Wire Wire Line
	3700 2000 3700 1550
Wire Wire Line
	3700 1550 3750 1550
$Comp
L 74xx:74LS74 U88
U 1 1 61D4AB3C
P 2700 2800
F 0 "U88" H 2850 3150 50  0000 C CNN
F 1 "74S74" H 2850 3050 50  0000 C CNN
F 2 "" H 2700 2800 50  0001 C CNN
F 3 "74xx/74hc_hct74.pdf" H 2700 2800 50  0001 C CNN
	1    2700 2800
	1    0    0    -1  
$EndComp
$Comp
L 74xx:74LS74 U88
U 2 1 61D4BA84
P 3600 2800
F 0 "U88" H 3750 3150 50  0000 C CNN
F 1 "74S74" H 3750 3050 50  0000 C CNN
F 2 "" H 3600 2800 50  0001 C CNN
F 3 "74xx/74hc_hct74.pdf" H 3600 2800 50  0001 C CNN
	2    3600 2800
	1    0    0    -1  
$EndComp
Wire Wire Line
	3000 2700 3300 2700
Text GLabel 950  2700 0    50   Input ~ 0
INVERT
Wire Wire Line
	950  2700 2300 2700
Wire Wire Line
	4550 1650 4300 1650
Wire Wire Line
	4300 1650 4300 2100
Wire Wire Line
	4300 2100 2300 2100
Wire Wire Line
	2300 2100 2300 2700
Connection ~ 2300 2700
Wire Wire Line
	2300 2700 2400 2700
Text GLabel 950  2800 0    50   Input ~ 0
CRTCLK
Wire Wire Line
	950  2800 2400 2800
Text Label 1100 2800 0    50   ~ 0
CRTCLK
Wire Wire Line
	3300 2800 3000 2800
Text Label 3000 2800 0    50   ~ 0
CRTCLK
Text Label 5200 2400 0    50   ~ 0
CRTCLK
Wire Wire Line
	5200 2400 5500 2400
NoConn ~ 3000 2900
NoConn ~ 3900 2700
Wire Wire Line
	950  2600 2250 2600
Wire Wire Line
	2250 2600 2250 1850
Wire Wire Line
	2250 1850 3300 1850
Wire Wire Line
	2250 2600 2250 3150
Wire Wire Line
	2250 3150 2700 3150
Wire Wire Line
	3600 3150 3600 3100
Connection ~ 2250 2600
Wire Wire Line
	2700 3100 2700 3150
Connection ~ 2700 3150
Wire Wire Line
	2700 3150 3600 3150
Text GLabel 950  2900 0    50   Input ~ 0
LOWINT
Wire Wire Line
	950  2900 1400 2900
Text Label 1100 2900 0    50   ~ 0
LOWINT
Text Label 5000 1900 0    50   ~ 0
LOWINT
Wire Wire Line
	5000 1900 5500 1900
Wire Wire Line
	950  2200 1150 2200
Wire Wire Line
	1150 2200 1150 1650
Wire Wire Line
	1150 1650 1800 1650
Wire Wire Line
	1800 1650 1800 1250
Wire Wire Line
	1800 1250 2250 1250
Wire Wire Line
	1850 1700 1200 1700
Wire Wire Line
	1200 1700 1200 2300
Wire Wire Line
	1200 2300 950  2300
Text GLabel 950  2400 0    50   Input ~ 0
RP6-PIN6
Wire Wire Line
	950  2400 1400 2400
Text Label 1000 2400 0    50   ~ 0
RP6-PIN6
Text Label 2400 2350 0    50   ~ 0
RP6-PIN6
Wire Wire Line
	2400 2350 2700 2350
Wire Wire Line
	3600 2350 3600 2500
Wire Wire Line
	2700 2500 2700 2350
Connection ~ 2700 2350
Wire Wire Line
	2700 2350 3600 2350
Text Label 2850 1050 0    50   ~ 0
RP6-PIN6
Wire Wire Line
	2850 1050 3300 1050
Wire Wire Line
	3300 1050 3300 1150
$Comp
L 74xx:74LS08 U86
U 4 1 61E5C9C2
P 5100 2800
F 0 "U86" H 5100 3125 50  0000 C CNN
F 1 "74S08" H 5100 3034 50  0000 C CNN
F 2 "" H 5100 2800 50  0001 C CNN
F 3 "http://www.ti.com/lit/gpn/sn74LS08" H 5100 2800 50  0001 C CNN
	4    5100 2800
	1    0    0    -1  
$EndComp
$Comp
L 74xx:74LS02 U54
U 2 1 61E5EDCF
P 4450 2700
F 0 "U54" H 4450 2383 50  0000 C CNN
F 1 "74S02" H 4450 2474 50  0000 C CNN
F 2 "" H 4450 2700 50  0001 C CNN
F 3 "http://www.ti.com/lit/gpn/sn74ls02" H 4450 2700 50  0001 C CNN
	2    4450 2700
	1    0    0    1   
$EndComp
Wire Wire Line
	4750 2700 4800 2700
Wire Wire Line
	3900 2900 4800 2900
Wire Wire Line
	5450 1700 4950 1700
Wire Wire Line
	4950 1700 4950 2200
Wire Wire Line
	4950 2200 4050 2200
Connection ~ 5450 1700
Wire Wire Line
	5500 1800 5450 1800
Wire Wire Line
	5450 1800 5450 2800
Wire Wire Line
	5450 2800 5400 2800
Wire Wire Line
	5500 2500 5500 2650
Wire Wire Line
	5500 2650 5750 2650
Connection ~ 5750 2650
$Comp
L 74xx:74LS38 U85
U 1 1 61E85637
P 7600 1700
F 0 "U85" H 7600 1383 50  0000 C CNN
F 1 "7438" H 7600 1474 50  0000 C CNN
F 2 "" H 7600 1700 50  0001 C CNN
F 3 "http://www.ti.com/lit/gpn/sn74LS38" H 7600 1700 50  0001 C CNN
	1    7600 1700
	1    0    0    1   
$EndComp
$Comp
L 74xx:74LS38 U85
U 4 1 61E865D6
P 7600 2250
F 0 "U85" H 7600 1933 50  0000 C CNN
F 1 "7438" H 7600 2024 50  0000 C CNN
F 2 "" H 7600 2250 50  0001 C CNN
F 3 "http://www.ti.com/lit/gpn/sn74LS38" H 7600 2250 50  0001 C CNN
	4    7600 2250
	1    0    0    1   
$EndComp
$Comp
L 74xx:74LS38 U85
U 2 1 61E885DD
P 7600 2800
F 0 "U85" H 7600 3125 50  0000 C CNN
F 1 "7438" H 7600 3034 50  0000 C CNN
F 2 "" H 7600 2800 50  0001 C CNN
F 3 "http://www.ti.com/lit/gpn/sn74LS38" H 7600 2800 50  0001 C CNN
	2    7600 2800
	1    0    0    -1  
$EndComp
Wire Wire Line
	4150 2800 4050 2800
Wire Wire Line
	4050 2200 4050 2800
Wire Wire Line
	6500 1600 7250 1600
$Comp
L Device:R R3
U 1 1 61E963CF
P 7050 1800
F 0 "R3" V 6800 1800 50  0000 C CNN
F 1 "1k" V 6900 1800 50  0000 C CNN
F 2 "" V 6980 1800 50  0001 C CNN
F 3 "~" H 7050 1800 50  0001 C CNN
	1    7050 1800
	0    1    1    0   
$EndComp
$Comp
L power:+5V #PWR?
U 1 1 61E971A7
P 6850 1800
F 0 "#PWR?" H 6850 1650 50  0001 C CNN
F 1 "+5V" H 6865 1950 50  0000 C CNN
F 2 "" H 6850 1800 50  0001 C CNN
F 3 "" H 6850 1800 50  0001 C CNN
	1    6850 1800
	1    0    0    -1  
$EndComp
Wire Wire Line
	6850 1800 6900 1800
Wire Wire Line
	7200 1800 7300 1800
Wire Wire Line
	7250 1600 7250 2000
Wire Wire Line
	7250 2000 6850 2000
Wire Wire Line
	6850 2000 6850 3000
Wire Wire Line
	6850 3000 4100 3000
Wire Wire Line
	4100 3000 4100 2600
Wire Wire Line
	4100 2600 4150 2600
Connection ~ 7250 1600
Wire Wire Line
	7250 1600 7300 1600
Wire Wire Line
	7250 2000 7250 2150
Wire Wire Line
	7250 2700 7300 2700
Connection ~ 7250 2000
Wire Wire Line
	7300 2150 7250 2150
Connection ~ 7250 2150
Wire Wire Line
	7250 2150 7250 2700
Wire Wire Line
	6500 1800 6650 1800
Wire Wire Line
	6650 1800 6650 2350
Wire Wire Line
	6650 2350 7300 2350
Wire Wire Line
	6500 2100 6600 2100
Wire Wire Line
	6600 2100 6600 2900
Wire Wire Line
	6600 2900 7300 2900
Text Label 7950 1700 0    50   ~ 0
-VIDEO1
Text Label 7950 2250 0    50   ~ 0
-VIDEO2
Text Label 7950 2800 0    50   ~ 0
-VIDEO3
$Comp
L Device:Q_NPN_ECB Q50
U 1 1 61ED7B81
P 10500 1500
F 0 "Q50" H 10690 1546 50  0000 L CNN
F 1 "BF869" H 10690 1455 50  0000 L CNN
F 2 "" H 10700 1600 50  0001 C CNN
F 3 "~" H 10500 1500 50  0001 C CNN
	1    10500 1500
	1    0    0    -1  
$EndComp
$Comp
L Device:Q_NPN_CBE Q51
U 1 1 61ED91D6
P 11800 2100
F 0 "Q51" H 11991 2146 50  0000 L CNN
F 1 "BC489" H 11991 2055 50  0000 L CNN
F 2 "" H 12000 2200 50  0001 C CNN
F 3 "~" H 11800 2100 50  0001 C CNN
	1    11800 2100
	1    0    0    -1  
$EndComp
Text Label 1100 10850 0    50   ~ 0
+65V
$Comp
L Device:R R54
U 1 1 61EDF786
P 8700 2250
F 0 "R54" V 8493 2250 50  0000 C CNN
F 1 "1k1" V 8584 2250 50  0000 C CNN
F 2 "" V 8630 2250 50  0001 C CNN
F 3 "~" H 8700 2250 50  0001 C CNN
	1    8700 2250
	0    1    1    0   
$EndComp
$Comp
L Device:R R55
U 1 1 61EE04B6
P 8700 2800
F 0 "R55" V 8493 2800 50  0000 C CNN
F 1 "681R" V 8584 2800 50  0000 C CNN
F 2 "" V 8630 2800 50  0001 C CNN
F 3 "~" H 8700 2800 50  0001 C CNN
	1    8700 2800
	0    1    1    0   
$EndComp
$Comp
L Device:R R53
U 1 1 61EE0EF9
P 8700 1900
F 0 "R53" V 8493 1900 50  0000 C CNN
F 1 "464R" V 8584 1900 50  0000 C CNN
F 2 "" V 8630 1900 50  0001 C CNN
F 3 "~" H 8700 1900 50  0001 C CNN
	1    8700 1900
	0    1    1    0   
$EndComp
Wire Wire Line
	7900 2250 8450 2250
Wire Wire Line
	7900 2800 8400 2800
Wire Wire Line
	8400 1700 8400 1900
Wire Wire Line
	8400 1900 8500 1900
Wire Wire Line
	7900 1700 8400 1700
$Comp
L Device:R R51
U 1 1 61EF18FD
P 9800 1500
F 0 "R51" V 9593 1500 50  0000 C CNN
F 1 "470R" V 9684 1500 50  0000 C CNN
F 2 "" V 9730 1500 50  0001 C CNN
F 3 "~" H 9800 1500 50  0001 C CNN
	1    9800 1500
	0    1    1    0   
$EndComp
$Comp
L Device:R R63
U 1 1 61EF2382
P 10100 1350
F 0 "R63" H 10170 1396 50  0000 L CNN
F 1 "287R" H 10170 1305 50  0000 L CNN
F 2 "" V 10030 1350 50  0001 C CNN
F 3 "~" H 10100 1350 50  0001 C CNN
	1    10100 1350
	1    0    0    -1  
$EndComp
$Comp
L Device:C C50
U 1 1 61EF3039
P 10200 1750
F 0 "C50" H 10315 1796 50  0000 L CNN
F 1 "0.1 pF" H 10315 1705 50  0000 L CNN
F 2 "" H 10238 1600 50  0001 C CNN
F 3 "~" H 10200 1750 50  0001 C CNN
	1    10200 1750
	1    0    0    -1  
$EndComp
Wire Wire Line
	9950 1500 10100 1500
Connection ~ 10100 1500
Wire Wire Line
	10100 1500 10200 1500
Wire Wire Line
	10200 1600 10200 1500
Connection ~ 10200 1500
Wire Wire Line
	10200 1500 10300 1500
$Comp
L power:GND #PWR?
U 1 1 61EFE323
P 10200 2000
F 0 "#PWR?" H 10200 1750 50  0001 C CNN
F 1 "GND" H 10205 1827 50  0000 C CNN
F 2 "" H 10200 2000 50  0001 C CNN
F 3 "" H 10200 2000 50  0001 C CNN
	1    10200 2000
	1    0    0    -1  
$EndComp
Wire Wire Line
	10200 2000 10200 1900
Wire Wire Line
	8850 2800 9250 2800
Wire Wire Line
	8850 2250 9250 2250
Wire Wire Line
	10600 2250 10600 1700
Wire Wire Line
	8850 1900 9250 1900
Wire Wire Line
	9250 1900 9250 2250
Connection ~ 9250 2250
Wire Wire Line
	9250 2250 10600 2250
Wire Wire Line
	9250 2250 9250 2800
$Comp
L power:+5V #PWR?
U 1 1 61F1B3E6
P 10100 1150
F 0 "#PWR?" H 10100 1000 50  0001 C CNN
F 1 "+5V" H 10115 1323 50  0000 C CNN
F 2 "" H 10100 1150 50  0001 C CNN
F 3 "" H 10100 1150 50  0001 C CNN
	1    10100 1150
	1    0    0    -1  
$EndComp
Wire Wire Line
	10100 1150 10100 1200
Wire Wire Line
	1750 1250 1750 850 
Wire Wire Line
	9650 1500 9250 1500
Wire Wire Line
	9250 1500 9250 850 
$Comp
L Device:R R52
U 1 1 61F2E34A
P 10000 1900
F 0 "R52" H 9931 1946 50  0000 R CNN
F 1 "220R" H 9931 1855 50  0000 R CNN
F 2 "" V 9930 1900 50  0001 C CNN
F 3 "~" H 10000 1900 50  0001 C CNN
	1    10000 1900
	1    0    0    -1  
$EndComp
Wire Wire Line
	1750 850  9250 850 
Connection ~ 9250 850 
Wire Wire Line
	9250 850  10000 850 
Wire Wire Line
	10000 850  10000 1750
$Comp
L Device:L L1
U 1 1 61F3C050
P 10750 1100
F 0 "L1" V 10940 1100 50  0000 C CNN
F 1 "10 uH" V 10849 1100 50  0000 C CNN
F 2 "" H 10750 1100 50  0001 C CNN
F 3 "~" H 10750 1100 50  0001 C CNN
	1    10750 1100
	0    -1   -1   0   
$EndComp
$Comp
L Device:R R56
U 1 1 61F3CDF4
P 11100 1100
F 0 "R56" V 10893 1100 50  0000 C CNN
F 1 "470R" V 10984 1100 50  0000 C CNN
F 2 "" V 11030 1100 50  0001 C CNN
F 3 "~" H 11100 1100 50  0001 C CNN
	1    11100 1100
	0    1    1    0   
$EndComp
$Comp
L Device:R R57
U 1 1 61F3CFE7
P 11450 1100
F 0 "R57" V 11243 1100 50  0000 C CNN
F 1 "470R" V 11334 1100 50  0000 C CNN
F 2 "" V 11380 1100 50  0001 C CNN
F 3 "~" H 11450 1100 50  0001 C CNN
	1    11450 1100
	0    1    1    0   
$EndComp
$Comp
L Device:C C51
U 1 1 61F3DF14
P 11650 1250
F 0 "C51" H 11536 1296 50  0000 R CNN
F 1 "0.1 pF" H 11536 1205 50  0000 R CNN
F 2 "" H 11688 1100 50  0001 C CNN
F 3 "~" H 11650 1250 50  0001 C CNN
	1    11650 1250
	1    0    0    -1  
$EndComp
Wire Wire Line
	10600 1300 10600 1200
Wire Wire Line
	10900 1100 10950 1100
Wire Wire Line
	11250 1100 11300 1100
Wire Wire Line
	11600 1100 11650 1100
Connection ~ 11650 1100
$Comp
L power:GND #PWR?
U 1 1 61F58515
P 11650 1450
F 0 "#PWR?" H 11650 1200 50  0001 C CNN
F 1 "GND" H 11655 1277 50  0000 C CNN
F 2 "" H 11650 1450 50  0001 C CNN
F 3 "" H 11650 1450 50  0001 C CNN
	1    11650 1450
	1    0    0    -1  
$EndComp
Wire Wire Line
	11650 1450 11650 1400
$Comp
L Device:R R60
U 1 1 61F5FD93
P 11450 2250
F 0 "R60" H 11520 2296 50  0000 L CNN
F 1 "470R" H 11520 2205 50  0000 L CNN
F 2 "" V 11380 2250 50  0001 C CNN
F 3 "~" H 11450 2250 50  0001 C CNN
	1    11450 2250
	1    0    0    -1  
$EndComp
$Comp
L Device:R R58
U 1 1 61F60FA2
P 11300 2250
F 0 "R58" H 11231 2296 50  0000 R CNN
F 1 "1k" H 11231 2205 50  0000 R CNN
F 2 "" V 11230 2250 50  0001 C CNN
F 3 "~" H 11300 2250 50  0001 C CNN
	1    11300 2250
	1    0    0    -1  
$EndComp
$Comp
L Device:R R59
U 1 1 61F61C71
P 11300 1900
F 0 "R59" H 11370 1946 50  0000 L CNN
F 1 "2k7" H 11370 1855 50  0000 L CNN
F 2 "" V 11230 1900 50  0001 C CNN
F 3 "~" H 11300 1900 50  0001 C CNN
	1    11300 1900
	1    0    0    -1  
$EndComp
Wire Wire Line
	11600 2100 11450 2100
Connection ~ 11450 2100
Wire Wire Line
	11450 2100 11300 2100
Wire Wire Line
	11300 2050 11300 2100
Connection ~ 11300 2100
$Comp
L power:+5V #PWR?
U 1 1 61F6FF36
P 11300 1700
F 0 "#PWR?" H 11300 1550 50  0001 C CNN
F 1 "+5V" H 11315 1873 50  0000 C CNN
F 2 "" H 11300 1700 50  0001 C CNN
F 3 "" H 11300 1700 50  0001 C CNN
	1    11300 1700
	1    0    0    -1  
$EndComp
Wire Wire Line
	11300 1700 11300 1750
Text Label 1100 11150 0    50   ~ 0
BLANKING
Wire Wire Line
	1000 11150 1500 11150
Wire Wire Line
	1000 10850 1500 10850
$Comp
L power:GND #PWR?
U 1 1 61F8DE2B
P 11900 2500
F 0 "#PWR?" H 11900 2250 50  0001 C CNN
F 1 "GND" H 11905 2327 50  0000 C CNN
F 2 "" H 11900 2500 50  0001 C CNN
F 3 "" H 11900 2500 50  0001 C CNN
	1    11900 2500
	1    0    0    -1  
$EndComp
Wire Wire Line
	11900 2500 11900 2450
Wire Wire Line
	11450 2400 11450 2450
Wire Wire Line
	11450 2450 11900 2450
Connection ~ 11900 2450
Wire Wire Line
	11900 2450 11900 2300
Wire Wire Line
	11300 2400 11300 2550
Wire Wire Line
	11300 2550 10850 2550
Text Label 10850 2550 0    50   ~ 0
BLANKING
$Comp
L Device:R R62
U 1 1 61FA49FB
P 12200 1900
F 0 "R62" V 11993 1900 50  0000 C CNN
F 1 "10k" V 12084 1900 50  0000 C CNN
F 2 "" V 12130 1900 50  0001 C CNN
F 3 "~" H 12200 1900 50  0001 C CNN
	1    12200 1900
	0    1    1    0   
$EndComp
$Comp
L Device:C C52
U 1 1 61FA58A5
P 12200 1550
F 0 "C52" V 11948 1550 50  0000 C CNN
F 1 "1 uF" V 12039 1550 50  0000 C CNN
F 2 "" H 12238 1400 50  0001 C CNN
F 3 "~" H 12200 1550 50  0001 C CNN
	1    12200 1550
	0    1    1    0   
$EndComp
$Comp
L Device:R R61
U 1 1 61FA684F
P 11900 1350
F 0 "R61" H 11970 1396 50  0000 L CNN
F 1 "10k" H 11970 1305 50  0000 L CNN
F 2 "" V 11830 1350 50  0001 C CNN
F 3 "~" H 11900 1350 50  0001 C CNN
	1    11900 1350
	1    0    0    -1  
$EndComp
Wire Wire Line
	11900 1500 11900 1550
Wire Wire Line
	12050 1900 11900 1900
Connection ~ 11900 1900
Wire Wire Line
	12050 1550 11900 1550
Connection ~ 11900 1550
Wire Wire Line
	11900 1550 11900 1900
Wire Wire Line
	11900 1200 11900 1100
Wire Wire Line
	11650 1100 11900 1100
$Comp
L Device:CP C163
U 1 1 61FC5783
P 12450 900
F 0 "C163" H 12568 946 50  0000 L CNN
F 1 "4.7 uF" H 12568 855 50  0000 L CNN
F 2 "" H 12488 750 50  0001 C CNN
F 3 "~" H 12450 900 50  0001 C CNN
	1    12450 900 
	1    0    0    -1  
$EndComp
$Comp
L power:GND #PWR?
U 1 1 61FC6806
P 12450 1100
F 0 "#PWR?" H 12450 850 50  0001 C CNN
F 1 "GND" H 12455 927 50  0000 C CNN
F 2 "" H 12450 1100 50  0001 C CNN
F 3 "" H 12450 1100 50  0001 C CNN
	1    12450 1100
	1    0    0    -1  
$EndComp
Wire Wire Line
	12450 1100 12450 1050
Wire Wire Line
	12450 750  12450 650 
Wire Wire Line
	12450 650  11900 650 
Text Label 11300 650  0    50   ~ 0
+65V
Wire Wire Line
	11900 1100 11900 650 
Connection ~ 11900 1100
Connection ~ 11900 650 
Wire Wire Line
	11900 650  11300 650 
Wire Wire Line
	12350 1900 12450 1900
$Comp
L Diode:1N4148 CR50
U 1 1 61FE8075
P 12450 2100
F 0 "CR50" V 12496 2020 50  0000 R CNN
F 1 "1N4148" V 12405 2020 50  0000 R CNN
F 2 "Diode_THT:D_DO-35_SOD27_P7.62mm_Horizontal" H 12450 1925 50  0001 C CNN
F 3 "https://assets.nexperia.com/documents/data-sheet/1N4148_1N4448.pdf" H 12450 2100 50  0001 C CNN
	1    12450 2100
	0    -1   -1   0   
$EndComp
$Comp
L Device:CP C53
U 1 1 61FE9715
P 12450 2500
F 0 "C53" H 12568 2546 50  0000 L CNN
F 1 "22 uF" H 12568 2455 50  0000 L CNN
F 2 "" H 12488 2350 50  0001 C CNN
F 3 "~" H 12450 2500 50  0001 C CNN
	1    12450 2500
	1    0    0    -1  
$EndComp
$Comp
L power:GND #PWR?
U 1 1 61FEA5B4
P 12450 2700
F 0 "#PWR?" H 12450 2450 50  0001 C CNN
F 1 "GND" H 12455 2527 50  0000 C CNN
F 2 "" H 12450 2700 50  0001 C CNN
F 3 "" H 12450 2700 50  0001 C CNN
	1    12450 2700
	1    0    0    -1  
$EndComp
Wire Wire Line
	12450 1950 12450 1900
Connection ~ 12450 1900
Wire Wire Line
	12450 1900 12500 1900
Wire Wire Line
	12350 1550 12500 1550
Wire Wire Line
	12500 1550 12500 1900
Connection ~ 12500 1900
Wire Wire Line
	12450 2250 12450 2300
Wire Wire Line
	12450 2650 12450 2700
Wire Wire Line
	12450 2300 12300 2300
Wire Wire Line
	12300 2300 12300 2800
Wire Wire Line
	12300 2800 10000 2800
Wire Wire Line
	10000 2800 10000 2050
Connection ~ 12450 2300
Wire Wire Line
	12450 2300 12450 2350
Wire Wire Line
	10600 1200 11900 1200
Connection ~ 10600 1200
Wire Wire Line
	10600 1200 10600 1100
Connection ~ 11900 1200
Wire Wire Line
	11900 1200 12950 1200
Text Label 14200 1350 0    50   ~ 0
CATHODE
Wire Wire Line
	12500 1900 12950 1900
Text Label 14200 1550 0    50   ~ 0
G1
Text Notes 15250 1450 0    50   ~ 0
Tube board
Wire Wire Line
	8500 1900 8500 2950
Wire Wire Line
	8500 2950 13050 2950
Connection ~ 8500 1900
Wire Wire Line
	8500 1900 8550 1900
Text Label 14400 1950 0    50   ~ 0
-VIDEO1
Wire Wire Line
	8450 2250 8450 3000
Wire Wire Line
	8450 3000 13000 3000
Connection ~ 8450 2250
Wire Wire Line
	8450 2250 8550 2250
Text Label 14400 1850 0    50   ~ 0
-VIDEO2
Text Label 14400 2050 0    50   ~ 0
-VIDEO3
Wire Wire Line
	8400 2800 8400 3050
Wire Wire Line
	8400 3050 13100 3050
Connection ~ 8400 2800
Wire Wire Line
	8400 2800 8550 2800
$Comp
L 74xx:74LS157 U3
U 1 1 61A845B0
P 7400 5050
F 0 "U3" H 7300 5900 50  0000 C CNN
F 1 "74LS157" H 7200 5800 50  0000 C CNN
F 2 "" H 7400 5050 50  0001 C CNN
F 3 "http://www.ti.com/lit/gpn/sn74LS157" H 7400 5050 50  0001 C CNN
	1    7400 5050
	-1   0    0    -1  
$EndComp
$Comp
L 74xx:74LS157 U100
U 1 1 61A84C51
P 9600 6200
F 0 "U100" H 9450 7050 50  0000 C CNN
F 1 "74LS157" H 9400 6950 50  0000 C CNN
F 2 "" H 9600 6200 50  0001 C CNN
F 3 "http://www.ti.com/lit/gpn/sn74LS157" H 9600 6200 50  0001 C CNN
	1    9600 6200
	-1   0    0    -1  
$EndComp
$Comp
L 74xx:74LS00 U1
U 1 1 61A86977
P 8800 7000
F 0 "U1" H 8800 6683 50  0000 C CNN
F 1 "74LS00" H 8800 6774 50  0000 C CNN
F 2 "" H 8800 7000 50  0001 C CNN
F 3 "http://www.ti.com/lit/gpn/sn74ls00" H 8800 7000 50  0001 C CNN
	1    8800 7000
	1    0    0    1   
$EndComp
$Comp
L 74xx:74LS157 U4
U 1 1 61A874CE
P 7000 9250
F 0 "U4" H 6900 10100 50  0000 C CNN
F 1 "74LS157" H 6800 10000 50  0000 C CNN
F 2 "" H 7000 9250 50  0001 C CNN
F 3 "http://www.ti.com/lit/gpn/sn74LS157" H 7000 9250 50  0001 C CNN
	1    7000 9250
	-1   0    0    -1  
$EndComp
$Comp
L 74xx:74LS32 U6
U 2 1 61A89019
P 8900 4350
F 0 "U6" H 8900 4033 50  0000 C CNN
F 1 "74LS32" H 8900 4124 50  0000 C CNN
F 2 "" H 8900 4350 50  0001 C CNN
F 3 "http://www.ti.com/lit/gpn/sn74LS32" H 8900 4350 50  0001 C CNN
	2    8900 4350
	-1   0    0    1   
$EndComp
$Comp
L 74xx:74LS00 U2
U 2 1 61A8B596
P 3300 5950
F 0 "U2" H 3300 6275 50  0000 C CNN
F 1 "74LS00" H 3300 6184 50  0000 C CNN
F 2 "" H 3300 5950 50  0001 C CNN
F 3 "http://www.ti.com/lit/gpn/sn74ls00" H 3300 5950 50  0001 C CNN
	2    3300 5950
	1    0    0    -1  
$EndComp
$Comp
L 74xx:74LS00 U2
U 1 1 61A8E617
P 2350 5850
F 0 "U2" H 2350 6175 50  0000 C CNN
F 1 "74LS00" H 2350 6084 50  0000 C CNN
F 2 "" H 2350 5850 50  0001 C CNN
F 3 "http://www.ti.com/lit/gpn/sn74ls00" H 2350 5850 50  0001 C CNN
	1    2350 5850
	1    0    0    -1  
$EndComp
$Comp
L 74xx:74LS09 U46
U 3 1 61A91247
P 2850 5400
F 0 "U46" H 2850 5725 50  0000 C CNN
F 1 "74LS09" H 2850 5634 50  0000 C CNN
F 2 "" H 2850 5400 50  0001 C CNN
F 3 "http://www.ti.com/lit/gpn/sn74LS09" H 2850 5400 50  0001 C CNN
	3    2850 5400
	1    0    0    -1  
$EndComp
$Comp
L 74xx:74LS240_Split U5
U 8 1 61A93DC2
P 1900 5400
F 0 "U5" H 1900 5717 50  0000 C CNN
F 1 "74LS240_Split" H 1900 5626 50  0000 C CNN
F 2 "" H 1900 5400 50  0001 C CNN
F 3 "http://www.ti.com/lit/ds/symlink/sn74ls240.pdf" H 1900 5400 50  0001 C CNN
	8    1900 5400
	1    0    0    -1  
$EndComp
$Comp
L SN78189:SN75189AN U16
U 1 1 61A95630
P 12750 7100
F 0 "U16" H 12750 7970 50  0000 C CNN
F 1 "SN75189AN" H 12750 7879 50  0000 C CNN
F 2 "DIP794W45P254L1969H508Q14" H 12750 7100 50  0001 L BNN
F 3 "" H 12750 7100 50  0001 L BNN
	1    12750 7100
	-1   0    0    -1  
$EndComp
$Comp
L SN78189:SN75189AN U17
U 1 1 61A96A27
P 11800 8750
F 0 "U17" H 11800 9620 50  0000 C CNN
F 1 "SN75189AN" H 11800 9529 50  0000 C CNN
F 2 "DIP794W45P254L1969H508Q14" H 11800 8750 50  0001 L BNN
F 3 "" H 11800 8750 50  0001 L BNN
	1    11800 8750
	-1   0    0    -1  
$EndComp
$Comp
L AM26LS31:AM26LS31CNE4 U49
U 1 1 61A98DB3
P 13000 4400
F 0 "U49" H 13500 4665 50  0000 C CNN
F 1 "AM26LS31CNE4" H 13500 4574 50  0000 C CNN
F 2 "AM26LS31" H 13000 5600 50  0001 L CNN
F 3 "http://www.ti.com/general/docs/lit/getliterature.tsp?genericPartNumber=AM26LS31&fileType=pdf" H 13000 4900 50  0001 L CNN
F 4 "MS-001*" H 13000 5000 50  0001 L CNN "Code  JEDEC"
F 5 "Package Specification" H 13000 5100 50  0001 L CNN "Component Link 2 Description"
F 6 "http://www.ti.com/lit/ml/mpdi002c/mpdi002c.pdf" H 13000 5200 50  0001 L CNN "Component Link 2 URL"
F 7 "SLLS114I" H 13000 5300 50  0001 L CNN "Datasheet Version"
F 8 "4" H 13000 5400 50  0001 L CNN "Drivers Per Package"
F 9 "2" H 13000 5500 50  0001 L CNN "ESDk V"
F 10 "80" H 13000 5700 50  0001 L CNN "ICC Maxm A"
F 11 "Through-hole" H 13000 5800 50  0001 L CNN "Mounting Technology"
F 12 "16-Pin Plastic Dual-In-Line Package, Row Spacing 7.62 mm, Pitch 2.54 mm" H 13000 5900 50  0001 L CNN "Package Description"
F 13 "revE, Dec-2002" H 13000 6000 50  0001 L CNN "Package Version"
F 14 "Catalog" H 13000 6100 50  0001 L CNN "Rating"
F 15 "RS-422" H 13000 6200 50  0001 L CNN "Sub Family"
F 16 "5" H 13000 6300 50  0001 L CNN "Supply VoltagesV"
F 17 "IC" H 13000 6400 50  0001 L CNN "category"
F 18 "65d75005137963e0" H 13000 6500 50  0001 L CNN "library id"
F 19 "Texas Instruments" H 13000 6600 50  0001 L CNN "manufacturer"
F 20 "4 TX / 0 RX" H 13000 6700 50  0001 L CNN "of TXRX"
F 21 "N16" H 13000 6800 50  0001 L CNN "package"
F 22 "Yes" H 13000 6900 50  0001 L CNN "rohs"
F 23 "F4D3E606-358B-4494-ACF6-CE0A22313FCF" H 13000 7000 50  0001 L CNN "vault revision"
F 24 "yes" H 13000 7100 50  0001 L CNN "imported"
	1    13000 4400
	1    0    0    -1  
$EndComp
$Comp
L Device:R_Network09_Split RP5
U 6 1 61AA1027
P 3350 5150
F 0 "RP5" H 3364 5465 50  0000 C CNN
F 1 "2k2" H 3364 5374 50  0000 C CNN
F 2 "Resistor_THT:R_Array_SIP10" V 3270 5150 50  0001 C CNN
F 3 "http://www.vishay.com/docs/31509/csc.pdf" H 3350 5150 50  0001 C CNN
	6    3350 5150
	1    0    0    -1  
$EndComp
$Comp
L Device:R_Network09_Split RP5
U 7 1 61AA994A
P 3500 5150
F 0 "RP5" H 3598 5188 50  0000 L CNN
F 1 "2k2" H 3598 5097 50  0000 L CNN
F 2 "Resistor_THT:R_Array_SIP10" V 3420 5150 50  0001 C CNN
F 3 "http://www.vishay.com/docs/31509/csc.pdf" H 3500 5150 50  0001 C CNN
	7    3500 5150
	1    0    0    -1  
$EndComp
$Comp
L Device:R_Network09_Split RP5
U 8 1 61AAB17E
P 3650 5150
F 0 "RP5" H 3664 5465 50  0000 C CNN
F 1 "2k2" H 3664 5374 50  0000 C CNN
F 2 "Resistor_THT:R_Array_SIP10" V 3570 5150 50  0001 C CNN
F 3 "http://www.vishay.com/docs/31509/csc.pdf" H 3650 5150 50  0001 C CNN
	8    3650 5150
	1    0    0    -1  
$EndComp
Wire Wire Line
	3150 5400 3350 5400
Wire Wire Line
	3850 5400 3850 5150
Wire Wire Line
	3850 5150 4100 5150
Wire Wire Line
	3650 5300 3650 5400
Connection ~ 3650 5400
Wire Wire Line
	3650 5400 3850 5400
Wire Wire Line
	3500 5300 3500 5400
Connection ~ 3500 5400
Wire Wire Line
	3500 5400 3650 5400
Wire Wire Line
	3350 5300 3350 5400
Connection ~ 3350 5400
Wire Wire Line
	3350 5400 3500 5400
Wire Wire Line
	2550 5300 2500 5300
Wire Wire Line
	2500 5300 2500 5400
Wire Wire Line
	2500 5500 2550 5500
Connection ~ 2500 5400
Wire Wire Line
	2500 5400 2500 5500
Wire Wire Line
	2200 5400 2450 5400
Text Label 2200 5400 0    50   ~ 0
-CLK
Text GLabel 2250 5050 0    50   Input ~ 0
-CLK
Wire Wire Line
	2250 5050 2450 5050
Wire Wire Line
	2450 5050 2450 5400
Connection ~ 2450 5400
Wire Wire Line
	2450 5400 2500 5400
Wire Wire Line
	3600 5950 3800 5950
Wire Wire Line
	3800 5950 3800 5750
Wire Wire Line
	3800 5750 5050 5750
Text Label 1850 5750 0    50   ~ 0
-WR
Text Label 1850 5950 0    50   ~ 0
-RD
Text Label 2750 6050 0    50   ~ 0
IO_-M
Text Label 750  6300 0    50   ~ 0
ABUS
Text Label 750  6750 0    50   ~ 0
DBUS
Text Label 750  7000 0    50   ~ 0
CBUS
Entry Wire Line
	4000 6300 4100 6200
Entry Wire Line
	3900 6300 4000 6200
Wire Wire Line
	4100 6200 4100 5550
Wire Wire Line
	4100 5550 5050 5550
Wire Wire Line
	4000 6200 4000 5450
Wire Wire Line
	4000 5450 5050 5450
Text Label 4550 5550 0    50   ~ 0
A9
Text Label 4550 5450 0    50   ~ 0
A8
Wire Bus Line
	650  6750 4150 6750
Entry Wire Line
	4150 4450 4250 4350
Entry Wire Line
	4150 4550 4250 4450
Entry Wire Line
	4150 4650 4250 4550
Entry Wire Line
	4150 4750 4250 4650
Entry Wire Line
	4150 5950 4250 5850
Entry Wire Line
	4150 6050 4250 5950
Entry Wire Line
	4150 6150 4250 6050
Entry Wire Line
	4150 6250 4250 6150
Wire Wire Line
	4250 6150 5050 6150
Wire Wire Line
	4250 6050 5050 6050
Wire Wire Line
	4250 5950 5050 5950
Wire Wire Line
	4250 5850 5050 5850
Wire Wire Line
	4250 4650 5050 4650
Wire Wire Line
	4250 4550 5050 4550
Wire Wire Line
	4250 4450 5050 4450
Wire Wire Line
	4250 4350 5050 4350
Text Label 4350 4350 0    50   ~ 0
D1
Text Label 4350 4450 0    50   ~ 0
D3
Text Label 4350 4550 0    50   ~ 0
D5
Text Label 4350 4650 0    50   ~ 0
D7
Text Label 4350 5850 0    50   ~ 0
D6
Text Label 4350 5950 0    50   ~ 0
D4
Text Label 4350 6050 0    50   ~ 0
D2
Text Label 4350 6150 0    50   ~ 0
D0
Entry Wire Line
	1350 7000 1450 6900
Text Label 1450 5400 0    50   ~ 0
CLK
Wire Wire Line
	1450 6900 1450 5400
Wire Wire Line
	1450 5400 1600 5400
Wire Wire Line
	1500 5750 1500 6900
Wire Wire Line
	1500 5750 2050 5750
Entry Wire Line
	1400 7000 1500 6900
Wire Wire Line
	1550 5950 1550 6900
Wire Wire Line
	1550 5950 2050 5950
Entry Wire Line
	1450 7000 1550 6900
Wire Wire Line
	2600 6050 2600 6900
Wire Wire Line
	2600 6050 3000 6050
Entry Wire Line
	2500 7000 2600 6900
Text GLabel 2800 5700 0    50   Input ~ 0
R_W
Wire Wire Line
	2800 5700 2850 5700
Wire Wire Line
	2850 5700 2850 5850
Wire Wire Line
	2650 5850 2850 5850
Connection ~ 2850 5850
Wire Wire Line
	2850 5850 3000 5850
$Comp
L power:GND #PWR?
U 1 1 61EAF003
P 5500 6450
F 0 "#PWR?" H 5500 6200 50  0001 C CNN
F 1 "GND" H 5505 6277 50  0000 C CNN
F 2 "" H 5500 6450 50  0001 C CNN
F 3 "" H 5500 6450 50  0001 C CNN
	1    5500 6450
	1    0    0    -1  
$EndComp
Wire Wire Line
	5500 6450 5500 6400
$Comp
L power:+5V #PWR?
U 1 1 61EC25B6
P 5500 4050
F 0 "#PWR?" H 5500 3900 50  0001 C CNN
F 1 "+5V" H 5515 4223 50  0000 C CNN
F 2 "" H 5500 4050 50  0001 C CNN
F 3 "" H 5500 4050 50  0001 C CNN
	1    5500 4050
	1    0    0    -1  
$EndComp
Wire Wire Line
	5500 4050 5500 4100
Text Label 4600 5150 0    50   ~ 0
-CLK
Text GLabel 4050 5000 0    50   Input ~ 0
-CLK
Wire Wire Line
	4050 5000 4100 5000
Wire Wire Line
	4100 5000 4100 5150
Connection ~ 4100 5150
Wire Wire Line
	4100 5150 5050 5150
Text GLabel 4500 5650 0    50   Input ~ 0
-CSIO
Wire Wire Line
	4500 5650 5050 5650
Text GLabel 4600 4750 0    50   Input ~ 0
-SIOINT
Wire Wire Line
	4600 4750 5050 4750
$Comp
L power:+5V #PWR?
U 1 1 61F11C23
P 3900 4850
F 0 "#PWR?" H 3900 4700 50  0001 C CNN
F 1 "+5V" H 3915 5023 50  0000 C CNN
F 2 "" H 3900 4850 50  0001 C CNN
F 3 "" H 3900 4850 50  0001 C CNN
	1    3900 4850
	1    0    0    -1  
$EndComp
Wire Wire Line
	3900 4850 4850 4850
Wire Wire Line
	5050 5050 4850 5050
Wire Wire Line
	4850 5050 4850 4850
Connection ~ 4850 4850
Wire Wire Line
	4850 4850 5050 4850
Wire Wire Line
	5050 5350 3950 5350
Wire Wire Line
	3950 5350 3950 6200
Entry Wire Line
	3850 6300 3950 6200
Entry Wire Line
	3800 6300 3900 6200
Wire Wire Line
	3900 6200 3900 5250
Wire Wire Line
	3900 5250 5050 5250
Text Label 4600 5350 0    50   ~ 0
-RD
Text Label 4600 5250 0    50   ~ 0
-MCLEAR
Text Label 4550 5750 0    50   ~ 0
-IORQ
Text GLabel 3800 5650 0    50   Input ~ 0
-IORQ
Wire Wire Line
	3800 5750 3800 5650
Connection ~ 3800 5750
$Comp
L MC1488:MC1488N U14
U 1 1 61F80375
P 9250 8000
F 0 "U14" H 9250 8870 50  0000 C CNN
F 1 "SN75188" H 9250 8779 50  0000 C CNN
F 2 "DIP794W45P254L1969H508Q14" H 9250 8000 50  0001 L BNN
F 3 "" H 9250 8000 50  0001 L BNN
	1    9250 8000
	1    0    0    -1  
$EndComp
$Comp
L MC1488:MC1488N U15
U 1 1 61F80851
P 9250 9700
F 0 "U15" H 9250 10570 50  0000 C CNN
F 1 "SN75188" H 9250 10479 50  0000 C CNN
F 2 "DIP794W45P254L1969H508Q14" H 9250 9700 50  0001 L BNN
F 3 "" H 9250 9700 50  0001 L BNN
	1    9250 9700
	1    0    0    -1  
$EndComp
Wire Wire Line
	14850 4150 14600 4150
Wire Wire Line
	14850 4250 14450 4250
Wire Wire Line
	14450 4250 14450 4200
Text Label 14450 4350 0    50   ~ 0
RxDA
Text Notes 15350 4550 0    50   ~ 0
Channel A\nOptional\nInterface
Text Notes 15350 3700 0    50   ~ 0
Channel B\nModem\nSignals
Text Notes 15350 2850 0    50   ~ 0
Channel B\nOptional\nInterface
Wire Wire Line
	12950 1550 12950 1900
Wire Wire Line
	12950 1550 14850 1550
Wire Wire Line
	12950 1350 12950 1200
Wire Wire Line
	12950 1350 14850 1350
Wire Wire Line
	13000 1850 13000 3000
Wire Wire Line
	13000 1850 14850 1850
Wire Wire Line
	13050 1950 13050 2950
Wire Wire Line
	13050 1950 14850 1950
Wire Wire Line
	13100 2050 13100 3050
Wire Wire Line
	13100 2050 14850 2050
$Comp
L power:GND #PWR?
U 1 1 62082C28
P 14450 2300
F 0 "#PWR?" H 14450 2050 50  0001 C CNN
F 1 "GND" H 14455 2127 50  0000 C CNN
F 2 "" H 14450 2300 50  0001 C CNN
F 3 "" H 14450 2300 50  0001 C CNN
	1    14450 2300
	-1   0    0    1   
$EndComp
$Comp
L power:+5V #PWR?
U 1 1 62082C2E
P 14600 2300
F 0 "#PWR?" H 14600 2150 50  0001 C CNN
F 1 "+5V" H 14615 2473 50  0000 C CNN
F 2 "" H 14600 2300 50  0001 C CNN
F 3 "" H 14600 2300 50  0001 C CNN
	1    14600 2300
	1    0    0    -1  
$EndComp
Wire Wire Line
	14850 2350 14600 2350
Wire Wire Line
	14600 2350 14600 2300
Wire Wire Line
	14850 2450 14450 2450
Wire Wire Line
	14450 2450 14450 2300
Text Label 14450 4850 0    50   ~ 0
GNDFL
Text Label 14450 4750 0    50   ~ 0
+12VFL
Text Label 14450 4650 0    50   ~ 0
-12V
Text Label 14450 4550 0    50   ~ 0
+12V
Wire Wire Line
	14850 4850 14450 4850
Wire Wire Line
	14850 4750 14450 4750
Wire Wire Line
	14850 4650 14450 4650
Wire Wire Line
	14850 4550 14450 4550
Text Label 14450 3050 0    50   ~ 0
GNDFL
Text Label 14450 2950 0    50   ~ 0
+12VFL
Text Label 14450 2850 0    50   ~ 0
-12V
Text Label 14450 2750 0    50   ~ 0
+12V
Wire Wire Line
	14850 3050 14450 3050
Wire Wire Line
	14850 2950 14450 2950
Wire Wire Line
	14850 2850 14450 2850
Wire Wire Line
	14850 2750 14450 2750
Text Label 14450 2550 0    50   ~ 0
RxDB
Text Label 14450 2650 0    50   ~ 0
TxDB
Wire Wire Line
	13200 2550 13200 3100
Wire Wire Line
	13200 3100 6300 3100
Wire Wire Line
	6300 3100 6300 4450
Wire Wire Line
	6300 4450 5950 4450
Wire Wire Line
	13200 2550 14850 2550
Wire Wire Line
	13250 2650 13250 3150
Wire Wire Line
	13250 3150 6350 3150
Wire Wire Line
	6350 3150 6350 4750
Wire Wire Line
	6350 4750 5950 4750
Wire Wire Line
	13250 2650 14850 2650
$Comp
L power:GND #PWR?
U 1 1 61F9E1CC
P 14450 4200
F 0 "#PWR?" H 14450 3950 50  0001 C CNN
F 1 "GND" H 14455 4027 50  0000 C CNN
F 2 "" H 14450 4200 50  0001 C CNN
F 3 "" H 14450 4200 50  0001 C CNN
	1    14450 4200
	-1   0    0    1   
$EndComp
$Comp
L power:+5V #PWR?
U 1 1 61F9F6F8
P 14600 4150
F 0 "#PWR?" H 14600 4000 50  0001 C CNN
F 1 "+5V" H 14615 4323 50  0000 C CNN
F 2 "" H 14600 4150 50  0001 C CNN
F 3 "" H 14600 4150 50  0001 C CNN
	1    14600 4150
	1    0    0    -1  
$EndComp
Text Label 14450 3450 0    50   ~ 0
-DSRB
Text Label 14450 3550 0    50   ~ 0
-CTSB
Text Label 14450 3650 0    50   ~ 0
-RTSB
Text Label 14450 3750 0    50   ~ 0
-DTRB
Text Label 14450 3850 0    50   ~ 0
-TxCB
Text Label 14450 3950 0    50   ~ 0
-RxCB
Wire Wire Line
	6400 3450 6400 5150
Wire Wire Line
	6400 5150 5950 5150
Wire Wire Line
	6400 3450 14850 3450
Wire Wire Line
	6450 3550 6450 5050
Wire Wire Line
	6450 5050 5950 5050
Wire Wire Line
	6450 3550 14850 3550
Wire Wire Line
	6500 3650 6500 4950
Wire Wire Line
	6500 4950 5950 4950
Wire Wire Line
	6500 3650 14850 3650
Wire Wire Line
	6550 3750 6550 4850
Wire Wire Line
	6550 4850 5950 4850
Wire Wire Line
	6550 3750 14850 3750
Wire Wire Line
	6750 5950 6750 4450
Wire Wire Line
	5950 5950 6750 5950
Wire Wire Line
	6600 4650 5950 4650
Wire Wire Line
	6600 3850 14850 3850
Wire Wire Line
	6600 3850 6600 4650
Wire Wire Line
	6650 3950 6650 4550
Wire Wire Line
	6650 4550 5950 4550
Wire Wire Line
	6650 3950 14850 3950
$Comp
L power:+5V #PWR?
U 1 1 622E5928
P 7150 4300
F 0 "#PWR?" H 7150 4150 50  0001 C CNN
F 1 "+5V" H 7165 4473 50  0000 C CNN
F 2 "" H 7150 4300 50  0001 C CNN
F 3 "" H 7150 4300 50  0001 C CNN
	1    7150 4300
	1    0    0    -1  
$EndComp
Wire Wire Line
	7150 4300 7300 4300
Wire Wire Line
	7300 4300 7300 4150
Wire Wire Line
	7300 4150 7400 4150
$Comp
L power:GND #PWR?
U 1 1 62302C2E
P 7600 5900
F 0 "#PWR?" H 7600 5650 50  0001 C CNN
F 1 "GND" H 7605 5727 50  0000 C CNN
F 2 "" H 7600 5900 50  0001 C CNN
F 3 "" H 7600 5900 50  0001 C CNN
	1    7600 5900
	1    0    0    -1  
$EndComp
Wire Wire Line
	7600 5900 7500 5900
Wire Wire Line
	7500 5900 7500 6050
Wire Wire Line
	7500 6050 7400 6050
Wire Wire Line
	6900 4450 6750 4450
Text Label 6000 5750 0    50   ~ 0
-TxC1
Text Label 6000 5850 0    50   ~ 0
-RxC1
Wire Wire Line
	6500 8650 6400 8650
Wire Wire Line
	6400 8650 6400 5750
Wire Wire Line
	6400 5750 5950 5750
Wire Wire Line
	6500 8950 6350 8950
Wire Wire Line
	6350 8950 6350 5850
Wire Wire Line
	6350 5850 5950 5850
$Comp
L power:GND #PWR?
U 1 1 62379551
P 7000 10300
F 0 "#PWR?" H 7000 10050 50  0001 C CNN
F 1 "GND" H 7005 10127 50  0000 C CNN
F 2 "" H 7000 10300 50  0001 C CNN
F 3 "" H 7000 10300 50  0001 C CNN
	1    7000 10300
	1    0    0    -1  
$EndComp
Wire Wire Line
	7000 10300 7000 10250
$Comp
L power:GND #PWR?
U 1 1 62396EA5
P 7500 10050
F 0 "#PWR?" H 7500 9800 50  0001 C CNN
F 1 "GND" H 7505 9877 50  0000 C CNN
F 2 "" H 7500 10050 50  0001 C CNN
F 3 "" H 7500 10050 50  0001 C CNN
	1    7500 10050
	1    0    0    -1  
$EndComp
Wire Wire Line
	7500 10050 7500 9950
Text GLabel 7800 9850 2    50   Input ~ 0
ECSA
Wire Wire Line
	7800 9850 7500 9850
Text Label 7550 9850 0    50   ~ 0
ECSA
$Comp
L power:+5V #PWR?
U 1 1 623D6028
P 6750 8500
F 0 "#PWR?" H 6750 8350 50  0001 C CNN
F 1 "+5V" H 6765 8673 50  0000 C CNN
F 2 "" H 6750 8500 50  0001 C CNN
F 3 "" H 6750 8500 50  0001 C CNN
	1    6750 8500
	1    0    0    -1  
$EndComp
Wire Wire Line
	6750 8500 6900 8500
Wire Wire Line
	6900 8500 6900 8350
Wire Wire Line
	6900 8350 7000 8350
Wire Bus Line
	6650 6350 8150 6350
Connection ~ 8150 6350
Entry Wire Line
	6550 5350 6650 5450
Entry Wire Line
	6550 5250 6650 5350
Entry Wire Line
	6550 5450 6650 5550
Entry Wire Line
	6550 5550 6650 5650
Wire Wire Line
	6550 5550 5950 5550
Wire Wire Line
	5950 5450 6550 5450
Wire Wire Line
	6550 5350 5950 5350
Wire Wire Line
	6550 5250 5950 5250
Text Label 6000 5250 0    50   ~ 0
-DSR
Text Label 6000 5350 0    50   ~ 0
-CTS
Text Label 6000 5450 0    50   ~ 0
-RTS1
Text Label 6000 5550 0    50   ~ 0
-DTR1
Wire Wire Line
	6700 5650 6700 4000
Wire Wire Line
	6700 4000 7950 4000
Wire Wire Line
	7950 4000 7950 4450
Wire Wire Line
	7950 4850 7900 4850
Wire Wire Line
	7900 4450 7950 4450
Connection ~ 7950 4450
Wire Wire Line
	7950 4450 7950 4850
Text Label 6000 5650 0    50   ~ 0
TxD
Entry Wire Line
	6650 6100 6750 6000
Wire Wire Line
	6750 6000 6800 6000
Wire Wire Line
	6800 6000 6800 4750
Wire Wire Line
	6800 4750 6900 4750
Text Label 6800 4750 0    50   ~ 0
TxDV
Entry Wire Line
	6650 6150 6750 6050
Wire Wire Line
	6750 6050 6850 6050
Wire Wire Line
	6850 6050 6850 5050
Wire Wire Line
	6850 5050 6900 5050
Text Label 6850 6050 0    50   ~ 0
-DTR
Wire Wire Line
	6900 5350 6900 6150
Wire Wire Line
	6900 6150 6750 6150
Entry Wire Line
	6650 6250 6750 6150
Text Label 6900 6150 0    50   ~ 0
-RTS
$Comp
L power:+5V #PWR?
U 1 1 62583FA8
P 8250 4300
F 0 "#PWR?" H 8250 4150 50  0001 C CNN
F 1 "+5V" H 8265 4473 50  0000 C CNN
F 2 "" H 8250 4300 50  0001 C CNN
F 3 "" H 8250 4300 50  0001 C CNN
	1    8250 4300
	1    0    0    -1  
$EndComp
Wire Wire Line
	8400 4550 7900 4550
Entry Wire Line
	8150 5250 8050 5150
Wire Wire Line
	8250 5350 8250 5050
Wire Wire Line
	7900 5350 8250 5350
Wire Wire Line
	7900 5050 8250 5050
Connection ~ 8250 5050
Wire Wire Line
	8250 5050 8250 4750
Wire Wire Line
	7900 4750 8250 4750
Connection ~ 8250 4750
Wire Wire Line
	8250 4750 8250 4300
Wire Wire Line
	7900 5150 8050 5150
Text Label 7900 5150 0    50   ~ 0
-DTR1
Entry Wire Line
	8050 5450 8150 5550
Wire Wire Line
	8050 5450 7900 5450
Text Label 7900 5450 0    50   ~ 0
-RTS1
Entry Wire Line
	8150 7000 8250 6900
Entry Wire Line
	8150 7200 8250 7100
Text Label 8250 7100 0    50   ~ 0
-RTS1
Text Label 8250 6900 0    50   ~ 0
-DTR1
Wire Wire Line
	8250 7100 8500 7100
Wire Wire Line
	8250 6900 8500 6900
$Comp
L power:GND #PWR?
U 1 1 6278430B
P 7900 5850
F 0 "#PWR?" H 7900 5600 50  0001 C CNN
F 1 "GND" H 7905 5677 50  0000 C CNN
F 2 "" H 7900 5850 50  0001 C CNN
F 3 "" H 7900 5850 50  0001 C CNN
	1    7900 5850
	1    0    0    -1  
$EndComp
Wire Wire Line
	7900 5850 7900 5750
Text GLabel 9200 6650 0    50   Input ~ 0
MOBAC
Wire Wire Line
	9200 7000 9100 7000
Text GLabel 8000 6200 0    50   Input ~ 0
BAC
Text Label 7250 6350 0    50   ~ 0
V.24BUS
Text Label 7550 8650 0    50   ~ 0
CIA
Text Label 7550 8750 0    50   ~ 0
-TxCV
Entry Wire Line
	8050 8750 8150 8850
Entry Wire Line
	8050 8650 8150 8750
Wire Wire Line
	8050 8650 7800 8650
Wire Wire Line
	8050 8750 7500 8750
Wire Wire Line
	7500 8950 7800 8950
Wire Wire Line
	7800 8950 7800 8650
Connection ~ 7800 8650
Wire Wire Line
	7800 8650 7500 8650
Text Label 7550 9050 0    50   ~ 0
-RxCV
Entry Wire Line
	8050 9050 8150 9150
Wire Wire Line
	7500 9050 8050 9050
Wire Wire Line
	8550 9600 8500 9600
Wire Wire Line
	8500 9600 8500 9550
Wire Wire Line
	8500 9500 8550 9500
Wire Wire Line
	8550 9700 8500 9700
Wire Wire Line
	8500 9700 8500 9750
Wire Wire Line
	8500 9800 8550 9800
Entry Wire Line
	8150 9650 8250 9550
Entry Wire Line
	8150 9850 8250 9750
Wire Wire Line
	8250 9550 8500 9550
Connection ~ 8500 9550
Wire Wire Line
	8500 9550 8500 9500
Wire Wire Line
	8250 9750 8500 9750
Connection ~ 8500 9750
Wire Wire Line
	8500 9750 8500 9800
Text Label 8300 9550 0    50   ~ 0
CIA
Text Label 8300 9750 0    50   ~ 0
CIA
$Comp
L Device:C_Small CP1-7
U 1 1 62988B83
P 10300 9600
F 0 "CP1-7" H 10392 9646 50  0000 L CNN
F 1 "1 nF" H 10392 9555 50  0000 L CNN
F 2 "" H 10300 9600 50  0001 C CNN
F 3 "~" H 10300 9600 50  0001 C CNN
	1    10300 9600
	1    0    0    -1  
$EndComp
$Comp
L Device:C_Small CP1-8
U 1 1 62989DFF
P 10150 9700
F 0 "CP1-8" H 10242 9746 50  0000 L CNN
F 1 "1 nF" H 10242 9655 50  0000 L CNN
F 2 "" H 10150 9700 50  0001 C CNN
F 3 "~" H 10150 9700 50  0001 C CNN
	1    10150 9700
	1    0    0    -1  
$EndComp
$Comp
L power:GND #PWR?
U 1 1 6298B5B4
P 10250 9900
F 0 "#PWR?" H 10250 9650 50  0001 C CNN
F 1 "GND" H 10255 9727 50  0000 C CNN
F 2 "" H 10250 9900 50  0001 C CNN
F 3 "" H 10250 9900 50  0001 C CNN
	1    10250 9900
	1    0    0    -1  
$EndComp
Wire Wire Line
	10250 9900 10250 9850
Wire Wire Line
	10250 9850 10150 9850
Wire Wire Line
	10150 9850 10150 9800
Wire Wire Line
	10250 9850 10300 9850
Wire Wire Line
	10300 9850 10300 9700
Connection ~ 10250 9850
Wire Wire Line
	9950 9600 10150 9600
Wire Wire Line
	10150 9600 10650 9600
Connection ~ 10150 9600
Wire Wire Line
	9950 9500 10300 9500
Wire Wire Line
	10300 9500 10650 9500
Connection ~ 10300 9500
$Comp
L Device:Jumper_NO_Small SW8
U 1 1 62A86DC9
P 10750 9500
F 0 "SW8" H 10750 9685 50  0000 C CNN
F 1 "." H 10750 9594 50  0000 C CNN
F 2 "" H 10750 9500 50  0001 C CNN
F 3 "~" H 10750 9500 50  0001 C CNN
	1    10750 9500
	1    0    0    -1  
$EndComp
$Comp
L Device:Jumper_NO_Small SW9
U 1 1 62A881F8
P 10750 9600
F 0 "SW9" H 10750 9507 50  0000 C CNN
F 1 "." H 10750 9416 50  0000 C CNN
F 2 "" H 10750 9600 50  0001 C CNN
F 3 "~" H 10750 9600 50  0001 C CNN
	1    10750 9600
	1    0    0    -1  
$EndComp
$Comp
L power:GND #PWR?
U 1 1 62A887E7
P 8500 10050
F 0 "#PWR?" H 8500 9800 50  0001 C CNN
F 1 "GND" H 8505 9877 50  0000 C CNN
F 2 "" H 8500 10050 50  0001 C CNN
F 3 "" H 8500 10050 50  0001 C CNN
	1    8500 10050
	1    0    0    -1  
$EndComp
Wire Wire Line
	8500 10050 8500 10000
Wire Wire Line
	8500 9900 8550 9900
Wire Wire Line
	8550 10000 8500 10000
Connection ~ 8500 10000
Wire Wire Line
	8500 10000 8500 9900
$Comp
L power:+5V #PWR?
U 1 1 62ADF593
P 8500 9350
F 0 "#PWR?" H 8500 9200 50  0001 C CNN
F 1 "+5V" H 8515 9523 50  0000 C CNN
F 2 "" H 8500 9350 50  0001 C CNN
F 3 "" H 8500 9350 50  0001 C CNN
	1    8500 9350
	1    0    0    -1  
$EndComp
Wire Wire Line
	8500 9350 8500 9400
Wire Wire Line
	8500 9400 8550 9400
Wire Wire Line
	9950 9400 10900 9400
Wire Wire Line
	13950 9500 13950 8850
Wire Wire Line
	13950 8850 14850 8850
Text Label 14150 8850 0    50   ~ 0
-V24LEV
Wire Wire Line
	9950 9700 10300 9700
Wire Wire Line
	13900 9700 13900 8750
Wire Wire Line
	13900 8750 14850 8750
Connection ~ 10300 9700
Wire Wire Line
	10300 9700 13900 9700
Text Label 14150 8750 0    50   ~ 0
+V24LEV
Wire Wire Line
	13850 7550 14850 7550
Wire Wire Line
	13850 7550 13850 9550
Wire Wire Line
	13850 7550 13850 7300
Wire Wire Line
	13850 7300 13450 7300
Connection ~ 13850 7550
Text Label 14450 7550 0    50   ~ 0
CT114
Wire Wire Line
	10850 9600 13800 9600
Wire Wire Line
	13800 8350 14150 8350
Text Label 14450 7950 0    50   ~ 0
CT115
Wire Wire Line
	8550 8100 8500 8100
Wire Wire Line
	8500 8100 8500 8050
Wire Wire Line
	8500 8000 8550 8000
Wire Wire Line
	8550 8200 8500 8200
Wire Wire Line
	8500 8200 8500 8250
Wire Wire Line
	8500 8300 8550 8300
Entry Wire Line
	8150 7800 8250 7700
Wire Wire Line
	8250 7700 8550 7700
Text Label 8300 7700 0    50   ~ 0
-DTR
Entry Wire Line
	8150 8150 8250 8050
Wire Wire Line
	8250 8050 8500 8050
Connection ~ 8500 8050
Wire Wire Line
	8500 8050 8500 8000
Text Label 8250 8050 0    50   ~ 0
-RTS
Entry Wire Line
	8150 8350 8250 8250
Wire Wire Line
	8250 8250 8500 8250
Connection ~ 8500 8250
Wire Wire Line
	8500 8250 8500 8300
Text Label 8250 8250 0    50   ~ 0
-SSE
Wire Wire Line
	8100 5650 8100 6200
Wire Wire Line
	8100 7850 8200 7850
Wire Wire Line
	8200 7850 8200 7800
Wire Wire Line
	8200 7800 8550 7800
Wire Wire Line
	8100 5650 7900 5650
Text Label 8350 7800 0    50   ~ 0
BAC
Entry Wire Line
	8150 8000 8250 7900
Wire Wire Line
	8250 7900 8550 7900
Text Label 8300 7900 0    50   ~ 0
TxDV
$Comp
L Device:C_Small CP1-5
U 1 1 62EC69B2
P 10150 8100
F 0 "CP1-5" H 10242 8146 50  0000 L CNN
F 1 "1 nF" H 10242 8055 50  0000 L CNN
F 2 "" H 10150 8100 50  0001 C CNN
F 3 "~" H 10150 8100 50  0001 C CNN
	1    10150 8100
	1    0    0    -1  
$EndComp
$Comp
L Device:C_Small CP1-4
U 1 1 62EC751E
P 10300 8000
F 0 "CP1-4" H 10392 8046 50  0000 L CNN
F 1 "1 nF" H 10392 7955 50  0000 L CNN
F 2 "" H 10300 8000 50  0001 C CNN
F 3 "~" H 10300 8000 50  0001 C CNN
	1    10300 8000
	1    0    0    -1  
$EndComp
$Comp
L Device:C_Small CP1-2
U 1 1 62EC7C8F
P 10450 7900
F 0 "CP1-2" H 10542 7946 50  0000 L CNN
F 1 "1 nF" H 10542 7855 50  0000 L CNN
F 2 "" H 10450 7900 50  0001 C CNN
F 3 "~" H 10450 7900 50  0001 C CNN
	1    10450 7900
	1    0    0    -1  
$EndComp
$Comp
L Device:C_Small CP1-3
U 1 1 62EC80BB
P 10600 7800
F 0 "CP1-3" H 10692 7846 50  0000 L CNN
F 1 "1 nF" H 10692 7755 50  0000 L CNN
F 2 "" H 10600 7800 50  0001 C CNN
F 3 "~" H 10600 7800 50  0001 C CNN
	1    10600 7800
	1    0    0    -1  
$EndComp
$Comp
L power:GND #PWR?
U 1 1 62EC983F
P 10350 8300
F 0 "#PWR?" H 10350 8050 50  0001 C CNN
F 1 "GND" H 10355 8127 50  0000 C CNN
F 2 "" H 10350 8300 50  0001 C CNN
F 3 "" H 10350 8300 50  0001 C CNN
	1    10350 8300
	1    0    0    -1  
$EndComp
Wire Wire Line
	10350 8300 10350 8250
Wire Wire Line
	10350 8250 10300 8250
Wire Wire Line
	10150 8250 10150 8200
Wire Wire Line
	10350 8250 10450 8250
Wire Wire Line
	10600 8250 10600 7900
Connection ~ 10350 8250
Wire Wire Line
	10450 8000 10450 8250
Connection ~ 10450 8250
Wire Wire Line
	10450 8250 10600 8250
Wire Wire Line
	10300 8100 10300 8250
Connection ~ 10300 8250
Wire Wire Line
	10300 8250 10150 8250
Wire Wire Line
	9950 7700 10600 7700
Connection ~ 10600 7700
Wire Wire Line
	9950 7800 10450 7800
Connection ~ 10450 7800
Wire Wire Line
	9950 7900 10300 7900
Connection ~ 10300 7900
Wire Wire Line
	9950 8000 10150 8000
Connection ~ 10150 8000
Wire Wire Line
	11850 7700 11850 7850
Wire Wire Line
	11850 7850 13900 7850
Wire Wire Line
	13900 7850 13900 8550
Wire Wire Line
	13900 8550 14850 8550
Wire Wire Line
	10600 7700 11850 7700
Text Label 14450 8550 0    50   ~ 0
CT108
Text Label 14450 8450 0    50   ~ 0
CT102
$Comp
L power:GND #PWR?
U 1 1 630AC511
P 14350 8450
F 0 "#PWR?" H 14350 8200 50  0001 C CNN
F 1 "GND" V 14355 8322 50  0000 R CNN
F 2 "" H 14350 8450 50  0001 C CNN
F 3 "" H 14350 8450 50  0001 C CNN
	1    14350 8450
	0    1    1    0   
$EndComp
Wire Wire Line
	14850 8450 14350 8450
Wire Wire Line
	11800 7800 11800 7900
Wire Wire Line
	11800 7900 13950 7900
Wire Wire Line
	13950 7900 13950 7450
Wire Wire Line
	13950 7450 14850 7450
Wire Wire Line
	10450 7800 11800 7800
Text Label 14450 7450 0    50   ~ 0
CT103
Wire Wire Line
	11750 7900 11750 7950
Wire Wire Line
	11750 7950 14000 7950
Wire Wire Line
	14000 7950 14000 7850
Wire Wire Line
	14000 7850 14850 7850
Wire Wire Line
	10300 7900 11750 7900
Text Label 14450 7850 0    50   ~ 0
CT105
$Comp
L Jumper:Jumper_3_Bridged12 SW29
U 1 1 6315E90B
P 13650 8250
F 0 "SW29" V 13696 8316 50  0000 L CNN
F 1 "." V 13605 8316 50  0000 L CNN
F 2 "" H 13650 8250 50  0001 C CNN
F 3 "~" H 13650 8250 50  0001 C CNN
	1    13650 8250
	0    1    -1   0   
$EndComp
Wire Wire Line
	13400 8000 13400 8250
Wire Wire Line
	13400 8250 13500 8250
Wire Wire Line
	10150 8000 13400 8000
Wire Wire Line
	13650 8000 14000 8000
Wire Wire Line
	14000 8000 14000 8150
Wire Wire Line
	14000 8150 14850 8150
Wire Wire Line
	13650 9150 14850 9150
Wire Wire Line
	13650 8500 13650 9150
Text Label 14450 8150 0    50   ~ 0
CT141
Text Label 14450 9150 0    50   ~ 0
CT111
Wire Wire Line
	10850 9550 10850 9500
Wire Wire Line
	10850 9550 13850 9550
Wire Wire Line
	10900 9500 10900 9400
Wire Wire Line
	10900 9500 13950 9500
Wire Wire Line
	12500 8750 13600 8750
Wire Wire Line
	13600 8750 13600 8650
Wire Wire Line
	13600 8650 14850 8650
Text Label 14450 8650 0    50   ~ 0
CT109
$Comp
L Jumper:Jumper_3_Bridged12 SW20
U 1 1 6333AE9F
P 13300 8550
F 0 "SW20" V 13254 8616 50  0000 L CNN
F 1 "." V 13345 8616 50  0000 L CNN
F 2 "" H 13300 8550 50  0001 C CNN
F 3 "~" H 13300 8550 50  0001 C CNN
	1    13300 8550
	0    1    1    0   
$EndComp
Wire Wire Line
	13150 8550 12500 8550
Wire Wire Line
	13300 8800 13600 8800
Wire Wire Line
	13600 8800 13600 9200
Wire Wire Line
	13600 9200 14000 9200
Wire Wire Line
	14000 9200 14000 9550
Wire Wire Line
	14000 9550 14850 9550
Text Label 14450 9550 0    50   ~ 0
CT142
Wire Wire Line
	13300 8300 13500 8300
Wire Wire Line
	13500 8300 13500 8700
Wire Wire Line
	14000 8950 14850 8950
Text Label 14450 8950 0    50   ~ 0
CT125
Wire Wire Line
	14000 8700 13500 8700
Wire Wire Line
	14000 8700 14000 8950
Wire Wire Line
	13800 8350 13800 9600
Wire Wire Line
	12500 8350 13800 8350
Connection ~ 13800 8350
$Comp
L Device:C_Small CP2-7
U 1 1 634AC934
P 12650 8950
F 0 "CP2-7" H 12742 8996 50  0000 L CNN
F 1 "470 pF" H 12742 8905 50  0000 L CNN
F 2 "" H 12650 8950 50  0001 C CNN
F 3 "~" H 12650 8950 50  0001 C CNN
	1    12650 8950
	1    0    0    -1  
$EndComp
$Comp
L Device:C_Small CP2-4
U 1 1 634AE300
P 12750 8750
F 0 "CP2-4" H 12842 8796 50  0000 L CNN
F 1 "470 pF" H 12842 8705 50  0000 L CNN
F 2 "" H 12750 8750 50  0001 C CNN
F 3 "~" H 12750 8750 50  0001 C CNN
	1    12750 8750
	1    0    0    -1  
$EndComp
$Comp
L Device:C_Small CP2-5
U 1 1 634AEA2A
P 12900 8550
F 0 "CP2-5" H 12992 8596 50  0000 L CNN
F 1 "470 pF" H 12992 8505 50  0000 L CNN
F 2 "" H 12900 8550 50  0001 C CNN
F 3 "~" H 12900 8550 50  0001 C CNN
	1    12900 8550
	1    0    0    -1  
$EndComp
$Comp
L power:GND #PWR?
U 1 1 634B0879
P 12750 9150
F 0 "#PWR?" H 12750 8900 50  0001 C CNN
F 1 "GND" H 12755 8977 50  0000 C CNN
F 2 "" H 12750 9150 50  0001 C CNN
F 3 "" H 12750 9150 50  0001 C CNN
	1    12750 9150
	1    0    0    -1  
$EndComp
Wire Wire Line
	12750 9150 12750 9100
Wire Wire Line
	12750 9100 12650 9100
Wire Wire Line
	12650 9100 12650 9050
Wire Wire Line
	12750 9100 12900 9100
Wire Wire Line
	12900 9100 12900 8650
Connection ~ 12750 9100
Wire Wire Line
	12750 8850 12750 9100
Wire Wire Line
	12500 8850 12650 8850
Wire Wire Line
	12500 8650 12750 8650
Wire Wire Line
	12500 8450 12900 8450
Wire Bus Line
	8150 8750 10750 8750
Connection ~ 8150 8750
Entry Wire Line
	10750 8550 10850 8450
Entry Wire Line
	10750 8650 10850 8550
Wire Wire Line
	10850 8450 11100 8450
Text Label 10850 8450 0    50   ~ 0
-CI
Wire Wire Line
	10850 8550 11100 8550
Text Label 10850 8550 0    50   ~ 0
-CAR
Wire Wire Line
	10200 8350 10200 6600
Wire Wire Line
	10200 6600 10100 6600
Text Label 10200 6600 0    50   ~ 0
-RxCV
$Comp
L power:GND #PWR?
U 1 1 6386A9A1
P 9800 7050
F 0 "#PWR?" H 9800 6800 50  0001 C CNN
F 1 "GND" H 9805 6877 50  0000 C CNN
F 2 "" H 9800 7050 50  0001 C CNN
F 3 "" H 9800 7050 50  0001 C CNN
	1    9800 7050
	1    0    0    -1  
$EndComp
Wire Wire Line
	9800 7050 9650 7050
Wire Wire Line
	9650 7050 9650 7200
Wire Wire Line
	9650 7200 9600 7200
$Comp
L power:+5V #PWR?
U 1 1 638AD66C
P 9350 5450
F 0 "#PWR?" H 9350 5300 50  0001 C CNN
F 1 "+5V" H 9365 5623 50  0000 C CNN
F 2 "" H 9350 5450 50  0001 C CNN
F 3 "" H 9350 5450 50  0001 C CNN
	1    9350 5450
	1    0    0    -1  
$EndComp
Wire Wire Line
	9350 5450 9450 5450
Wire Wire Line
	9450 5450 9450 5300
Wire Wire Line
	9450 5300 9600 5300
Entry Wire Line
	8150 6600 8250 6500
Wire Wire Line
	8000 6200 8100 6200
Connection ~ 8100 6200
Wire Wire Line
	8100 6200 8100 7850
Entry Wire Line
	8150 5700 8250 5600
Entry Wire Line
	8150 6000 8250 5900
Entry Wire Line
	8150 6300 8250 6200
Text Label 8300 5600 0    50   ~ 0
RxDV
Text Label 8300 5900 0    50   ~ 0
CTS
Text Label 8300 6200 0    50   ~ 0
TxCV
Text Label 8300 6500 0    50   ~ 0
RxCV
$Comp
L power:GND #PWR?
U 1 1 63A4FA34
P 10100 7000
F 0 "#PWR?" H 10100 6750 50  0001 C CNN
F 1 "GND" H 10105 6827 50  0000 C CNN
F 2 "" H 10100 7000 50  0001 C CNN
F 3 "" H 10100 7000 50  0001 C CNN
	1    10100 7000
	1    0    0    -1  
$EndComp
Wire Wire Line
	10100 7000 10100 6900
Text GLabel 10300 6800 2    50   Input ~ 0
V24EN
Wire Wire Line
	10300 6800 10100 6800
Wire Wire Line
	8400 4350 8600 4350
Wire Wire Line
	8400 4350 8400 4550
Wire Wire Line
	9300 4000 9300 4250
Wire Wire Line
	9300 4250 9200 4250
Entry Wire Line
	8150 5550 8250 5450
Wire Wire Line
	8250 5450 8300 5450
Wire Wire Line
	8300 5450 8300 4600
Wire Wire Line
	8300 4600 9300 4600
Wire Wire Line
	9300 4600 9300 4450
Wire Wire Line
	9300 4450 9200 4450
Text Label 8650 4600 0    50   ~ 0
RxDV
Wire Wire Line
	9100 5600 8250 5600
Wire Wire Line
	9100 5900 8250 5900
Wire Wire Line
	9100 6200 8250 6200
Wire Wire Line
	9100 6500 8250 6500
Wire Wire Line
	10200 8350 11100 8350
Wire Wire Line
	9200 7000 9200 6650
$Comp
L AM26LS32:AM26LS32ACN U20
U 1 1 61A9B4BA
P 11400 4550
F 0 "U20" H 11800 4815 50  0000 C CNN
F 1 "AM26LS32ACN" H 11800 4724 50  0000 C CNN
F 2 "Texas_Instruments-AM26LS32ACN-*" H 11400 4950 50  0001 L CNN
F 3 "http://www.ti.com/general/docs/lit/getliterature.tsp?genericPartNumber=AM26LS32AC&fileType=pdf" H 11400 5050 50  0001 L CNN
F 4 "MS-001*" H 11400 5150 50  0001 L CNN "Code  JEDEC"
F 5 "Package Specification" H 11400 5250 50  0001 L CNN "Component Link 2 Description"
F 6 "http://www.ti.com/lit/ml/mpdi002c/mpdi002c.pdf" H 11400 5350 50  0001 L CNN "Component Link 2 URL"
F 7 "SLLS115E" H 11400 5450 50  0001 L CNN "Datasheet Version"
F 8 "70" H 11400 5550 50  0001 L CNN "ICC Maxm A"
F 9 "Through-hole" H 11400 5650 50  0001 L CNN "Mounting Technology"
F 10 "16-Pin Plastic Dual-In-Line Package, Row Spacing 7.62 mm, Pitch 2.54 mm" H 11400 5750 50  0001 L CNN "Package Description"
F 11 "revE, Dec-2002" H 11400 5850 50  0001 L CNN "Package Version"
F 12 "Catalog" H 11400 5950 50  0001 L CNN "Rating"
F 13 "4" H 11400 6050 50  0001 L CNN "Receivers Per Package"
F 14 "RS-422" H 11400 6150 50  0001 L CNN "Sub Family"
F 15 "IC" H 11400 6250 50  0001 L CNN "category"
F 16 "13586529" H 11400 6350 50  0001 L CNN "ciiva ids"
F 17 "09c09c5c08df53c0" H 11400 6450 50  0001 L CNN "library id"
F 18 "Texas Instruments" H 11400 6550 50  0001 L CNN "manufacturer"
F 19 "0 TX / 4 RX" H 11400 6650 50  0001 L CNN "of TXRX"
F 20 "N0016A" H 11400 6750 50  0001 L CNN "package"
F 21 "1464334793" H 11400 6850 50  0001 L CNN "release date"
F 22 "Yes" H 11400 6950 50  0001 L CNN "rohs"
F 23 "01939A46-2924-4BA3-AE5E-9AF6D570F9E1" H 11400 7050 50  0001 L CNN "vault revision"
F 24 "yes" H 11400 7150 50  0001 L CNN "imported"
	1    11400 4550
	-1   0    0    -1  
$EndComp
Wire Wire Line
	10100 5600 10300 5600
Wire Wire Line
	10300 5600 10300 4550
Wire Wire Line
	10300 4550 10600 4550
Text Label 10100 5600 0    50   ~ 0
RxDV
Wire Wire Line
	10100 5700 10300 5700
Wire Wire Line
	10300 5700 10300 5800
Wire Wire Line
	11800 5900 11800 6700
Wire Wire Line
	11800 6700 12050 6700
Text Label 10100 5700 0    50   ~ 0
RxDV
Wire Wire Line
	14850 7650 14000 7650
Wire Wire Line
	14000 7650 14000 6700
Wire Wire Line
	14000 6700 13450 6700
Text Label 14450 7650 0    50   ~ 0
CT104
$Comp
L Device:C_Small CP2-2
U 1 1 61DF9E17
P 13600 7300
F 0 "CP2-2" H 13692 7346 50  0000 L CNN
F 1 "470 pF" H 13692 7255 50  0000 L CNN
F 2 "" H 13600 7300 50  0001 C CNN
F 3 "~" H 13600 7300 50  0001 C CNN
	1    13600 7300
	1    0    0    -1  
$EndComp
$Comp
L Device:C_Small CP2-4
U 1 1 61DFA7CA
P 13700 7100
F 0 "CP2-4" H 13792 7146 50  0000 L CNN
F 1 "470 pF" H 13792 7055 50  0000 L CNN
F 2 "" H 13700 7100 50  0001 C CNN
F 3 "~" H 13700 7100 50  0001 C CNN
	1    13700 7100
	1    0    0    -1  
$EndComp
$Comp
L Device:C_Small CP2-8
U 1 1 61DFABD3
P 13850 6900
F 0 "CP2-8" H 13942 6946 50  0000 L CNN
F 1 "470 pF" H 13942 6855 50  0000 L CNN
F 2 "" H 13850 6900 50  0001 C CNN
F 3 "~" H 13850 6900 50  0001 C CNN
	1    13850 6900
	1    0    0    -1  
$EndComp
Wire Wire Line
	13850 6800 13450 6800
$Comp
L power:GND #PWR?
U 1 1 61E46D29
P 13700 7650
F 0 "#PWR?" H 13700 7400 50  0001 C CNN
F 1 "GND" H 13705 7477 50  0000 C CNN
F 2 "" H 13700 7650 50  0001 C CNN
F 3 "" H 13700 7650 50  0001 C CNN
	1    13700 7650
	1    0    0    -1  
$EndComp
Wire Wire Line
	13700 7000 13450 7000
Wire Wire Line
	13450 6900 14050 6900
Wire Wire Line
	14050 6900 14050 8250
Wire Wire Line
	14050 8250 14850 8250
Text Label 14450 8250 0    50   ~ 0
CT107
Wire Wire Line
	13600 7200 13450 7200
Wire Wire Line
	14100 7100 14100 8050
Wire Wire Line
	14100 8050 14850 8050
Text Label 14450 8050 0    50   ~ 0
CT106
$Comp
L Device:C_Small CP2-6
U 1 1 6205E8DE
P 13500 7550
F 0 "CP2-6" H 13592 7596 50  0000 L CNN
F 1 "470 pF" H 13592 7505 50  0000 L CNN
F 2 "" H 13500 7550 50  0001 C CNN
F 3 "~" H 13500 7550 50  0001 C CNN
	1    13500 7550
	1    0    0    -1  
$EndComp
Wire Wire Line
	13500 7450 13500 7400
Wire Wire Line
	13500 7400 13450 7400
Wire Wire Line
	13500 7650 13600 7650
Wire Wire Line
	13700 7650 13800 7650
Connection ~ 13700 7650
Wire Wire Line
	13600 7400 13600 7650
Connection ~ 13600 7650
Wire Wire Line
	13600 7650 13700 7650
Wire Wire Line
	13700 7200 13700 7650
Wire Wire Line
	13850 7000 13850 7200
Wire Wire Line
	13450 7100 14100 7100
Wire Wire Line
	13800 7650 13800 7200
Wire Wire Line
	13800 7200 13850 7200
Wire Wire Line
	12050 6900 11750 6900
Wire Wire Line
	11750 6900 11750 6000
Wire Wire Line
	11750 6000 10100 6000
Text Label 10150 6000 0    50   ~ 0
-CTS
Wire Wire Line
	12050 7000 11700 7000
Wire Wire Line
	11700 7000 11700 6300
Wire Wire Line
	11700 6300 10100 6300
Text Label 10150 6300 0    50   ~ 0
-TxCV
Wire Wire Line
	10100 6500 10400 6500
Wire Wire Line
	10400 6500 10400 5150
Wire Wire Line
	10400 5150 10600 5150
Text Label 10150 6500 0    50   ~ 0
-RxCV
Wire Wire Line
	10100 6200 10450 6200
Wire Wire Line
	10450 6200 10450 4950
Wire Wire Line
	10450 4950 10600 4950
Text Label 10150 6200 0    50   ~ 0
-TxCV
Wire Wire Line
	10300 5800 10500 5800
Wire Wire Line
	10500 5800 10500 5900
Wire Wire Line
	10500 5900 11800 5900
Wire Wire Line
	10100 5900 10350 5900
Wire Wire Line
	10350 5900 10350 4750
Wire Wire Line
	10350 4750 10600 4750
Text Label 10150 5900 0    50   ~ 0
-CTS
Entry Wire Line
	10750 6900 10850 6800
Wire Wire Line
	10850 6800 12050 6800
Text Label 10900 6800 0    50   ~ 0
-DSR
$Comp
L power:GND #PWR?
U 1 1 6257E0F5
P 11950 7700
F 0 "#PWR?" H 11950 7450 50  0001 C CNN
F 1 "GND" H 11955 7527 50  0000 C CNN
F 2 "" H 11950 7700 50  0001 C CNN
F 3 "" H 11950 7700 50  0001 C CNN
	1    11950 7700
	-1   0    0    1   
$EndComp
Wire Wire Line
	11950 7700 12050 7700
$Comp
L power:+5V #PWR?
U 1 1 625D36EB
P 12050 6400
F 0 "#PWR?" H 12050 6250 50  0001 C CNN
F 1 "+5V" H 12065 6573 50  0000 C CNN
F 2 "" H 12050 6400 50  0001 C CNN
F 3 "" H 12050 6400 50  0001 C CNN
	1    12050 6400
	1    0    0    -1  
$EndComp
Wire Wire Line
	12050 6400 12050 6500
$Comp
L power:+5V #PWR?
U 1 1 62628D35
P 11050 8150
F 0 "#PWR?" H 11050 8000 50  0001 C CNN
F 1 "+5V" V 11065 8278 50  0000 L CNN
F 2 "" H 11050 8150 50  0001 C CNN
F 3 "" H 11050 8150 50  0001 C CNN
	1    11050 8150
	0    -1   -1   0   
$EndComp
Wire Wire Line
	11050 8150 11100 8150
$Comp
L power:GND #PWR?
U 1 1 6267EAF0
P 11050 9350
F 0 "#PWR?" H 11050 9100 50  0001 C CNN
F 1 "GND" H 11055 9177 50  0000 C CNN
F 2 "" H 11050 9350 50  0001 C CNN
F 3 "" H 11050 9350 50  0001 C CNN
	1    11050 9350
	-1   0    0    1   
$EndComp
Wire Wire Line
	11100 9350 11050 9350
$Comp
L power:GND #PWR?
U 1 1 626D4E84
P 10000 8600
F 0 "#PWR?" H 10000 8350 50  0001 C CNN
F 1 "GND" V 10005 8472 50  0000 R CNN
F 2 "" H 10000 8600 50  0001 C CNN
F 3 "" H 10000 8600 50  0001 C CNN
	1    10000 8600
	0    -1   -1   0   
$EndComp
Wire Wire Line
	10000 8600 9950 8600
$Comp
L power:GND #PWR?
U 1 1 6272B60A
P 10000 10350
F 0 "#PWR?" H 10000 10100 50  0001 C CNN
F 1 "GND" H 10005 10177 50  0000 C CNN
F 2 "" H 10000 10350 50  0001 C CNN
F 3 "" H 10000 10350 50  0001 C CNN
	1    10000 10350
	1    0    0    -1  
$EndComp
Wire Wire Line
	10000 10350 10000 10300
Wire Wire Line
	10000 10300 9950 10300
$Comp
L power:GND #PWR?
U 1 1 627828D8
P 10600 5700
F 0 "#PWR?" H 10600 5450 50  0001 C CNN
F 1 "GND" H 10605 5527 50  0000 C CNN
F 2 "" H 10600 5700 50  0001 C CNN
F 3 "" H 10600 5700 50  0001 C CNN
	1    10600 5700
	-1   0    0    1   
$EndComp
Wire Wire Line
	10600 5700 10600 5750
$Comp
L power:+5V #PWR?
U 1 1 627D9F25
P 11450 5750
F 0 "#PWR?" H 11450 5600 50  0001 C CNN
F 1 "+5V" V 11465 5878 50  0000 L CNN
F 2 "" H 11450 5750 50  0001 C CNN
F 3 "" H 11450 5750 50  0001 C CNN
	1    11450 5750
	0    1    1    0   
$EndComp
Wire Wire Line
	11450 5750 11400 5750
Wire Wire Line
	14850 5500 14400 5500
Wire Wire Line
	14400 5500 14400 4800
Wire Wire Line
	14400 4800 13900 4800
Wire Wire Line
	14350 5600 14850 5600
Wire Wire Line
	14350 4900 14350 5600
Text Label 14500 5500 0    50   ~ 0
T
Text Label 14450 5600 0    50   ~ 0
-T
Wire Wire Line
	14850 5700 14300 5700
Wire Wire Line
	14300 5700 14300 5000
Wire Wire Line
	14300 5000 13900 5000
Wire Wire Line
	14850 5800 14250 5800
Wire Wire Line
	14250 5800 14250 5100
Wire Wire Line
	14250 5100 13900 5100
Text Label 14500 5700 0    50   ~ 0
C
Text Label 14450 5800 0    50   ~ 0
-C
Wire Bus Line
	10750 7350 12000 7350
Wire Bus Line
	10750 6900 10750 7350
Connection ~ 10750 7350
Entry Wire Line
	12750 4900 12850 4800
Entry Wire Line
	12750 5100 12850 5000
Text Label 12900 4800 0    50   ~ 0
TxDV
Text Label 12850 5000 0    50   ~ 0
-RTS
$Comp
L power:GND #PWR?
U 1 1 62B04126
P 14800 6850
F 0 "#PWR?" H 14800 6600 50  0001 C CNN
F 1 "GND" H 14805 6677 50  0000 C CNN
F 2 "" H 14800 6850 50  0001 C CNN
F 3 "" H 14800 6850 50  0001 C CNN
	1    14800 6850
	1    0    0    -1  
$EndComp
Wire Wire Line
	14800 6850 14800 6800
Wire Wire Line
	14800 6800 14850 6800
$Comp
L Device:R_Network07 RP8
U 1 1 62B640F0
P 9700 4400
F 0 "RP8" V 10133 4400 50  0000 C CNN
F 1 "2k7" V 10224 4400 50  0000 C CNN
F 2 "Resistor_THT:R_Array_SIP8" V 10175 4400 50  0001 C CNN
F 3 "http://www.vishay.com/docs/31509/csc.pdf" H 9700 4400 50  0001 C CNN
	1    9700 4400
	0    -1   1    0   
$EndComp
$Comp
L power:GND #PWR?
U 1 1 62B685EE
P 9450 4150
F 0 "#PWR?" H 9450 3900 50  0001 C CNN
F 1 "GND" H 9455 3977 50  0000 C CNN
F 2 "" H 9450 4150 50  0001 C CNN
F 3 "" H 9450 4150 50  0001 C CNN
	1    9450 4150
	1    0    0    -1  
$EndComp
$Comp
L Device:R_Network07 RP9
U 1 1 62BC3EC5
P 12650 4400
F 0 "RP9" V 12133 4400 50  0000 C CNN
F 1 "2k7" V 12224 4400 50  0000 C CNN
F 2 "Resistor_THT:R_Array_SIP8" V 13125 4400 50  0001 C CNN
F 3 "http://www.vishay.com/docs/31509/csc.pdf" H 12650 4400 50  0001 C CNN
	1    12650 4400
	0    1    1    0   
$EndComp
$Comp
L power:+5V #PWR?
U 1 1 62BC8C05
P 12900 4100
F 0 "#PWR?" H 12900 3950 50  0001 C CNN
F 1 "+5V" V 12915 4228 50  0000 L CNN
F 2 "" H 12900 4100 50  0001 C CNN
F 3 "" H 12900 4100 50  0001 C CNN
	1    12900 4100
	0    1    1    0   
$EndComp
Wire Wire Line
	12900 4100 12850 4100
Wire Wire Line
	9500 4100 9450 4100
Wire Wire Line
	9450 4100 9450 4150
Wire Wire Line
	13900 4900 14350 4900
Wire Bus Line
	12750 6150 12000 6150
Wire Bus Line
	12000 6150 12000 7350
Wire Wire Line
	12850 5000 13100 5000
Wire Wire Line
	12850 4800 13100 4800
$Comp
L Device:R_Small R13
U 1 1 62EB64E1
P 11800 4600
F 0 "R13" V 11604 4600 50  0000 C CNN
F 1 "270R" V 11695 4600 50  0000 C CNN
F 2 "" H 11800 4600 50  0001 C CNN
F 3 "~" H 11800 4600 50  0001 C CNN
	1    11800 4600
	0    1    1    0   
$EndComp
$Comp
L Device:R_Small R14
U 1 1 62EB6D72
P 11800 4800
F 0 "R14" V 11604 4800 50  0000 C CNN
F 1 "270R" V 11695 4800 50  0000 C CNN
F 2 "" H 11800 4800 50  0001 C CNN
F 3 "~" H 11800 4800 50  0001 C CNN
	1    11800 4800
	0    1    1    0   
$EndComp
$Comp
L Device:R_Small R15
U 1 1 62EB7126
P 11800 5000
F 0 "R15" V 11950 5000 50  0000 C CNN
F 1 "270R" V 12050 5000 50  0000 C CNN
F 2 "" H 11800 5000 50  0001 C CNN
F 3 "~" H 11800 5000 50  0001 C CNN
	1    11800 5000
	0    1    1    0   
$EndComp
Wire Wire Line
	11400 4550 11800 4550
Wire Wire Line
	11400 4650 11450 4650
Wire Wire Line
	9900 4700 10250 4700
Wire Wire Line
	10250 4700 10250 4250
Wire Wire Line
	10250 4250 11450 4250
Wire Wire Line
	11450 4250 11450 4650
Connection ~ 11450 4650
Wire Wire Line
	12450 4100 11800 4100
Wire Wire Line
	11800 4100 11800 4550
Connection ~ 11800 4550
Wire Wire Line
	11400 4850 11500 4850
Wire Wire Line
	11400 5050 11500 5050
Wire Wire Line
	11400 4950 11450 4950
Wire Wire Line
	11400 5150 11450 5150
Wire Wire Line
	11450 5150 11450 4950
Connection ~ 11450 4950
Wire Wire Line
	11400 5250 11500 5250
Wire Wire Line
	11500 5250 11500 5050
Connection ~ 11500 5050
$Comp
L power:GND #PWR?
U 1 1 639E3C27
P 11500 5550
F 0 "#PWR?" H 11500 5300 50  0001 C CNN
F 1 "GND" V 11505 5422 50  0000 R CNN
F 2 "" H 11500 5550 50  0001 C CNN
F 3 "" H 11500 5550 50  0001 C CNN
	1    11500 5550
	0    -1   -1   0   
$EndComp
Wire Wire Line
	12350 4550 12350 5650
Wire Wire Line
	12350 5650 14200 5650
Wire Wire Line
	14200 5650 14200 5900
Wire Wire Line
	14200 5900 14850 5900
Text Label 14500 5900 0    50   ~ 0
R
Wire Wire Line
	14850 6000 14150 6000
Wire Wire Line
	14150 6000 14150 5700
Wire Wire Line
	14150 5700 12300 5700
Wire Wire Line
	12300 5700 12300 4650
Text Label 14450 6000 0    50   ~ 0
-R
Wire Wire Line
	12250 4750 12250 5750
Wire Wire Line
	12250 5750 14100 5750
Wire Wire Line
	14100 5750 14100 6100
Wire Wire Line
	14100 6100 14850 6100
Wire Wire Line
	12200 4850 12200 5800
Wire Wire Line
	12200 5800 14050 5800
Wire Wire Line
	14050 5800 14050 6200
Wire Wire Line
	14050 6200 14850 6200
Text Label 14500 6100 0    50   ~ 0
I
Text Label 14450 6200 0    50   ~ 0
-I
Wire Wire Line
	9900 4600 10200 4600
Wire Wire Line
	10200 4600 10200 4200
Wire Wire Line
	10200 4200 11500 4200
Wire Wire Line
	11500 4200 11500 4850
Connection ~ 11500 4850
Wire Wire Line
	12150 4950 12150 5850
Wire Wire Line
	12150 5850 14000 5850
Wire Wire Line
	14000 5850 14000 6300
Wire Wire Line
	14000 6300 14850 6300
Wire Wire Line
	14850 6400 13950 6400
Wire Wire Line
	13950 6400 13950 5900
Wire Wire Line
	13950 5900 12100 5900
Wire Wire Line
	12100 5900 12100 5050
Wire Wire Line
	12050 4950 12050 4300
Connection ~ 12050 4950
Wire Wire Line
	12050 4950 12150 4950
Wire Wire Line
	12050 4300 12450 4300
Wire Wire Line
	12000 4750 12000 4200
Connection ~ 12000 4750
Wire Wire Line
	12000 4750 12250 4750
Wire Wire Line
	12000 4200 12450 4200
Wire Wire Line
	11900 4600 11950 4600
Wire Wire Line
	11950 4600 11950 4550
Connection ~ 11950 4550
Wire Wire Line
	11950 4550 12350 4550
Wire Wire Line
	11800 4550 11950 4550
Wire Wire Line
	11700 4600 11650 4600
Wire Wire Line
	11650 4600 11650 4650
Connection ~ 11650 4650
Wire Wire Line
	11650 4650 12300 4650
Wire Wire Line
	11450 4650 11650 4650
Wire Wire Line
	11900 4800 11950 4800
Wire Wire Line
	11950 4800 11950 4750
Connection ~ 11950 4750
Wire Wire Line
	11950 4750 12000 4750
Wire Wire Line
	11400 4750 11950 4750
Wire Wire Line
	11500 4850 11650 4850
Wire Wire Line
	11700 4800 11650 4800
Wire Wire Line
	11650 4800 11650 4850
Connection ~ 11650 4850
Wire Wire Line
	11650 4850 12200 4850
Wire Wire Line
	11450 4950 11950 4950
Wire Wire Line
	11900 5000 11950 5000
Wire Wire Line
	11950 5000 11950 4950
Connection ~ 11950 4950
Wire Wire Line
	11950 4950 12050 4950
Wire Wire Line
	11700 5000 11650 5000
Wire Wire Line
	11650 5000 11650 5050
Connection ~ 11650 5050
Wire Wire Line
	11650 5050 12100 5050
Wire Wire Line
	11500 5050 11550 5050
Wire Wire Line
	9900 4500 10150 4500
Wire Wire Line
	10150 4500 10150 4150
Wire Wire Line
	10150 4150 11550 4150
Wire Wire Line
	11550 4150 11550 5050
Connection ~ 11550 5050
Wire Wire Line
	11550 5050 11650 5050
Text Label 14500 6300 0    50   ~ 0
S
Text Label 14450 6400 0    50   ~ 0
-S
Wire Wire Line
	11400 5550 11500 5550
Wire Wire Line
	11400 5450 11500 5450
Wire Wire Line
	11500 5450 11500 5550
Connection ~ 11500 5550
Wire Wire Line
	14850 3350 14350 3350
Text GLabel 14350 3350 0    50   Input ~ 0
INSP
Text Label 14550 3350 0    50   ~ 0
INSP
NoConn ~ 14850 3250
Wire Wire Line
	14350 4000 14350 4350
Wire Wire Line
	14350 4350 14850 4350
Wire Wire Line
	9300 4000 14350 4000
Wire Wire Line
	12850 4800 12850 4250
Wire Wire Line
	12850 4250 13200 4250
Wire Wire Line
	13200 4250 13200 4050
Wire Wire Line
	13200 4050 14300 4050
Wire Wire Line
	14300 4050 14300 4450
Wire Wire Line
	14300 4450 14850 4450
Text Label 14450 4450 0    50   ~ 0
TxDV
Wire Wire Line
	14150 8350 14150 7950
Wire Wire Line
	14150 7950 14850 7950
Entry Wire Line
	6150 7000 6250 6900
Entry Wire Line
	6050 7000 6150 6900
Wire Wire Line
	6150 6900 6150 6150
Wire Wire Line
	6150 6150 5950 6150
Text Label 6000 6150 0    50   ~ 0
-DMARQA
Text Label 5950 4350 0    50   ~ 0
-DMARQB
Wire Wire Line
	6250 4350 6250 6900
Wire Wire Line
	5950 4350 6250 4350
NoConn ~ 5050 4950
$Comp
L Device:L_Core_Ferrite_Small L100
U 1 1 6496C08F
P 2200 8100
F 0 "L100" V 2405 8100 50  0000 C CNN
F 1 "Philips 4312 020 36640" V 2314 8100 50  0000 C CNN
F 2 "" H 2200 8100 50  0001 C CNN
F 3 "~" H 2200 8100 50  0001 C CNN
	1    2200 8100
	0    -1   -1   0   
$EndComp
$Comp
L Device:C C169
U 1 1 6496E6DA
P 2500 8250
F 0 "C169" H 2615 8296 50  0000 L CNN
F 1 "22 uF" H 2615 8205 50  0000 L CNN
F 2 "" H 2538 8100 50  0001 C CNN
F 3 "~" H 2500 8250 50  0001 C CNN
	1    2500 8250
	1    0    0    -1  
$EndComp
$Comp
L Device:C C168
U 1 1 6496E9F2
P 2950 8250
F 0 "C168" H 3065 8296 50  0000 L CNN
F 1 "22 uF" H 3065 8205 50  0000 L CNN
F 2 "" H 2988 8100 50  0001 C CNN
F 3 "~" H 2950 8250 50  0001 C CNN
	1    2950 8250
	1    0    0    -1  
$EndComp
$Comp
L Device:CP C164
U 1 1 64970229
P 3450 8250
F 0 "C164" H 3568 8296 50  0000 L CNN
F 1 "22 uF" H 3568 8205 50  0000 L CNN
F 2 "" H 3488 8100 50  0001 C CNN
F 3 "~" H 3450 8250 50  0001 C CNN
	1    3450 8250
	1    0    0    -1  
$EndComp
$Comp
L Device:CP C165
U 1 1 64970438
P 3900 8250
F 0 "C165" H 4018 8296 50  0000 L CNN
F 1 "22 uF" H 4018 8205 50  0000 L CNN
F 2 "" H 3938 8100 50  0001 C CNN
F 3 "~" H 3900 8250 50  0001 C CNN
	1    3900 8250
	1    0    0    -1  
$EndComp
$Comp
L power:GND #PWR?
U 1 1 64971FBB
P 2500 8450
F 0 "#PWR?" H 2500 8200 50  0001 C CNN
F 1 "GND" H 2505 8277 50  0000 C CNN
F 2 "" H 2500 8450 50  0001 C CNN
F 3 "" H 2500 8450 50  0001 C CNN
	1    2500 8450
	1    0    0    -1  
$EndComp
$Comp
L power:GND #PWR?
U 1 1 649735A8
P 2950 8450
F 0 "#PWR?" H 2950 8200 50  0001 C CNN
F 1 "GND" H 2955 8277 50  0000 C CNN
F 2 "" H 2950 8450 50  0001 C CNN
F 3 "" H 2950 8450 50  0001 C CNN
	1    2950 8450
	1    0    0    -1  
$EndComp
$Comp
L power:GND #PWR?
U 1 1 64974AA2
P 3450 8450
F 0 "#PWR?" H 3450 8200 50  0001 C CNN
F 1 "GND" H 3455 8277 50  0000 C CNN
F 2 "" H 3450 8450 50  0001 C CNN
F 3 "" H 3450 8450 50  0001 C CNN
	1    3450 8450
	1    0    0    -1  
$EndComp
$Comp
L power:GND #PWR?
U 1 1 64975FA8
P 3900 8450
F 0 "#PWR?" H 3900 8200 50  0001 C CNN
F 1 "GND" H 3905 8277 50  0000 C CNN
F 2 "" H 3900 8450 50  0001 C CNN
F 3 "" H 3900 8450 50  0001 C CNN
	1    3900 8450
	1    0    0    -1  
$EndComp
Wire Wire Line
	3900 8100 3450 8100
Connection ~ 2500 8100
Wire Wire Line
	2500 8100 2300 8100
Connection ~ 2950 8100
Wire Wire Line
	2950 8100 2500 8100
Connection ~ 3450 8100
Wire Wire Line
	3450 8100 2950 8100
Wire Wire Line
	2500 8400 2500 8450
Wire Wire Line
	2950 8400 2950 8450
Wire Wire Line
	3450 8400 3450 8450
Wire Wire Line
	3900 8400 3900 8450
Wire Wire Line
	1000 8850 1100 8850
Wire Wire Line
	1900 8850 1900 8100
Wire Wire Line
	1900 8100 2100 8100
Wire Wire Line
	1000 8650 1100 8650
Wire Wire Line
	1100 8650 1100 8750
Connection ~ 1100 8850
Wire Wire Line
	1100 8850 1900 8850
Wire Wire Line
	1000 8750 1100 8750
Connection ~ 1100 8750
Wire Wire Line
	1100 8750 1100 8850
$Comp
L power:GND #PWR?
U 1 1 64D67E25
P 1250 8550
F 0 "#PWR?" H 1250 8300 50  0001 C CNN
F 1 "GND" H 1255 8377 50  0000 C CNN
F 2 "" H 1250 8550 50  0001 C CNN
F 3 "" H 1250 8550 50  0001 C CNN
	1    1250 8550
	1    0    0    -1  
$EndComp
Wire Wire Line
	1000 8550 1150 8550
Wire Wire Line
	1000 8250 1150 8250
Wire Wire Line
	1150 8250 1150 8350
Connection ~ 1150 8550
Wire Wire Line
	1150 8550 1250 8550
Wire Wire Line
	1000 8450 1150 8450
Connection ~ 1150 8450
Wire Wire Line
	1150 8450 1150 8550
Connection ~ 1150 8350
Wire Wire Line
	1150 8350 1150 8450
Wire Wire Line
	1000 8350 1150 8350
Wire Wire Line
	3900 8100 4350 8100
Connection ~ 3900 8100
$Comp
L power:GND #PWR?
U 1 1 65088E00
P 1250 9600
F 0 "#PWR?" H 1250 9350 50  0001 C CNN
F 1 "GND" H 1255 9427 50  0000 C CNN
F 2 "" H 1250 9600 50  0001 C CNN
F 3 "" H 1250 9600 50  0001 C CNN
	1    1250 9600
	1    0    0    -1  
$EndComp
Wire Wire Line
	1000 9600 1150 9600
Wire Wire Line
	1000 9300 1150 9300
Wire Wire Line
	1150 9300 1150 9400
Connection ~ 1150 9600
Wire Wire Line
	1150 9600 1250 9600
Wire Wire Line
	1000 9500 1150 9500
Connection ~ 1150 9500
Wire Wire Line
	1150 9500 1150 9600
Wire Wire Line
	1000 9400 1150 9400
Connection ~ 1150 9400
Wire Wire Line
	1150 9400 1150 9500
Wire Wire Line
	1000 9900 1100 9900
Wire Wire Line
	1000 9700 1100 9700
Wire Wire Line
	1100 9700 1100 9800
Connection ~ 1100 9900
Wire Wire Line
	1000 9800 1100 9800
Connection ~ 1100 9800
Wire Wire Line
	1100 9800 1100 9900
$Comp
L Device:L_Core_Ferrite_Small L101
U 1 1 65456ABF
P 2200 9200
F 0 "L101" V 2405 9200 50  0000 C CNN
F 1 "Philips 4312 020 36640" V 2314 9200 50  0000 C CNN
F 2 "" H 2200 9200 50  0001 C CNN
F 3 "~" H 2200 9200 50  0001 C CNN
	1    2200 9200
	0    -1   -1   0   
$EndComp
Wire Wire Line
	1900 9900 1900 9200
Wire Wire Line
	1900 9200 2100 9200
Wire Wire Line
	1100 9900 1900 9900
$Comp
L Device:CP C189
U 1 1 654EC65A
P 2500 9350
F 0 "C189" H 2618 9396 50  0000 L CNN
F 1 "22 uF" H 2618 9305 50  0000 L CNN
F 2 "" H 2538 9200 50  0001 C CNN
F 3 "~" H 2500 9350 50  0001 C CNN
	1    2500 9350
	1    0    0    -1  
$EndComp
$Comp
L Device:CP C166
U 1 1 654ECE8B
P 2950 9350
F 0 "C166" H 3068 9396 50  0000 L CNN
F 1 "22 uF" H 3068 9305 50  0000 L CNN
F 2 "" H 2988 9200 50  0001 C CNN
F 3 "~" H 2950 9350 50  0001 C CNN
	1    2950 9350
	1    0    0    -1  
$EndComp
$Comp
L Device:CP C167
U 1 1 654ED25D
P 3450 9350
F 0 "C167" H 3568 9396 50  0000 L CNN
F 1 "22 uF" H 3568 9305 50  0000 L CNN
F 2 "" H 3488 9200 50  0001 C CNN
F 3 "~" H 3450 9350 50  0001 C CNN
	1    3450 9350
	1    0    0    -1  
$EndComp
Wire Wire Line
	2300 9200 2500 9200
Connection ~ 2500 9200
Wire Wire Line
	2500 9200 2950 9200
Connection ~ 2950 9200
Wire Wire Line
	2950 9200 3450 9200
Connection ~ 3450 9200
Wire Wire Line
	3450 9200 3900 9200
$Comp
L power:+5V #PWR?
U 1 1 65581368
P 4900 9200
F 0 "#PWR?" H 4900 9050 50  0001 C CNN
F 1 "+5V" H 4915 9373 50  0000 C CNN
F 2 "" H 4900 9200 50  0001 C CNN
F 3 "" H 4900 9200 50  0001 C CNN
	1    4900 9200
	1    0    0    -1  
$EndComp
Wire Wire Line
	4350 8100 4350 9200
Connection ~ 4350 9200
$Comp
L power:GND #PWR?
U 1 1 656140ED
P 2500 9550
F 0 "#PWR?" H 2500 9300 50  0001 C CNN
F 1 "GND" H 2505 9377 50  0000 C CNN
F 2 "" H 2500 9550 50  0001 C CNN
F 3 "" H 2500 9550 50  0001 C CNN
	1    2500 9550
	1    0    0    -1  
$EndComp
$Comp
L power:GND #PWR?
U 1 1 65614659
P 2950 9550
F 0 "#PWR?" H 2950 9300 50  0001 C CNN
F 1 "GND" H 2955 9377 50  0000 C CNN
F 2 "" H 2950 9550 50  0001 C CNN
F 3 "" H 2950 9550 50  0001 C CNN
	1    2950 9550
	1    0    0    -1  
$EndComp
$Comp
L power:GND #PWR?
U 1 1 65614A3C
P 3450 9550
F 0 "#PWR?" H 3450 9300 50  0001 C CNN
F 1 "GND" H 3455 9377 50  0000 C CNN
F 2 "" H 3450 9550 50  0001 C CNN
F 3 "" H 3450 9550 50  0001 C CNN
	1    3450 9550
	1    0    0    -1  
$EndComp
Wire Wire Line
	2500 9500 2500 9550
Wire Wire Line
	2950 9500 2950 9550
Wire Wire Line
	3450 9500 3450 9550
Wire Wire Line
	1000 10650 1500 10650
Wire Wire Line
	1000 10550 1500 10550
Text Label 1100 10650 0    50   ~ 0
GNDFL
Text Label 1100 10550 0    50   ~ 0
+12VFL
$Comp
L Device:CP C170
U 1 1 65900643
P 2350 10300
F 0 "C170" H 2468 10346 50  0000 L CNN
F 1 "22 uF" H 2468 10255 50  0000 L CNN
F 2 "" H 2388 10150 50  0001 C CNN
F 3 "~" H 2350 10300 50  0001 C CNN
	1    2350 10300
	1    0    0    -1  
$EndComp
$Comp
L Device:CP C171
U 1 1 659010B5
P 2150 10600
F 0 "C171" H 2268 10646 50  0000 L CNN
F 1 "22 uF" H 2268 10555 50  0000 L CNN
F 2 "" H 2188 10450 50  0001 C CNN
F 3 "~" H 2150 10600 50  0001 C CNN
	1    2150 10600
	1    0    0    -1  
$EndComp
Wire Wire Line
	1000 10450 1750 10450
Wire Wire Line
	1750 10450 1750 10750
Wire Wire Line
	1750 10750 2150 10750
Connection ~ 2150 10750
Wire Wire Line
	2150 10750 3850 10750
Wire Wire Line
	1000 10350 1800 10350
Wire Wire Line
	1800 10350 1800 10450
Wire Wire Line
	1800 10450 2150 10450
Connection ~ 2150 10450
Wire Wire Line
	2150 10450 2350 10450
Connection ~ 2350 10450
Wire Wire Line
	2350 10450 2850 10450
Wire Wire Line
	1000 10250 1750 10250
Wire Wire Line
	1750 10250 1750 10150
Wire Wire Line
	1750 10150 2350 10150
Connection ~ 2350 10150
Wire Wire Line
	2350 10150 2850 10150
$Comp
L power:GND #PWR?
U 1 1 65AD283A
P 3500 10500
F 0 "#PWR?" H 3500 10250 50  0001 C CNN
F 1 "GND" H 3505 10327 50  0000 C CNN
F 2 "" H 3500 10500 50  0001 C CNN
F 3 "" H 3500 10500 50  0001 C CNN
	1    3500 10500
	1    0    0    -1  
$EndComp
Wire Wire Line
	3500 10500 3500 10450
Connection ~ 3500 10450
$Comp
L power:-12V #PWR?
U 1 1 65B727CE
P 3850 10750
F 0 "#PWR?" H 3850 10850 50  0001 C CNN
F 1 "-12V" V 3865 10878 50  0000 L CNN
F 2 "" H 3850 10750 50  0001 C CNN
F 3 "" H 3850 10750 50  0001 C CNN
	1    3850 10750
	0    1    1    0   
$EndComp
$Comp
L power:+12V #PWR?
U 1 1 65C13569
P 3850 10150
F 0 "#PWR?" H 3850 10000 50  0001 C CNN
F 1 "+12V" V 3865 10278 50  0000 L CNN
F 2 "" H 3850 10150 50  0001 C CNN
F 3 "" H 3850 10150 50  0001 C CNN
	1    3850 10150
	0    1    1    0   
$EndComp
$Comp
L Connector:Conn_01x01_Male W15
U 1 1 65CB45BB
P 4250 10450
F 0 "W15" H 4222 10382 50  0000 R CNN
F 1 "W15" H 4222 10473 50  0000 R CNN
F 2 "" H 4250 10450 50  0001 C CNN
F 3 "~" H 4250 10450 50  0001 C CNN
	1    4250 10450
	-1   0    0    1   
$EndComp
Wire Wire Line
	3500 10450 3750 10450
$Comp
L power:Earth #PWR?
U 1 1 65D562F2
P 3750 10500
F 0 "#PWR?" H 3750 10250 50  0001 C CNN
F 1 "Earth" H 3750 10350 50  0001 C CNN
F 2 "" H 3750 10500 50  0001 C CNN
F 3 "~" H 3750 10500 50  0001 C CNN
	1    3750 10500
	1    0    0    -1  
$EndComp
Wire Wire Line
	3750 10500 3750 10450
Connection ~ 3750 10450
Wire Wire Line
	3750 10450 4050 10450
$Comp
L Device:C C1xx
U 1 1 65DFB475
P 2850 10300
F 0 "C1xx" H 2965 10346 50  0000 L CNN
F 1 "22 nF" H 2965 10255 50  0000 L CNN
F 2 "" H 2888 10150 50  0001 C CNN
F 3 "~" H 2850 10300 50  0001 C CNN
	1    2850 10300
	1    0    0    -1  
$EndComp
Connection ~ 2850 10150
Wire Wire Line
	2850 10150 3300 10150
Connection ~ 2850 10450
Wire Wire Line
	2850 10450 3300 10450
$Comp
L Device:C C1xx?
U 1 1 65DFBAD9
P 3300 10300
F 0 "C1xx?" H 3415 10346 50  0000 L CNN
F 1 "22 nF" H 3415 10255 50  0000 L CNN
F 2 "" H 3338 10150 50  0001 C CNN
F 3 "~" H 3300 10300 50  0001 C CNN
	1    3300 10300
	1    0    0    -1  
$EndComp
Connection ~ 3300 10150
Wire Wire Line
	3300 10150 3850 10150
Connection ~ 3300 10450
Wire Wire Line
	3300 10450 3500 10450
$Comp
L Device:C C1xx?
U 1 1 65DFBF33
P 3900 9350
F 0 "C1xx?" H 4015 9396 50  0000 L CNN
F 1 "22 nF" H 4015 9305 50  0000 L CNN
F 2 "" H 3938 9200 50  0001 C CNN
F 3 "~" H 3900 9350 50  0001 C CNN
	1    3900 9350
	1    0    0    -1  
$EndComp
Connection ~ 3900 9200
Wire Wire Line
	3900 9200 4350 9200
$Comp
L Device:C C1xx?
U 1 1 65DFC676
P 4350 9350
F 0 "C1xx?" H 4465 9396 50  0000 L CNN
F 1 "22 nF" H 4465 9305 50  0000 L CNN
F 2 "" H 4388 9200 50  0001 C CNN
F 3 "~" H 4350 9350 50  0001 C CNN
	1    4350 9350
	1    0    0    -1  
$EndComp
$Comp
L power:GND #PWR?
U 1 1 65DFCCF9
P 3900 9550
F 0 "#PWR?" H 3900 9300 50  0001 C CNN
F 1 "GND" H 3905 9377 50  0000 C CNN
F 2 "" H 3900 9550 50  0001 C CNN
F 3 "" H 3900 9550 50  0001 C CNN
	1    3900 9550
	1    0    0    -1  
$EndComp
$Comp
L power:GND #PWR?
U 1 1 65DFD200
P 4350 9550
F 0 "#PWR?" H 4350 9300 50  0001 C CNN
F 1 "GND" H 4355 9377 50  0000 C CNN
F 2 "" H 4350 9550 50  0001 C CNN
F 3 "" H 4350 9550 50  0001 C CNN
	1    4350 9550
	1    0    0    -1  
$EndComp
Wire Wire Line
	3900 9550 3900 9500
Wire Wire Line
	4350 9550 4350 9500
Wire Wire Line
	4350 9200 4900 9200
Wire Notes Line
	1050 10800 1050 7300
Wire Notes Line
	1050 7300 5250 7300
Wire Notes Line
	5250 7300 5250 10800
Wire Notes Line
	5250 10800 1050 10800
Text Notes 2450 7450 0    50   ~ 0
Power supply
Wire Notes Line
	8550 2900 8550 500 
Wire Notes Line
	8550 500  12850 500 
Wire Notes Line
	12850 500  12850 2900
Wire Notes Line
	12850 2900 8550 2900
Text Notes 8750 700  0    50   ~ 0
Video amplifier
Wire Notes Line
	1100 3200 8350 3200
Wire Notes Line
	8350 3200 8350 650 
Wire Notes Line
	8350 650  1100 650 
Wire Notes Line
	1100 650  1100 3200
Text Notes 3900 800  0    50   ~ 0
Video track
Wire Notes Line
	1050 7150 1050 3300
Wire Notes Line
	1050 3300 13300 3300
Wire Notes Line
	13300 3300 13300 2100
Wire Notes Line
	15900 2100 15900 9850
Wire Notes Line
	15900 9850 11000 9850
Wire Notes Line
	11000 9850 11000 10700
Wire Notes Line
	11000 10700 5850 10700
Wire Notes Line
	5850 10700 5850 7150
Wire Notes Line
	5850 7150 1050 7150
Wire Wire Line
	5950 5650 6700 5650
Wire Bus Line
	12750 4900 12750 6150
Wire Notes Line
	13300 2100 15900 2100
Wire Bus Line
	10750 7350 10750 8750
Wire Bus Line
	8150 8750 8150 9850
Wire Bus Line
	8150 5250 8150 6350
Wire Bus Line
	650  6300 4000 6300
Wire Bus Line
	650  7000 6150 7000
Wire Bus Line
	6650 5350 6650 6350
Wire Bus Line
	8150 6350 8150 8750
Wire Bus Line
	4150 4450 4150 6750
Text Notes 2800 3600 0    50   ~ 0
Line interface
$EndSCHEMATC
