EESchema Schematic File Version 4
EELAYER 30 0
EELAYER END
$Descr A3 16535 11693
encoding utf-8
Sheet 4 12
Title "Power / Deflection 1"
Date ""
Rev ""
Comp ""
Comment1 ""
Comment2 ""
Comment3 ""
Comment4 ""
$EndDescr
$Comp
L Connector:Conn_01x03_Female W2
U 1 1 6074B07E
P 950 950
F 0 "W2" H 842 1235 50  0000 C CNN
F 1 "mains in" H 842 1144 50  0000 C CNN
F 2 "" H 950 950 50  0001 C CNN
F 3 "~" H 950 950 50  0001 C CNN
	1    950  950 
	-1   0    0    -1  
$EndComp
$Comp
L Device:Fuse F1
U 1 1 6074C1B5
P 1500 850
F 0 "F1" V 1303 850 50  0000 C CNN
F 1 "3.15A" V 1394 850 50  0000 C CNN
F 2 "" V 1430 850 50  0001 C CNN
F 3 "~" H 1500 850 50  0001 C CNN
	1    1500 850 
	0    1    1    0   
$EndComp
$Comp
L Device:Fuse F2
U 1 1 6074C537
P 1500 1050
F 0 "F2" V 1605 1050 50  0000 C CNN
F 1 "3.15A" V 1696 1050 50  0000 C CNN
F 2 "" V 1430 1050 50  0001 C CNN
F 3 "~" H 1500 1050 50  0001 C CNN
	1    1500 1050
	0    1    1    0   
$EndComp
$Comp
L Device:C C1
U 1 1 6074C9AC
P 2000 1000
F 0 "C1" H 2115 1046 50  0000 L CNN
F 1 "0.47 uF (X)" H 2115 955 50  0000 L CNN
F 2 "" H 2038 850 50  0001 C CNN
F 3 "~" H 2000 1000 50  0001 C CNN
	1    2000 1000
	1    0    0    -1  
$EndComp
$Comp
L Device:C C3
U 1 1 6074CE88
P 1300 1600
F 0 "C3" H 1415 1646 50  0000 L CNN
F 1 "22 nF (Y)" H 1415 1555 50  0000 L CNN
F 2 "" H 1338 1450 50  0001 C CNN
F 3 "~" H 1300 1600 50  0001 C CNN
	1    1300 1600
	1    0    0    -1  
$EndComp
Wire Wire Line
	1150 850  1350 850 
Wire Wire Line
	1150 1050 1350 1050
Wire Wire Line
	1150 950  1300 950 
Wire Wire Line
	1300 950  1300 1450
Wire Wire Line
	1650 850  2000 850 
Wire Wire Line
	1650 1050 1750 1050
Wire Wire Line
	1750 1050 1750 1150
Wire Wire Line
	1750 1150 2000 1150
$Comp
L Device:L_Core_Ferrite_Coupled L1
U 1 1 6074EFA2
P 2850 1000
F 0 "L1" H 2850 1281 50  0000 C CNN
F 1 "2 x 12 mH" H 2850 1190 50  0000 C CNN
F 2 "" H 2850 1000 50  0001 C CNN
F 3 "~" H 2850 1000 50  0001 C CNN
	1    2850 1000
	1    0    0    -1  
$EndComp
Wire Wire Line
	2000 850  2650 850 
Wire Wire Line
	2650 850  2650 900 
Connection ~ 2000 850 
Wire Wire Line
	2000 1150 2650 1150
Wire Wire Line
	2650 1150 2650 1100
Connection ~ 2000 1150
$Comp
L Device:C C2
U 1 1 6074FF9D
P 3250 1000
F 0 "C2" H 3365 1046 50  0000 L CNN
F 1 "0.47 uF (X)" H 3365 955 50  0000 L CNN
F 2 "" H 3288 850 50  0001 C CNN
F 3 "~" H 3250 1000 50  0001 C CNN
	1    3250 1000
	1    0    0    -1  
$EndComp
Wire Wire Line
	3250 850  3050 850 
Wire Wire Line
	3050 850  3050 900 
Wire Wire Line
	3250 1150 3050 1150
Wire Wire Line
	3050 1150 3050 1100
$Comp
L Device:D CR1
U 1 1 60750C23
P 4000 950
F 0 "CR1" V 3954 1030 50  0000 L CNN
F 1 "BY127" V 4045 1030 50  0000 L CNN
F 2 "" H 4000 950 50  0001 C CNN
F 3 "~" H 4000 950 50  0001 C CNN
	1    4000 950 
	0    1    1    0   
$EndComp
$Comp
L Device:D CR2
U 1 1 60751374
P 4400 950
F 0 "CR2" V 4446 870 50  0000 R CNN
F 1 "BY127" V 4355 870 50  0000 R CNN
F 2 "" H 4400 950 50  0001 C CNN
F 3 "~" H 4400 950 50  0001 C CNN
	1    4400 950 
	0    -1   -1   0   
$EndComp
$Comp
L Device:D CR3
U 1 1 60751DA3
P 4000 1450
F 0 "CR3" V 4046 1370 50  0000 R CNN
F 1 "BY127" V 3955 1370 50  0000 R CNN
F 2 "" H 4000 1450 50  0001 C CNN
F 3 "~" H 4000 1450 50  0001 C CNN
	1    4000 1450
	0    -1   -1   0   
$EndComp
$Comp
L Device:D CR4
U 1 1 607522C0
P 4400 1450
F 0 "CR4" V 4354 1530 50  0000 L CNN
F 1 "BY127" V 4445 1530 50  0000 L CNN
F 2 "" H 4400 1450 50  0001 C CNN
F 3 "~" H 4400 1450 50  0001 C CNN
	1    4400 1450
	0    1    1    0   
$EndComp
Wire Wire Line
	4000 800  4000 750 
Wire Wire Line
	4400 750  4400 800 
Wire Wire Line
	4000 1100 3900 1100
Wire Wire Line
	3900 1100 3900 1200
Wire Wire Line
	3900 1300 4000 1300
Wire Wire Line
	4400 1100 4500 1100
Wire Wire Line
	4500 1100 4500 1200
Wire Wire Line
	4500 1300 4400 1300
Wire Wire Line
	4000 1600 4000 1700
Wire Wire Line
	4000 1700 4200 1700
Wire Wire Line
	4400 1700 4400 1600
Wire Wire Line
	4000 750  4200 750 
Wire Wire Line
	4200 750  4200 700 
Wire Wire Line
	4200 700  3250 700 
Wire Wire Line
	3250 700  3250 850 
Connection ~ 4200 750 
Wire Wire Line
	4200 750  4400 750 
Connection ~ 3250 850 
Wire Wire Line
	4200 1700 4200 1800
Wire Wire Line
	4200 1800 3250 1800
Wire Wire Line
	3250 1800 3250 1150
Connection ~ 4200 1700
Wire Wire Line
	4200 1700 4400 1700
Connection ~ 3250 1150
$Comp
L Device:R R1
U 1 1 60755874
P 3750 2050
F 0 "R1" H 3820 2096 50  0000 L CNN
F 1 "12R 11W" H 3820 2005 50  0000 L CNN
F 2 "" V 3680 2050 50  0001 C CNN
F 3 "~" H 3750 2050 50  0001 C CNN
	1    3750 2050
	1    0    0    -1  
$EndComp
Wire Wire Line
	3900 1200 3750 1200
Wire Wire Line
	3750 1200 3750 1900
Connection ~ 3900 1200
Wire Wire Line
	3900 1200 3900 1300
$Comp
L Device:CP C4
U 1 1 6075699A
P 4900 1450
F 0 "C4" H 5018 1496 50  0000 L CNN
F 1 "400 uF" H 5018 1405 50  0000 L CNN
F 2 "" H 4938 1300 50  0001 C CNN
F 3 "~" H 4900 1450 50  0001 C CNN
	1    4900 1450
	1    0    0    -1  
$EndComp
Wire Wire Line
	4500 1200 4900 1200
Wire Wire Line
	4900 1200 4900 1300
Connection ~ 4500 1200
Wire Wire Line
	4500 1200 4500 1300
Wire Wire Line
	3750 2200 3750 2450
Wire Wire Line
	3750 2450 1300 2450
Wire Wire Line
	1300 2450 1300 1750
Wire Wire Line
	3750 2450 4900 2450
Connection ~ 3750 2450
Wire Wire Line
	4900 1600 4900 2450
Connection ~ 4900 2450
$Comp
L Device:R R4
U 1 1 6075BF02
P 5400 1450
F 0 "R4" H 5470 1496 50  0000 L CNN
F 1 "22k" H 5470 1405 50  0000 L CNN
F 2 "" V 5330 1450 50  0001 C CNN
F 3 "~" H 5400 1450 50  0001 C CNN
	1    5400 1450
	1    0    0    -1  
$EndComp
$Comp
L Device:R R5
U 1 1 6075C744
P 5400 2050
F 0 "R5" H 5470 2096 50  0000 L CNN
F 1 "22k" H 5470 2005 50  0000 L CNN
F 2 "" V 5330 2050 50  0001 C CNN
F 3 "~" H 5400 2050 50  0001 C CNN
	1    5400 2050
	1    0    0    -1  
$EndComp
Wire Wire Line
	4900 1200 5400 1200
Connection ~ 4900 1200
Wire Wire Line
	5400 1300 5400 1200
Connection ~ 5400 1200
Wire Wire Line
	5400 1200 5600 1200
Wire Wire Line
	5400 1600 5400 1900
Wire Wire Line
	5400 2200 5400 2650
$Comp
L Device:Fuse F3
U 1 1 60760189
P 5750 1200
F 0 "F3" V 5553 1200 50  0000 C CNN
F 1 "1A" V 5644 1200 50  0000 C CNN
F 2 "" V 5680 1200 50  0001 C CNN
F 3 "~" H 5750 1200 50  0001 C CNN
	1    5750 1200
	0    1    1    0   
$EndComp
$Comp
L Device:L_Core_Ferrite L3
U 1 1 60761EC4
P 9500 1750
F 0 "L3" H 9588 1796 50  0000 L CNN
F 1 "300 uH" H 9588 1705 50  0000 L CNN
F 2 "" H 9500 1750 50  0001 C CNN
F 3 "~" H 9500 1750 50  0001 C CNN
	1    9500 1750
	1    0    0    -1  
$EndComp
$Comp
L Device:R R63
U 1 1 6076330D
P 9950 1550
F 0 "R63" H 10020 1596 50  0000 L CNN
F 1 "47R 5W" H 10020 1505 50  0000 L CNN
F 2 "" V 9880 1550 50  0001 C CNN
F 3 "~" H 9950 1550 50  0001 C CNN
	1    9950 1550
	1    0    0    -1  
$EndComp
$Comp
L Device:D CR19
U 1 1 60763FE8
P 9950 2000
F 0 "CR19" V 9904 2080 50  0000 L CNN
F 1 "RGP10J" V 9995 2080 50  0000 L CNN
F 2 "" H 9950 2000 50  0001 C CNN
F 3 "~" H 9950 2000 50  0001 C CNN
	1    9950 2000
	0    1    1    0   
$EndComp
Wire Wire Line
	9950 1700 9950 1850
Wire Wire Line
	9950 1400 9950 1200
Connection ~ 9950 1200
Wire Wire Line
	9500 1600 9500 1200
Connection ~ 9500 1200
Wire Wire Line
	9500 1200 9950 1200
Wire Wire Line
	9500 1900 9500 2300
Wire Wire Line
	9950 2150 9950 2300
Wire Wire Line
	9950 2300 9500 2300
Connection ~ 9500 2300
Text Notes 10050 1150 0    50   ~ 0
approx. 300V
$Comp
L Device:D CR12
U 1 1 6076EA55
P 8000 2650
F 0 "CR12" H 8000 2850 50  0000 C CNN
F 1 "RGP10J" H 8000 2750 50  0000 C CNN
F 2 "" H 8000 2650 50  0001 C CNN
F 3 "~" H 8000 2650 50  0001 C CNN
	1    8000 2650
	1    0    0    -1  
$EndComp
Wire Wire Line
	5400 2650 2350 2650
$Comp
L Device:D CR11
U 1 1 60771825
P 7800 2950
F 0 "CR11" H 7800 2825 50  0000 C CNN
F 1 "RGP10J" H 7800 2734 50  0000 C CNN
F 2 "" H 7800 2950 50  0001 C CNN
F 3 "~" H 7800 2950 50  0001 C CNN
	1    7800 2950
	1    0    0    -1  
$EndComp
$Comp
L Device:CP C5
U 1 1 6077392C
P 2350 2800
F 0 "C5" H 2468 2846 50  0000 L CNN
F 1 "47 uF" H 2468 2755 50  0000 L CNN
F 2 "" H 2388 2650 50  0001 C CNN
F 3 "~" H 2350 2800 50  0001 C CNN
	1    2350 2800
	1    0    0    -1  
$EndComp
$Comp
L power:GND #PWR?
U 1 1 6077493E
P 2350 3050
F 0 "#PWR?" H 2350 2800 50  0001 C CNN
F 1 "GND" H 2355 2877 50  0000 C CNN
F 2 "" H 2350 3050 50  0001 C CNN
F 3 "" H 2350 3050 50  0001 C CNN
	1    2350 3050
	1    0    0    -1  
$EndComp
Wire Wire Line
	2350 3050 2350 2950
$Comp
L Device:Transformer_1P_2S T1
U 1 1 6077925E
P 1750 7350
F 0 "T1" H 1750 7931 50  0000 C CNN
F 1 "Transformer_1P_2S" H 1750 7840 50  0000 C CNN
F 2 "" H 1750 7350 50  0001 C CNN
F 3 "~" H 1750 7350 50  0001 C CNN
	1    1750 7350
	1    0    0    -1  
$EndComp
$Comp
L Device:C C7
U 1 1 6077AD50
P 950 7200
F 0 "C7" H 1065 7246 50  0000 L CNN
F 1 "3300 pF" H 1065 7155 50  0000 L CNN
F 2 "" H 988 7050 50  0001 C CNN
F 3 "~" H 950 7200 50  0001 C CNN
	1    950  7200
	1    0    0    -1  
$EndComp
$Comp
L Device:R R5
U 1 1 6077B8DB
P 950 7600
F 0 "R5" H 1020 7646 50  0000 L CNN
F 1 "22k" H 1020 7555 50  0000 L CNN
F 2 "" V 880 7600 50  0001 C CNN
F 3 "~" H 950 7600 50  0001 C CNN
	1    950  7600
	1    0    0    -1  
$EndComp
Wire Wire Line
	950  7350 950  7450
Connection ~ 2350 2650
$Comp
L Device:R R6
U 1 1 6078A8FB
P 1350 2800
F 0 "R6" H 1420 2846 50  0000 L CNN
F 1 "270R" H 1420 2755 50  0000 L CNN
F 2 "" V 1280 2800 50  0001 C CNN
F 3 "~" H 1350 2800 50  0001 C CNN
	1    1350 2800
	1    0    0    -1  
$EndComp
Wire Wire Line
	950  7050 950  6950
Wire Wire Line
	1350 7550 1350 7900
Wire Wire Line
	950  7750 950  7900
Wire Wire Line
	950  7900 1350 7900
Connection ~ 1350 7900
$Comp
L Device:Q_NPN_ECB Q2
U 1 1 60794CCC
P 1250 8300
F 0 "Q2" H 1441 8346 50  0000 L CNN
F 1 "BD157" H 1441 8255 50  0000 L CNN
F 2 "" H 1450 8400 50  0001 C CNN
F 3 "~" H 1250 8300 50  0001 C CNN
	1    1250 8300
	1    0    0    -1  
$EndComp
Wire Wire Line
	1350 7900 1350 8100
$Comp
L Device:R R7
U 1 1 60797599
P 700 7450
F 0 "R7" H 770 7496 50  0000 L CNN
F 1 "56k" H 770 7405 50  0000 L CNN
F 2 "" V 630 7450 50  0001 C CNN
F 3 "~" H 700 7450 50  0001 C CNN
	1    700  7450
	1    0    0    -1  
$EndComp
Wire Wire Line
	700  7600 700  8300
Wire Wire Line
	700  8300 1000 8300
$Comp
L Device:D CR5
U 1 1 6079C475
P 1000 8750
F 0 "CR5" V 954 8830 50  0000 L CNN
F 1 "1N4148" V 1045 8830 50  0000 L CNN
F 2 "" H 1000 8750 50  0001 C CNN
F 3 "~" H 1000 8750 50  0001 C CNN
	1    1000 8750
	0    1    1    0   
$EndComp
$Comp
L Device:R R10
U 1 1 6079D098
P 1000 9200
F 0 "R10" H 1070 9246 50  0000 L CNN
F 1 "1k" H 1070 9155 50  0000 L CNN
F 2 "" V 930 9200 50  0001 C CNN
F 3 "~" H 1000 9200 50  0001 C CNN
	1    1000 9200
	1    0    0    -1  
$EndComp
Wire Wire Line
	1000 9050 1000 8900
Wire Wire Line
	1000 8600 1000 8300
Connection ~ 1000 8300
Wire Wire Line
	1000 8300 1050 8300
$Comp
L Device:C C6
U 1 1 607A1B3E
P 1100 3300
F 0 "C6" V 848 3300 50  0000 C CNN
F 1 "0.1 uF" V 939 3300 50  0000 C CNN
F 2 "" H 1138 3150 50  0001 C CNN
F 3 "~" H 1100 3300 50  0001 C CNN
	1    1100 3300
	0    1    1    0   
$EndComp
$Comp
L Device:R R9
U 1 1 607A26C8
P 700 9000
F 0 "R9" H 770 9046 50  0000 L CNN
F 1 "10k" H 770 8955 50  0000 L CNN
F 2 "" V 630 9000 50  0001 C CNN
F 3 "~" H 700 9000 50  0001 C CNN
	1    700  9000
	1    0    0    -1  
$EndComp
Wire Wire Line
	700  8850 700  8300
Connection ~ 700  8300
Wire Wire Line
	700  9150 700  9300
Wire Wire Line
	950  3300 600  3300
Wire Wire Line
	600  9300 700  9300
Connection ~ 700  9300
Wire Wire Line
	700  9300 700  11100
$Comp
L Device:CP C8
U 1 1 607ACA04
P 1000 9800
F 0 "C8" H 1118 9846 50  0000 L CNN
F 1 "220 uF" H 1118 9755 50  0000 L CNN
F 2 "" H 1038 9650 50  0001 C CNN
F 3 "~" H 1000 9800 50  0001 C CNN
	1    1000 9800
	1    0    0    -1  
$EndComp
$Comp
L Device:Q_PNP_CBE Q3
U 1 1 607B8CDD
P 1850 9550
F 0 "Q3" V 2178 9550 50  0000 C CNN
F 1 "BC490" V 2087 9550 50  0000 C CNN
F 2 "" H 2050 9650 50  0001 C CNN
F 3 "~" H 1850 9550 50  0001 C CNN
	1    1850 9550
	0    1    -1   0   
$EndComp
$Comp
L Device:R R12
U 1 1 607BD4FE
P 1600 9950
F 0 "R12" V 1393 9950 50  0000 C CNN
F 1 "820R" V 1484 9950 50  0000 C CNN
F 2 "" V 1530 9950 50  0001 C CNN
F 3 "~" H 1600 9950 50  0001 C CNN
	1    1600 9950
	0    1    1    0   
$EndComp
$Comp
L Diode:1N47xxA CR6
U 1 1 607BE14D
P 1450 10200
F 0 "CR6" V 1404 10120 50  0000 R CNN
F 1 "1N4742ARL" V 1495 10120 50  0000 R CNN
F 2 "Diode_THT:D_DO-41_SOD81_P10.16mm_Horizontal" H 1450 10025 50  0001 C CNN
F 3 "https://www.vishay.com/docs/85816/1n4728a.pdf" H 1450 10200 50  0001 C CNN
	1    1450 10200
	0    1    1    0   
$EndComp
$Comp
L Device:R R11
U 1 1 607BEC21
P 1450 10850
F 0 "R11" H 1381 10896 50  0000 R CNN
F 1 "1k" H 1381 10805 50  0000 R CNN
F 2 "" V 1380 10850 50  0001 C CNN
F 3 "~" H 1450 10850 50  0001 C CNN
	1    1450 10850
	1    0    0    -1  
$EndComp
Wire Wire Line
	1450 11000 1450 11100
Connection ~ 1450 11100
Wire Wire Line
	1450 11100 1850 11100
Wire Wire Line
	1450 10700 1450 10650
Wire Wire Line
	1450 10050 1450 9950
Connection ~ 1450 9950
$Comp
L Device:R R13
U 1 1 607CBF0E
P 1850 10200
F 0 "R13" H 1920 10246 50  0000 L CNN
F 1 "4k7" H 1920 10155 50  0000 L CNN
F 2 "" V 1780 10200 50  0001 C CNN
F 3 "~" H 1850 10200 50  0001 C CNN
	1    1850 10200
	1    0    0    -1  
$EndComp
Wire Wire Line
	1850 10050 1850 9950
Wire Wire Line
	1750 9950 1850 9950
Connection ~ 1850 9950
$Comp
L Transistor_BJT:BC548 Q4
U 1 1 607D3771
P 1750 10650
F 0 "Q4" H 1941 10696 50  0000 L CNN
F 1 "BC548B" H 1941 10605 50  0000 L CNN
F 2 "Package_TO_SOT_THT:TO-92_Inline" H 1950 10575 50  0001 L CIN
F 3 "https://www.onsemi.com/pub/Collateral/BC550-D.pdf" H 1750 10650 50  0001 L CNN
	1    1750 10650
	1    0    0    -1  
$EndComp
Wire Wire Line
	1550 10650 1450 10650
Connection ~ 1450 10650
Wire Wire Line
	1450 10650 1450 10350
Wire Wire Line
	1850 10450 1850 10350
Wire Wire Line
	1850 10850 1850 11100
Connection ~ 1850 11100
Wire Wire Line
	1850 11100 2500 11100
Wire Wire Line
	700  11100 1000 11100
Wire Wire Line
	1000 9950 1000 11100
Connection ~ 1000 11100
Wire Wire Line
	1000 11100 1450 11100
$Comp
L Device:R R14
U 1 1 60801225
P 2150 10200
F 0 "R14" H 2220 10246 50  0000 L CNN
F 1 "6k8" H 2220 10155 50  0000 L CNN
F 2 "" V 2080 10200 50  0001 C CNN
F 3 "~" H 2150 10200 50  0001 C CNN
	1    2150 10200
	1    0    0    -1  
$EndComp
Wire Wire Line
	2150 10350 2150 10650
Connection ~ 1550 10650
Wire Wire Line
	1550 10650 1550 10950
Wire Wire Line
	1550 10950 2150 10950
$Comp
L Device:C C9
U 1 1 6080F14C
P 2350 9800
F 0 "C9" H 2465 9846 50  0000 L CNN
F 1 "0.01 uF" H 2465 9755 50  0000 L CNN
F 2 "" H 2388 9650 50  0001 C CNN
F 3 "~" H 2350 9800 50  0001 C CNN
	1    2350 9800
	1    0    0    -1  
$EndComp
Connection ~ 2150 10650
Wire Wire Line
	2150 10650 2150 10950
$Comp
L Device:CP C10
U 1 1 60818C16
P 2500 10200
F 0 "C10" H 2618 10246 50  0000 L CNN
F 1 "2.2 uF" H 2618 10155 50  0000 L CNN
F 2 "" H 2538 10050 50  0001 C CNN
F 3 "~" H 2500 10200 50  0001 C CNN
	1    2500 10200
	1    0    0    -1  
$EndComp
$Comp
L Device:R_POT_TRIM R16
U 1 1 60827700
P 2900 10750
F 0 "R16" H 2831 10796 50  0000 R CNN
F 1 "10k" H 2831 10705 50  0000 R CNN
F 2 "" H 2900 10750 50  0001 C CNN
F 3 "~" H 2900 10750 50  0001 C CNN
	1    2900 10750
	1    0    0    -1  
$EndComp
$Comp
L Device:R R17
U 1 1 60836D43
P 3300 10750
F 0 "R17" V 3093 10750 50  0000 C CNN
F 1 "15k" V 3184 10750 50  0000 C CNN
F 2 "" V 3230 10750 50  0001 C CNN
F 3 "~" H 3300 10750 50  0001 C CNN
	1    3300 10750
	0    1    1    0   
$EndComp
Wire Wire Line
	3150 10750 3050 10750
Text Notes 2600 10950 0    50   ~ 0
h. freq.
$Comp
L Device:R R18
U 1 1 60842AC3
P 3450 10350
F 0 "R18" H 3520 10396 50  0000 L CNN
F 1 "27k" H 3520 10305 50  0000 L CNN
F 2 "" V 3380 10350 50  0001 C CNN
F 3 "~" H 3450 10350 50  0001 C CNN
	1    3450 10350
	1    0    0    -1  
$EndComp
Wire Wire Line
	1350 8500 1350 9450
$Comp
L Device:C C11
U 1 1 6085D1B0
P 2800 8600
F 0 "C11" V 2548 8600 50  0000 C CNN
F 1 "0.1 uF" V 2639 8600 50  0000 C CNN
F 2 "" H 2838 8450 50  0001 C CNN
F 3 "~" H 2800 8600 50  0001 C CNN
	1    2800 8600
	0    1    1    0   
$EndComp
Wire Wire Line
	2650 8600 1000 8600
Connection ~ 1000 8600
$Comp
L Device:R R15
U 1 1 60864295
P 3400 8600
F 0 "R15" V 3193 8600 50  0000 C CNN
F 1 "330R" V 3284 8600 50  0000 C CNN
F 2 "" V 3330 8600 50  0001 C CNN
F 3 "~" H 3400 8600 50  0001 C CNN
	1    3400 8600
	0    1    1    0   
$EndComp
Wire Wire Line
	3250 8600 2950 8600
NoConn ~ 8400 10150
NoConn ~ 8400 9950
$Comp
L Device:C C14
U 1 1 6088A8CA
P 8900 10750
F 0 "C14" H 9015 10796 50  0000 L CNN
F 1 "33 nF" H 9015 10705 50  0000 L CNN
F 2 "" H 8938 10600 50  0001 C CNN
F 3 "~" H 8900 10750 50  0001 C CNN
	1    8900 10750
	1    0    0    -1  
$EndComp
$Comp
L Device:C C15
U 1 1 6089D88C
P 9400 10750
F 0 "C15" H 9515 10796 50  0000 L CNN
F 1 "0.1 uF" H 9515 10705 50  0000 L CNN
F 2 "" H 9438 10600 50  0001 C CNN
F 3 "~" H 9400 10750 50  0001 C CNN
	1    9400 10750
	1    0    0    -1  
$EndComp
$Comp
L Device:R R29
U 1 1 6089E465
P 9400 10300
F 0 "R29" H 9470 10346 50  0000 L CNN
F 1 "2k7" H 9470 10255 50  0000 L CNN
F 2 "" V 9330 10300 50  0001 C CNN
F 3 "~" H 9400 10300 50  0001 C CNN
	1    9400 10300
	1    0    0    -1  
$EndComp
$Comp
L Device:R R22
U 1 1 608B2131
P 10550 9700
F 0 "R22" H 10620 9746 50  0000 L CNN
F 1 "33k" H 10620 9655 50  0000 L CNN
F 2 "" V 10480 9700 50  0001 C CNN
F 3 "~" H 10550 9700 50  0001 C CNN
	1    10550 9700
	1    0    0    -1  
$EndComp
$Comp
L Device:C C13
U 1 1 608E8129
P 9800 10300
F 0 "C13" H 9915 10346 50  0000 L CNN
F 1 "10 nF" H 9915 10255 50  0000 L CNN
F 2 "" H 9838 10150 50  0001 C CNN
F 3 "~" H 9800 10300 50  0001 C CNN
	1    9800 10300
	1    0    0    -1  
$EndComp
$Comp
L Device:C C12
U 1 1 608F6501
P 10250 10300
F 0 "C12" H 10365 10346 50  0000 L CNN
F 1 "8200 pF" H 10365 10255 50  0000 L CNN
F 2 "" H 10288 10150 50  0001 C CNN
F 3 "~" H 10250 10300 50  0001 C CNN
	1    10250 10300
	1    0    0    -1  
$EndComp
$Comp
L Device:R R21
U 1 1 60906457
P 10800 10300
F 0 "R21" H 10870 10346 50  0000 L CNN
F 1 "2k7" H 10870 10255 50  0000 L CNN
F 2 "" V 10730 10300 50  0001 C CNN
F 3 "~" H 10800 10300 50  0001 C CNN
	1    10800 10300
	1    0    0    -1  
$EndComp
$Comp
L Device:R R19
U 1 1 60926872
P 3700 10750
F 0 "R19" V 3493 10750 50  0000 C CNN
F 1 "15k" V 3584 10750 50  0000 C CNN
F 2 "" V 3630 10750 50  0001 C CNN
F 3 "~" H 3700 10750 50  0001 C CNN
	1    3700 10750
	0    1    1    0   
$EndComp
$Comp
L TBA920:TBA920 U1
U 1 1 608541B3
P 7650 9800
F 0 "U1" H 7650 10515 50  0000 C CNN
F 1 "TBA920" H 7650 10424 50  0000 C CNN
F 2 "MODULE" H 7650 9800 50  0001 C CNN
F 3 "DOCUMENTATION" H 7650 9800 50  0001 C CNN
	1    7650 9800
	1    0    0    -1  
$EndComp
$Comp
L Device:R R23
U 1 1 609414B7
P 4650 9650
F 0 "R23" V 4765 9650 50  0000 C CNN
F 1 "270k" V 4856 9650 50  0000 C CNN
F 2 "" V 4580 9650 50  0001 C CNN
F 3 "~" H 4650 9650 50  0001 C CNN
	1    4650 9650
	0    1    1    0   
$EndComp
Connection ~ 3450 10750
Wire Wire Line
	3450 10750 3550 10750
$Comp
L Device:R R24
U 1 1 60989DA6
P 6150 10350
F 0 "R24" H 6080 10304 50  0000 R CNN
F 1 "33k" H 6080 10395 50  0000 R CNN
F 2 "" V 6080 10350 50  0001 C CNN
F 3 "~" H 6150 10350 50  0001 C CNN
	1    6150 10350
	-1   0    0    1   
$EndComp
$Comp
L Device:R_POT_TRIM R20
U 1 1 6099E0F2
P 4200 10150
F 0 "R20" H 4130 10196 50  0000 R CNN
F 1 "10k" H 4130 10105 50  0000 R CNN
F 2 "" H 4200 10150 50  0001 C CNN
F 3 "~" H 4200 10150 50  0001 C CNN
	1    4200 10150
	1    0    0    -1  
$EndComp
Wire Wire Line
	2350 10650 2150 10650
Wire Wire Line
	2350 9950 2350 10650
Wire Wire Line
	2500 10350 2500 11100
Connection ~ 2500 11100
Wire Wire Line
	2500 11100 2900 11100
Wire Wire Line
	2900 10900 2900 11100
Connection ~ 2900 11100
Wire Wire Line
	3450 10500 3450 10750
$Comp
L Device:C C16
U 1 1 60A945D0
P 5400 10450
F 0 "C16" H 5515 10496 50  0000 L CNN
F 1 "10 nF" H 5515 10405 50  0000 L CNN
F 2 "" H 5438 10300 50  0001 C CNN
F 3 "~" H 5400 10450 50  0001 C CNN
	1    5400 10450
	1    0    0    -1  
$EndComp
$Comp
L Device:C C17
U 1 1 60A9F649
P 6150 10750
F 0 "C17" H 6265 10796 50  0000 L CNN
F 1 "10 nF" H 6265 10705 50  0000 L CNN
F 2 "" H 6188 10600 50  0001 C CNN
F 3 "~" H 6150 10750 50  0001 C CNN
	1    6150 10750
	1    0    0    -1  
$EndComp
$Comp
L Device:R R25
U 1 1 60AB513A
P 5400 9600
F 0 "R25" H 5470 9646 50  0000 L CNN
F 1 "2M2" H 5470 9555 50  0000 L CNN
F 2 "" V 5330 9600 50  0001 C CNN
F 3 "~" H 5400 9600 50  0001 C CNN
	1    5400 9600
	1    0    0    -1  
$EndComp
$Comp
L Device:R R28
U 1 1 60ACBA55
P 5800 10000
F 0 "R28" H 5870 10046 50  0000 L CNN
F 1 "2M2" H 5870 9955 50  0000 L CNN
F 2 "" V 5730 10000 50  0001 C CNN
F 3 "~" H 5800 10000 50  0001 C CNN
	1    5800 10000
	1    0    0    -1  
$EndComp
$Comp
L Device:R R26
U 1 1 60AE209B
P 6600 10350
F 0 "R26" H 6670 10396 50  0000 L CNN
F 1 "4k7" H 6670 10305 50  0000 L CNN
F 2 "" V 6530 10350 50  0001 C CNN
F 3 "~" H 6600 10350 50  0001 C CNN
	1    6600 10350
	1    0    0    -1  
$EndComp
$Comp
L Device:R R27
U 1 1 60AF9A9E
P 5100 10050
F 0 "R27" V 5215 10050 50  0000 C CNN
F 1 "4k7" V 5306 10050 50  0000 C CNN
F 2 "" V 5030 10050 50  0001 C CNN
F 3 "~" H 5100 10050 50  0001 C CNN
	1    5100 10050
	0    1    1    0   
$EndComp
$Comp
L Device:C C18
U 1 1 60B121BF
P 4700 10050
F 0 "C18" V 4860 10050 50  0000 C CNN
F 1 "220 pF" V 4951 10050 50  0000 C CNN
F 2 "" H 4738 9900 50  0001 C CNN
F 3 "~" H 4700 10050 50  0001 C CNN
	1    4700 10050
	0    1    1    0   
$EndComp
$Comp
L Isolator:CNY17-2 U2
U 1 1 60B2D781
P 13150 8900
F 0 "U2" H 13150 9225 50  0000 C CNN
F 1 "CNY17-2" H 13150 9134 50  0000 C CNN
F 2 "" H 13150 8900 50  0001 L CNN
F 3 "http://www.vishay.com/docs/83606/cny17.pdf" H 13150 8900 50  0001 L CNN
	1    13150 8900
	-1   0    0    -1  
$EndComp
$Comp
L Connector:Conn_01x03_Female W5
U 1 1 60B2F1F2
P 15150 8900
F 0 "W5" H 15050 9200 50  0000 L CNN
F 1 "from CRT controller" H 14900 9100 50  0000 L CNN
F 2 "" H 15150 8900 50  0001 C CNN
F 3 "~" H 15150 8900 50  0001 C CNN
	1    15150 8900
	1    0    0    -1  
$EndComp
$Comp
L Device:R R37
U 1 1 60B31696
P 14450 8800
F 0 "R37" V 14243 8800 50  0000 C CNN
F 1 "68R" V 14334 8800 50  0000 C CNN
F 2 "" V 14380 8800 50  0001 C CNN
F 3 "~" H 14450 8800 50  0001 C CNN
	1    14450 8800
	0    1    1    0   
$EndComp
$Comp
L Device:R R36
U 1 1 60B33C7B
P 14000 8800
F 0 "R36" V 13793 8800 50  0000 C CNN
F 1 "1k5" V 13884 8800 50  0000 C CNN
F 2 "" V 13930 8800 50  0001 C CNN
F 3 "~" H 14000 8800 50  0001 C CNN
	1    14000 8800
	0    1    1    0   
$EndComp
Wire Wire Line
	14150 8800 14250 8800
$Comp
L Device:C C21
U 1 1 60B4071B
P 14000 9000
F 0 "C21" V 14160 9000 50  0000 C CNN
F 1 "22 nF" V 14251 9000 50  0000 C CNN
F 2 "" H 14038 8850 50  0001 C CNN
F 3 "~" H 14000 9000 50  0001 C CNN
	1    14000 9000
	0    1    1    0   
$EndComp
Wire Wire Line
	14150 9000 14250 9000
Wire Wire Line
	14250 9000 14250 8800
Connection ~ 14250 8800
Wire Wire Line
	14250 8800 14300 8800
Wire Wire Line
	13850 8800 13750 8800
Wire Wire Line
	13850 9000 13750 9000
Wire Wire Line
	13750 9000 13750 8800
Wire Wire Line
	13550 9300 13550 9000
Wire Wire Line
	13550 9000 13450 9000
Wire Wire Line
	13450 8800 13750 8800
Wire Wire Line
	14600 8800 14700 8800
Wire Wire Line
	14700 8800 14700 9000
Wire Wire Line
	14700 9000 14750 9000
Wire Wire Line
	14950 8900 14550 8900
Wire Wire Line
	14550 8900 14550 9300
Wire Wire Line
	14550 9300 13550 9300
$Comp
L Device:R R35
U 1 1 60BBB487
P 12600 8800
F 0 "R35" V 12393 8800 50  0000 C CNN
F 1 "100k" V 12484 8800 50  0000 C CNN
F 2 "" V 12530 8800 50  0001 C CNN
F 3 "~" H 12600 8800 50  0001 C CNN
	1    12600 8800
	0    1    1    0   
$EndComp
Wire Wire Line
	12750 8800 12850 8800
$Comp
L Device:R R31
U 1 1 60BC9339
P 11150 10100
F 0 "R31" H 11220 10146 50  0000 L CNN
F 1 "100R" H 11220 10055 50  0000 L CNN
F 2 "" V 11080 10100 50  0001 C CNN
F 3 "~" H 11150 10100 50  0001 C CNN
	1    11150 10100
	1    0    0    -1  
$EndComp
$Comp
L Device:R R30
U 1 1 60BD7226
P 10000 8900
F 0 "R30" V 9793 8900 50  0000 C CNN
F 1 "4k7" V 9884 8900 50  0000 C CNN
F 2 "" V 9930 8900 50  0001 C CNN
F 3 "~" H 10000 8900 50  0001 C CNN
	1    10000 8900
	0    1    1    0   
$EndComp
$Comp
L Device:C C19
U 1 1 60C2AF97
P 9450 8900
F 0 "C19" V 9198 8900 50  0000 C CNN
F 1 "1 nF" V 9289 8900 50  0000 C CNN
F 2 "" H 9488 8750 50  0001 C CNN
F 3 "~" H 9450 8900 50  0001 C CNN
	1    9450 8900
	0    1    1    0   
$EndComp
Wire Wire Line
	12850 9050 12850 9000
Connection ~ 13750 8800
Wire Wire Line
	12450 8800 12350 8800
Wire Wire Line
	12350 8800 12350 9050
Connection ~ 12350 9050
Wire Wire Line
	12350 9050 12850 9050
$Comp
L Device:Q_NPN_BEC Q14
U 1 1 60CD5419
P 13600 7850
F 0 "Q14" H 13791 7896 50  0000 L CNN
F 1 "BU208" H 13791 7805 50  0000 L CNN
F 2 "" H 13800 7950 50  0001 C CNN
F 3 "~" H 13600 7850 50  0001 C CNN
	1    13600 7850
	1    0    0    -1  
$EndComp
$Comp
L Connector:Conn_01x06_Female W4
U 1 1 60CD7925
P 15150 7850
F 0 "W4" H 15178 7826 50  0000 L CNN
F 1 "Conn_01x06_Female" H 15178 7735 50  0000 L CNN
F 2 "" H 15150 7850 50  0001 C CNN
F 3 "~" H 15150 7850 50  0001 C CNN
	1    15150 7850
	1    0    0    -1  
$EndComp
$Comp
L Device:D CR20
U 1 1 60CD8744
P 14100 7900
F 0 "CR20" V 14054 7980 50  0000 L CNN
F 1 "BY127" V 14145 7980 50  0000 L CNN
F 2 "" H 14100 7900 50  0001 C CNN
F 3 "~" H 14100 7900 50  0001 C CNN
	1    14100 7900
	0    1    1    0   
$EndComp
$Comp
L Device:C C33
U 1 1 60CEABAC
P 14500 7900
F 0 "C33" H 14615 7946 50  0000 L CNN
F 1 "10 nF" H 14615 7855 50  0000 L CNN
F 2 "" H 14538 7750 50  0001 C CNN
F 3 "~" H 14500 7900 50  0001 C CNN
	1    14500 7900
	1    0    0    -1  
$EndComp
$Comp
L Device:R R65
U 1 1 60CEBAA5
P 13250 8100
F 0 "R65" H 13320 8146 50  0000 L CNN
F 1 "100R" H 13320 8055 50  0000 L CNN
F 2 "" V 13180 8100 50  0001 C CNN
F 3 "~" H 13250 8100 50  0001 C CNN
	1    13250 8100
	1    0    0    -1  
$EndComp
Wire Wire Line
	13250 8350 13700 8350
Wire Wire Line
	13700 8050 13700 8350
Connection ~ 13700 8350
Wire Wire Line
	13700 8350 14100 8350
Wire Wire Line
	14100 8050 14100 8350
Connection ~ 14100 8350
Wire Wire Line
	14100 8350 14500 8350
Wire Wire Line
	14500 8050 14500 8350
Wire Wire Line
	13250 8250 13250 8350
Wire Wire Line
	13250 7950 13250 7850
Wire Wire Line
	13250 7850 13400 7850
$Comp
L Device:L_Core_Ferrite L5
U 1 1 60D4C99E
P 12950 7850
F 0 "L5" V 12769 7850 50  0000 C CNN
F 1 "Base" V 12860 7850 50  0000 C CNN
F 2 "" H 12950 7850 50  0001 C CNN
F 3 "~" H 12950 7850 50  0001 C CNN
	1    12950 7850
	0    1    1    0   
$EndComp
Wire Wire Line
	13100 7850 13250 7850
Connection ~ 13250 7850
$Comp
L Device:R R64
U 1 1 60D5E1FD
P 12550 7850
F 0 "R64" V 12343 7850 50  0000 C CNN
F 1 "1R 2W" V 12434 7850 50  0000 C CNN
F 2 "" V 12480 7850 50  0001 C CNN
F 3 "~" H 12550 7850 50  0001 C CNN
	1    12550 7850
	0    1    1    0   
$EndComp
Wire Wire Line
	12700 7850 12800 7850
Connection ~ 13250 8350
Wire Wire Line
	13700 7650 14100 7650
Wire Wire Line
	14650 7650 14650 8150
Wire Wire Line
	14650 8150 14850 8150
Wire Wire Line
	14950 8050 14850 8050
Wire Wire Line
	14850 8050 14850 8150
Connection ~ 14850 8150
Wire Wire Line
	14850 8150 14950 8150
Wire Wire Line
	14500 7750 14500 7650
Connection ~ 14500 7650
Wire Wire Line
	14500 7650 14650 7650
Wire Wire Line
	14100 7750 14100 7650
Connection ~ 14100 7650
Wire Wire Line
	14100 7650 14500 7650
$Comp
L Device:R R32
U 1 1 60DEF98F
P 5100 8300
F 0 "R32" V 4893 8300 50  0000 C CNN
F 1 "100k" V 4984 8300 50  0000 C CNN
F 2 "" V 5030 8300 50  0001 C CNN
F 3 "~" H 5100 8300 50  0001 C CNN
	1    5100 8300
	0    1    1    0   
$EndComp
$Comp
L Device:R R33
U 1 1 60DF1380
P 5550 8300
F 0 "R33" V 5343 8300 50  0000 C CNN
F 1 "100k" V 5434 8300 50  0000 C CNN
F 2 "" V 5480 8300 50  0001 C CNN
F 3 "~" H 5550 8300 50  0001 C CNN
	1    5550 8300
	0    1    1    0   
$EndComp
$Comp
L Device:R R34
U 1 1 60DF23DA
P 6000 8300
F 0 "R34" V 5793 8300 50  0000 C CNN
F 1 "100k" V 5884 8300 50  0000 C CNN
F 2 "" V 5930 8300 50  0001 C CNN
F 3 "~" H 6000 8300 50  0001 C CNN
	1    6000 8300
	0    1    1    0   
$EndComp
$Comp
L Device:C C34
U 1 1 60DF52C9
P 6450 8300
F 0 "C34" V 6198 8300 50  0000 C CNN
F 1 "820 pF" V 6289 8300 50  0000 C CNN
F 2 "" H 6488 8150 50  0001 C CNN
F 3 "~" H 6450 8300 50  0001 C CNN
	1    6450 8300
	0    1    1    0   
$EndComp
Wire Wire Line
	14650 8300 14650 8150
Connection ~ 14650 8150
Wire Wire Line
	2150 7750 2150 7900
Wire Wire Line
	2150 7900 7250 7900
Wire Wire Line
	2150 7450 2300 7450
Wire Wire Line
	2300 7450 2300 7850
Wire Notes Line
	12100 8550 14800 8550
Wire Notes Line
	14800 8550 14800 9500
Wire Notes Line
	14800 9500 12100 9500
Wire Notes Line
	12100 9500 12100 8550
Text Notes 12150 9450 0    50   ~ 0
horizontal sync. optocoupler
Text Notes 15150 9100 0    50   ~ 0
+ 5V
Text Notes 15200 8950 0    50   ~ 0
- H. sync
Wire Notes Line
	14750 8450 12250 8450
Wire Notes Line
	12250 8450 12250 7600
Wire Notes Line
	12250 7600 14750 7600
Wire Notes Line
	14750 7600 14750 8450
Text Notes 12300 8450 0    50   ~ 0
horizontal output
Wire Wire Line
	600  3300 600  9300
Wire Wire Line
	950  6950 1350 6950
Connection ~ 1350 6950
Wire Wire Line
	1350 6950 1350 7150
Wire Wire Line
	700  2650 700  7300
Connection ~ 1350 2650
Wire Wire Line
	1350 2650 2350 2650
Wire Wire Line
	1350 2950 1350 3300
Wire Wire Line
	700  2650 1350 2650
Wire Wire Line
	1250 3300 1350 3300
Connection ~ 1350 3300
Wire Wire Line
	1350 3300 1350 6950
$Comp
L Device:D CR8
U 1 1 60F942B3
P 2350 3600
F 0 "CR8" H 2350 3383 50  0000 C CNN
F 1 "RGP10J" H 2350 3474 50  0000 C CNN
F 2 "" H 2350 3600 50  0001 C CNN
F 3 "~" H 2350 3600 50  0001 C CNN
	1    2350 3600
	-1   0    0    1   
$EndComp
Wire Wire Line
	2150 6950 2150 6750
Wire Wire Line
	2150 3600 2200 3600
$Comp
L Device:D CR7
U 1 1 60FAF3BD
P 2700 7650
F 0 "CR7" H 2700 7867 50  0000 C CNN
F 1 "RGP10J" H 2700 7776 50  0000 C CNN
F 2 "" H 2700 7650 50  0001 C CNN
F 3 "~" H 2700 7650 50  0001 C CNN
	1    2700 7650
	1    0    0    -1  
$EndComp
Wire Wire Line
	2450 6750 2150 6750
Connection ~ 2150 6750
Wire Wire Line
	2150 6750 2150 5550
$Comp
L Device:CP C24
U 1 1 60FC7D67
P 3000 7450
F 0 "C24" H 3118 7496 50  0000 L CNN
F 1 "22 uF" H 3118 7405 50  0000 L CNN
F 2 "" H 3038 7300 50  0001 C CNN
F 3 "~" H 3000 7450 50  0001 C CNN
	1    3000 7450
	1    0    0    -1  
$EndComp
Wire Wire Line
	2150 7250 2600 7250
Wire Wire Line
	2550 7650 2450 7650
Wire Wire Line
	2450 6750 2450 7200
Wire Wire Line
	2850 7650 3000 7650
Wire Wire Line
	3000 7600 3000 7650
Connection ~ 3000 7650
$Comp
L Transistor_BJT:BC548 Q5
U 1 1 610739A1
P 3100 6050
F 0 "Q5" H 3291 6096 50  0000 L CNN
F 1 "BC548B" H 3291 6005 50  0000 L CNN
F 2 "Package_TO_SOT_THT:TO-92_Inline" H 3300 5975 50  0001 L CIN
F 3 "https://www.onsemi.com/pub/Collateral/BC550-D.pdf" H 3100 6050 50  0001 L CNN
	1    3100 6050
	1    0    0    -1  
$EndComp
$Comp
L Device:R R39
U 1 1 6107533D
P 2800 6400
F 0 "R39" H 2870 6446 50  0000 L CNN
F 1 "470R" H 2870 6355 50  0000 L CNN
F 2 "" V 2730 6400 50  0001 C CNN
F 3 "~" H 2800 6400 50  0001 C CNN
	1    2800 6400
	1    0    0    -1  
$EndComp
$Comp
L Device:R R38
U 1 1 6107752A
P 2800 5800
F 0 "R38" H 2870 5846 50  0000 L CNN
F 1 "1k5" H 2870 5755 50  0000 L CNN
F 2 "" V 2730 5800 50  0001 C CNN
F 3 "~" H 2800 5800 50  0001 C CNN
	1    2800 5800
	1    0    0    -1  
$EndComp
$Comp
L Device:C C22
U 1 1 61079774
P 2450 5550
F 0 "C22" V 2198 5550 50  0000 C CNN
F 1 "470 pF" V 2289 5550 50  0000 C CNN
F 2 "" H 2488 5400 50  0001 C CNN
F 3 "~" H 2450 5550 50  0001 C CNN
	1    2450 5550
	0    1    1    0   
$EndComp
Wire Wire Line
	2300 5550 2150 5550
Connection ~ 2150 5550
Wire Wire Line
	2150 5550 2150 3600
Wire Wire Line
	2600 5550 2800 5550
Wire Wire Line
	2800 5550 2800 5650
Wire Wire Line
	2800 5950 2800 6050
Wire Wire Line
	2900 6050 2800 6050
Connection ~ 2800 6050
Wire Wire Line
	2800 6050 2800 6250
Wire Wire Line
	2800 6550 2800 6800
Wire Wire Line
	3200 6250 3200 6800
$Comp
L Device:CP C23
U 1 1 6112B324
P 2700 4500
F 0 "C23" H 2818 4546 50  0000 L CNN
F 1 "22 uF" H 2818 4455 50  0000 L CNN
F 2 "" H 2738 4350 50  0001 C CNN
F 3 "~" H 2700 4500 50  0001 C CNN
	1    2700 4500
	1    0    0    -1  
$EndComp
Wire Wire Line
	2500 3600 2700 3600
Wire Wire Line
	2700 4350 2700 3600
Connection ~ 2700 3600
Wire Wire Line
	2700 3600 3200 3600
Wire Wire Line
	2700 4650 2700 6800
$Comp
L Device:R R40
U 1 1 6117B9CD
P 3200 4500
F 0 "R40" H 3270 4546 50  0000 L CNN
F 1 "10k" H 3270 4455 50  0000 L CNN
F 2 "" V 3130 4500 50  0001 C CNN
F 3 "~" H 3200 4500 50  0001 C CNN
	1    3200 4500
	1    0    0    -1  
$EndComp
Wire Wire Line
	3200 4350 3200 3600
Connection ~ 3200 3600
Wire Wire Line
	3200 3600 4700 3600
Wire Wire Line
	3200 4650 3200 5750
$Comp
L Device:C C26
U 1 1 611B34DB
P 3500 6500
F 0 "C26" H 3615 6546 50  0000 L CNN
F 1 "10 nF" H 3615 6455 50  0000 L CNN
F 2 "" H 3538 6350 50  0001 C CNN
F 3 "~" H 3500 6500 50  0001 C CNN
	1    3500 6500
	1    0    0    -1  
$EndComp
Wire Wire Line
	3200 5750 3500 5750
Connection ~ 3200 5750
Wire Wire Line
	3200 5750 3200 5850
Wire Wire Line
	3500 6350 3500 5750
Wire Wire Line
	3500 6650 3500 6800
$Comp
L Device:R R41
U 1 1 61208165
P 3900 5750
F 0 "R41" V 3693 5750 50  0000 C CNN
F 1 "100R" V 3784 5750 50  0000 C CNN
F 2 "" V 3830 5750 50  0001 C CNN
F 3 "~" H 3900 5750 50  0001 C CNN
	1    3900 5750
	0    1    1    0   
$EndComp
Wire Wire Line
	3750 5750 3500 5750
Connection ~ 3500 5750
$Comp
L Transistor_BJT:BC558 Q6
U 1 1 612276D7
P 4400 5750
F 0 "Q6" H 4200 5500 50  0000 L CNN
F 1 "BC558" H 4200 5600 50  0000 L CNN
F 2 "Package_TO_SOT_THT:TO-92_Inline" H 4600 5675 50  0001 L CIN
F 3 "https://www.onsemi.com/pub/Collateral/BC556BTA-D.pdf" H 4400 5750 50  0001 L CNN
	1    4400 5750
	1    0    0    1   
$EndComp
$Comp
L Transistor_BJT:BC558 Q7
U 1 1 6124470E
P 5050 5750
F 0 "Q7" H 4950 5500 50  0000 L CNN
F 1 "BC558" H 4800 5600 50  0000 L CNN
F 2 "Package_TO_SOT_THT:TO-92_Inline" H 5250 5675 50  0001 L CIN
F 3 "https://www.onsemi.com/pub/Collateral/BC556BTA-D.pdf" H 5050 5750 50  0001 L CNN
	1    5050 5750
	-1   0    0    1   
$EndComp
Wire Wire Line
	4200 5750 4050 5750
Wire Wire Line
	4500 5550 4700 5550
Wire Wire Line
	3000 7650 4500 7650
Wire Wire Line
	4500 5950 4500 7650
Connection ~ 4500 7650
Wire Wire Line
	4500 7650 4950 7650
$Comp
L Device:R R44
U 1 1 612BAB3D
P 4700 4500
F 0 "R44" H 4770 4546 50  0000 L CNN
F 1 "470R" H 4770 4455 50  0000 L CNN
F 2 "" V 4630 4500 50  0001 C CNN
F 3 "~" H 4700 4500 50  0001 C CNN
	1    4700 4500
	1    0    0    -1  
$EndComp
Wire Wire Line
	4700 4650 4700 5550
Connection ~ 4700 5550
Wire Wire Line
	4700 5550 4950 5550
Wire Wire Line
	4700 4350 4700 3600
Connection ~ 4700 3600
Wire Wire Line
	4700 3600 5400 3600
Wire Wire Line
	5250 5750 5400 5750
$Comp
L Device:R R46
U 1 1 613343B1
P 5400 5500
F 0 "R46" H 5470 5546 50  0000 L CNN
F 1 "3k9" H 5470 5455 50  0000 L CNN
F 2 "" V 5330 5500 50  0001 C CNN
F 3 "~" H 5400 5500 50  0001 C CNN
	1    5400 5500
	1    0    0    -1  
$EndComp
$Comp
L Device:R R45
U 1 1 61334EFD
P 5400 5050
F 0 "R45" H 5470 5096 50  0000 L CNN
F 1 "3k9" H 5470 5005 50  0000 L CNN
F 2 "" V 5330 5050 50  0001 C CNN
F 3 "~" H 5400 5050 50  0001 C CNN
	1    5400 5050
	1    0    0    -1  
$EndComp
Wire Wire Line
	5400 5650 5400 5750
Wire Wire Line
	5400 5350 5400 5250
$Comp
L Device:C C27
U 1 1 61373550
P 5400 4200
F 0 "C27" H 5515 4246 50  0000 L CNN
F 1 "0.47 uF" H 5515 4155 50  0000 L CNN
F 2 "" H 5438 4050 50  0001 C CNN
F 3 "~" H 5400 4200 50  0001 C CNN
	1    5400 4200
	1    0    0    -1  
$EndComp
Wire Wire Line
	5400 4350 5400 4900
Wire Wire Line
	5400 4050 5400 3600
Connection ~ 5400 3600
$Comp
L Device:R R47
U 1 1 613B2D4F
P 5400 6250
F 0 "R47" H 5470 6296 50  0000 L CNN
F 1 "3k9" H 5470 6205 50  0000 L CNN
F 2 "" V 5330 6250 50  0001 C CNN
F 3 "~" H 5400 6250 50  0001 C CNN
	1    5400 6250
	1    0    0    -1  
$EndComp
Wire Wire Line
	5400 6400 5400 6800
Wire Wire Line
	5400 6100 5400 6050
Connection ~ 5400 5750
$Comp
L Device:R R43
U 1 1 61412DE1
P 4950 7450
F 0 "R43" H 5020 7496 50  0000 L CNN
F 1 "1k8" H 5020 7405 50  0000 L CNN
F 2 "" V 4880 7450 50  0001 C CNN
F 3 "~" H 4950 7450 50  0001 C CNN
	1    4950 7450
	1    0    0    -1  
$EndComp
Wire Wire Line
	4950 5950 4950 7200
Wire Wire Line
	4950 7600 4950 7650
Connection ~ 4950 7650
$Comp
L Device:C C28
U 1 1 614548FA
P 5750 6250
F 0 "C28" H 5865 6296 50  0000 L CNN
F 1 "2700 pF" H 5865 6205 50  0000 L CNN
F 2 "" H 5788 6100 50  0001 C CNN
F 3 "~" H 5750 6250 50  0001 C CNN
	1    5750 6250
	1    0    0    -1  
$EndComp
Wire Wire Line
	5750 6400 5750 6800
Wire Wire Line
	5750 6100 5750 5950
Wire Wire Line
	5750 5950 5400 5950
Connection ~ 5400 5950
Wire Wire Line
	5400 5950 5400 5750
$Comp
L Device:R R48
U 1 1 614B7F52
P 5800 5500
F 0 "R48" H 5870 5546 50  0000 L CNN
F 1 "2k7" H 5870 5455 50  0000 L CNN
F 2 "" V 5730 5500 50  0001 C CNN
F 3 "~" H 5800 5500 50  0001 C CNN
	1    5800 5500
	1    0    0    -1  
$EndComp
Wire Wire Line
	5800 5350 5800 5250
Wire Wire Line
	5800 5250 5700 5250
Connection ~ 5400 5250
Wire Wire Line
	5400 5250 5400 5200
$Comp
L Device:D_Zener CR10
U 1 1 614DA960
P 6150 5550
F 0 "CR10" V 6104 5630 50  0000 L CNN
F 1 "5.6V" V 6195 5630 50  0000 L CNN
F 2 "" H 6150 5550 50  0001 C CNN
F 3 "~" H 6150 5550 50  0001 C CNN
	1    6150 5550
	0    1    1    0   
$EndComp
$Comp
L Device:D CR9
U 1 1 614DB633
P 6150 4950
F 0 "CR9" V 6196 4870 50  0000 R CNN
F 1 "1N4148" V 6105 4870 50  0000 R CNN
F 2 "" H 6150 4950 50  0001 C CNN
F 3 "~" H 6150 4950 50  0001 C CNN
	1    6150 4950
	0    -1   -1   0   
$EndComp
Wire Wire Line
	6150 5100 6150 5400
Wire Wire Line
	6150 5700 6150 6800
$Comp
L Device:R R49
U 1 1 615429DC
P 6650 4950
F 0 "R49" H 6720 4996 50  0000 L CNN
F 1 "100R" H 6720 4905 50  0000 L CNN
F 2 "" V 6580 4950 50  0001 C CNN
F 3 "~" H 6650 4950 50  0001 C CNN
	1    6650 4950
	1    0    0    -1  
$EndComp
$Comp
L Transistor_BJT:BC558 Q8
U 1 1 615430BE
P 6750 5550
F 0 "Q8" H 6650 5300 50  0000 L CNN
F 1 "BC558" H 6500 5400 50  0000 L CNN
F 2 "Package_TO_SOT_THT:TO-92_Inline" H 6950 5475 50  0001 L CIN
F 3 "https://www.onsemi.com/pub/Collateral/BC556BTA-D.pdf" H 6750 5550 50  0001 L CNN
	1    6750 5550
	-1   0    0    1   
$EndComp
Wire Wire Line
	6650 5350 6650 5100
Wire Wire Line
	6650 5750 6500 5750
Wire Wire Line
	5800 5750 5800 5650
$Comp
L Device:C C35
U 1 1 615883BA
P 6750 6000
F 0 "C35" V 6498 6000 50  0000 C CNN
F 1 "330 pF" V 6589 6000 50  0000 C CNN
F 2 "" H 6788 5850 50  0001 C CNN
F 3 "~" H 6750 6000 50  0001 C CNN
	1    6750 6000
	0    1    1    0   
$EndComp
Wire Wire Line
	6600 6000 6500 6000
Wire Wire Line
	6500 6000 6500 5750
Connection ~ 6500 5750
Wire Wire Line
	6500 5750 5800 5750
Wire Wire Line
	6950 5550 7000 5550
Wire Wire Line
	6900 6000 7000 6000
Wire Wire Line
	7000 6000 7000 5550
Connection ~ 7000 5550
Wire Wire Line
	7000 5550 7100 5550
$Comp
L Device:R_POT_TRIM R52
U 1 1 615F1A66
P 7250 5550
F 0 "R52" H 7180 5596 50  0000 R CNN
F 1 "5k" H 7180 5505 50  0000 R CNN
F 2 "" H 7250 5550 50  0001 C CNN
F 3 "~" H 7250 5550 50  0001 C CNN
	1    7250 5550
	-1   0    0    -1  
$EndComp
$Comp
L Device:R R53
U 1 1 615F28A0
P 7250 6250
F 0 "R53" H 7320 6296 50  0000 L CNN
F 1 "5k6" H 7320 6205 50  0000 L CNN
F 2 "" V 7180 6250 50  0001 C CNN
F 3 "~" H 7250 6250 50  0001 C CNN
	1    7250 6250
	1    0    0    -1  
$EndComp
Wire Wire Line
	7250 6100 7250 5700
Wire Wire Line
	7250 6400 7250 6800
Wire Wire Line
	6150 4800 6650 4800
$Comp
L Device:R R51
U 1 1 616CCF83
P 7250 5100
F 0 "R51" H 7320 5146 50  0000 L CNN
F 1 "100k" H 7320 5055 50  0000 L CNN
F 2 "" V 7180 5100 50  0001 C CNN
F 3 "~" H 7250 5100 50  0001 C CNN
	1    7250 5100
	1    0    0    -1  
$EndComp
Wire Wire Line
	7250 4950 7250 4800
Wire Wire Line
	7250 5250 7250 5400
$Comp
L Device:R R50
U 1 1 617188F6
P 6950 4800
F 0 "R50" V 6743 4800 50  0000 C CNN
F 1 "39k" V 6834 4800 50  0000 C CNN
F 2 "" V 6880 4800 50  0001 C CNN
F 3 "~" H 6950 4800 50  0001 C CNN
	1    6950 4800
	0    1    1    0   
$EndComp
Wire Wire Line
	6800 4800 6650 4800
Connection ~ 6650 4800
Wire Wire Line
	7100 4800 7250 4800
Connection ~ 7250 4800
$Comp
L Device:C C29
U 1 1 6176A45E
P 7550 5950
F 0 "C29" H 7665 5996 50  0000 L CNN
F 1 "0.1 uF" H 7665 5905 50  0000 L CNN
F 2 "" H 7588 5800 50  0001 C CNN
F 3 "~" H 7550 5950 50  0001 C CNN
	1    7550 5950
	1    0    0    -1  
$EndComp
Wire Wire Line
	7550 6100 7550 6800
Wire Wire Line
	7550 5800 7550 4800
Wire Wire Line
	7250 4800 7550 4800
Wire Wire Line
	2700 6800 2800 6800
Connection ~ 2700 6800
Connection ~ 2800 6800
Wire Wire Line
	2800 6800 3000 6800
Connection ~ 3200 6800
Wire Wire Line
	3200 6800 3500 6800
Connection ~ 3500 6800
Wire Wire Line
	3500 6800 5400 6800
Connection ~ 5400 6800
Wire Wire Line
	5400 6800 5750 6800
Connection ~ 5750 6800
Connection ~ 3000 6800
Wire Wire Line
	3000 6800 3200 6800
Wire Wire Line
	3000 6800 3000 7300
$Comp
L Device:R R42
U 1 1 618CA831
P 4150 7200
F 0 "R42" V 3943 7200 50  0000 C CNN
F 1 "2k2" V 4034 7200 50  0000 C CNN
F 2 "" V 4080 7200 50  0001 C CNN
F 3 "~" H 4150 7200 50  0001 C CNN
	1    4150 7200
	0    1    1    0   
$EndComp
$Comp
L Device:C C25
U 1 1 618CC0DD
P 3750 7200
F 0 "C25" V 3498 7200 50  0000 C CNN
F 1 "1000 pF" V 3589 7200 50  0000 C CNN
F 2 "" H 3788 7050 50  0001 C CNN
F 3 "~" H 3750 7200 50  0001 C CNN
	1    3750 7200
	0    1    1    0   
$EndComp
Wire Wire Line
	3900 7200 4000 7200
Wire Wire Line
	4300 7200 4950 7200
Connection ~ 4950 7200
Wire Wire Line
	4950 7200 4950 7300
Wire Wire Line
	3600 7200 2450 7200
Connection ~ 2450 7200
Wire Wire Line
	2450 7200 2450 7650
Wire Wire Line
	2600 7250 2600 6800
Wire Wire Line
	2600 6800 2700 6800
Wire Wire Line
	5750 6800 6150 6800
Connection ~ 6150 6800
Wire Wire Line
	6150 6800 7250 6800
Connection ~ 7250 6800
Wire Wire Line
	7550 6800 7250 6800
Connection ~ 7550 6800
Wire Wire Line
	7250 7900 7250 8350
Wire Wire Line
	7250 8350 11500 8350
Wire Wire Line
	2300 7850 12400 7850
Wire Wire Line
	12000 8900 12000 8550
Wire Wire Line
	12000 8900 12850 8900
Wire Wire Line
	4950 7650 8000 7650
$Comp
L Device:R R54
U 1 1 61C6E742
P 7250 6950
F 0 "R54" V 7350 6950 50  0000 C CNN
F 1 "100k" V 7450 6950 50  0000 C CNN
F 2 "" V 7180 6950 50  0001 C CNN
F 3 "~" H 7250 6950 50  0001 C CNN
	1    7250 6950
	0    1    1    0   
$EndComp
Wire Wire Line
	5250 6050 5400 6050
Connection ~ 5400 6050
Wire Wire Line
	5400 6050 5400 5950
Wire Wire Line
	5400 3600 8000 3600
$Comp
L Device:R R55
U 1 1 61D727F9
P 8000 4200
F 0 "R55" H 8070 4246 50  0000 L CNN
F 1 "470R" H 8070 4155 50  0000 L CNN
F 2 "" V 7930 4200 50  0001 C CNN
F 3 "~" H 8000 4200 50  0001 C CNN
	1    8000 4200
	1    0    0    -1  
$EndComp
Wire Wire Line
	8000 4050 8000 3600
Connection ~ 8000 3600
Wire Wire Line
	8000 3600 8400 3600
Wire Wire Line
	8000 4350 8000 4750
Connection ~ 8000 7650
$Comp
L Transistor_BJT:BC548 Q9
U 1 1 61A10724
P 7900 7200
F 0 "Q9" H 8091 7246 50  0000 L CNN
F 1 "BC548" H 8091 7155 50  0000 L CNN
F 2 "Package_TO_SOT_THT:TO-92_Inline" H 8100 7125 50  0001 L CIN
F 3 "https://www.onsemi.com/pub/Collateral/BC550-D.pdf" H 7900 7200 50  0001 L CNN
	1    7900 7200
	1    0    0    -1  
$EndComp
$Comp
L Device:Q_NPN_CBE Q11
U 1 1 61DFD8FB
P 8300 4750
F 0 "Q11" H 8491 4796 50  0000 L CNN
F 1 "BC489" H 8491 4705 50  0000 L CNN
F 2 "" H 8500 4850 50  0001 C CNN
F 3 "~" H 8300 4750 50  0001 C CNN
	1    8300 4750
	1    0    0    -1  
$EndComp
$Comp
L Device:R R56
U 1 1 61DFF3CD
P 8400 4200
F 0 "R56" H 8470 4246 50  0000 L CNN
F 1 "22R" H 8470 4155 50  0000 L CNN
F 2 "" V 8330 4200 50  0001 C CNN
F 3 "~" H 8400 4200 50  0001 C CNN
	1    8400 4200
	1    0    0    -1  
$EndComp
Wire Wire Line
	8400 4050 8400 3600
Connection ~ 8400 3600
Wire Wire Line
	8400 4350 8400 4550
Wire Wire Line
	8100 4750 8000 4750
Connection ~ 8000 4750
Wire Wire Line
	8000 4750 8000 5600
$Comp
L Device:Q_PNP_CBE Q10
U 1 1 61E85CC8
P 8300 5600
F 0 "Q10" H 8491 5554 50  0000 L CNN
F 1 "BC490" H 8491 5645 50  0000 L CNN
F 2 "" H 8500 5700 50  0001 C CNN
F 3 "~" H 8300 5600 50  0001 C CNN
	1    8300 5600
	1    0    0    1   
$EndComp
Wire Wire Line
	8400 5400 8400 5350
Wire Wire Line
	8400 5800 8400 7650
Wire Wire Line
	8000 7650 8400 7650
Wire Wire Line
	8100 5600 8000 5600
Connection ~ 8000 5600
Wire Wire Line
	8000 5600 8000 6950
Wire Wire Line
	7550 6800 8550 6800
$Comp
L Device:D CR13
U 1 1 61F466E2
P 8850 5350
F 0 "CR13" H 8850 5133 50  0000 C CNN
F 1 "1N4148" H 8850 5224 50  0000 C CNN
F 2 "" H 8850 5350 50  0001 C CNN
F 3 "~" H 8850 5350 50  0001 C CNN
	1    8850 5350
	-1   0    0    1   
$EndComp
Wire Wire Line
	8700 5350 8400 5350
Connection ~ 8400 5350
Wire Wire Line
	8400 5350 8400 5000
$Comp
L Device:L_Core_Ferrite L2
U 1 1 61F788DA
P 8850 5000
F 0 "L2" V 8669 5000 50  0000 C CNN
F 1 "Base" V 8760 5000 50  0000 C CNN
F 2 "" H 8850 5000 50  0001 C CNN
F 3 "~" H 8850 5000 50  0001 C CNN
	1    8850 5000
	0    1    1    0   
$EndComp
Wire Wire Line
	8700 5000 8400 5000
Connection ~ 8400 5000
Wire Wire Line
	8400 5000 8400 4950
$Comp
L Device:R R58
U 1 1 61FA93C6
P 9100 6250
F 0 "R58" H 9170 6296 50  0000 L CNN
F 1 "100R" H 9170 6205 50  0000 L CNN
F 2 "" V 9030 6250 50  0001 C CNN
F 3 "~" H 9100 6250 50  0001 C CNN
	1    9100 6250
	1    0    0    -1  
$EndComp
Wire Wire Line
	9100 6800 9100 6400
Connection ~ 9100 6800
Wire Wire Line
	9100 6800 9400 6800
Wire Wire Line
	9100 6100 9100 5350
Wire Wire Line
	9100 5000 9000 5000
Wire Wire Line
	9000 5350 9100 5350
Connection ~ 9100 5350
Wire Wire Line
	9100 5350 9100 5000
$Comp
L Transistor_BJT:MJE13005G Q12
U 1 1 62030407
P 9400 5000
F 0 "Q12" H 9592 5046 50  0000 L CNN
F 1 "MJE13005G" H 9592 4955 50  0000 L CNN
F 2 "Package_TO_SOT_THT:TO-220-3_Vertical" H 9650 4925 50  0001 L CIN
F 3 "http://www.onsemi.com/pub_link/Collateral/MJE13005-D.PDF" H 9400 5000 50  0001 L CNN
	1    9400 5000
	1    0    0    -1  
$EndComp
Wire Wire Line
	9200 5000 9100 5000
Connection ~ 9100 5000
Wire Wire Line
	9500 5200 9500 5400
Wire Wire Line
	9500 2300 9500 4800
Wire Wire Line
	5900 1200 9500 1200
Text Notes 7300 5700 0    50   ~ 0
5V
Wire Wire Line
	7550 4800 7550 2950
Connection ~ 7550 4800
Wire Wire Line
	7650 2950 7550 2950
Connection ~ 5400 2650
Wire Wire Line
	5400 2650 7850 2650
Wire Wire Line
	8150 2650 8250 2650
Wire Wire Line
	7950 2950 8250 2950
Wire Wire Line
	8250 2950 8250 2650
Connection ~ 8250 2650
$Comp
L Device:D CR15
U 1 1 622CB791
P 9400 7250
F 0 "CR15" V 9354 7330 50  0000 L CNN
F 1 "MR856" V 9445 7330 50  0000 L CNN
F 2 "" H 9400 7250 50  0001 C CNN
F 3 "~" H 9400 7250 50  0001 C CNN
	1    9400 7250
	0    1    1    0   
$EndComp
Wire Wire Line
	9400 7100 9400 6800
Connection ~ 9400 6800
Wire Wire Line
	9400 6800 9500 6800
Wire Wire Line
	9400 7400 9400 7650
$Comp
L Device:C C30
U 1 1 6232A864
P 9200 7650
F 0 "C30" V 8948 7650 50  0000 C CNN
F 1 "820 pF" V 9039 7650 50  0000 C CNN
F 2 "" H 9238 7500 50  0001 C CNN
F 3 "~" H 9200 7650 50  0001 C CNN
	1    9200 7650
	0    1    1    0   
$EndComp
$Comp
L Device:R R57
U 1 1 6232C46F
P 9000 7250
F 0 "R57" H 9070 7296 50  0000 L CNN
F 1 "R" H 9070 7205 50  0000 L CNN
F 2 "" V 8930 7250 50  0001 C CNN
F 3 "~" H 9000 7250 50  0001 C CNN
	1    9000 7250
	1    0    0    -1  
$EndComp
$Comp
L Device:D CR14
U 1 1 6232DAE4
P 8550 7250
F 0 "CR14" V 8504 7330 50  0000 L CNN
F 1 "RGP10J" V 8595 7330 50  0000 L CNN
F 2 "" H 8550 7250 50  0001 C CNN
F 3 "~" H 8550 7250 50  0001 C CNN
	1    8550 7250
	0    1    1    0   
$EndComp
Wire Wire Line
	9050 7650 9000 7650
Wire Wire Line
	8550 7650 8550 7400
Wire Wire Line
	9000 7400 9000 7650
Connection ~ 9000 7650
Wire Wire Line
	9000 7650 8550 7650
Wire Wire Line
	9350 7650 9400 7650
Connection ~ 9400 7650
Wire Wire Line
	9000 7100 9000 6800
Connection ~ 9000 6800
Wire Wire Line
	9000 6800 9100 6800
Wire Wire Line
	8550 7100 8550 6800
Connection ~ 8550 6800
Wire Wire Line
	8550 6800 9000 6800
$Comp
L Device:R R60
U 1 1 62457167
P 9750 6800
F 0 "R60" V 9543 6800 50  0000 C CNN
F 1 "0.47R 2W" V 9634 6800 50  0000 C CNN
F 2 "" V 9680 6800 50  0001 C CNN
F 3 "~" H 9750 6800 50  0001 C CNN
	1    9750 6800
	0    1    1    0   
$EndComp
Wire Wire Line
	9600 6800 9500 6800
Connection ~ 9500 6800
$Comp
L Device:D CR16
U 1 1 62488C8B
P 10200 6800
F 0 "CR16" H 10200 6583 50  0000 C CNN
F 1 "BY127" H 10200 6674 50  0000 C CNN
F 2 "" H 10200 6800 50  0001 C CNN
F 3 "~" H 10200 6800 50  0001 C CNN
	1    10200 6800
	-1   0    0    1   
$EndComp
Wire Wire Line
	10050 6800 9900 6800
Wire Wire Line
	10350 6800 10450 6800
$Comp
L Device:R R59
U 1 1 624EBB9C
P 9800 5400
F 0 "R59" V 9593 5400 50  0000 C CNN
F 1 "1k" V 9684 5400 50  0000 C CNN
F 2 "" V 9730 5400 50  0001 C CNN
F 3 "~" H 9800 5400 50  0001 C CNN
	1    9800 5400
	0    1    1    0   
$EndComp
Wire Wire Line
	9650 5400 9500 5400
Connection ~ 9500 5400
Wire Wire Line
	9500 5400 9500 6800
$Comp
L Transistor_BJT:BC548 Q13
U 1 1 6251DB99
P 10350 5400
F 0 "Q13" H 10541 5446 50  0000 L CNN
F 1 "BC548" H 10541 5355 50  0000 L CNN
F 2 "Package_TO_SOT_THT:TO-92_Inline" H 10550 5325 50  0001 L CIN
F 3 "https://www.onsemi.com/pub/Collateral/BC550-D.pdf" H 10350 5400 50  0001 L CNN
	1    10350 5400
	1    0    0    -1  
$EndComp
Wire Wire Line
	10150 5400 10100 5400
$Comp
L Device:R R61
U 1 1 6255088A
P 10450 6250
F 0 "R61" H 10520 6296 50  0000 L CNN
F 1 "47R" H 10520 6205 50  0000 L CNN
F 2 "" V 10380 6250 50  0001 C CNN
F 3 "~" H 10450 6250 50  0001 C CNN
	1    10450 6250
	1    0    0    -1  
$EndComp
Wire Wire Line
	10450 5600 10450 5800
Wire Wire Line
	10450 6400 10450 6800
Connection ~ 10450 6800
Wire Wire Line
	10450 6800 10850 6800
Wire Wire Line
	10450 5200 10450 4900
Wire Wire Line
	10450 3500 5700 3500
Wire Wire Line
	5700 3500 5700 5250
Connection ~ 5700 5250
Wire Wire Line
	5700 5250 5400 5250
$Comp
L Device:C C31
U 1 1 625EDB6F
P 10300 4900
F 0 "C31" V 10048 4900 50  0000 C CNN
F 1 "100 pF" V 10139 4900 50  0000 C CNN
F 2 "" H 10338 4750 50  0001 C CNN
F 3 "~" H 10300 4900 50  0001 C CNN
	1    10300 4900
	0    1    1    0   
$EndComp
Connection ~ 10450 4900
Wire Wire Line
	10450 4900 10450 3500
Wire Wire Line
	10150 4900 10100 4900
Wire Wire Line
	10100 4900 10100 5400
Connection ~ 10100 5400
Wire Wire Line
	10100 5400 9950 5400
$Comp
L Device:D CR17
U 1 1 6262340F
P 10850 6200
F 0 "CR17" V 10896 6120 50  0000 R CNN
F 1 "1N4148" V 10805 6120 50  0000 R CNN
F 2 "" H 10850 6200 50  0001 C CNN
F 3 "~" H 10850 6200 50  0001 C CNN
	1    10850 6200
	0    -1   -1   0   
$EndComp
Wire Wire Line
	10850 6350 10850 6800
Connection ~ 10850 6800
$Comp
L Device:R R62
U 1 1 62659037
P 10850 4900
F 0 "R62" H 10920 4946 50  0000 L CNN
F 1 "220R" H 10920 4855 50  0000 L CNN
F 2 "" V 10780 4900 50  0001 C CNN
F 3 "~" H 10850 4900 50  0001 C CNN
	1    10850 4900
	1    0    0    -1  
$EndComp
Wire Wire Line
	10850 5050 10850 5800
Wire Wire Line
	10850 5800 10450 5800
Connection ~ 10850 5800
Wire Wire Line
	10850 5800 10850 6050
Connection ~ 10450 5800
Wire Wire Line
	10450 5800 10450 6100
$Comp
L Device:D CR18
U 1 1 626C2CF9
P 10850 4150
F 0 "CR18" V 10896 4070 50  0000 R CNN
F 1 "1N4148" V 10805 4070 50  0000 R CNN
F 2 "" H 10850 4150 50  0001 C CNN
F 3 "~" H 10850 4150 50  0001 C CNN
	1    10850 4150
	0    -1   -1   0   
$EndComp
Wire Wire Line
	10850 4300 10850 4750
Wire Wire Line
	10850 4000 10850 3600
Wire Wire Line
	8400 3600 10850 3600
$Comp
L Device:L_Core_Ferrite L4
U 1 1 62763C34
P 11350 6800
F 0 "L4" V 11575 6800 50  0000 C CNN
F 1 "80V" V 11484 6800 50  0000 C CNN
F 2 "" H 11350 6800 50  0001 C CNN
F 3 "~" H 11350 6800 50  0001 C CNN
	1    11350 6800
	0    -1   -1   0   
$EndComp
Wire Wire Line
	10850 6800 11200 6800
Wire Wire Line
	9400 7650 11600 7650
$Comp
L Device:CP C32
U 1 1 627D3641
P 11600 7250
F 0 "C32" H 11718 7296 50  0000 L CNN
F 1 "47 uF" H 11718 7205 50  0000 L CNN
F 2 "" H 11638 7100 50  0001 C CNN
F 3 "~" H 11600 7250 50  0001 C CNN
	1    11600 7250
	1    0    0    -1  
$EndComp
Wire Wire Line
	11600 7400 11600 7450
Wire Wire Line
	11600 7100 11600 6800
Wire Wire Line
	11500 6800 11600 6800
Connection ~ 11600 6800
Wire Wire Line
	8250 2650 11600 2650
Wire Wire Line
	11600 2650 11600 6350
Connection ~ 11600 2650
Wire Wire Line
	11600 7450 12000 7450
Connection ~ 11600 7450
Wire Wire Line
	11600 7450 11600 7650
Wire Wire Line
	12000 7450 12000 2450
Wire Wire Line
	4900 2450 12000 2450
Connection ~ 12000 7450
Wire Wire Line
	12000 7450 12300 7450
$Comp
L Device:Q_SCR_KAG Q15
U 1 1 6299C491
P 12700 6900
F 0 "Q15" H 12788 6946 50  0000 L CNN
F 1 "MCR106-3" H 12788 6855 50  0000 L CNN
F 2 "" V 12700 6900 50  0001 C CNN
F 3 "~" V 12700 6900 50  0001 C CNN
	1    12700 6900
	1    0    0    -1  
$EndComp
$Comp
L Device:R R66
U 1 1 629A01E4
P 12300 7200
F 0 "R66" H 12370 7246 50  0000 L CNN
F 1 "1k" H 12370 7155 50  0000 L CNN
F 2 "" V 12230 7200 50  0001 C CNN
F 3 "~" H 12300 7200 50  0001 C CNN
	1    12300 7200
	1    0    0    -1  
$EndComp
Wire Wire Line
	12300 7350 12300 7450
Connection ~ 12300 7450
Wire Wire Line
	12300 7450 12700 7450
$Comp
L Device:D_Zener CR21
U 1 1 629D96AE
P 12300 6750
F 0 "CR21" V 12254 6830 50  0000 L CNN
F 1 "91V" V 12345 6830 50  0000 L CNN
F 2 "" H 12300 6750 50  0001 C CNN
F 3 "~" H 12300 6750 50  0001 C CNN
	1    12300 6750
	0    1    1    0   
$EndComp
Wire Wire Line
	12300 6900 12300 7000
Wire Wire Line
	12700 7050 12700 7450
$Comp
L Device:R R67
U 1 1 62A4D52C
P 12700 6500
F 0 "R67" H 12770 6546 50  0000 L CNN
F 1 "6R8" H 12770 6455 50  0000 L CNN
F 2 "" V 12630 6500 50  0001 C CNN
F 3 "~" H 12700 6500 50  0001 C CNN
	1    12700 6500
	1    0    0    -1  
$EndComp
Wire Wire Line
	12700 6650 12700 6750
Wire Wire Line
	12550 7000 12300 7000
Connection ~ 12300 7000
Wire Wire Line
	12300 7000 12300 7050
Wire Wire Line
	12700 6350 12300 6350
Connection ~ 11600 6350
Wire Wire Line
	11600 6350 11600 6800
Wire Wire Line
	12300 6600 12300 6350
Connection ~ 12300 6350
Wire Wire Line
	12300 6350 11600 6350
Wire Wire Line
	12700 6350 14850 6350
Wire Wire Line
	14850 6350 14850 7750
Wire Wire Line
	14850 7850 14950 7850
Connection ~ 12700 6350
Wire Wire Line
	14950 7750 14850 7750
Connection ~ 14850 7750
Wire Wire Line
	14850 7750 14850 7850
Text Notes 15200 7850 0    50   ~ 0
80V
Wire Notes Line
	12200 7500 13350 7500
Wire Notes Line
	13350 7500 13350 6200
Wire Notes Line
	13350 6200 12200 6200
Wire Notes Line
	12200 6200 12200 7500
Text Notes 13000 7450 0    50   ~ 0
crow bar
$Comp
L Isolator:CNY17-2 U3
U 1 1 62D0F0A1
P 14400 5850
F 0 "U3" H 14400 6175 50  0000 C CNN
F 1 "CNY17-2" H 14400 6084 50  0000 C CNN
F 2 "" H 14400 5850 50  0001 L CNN
F 3 "http://www.vishay.com/docs/83606/cny17.pdf" H 14400 5850 50  0001 L CNN
	1    14400 5850
	1    0    0    -1  
$EndComp
$Comp
L power:GND #PWR?
U 1 1 62D4BA81
P 13750 5950
F 0 "#PWR?" H 13750 5700 50  0001 C CNN
F 1 "GND" H 13755 5777 50  0000 C CNN
F 2 "" H 13750 5950 50  0001 C CNN
F 3 "" H 13750 5950 50  0001 C CNN
	1    13750 5950
	1    0    0    -1  
$EndComp
$Comp
L Device:R R68
U 1 1 62D4C9F7
P 13750 5700
F 0 "R68" H 13820 5746 50  0000 L CNN
F 1 "220k" H 13820 5655 50  0000 L CNN
F 2 "" V 13680 5700 50  0001 C CNN
F 3 "~" H 13750 5700 50  0001 C CNN
	1    13750 5700
	1    0    0    -1  
$EndComp
Wire Wire Line
	13750 5950 13750 5850
Wire Wire Line
	14100 5950 13750 5950
Connection ~ 13750 5950
Wire Wire Line
	13750 5550 13750 4600
$Comp
L Device:R R69
U 1 1 62E06E1E
P 13450 5500
F 0 "R69" V 13243 5500 50  0000 C CNN
F 1 "8k2" V 13334 5500 50  0000 C CNN
F 2 "" V 13380 5500 50  0001 C CNN
F 3 "~" H 13450 5500 50  0001 C CNN
	1    13450 5500
	0    1    1    0   
$EndComp
Wire Wire Line
	13600 5500 14100 5500
Wire Wire Line
	14100 5500 14100 5750
$Comp
L Device:R R70
U 1 1 62E42841
P 13300 5100
F 0 "R70" H 13370 5146 50  0000 L CNN
F 1 "8k2" H 13370 5055 50  0000 L CNN
F 2 "" V 13230 5100 50  0001 C CNN
F 3 "~" H 13300 5100 50  0001 C CNN
	1    13300 5100
	1    0    0    -1  
$EndComp
Wire Wire Line
	13300 5250 13300 5500
$Comp
L Device:Q_PNP_CBE Q16
U 1 1 62E7ED63
P 13400 4600
F 0 "Q16" H 13591 4554 50  0000 L CNN
F 1 "BC450" H 13591 4645 50  0000 L CNN
F 2 "" H 13600 4700 50  0001 C CNN
F 3 "~" H 13400 4600 50  0001 C CNN
	1    13400 4600
	-1   0    0    1   
$EndComp
Wire Wire Line
	13300 4800 13300 4950
Wire Wire Line
	13600 4600 13750 4600
Connection ~ 13750 4600
$Comp
L Device:D CR16
U 1 1 62EF69A8
P 13500 2650
F 0 "CR16" H 13500 2867 50  0000 C CNN
F 1 "1N4148" H 13500 2776 50  0000 C CNN
F 2 "" H 13500 2650 50  0001 C CNN
F 3 "~" H 13500 2650 50  0001 C CNN
	1    13500 2650
	1    0    0    -1  
$EndComp
Wire Wire Line
	13650 2650 13750 2650
Connection ~ 13750 2650
Wire Wire Line
	13750 2650 13750 4600
Wire Wire Line
	11600 2650 13300 2650
Wire Wire Line
	13300 4400 13300 2650
Connection ~ 13300 2650
Wire Wire Line
	13300 2650 13350 2650
$Comp
L Device:R R71
U 1 1 62FECEFA
P 13750 2250
F 0 "R71" H 13820 2296 50  0000 L CNN
F 1 "100k" H 13820 2205 50  0000 L CNN
F 2 "" V 13680 2250 50  0001 C CNN
F 3 "~" H 13750 2250 50  0001 C CNN
	1    13750 2250
	1    0    0    -1  
$EndComp
$Comp
L Device:R R72
U 1 1 62FED683
P 13750 1800
F 0 "R72" H 13820 1846 50  0000 L CNN
F 1 "100k" H 13820 1755 50  0000 L CNN
F 2 "" V 13680 1800 50  0001 C CNN
F 3 "~" H 13750 1800 50  0001 C CNN
	1    13750 1800
	1    0    0    -1  
$EndComp
Wire Wire Line
	13750 2100 13750 1950
Wire Wire Line
	13750 2400 13750 2650
Wire Wire Line
	13750 1200 13750 1650
Wire Wire Line
	9950 1200 13750 1200
Wire Wire Line
	14750 9000 14750 5850
Wire Wire Line
	14750 5850 14700 5850
Connection ~ 14750 9000
Wire Wire Line
	14750 9000 14950 9000
Wire Wire Line
	14950 8800 14800 8800
Wire Wire Line
	14800 8800 14800 5950
Wire Wire Line
	14800 5950 14700 5950
Text Notes 15200 8850 0    50   ~ 0
low mains
Wire Notes Line
	12800 6150 15000 6150
Wire Notes Line
	15000 6150 15000 1650
Wire Notes Line
	15000 1650 12800 1650
Wire Notes Line
	12800 1650 12800 6150
Text Notes 14050 3300 0    50   ~ 0
low mains detector\nand optocoupler
Wire Notes Line
	800  2500 5200 2500
Wire Notes Line
	5200 2500 5200 550 
Wire Notes Line
	5200 550  800  550 
Wire Notes Line
	800  550  800  2500
Text Notes 1750 2400 0    50   ~ 0
rectifier / filter
Wire Notes Line
	2350 6600 800  6600
Wire Notes Line
	800  6600 800  8000
Wire Notes Line
	800  8000 2350 8000
Wire Notes Line
	2350 8000 2350 6600
Text Notes 850  6850 0    50   ~ 0
horiz.\ndriver\ntransf.
Wire Wire Line
	11500 11100 11500 8350
Connection ~ 11500 8350
Wire Wire Line
	11500 8350 13250 8350
Wire Wire Line
	11150 10250 11150 11100
Connection ~ 11150 11100
Wire Wire Line
	11150 11100 11500 11100
Wire Wire Line
	11150 9950 11150 9050
Wire Wire Line
	11050 9450 11050 11100
Connection ~ 11050 11100
Wire Wire Line
	11050 11100 11150 11100
Wire Wire Line
	10800 9550 10800 10150
Wire Wire Line
	10800 10450 10800 11100
Connection ~ 10800 11100
Wire Wire Line
	10800 11100 11050 11100
Wire Wire Line
	10250 9650 10250 10150
Wire Wire Line
	10250 10450 10250 11100
Connection ~ 10250 11100
Wire Wire Line
	10250 11100 10800 11100
Connection ~ 9800 11100
Wire Wire Line
	9800 11100 10250 11100
Wire Wire Line
	9800 10450 9800 11100
Wire Wire Line
	9800 10150 9800 9750
Wire Wire Line
	9400 10150 9400 9850
Connection ~ 9400 9850
Wire Wire Line
	9400 9850 10550 9850
Wire Wire Line
	9400 10600 9400 10450
Wire Wire Line
	9400 10900 9400 11100
Connection ~ 9400 11100
Wire Wire Line
	9400 11100 9800 11100
Wire Wire Line
	8900 10600 8900 9850
Connection ~ 8900 9850
Wire Wire Line
	8900 9850 9400 9850
Wire Wire Line
	8900 10900 8900 11100
Connection ~ 8900 11100
Wire Wire Line
	8900 11100 9400 11100
Wire Wire Line
	8750 10050 8750 11100
Connection ~ 8750 11100
Wire Wire Line
	8750 11100 8900 11100
Wire Wire Line
	8650 10750 8650 9550
Connection ~ 8650 9550
Wire Wire Line
	8650 9550 10550 9550
Wire Wire Line
	3850 10750 8650 10750
Wire Wire Line
	8400 9450 11050 9450
Wire Wire Line
	8400 9550 8650 9550
Wire Wire Line
	8400 9650 10250 9650
Wire Wire Line
	8400 9750 9800 9750
Wire Wire Line
	8400 9850 8900 9850
Wire Wire Line
	8400 10050 8750 10050
$Comp
L Device:C C20
U 1 1 60BD80BA
P 10000 9050
F 0 "C20" V 10160 9050 50  0000 C CNN
F 1 "100 pF" V 10251 9050 50  0000 C CNN
F 2 "" H 10038 8900 50  0001 C CNN
F 3 "~" H 10000 9050 50  0001 C CNN
	1    10000 9050
	0    1    1    0   
$EndComp
Connection ~ 11150 9050
Wire Wire Line
	11150 9050 11150 8900
Wire Wire Line
	11150 9050 12350 9050
Wire Wire Line
	10150 8900 10250 8900
Wire Wire Line
	9850 9050 9750 9050
Wire Wire Line
	9750 9050 9750 8900
Connection ~ 9750 8900
Wire Wire Line
	9750 8900 9850 8900
Wire Wire Line
	10150 9050 10250 9050
Wire Wire Line
	10250 9050 10250 8900
Connection ~ 10250 8900
Wire Wire Line
	10250 8900 11150 8900
Wire Wire Line
	9600 8900 9750 8900
Wire Wire Line
	6850 10150 6850 8900
Connection ~ 6850 10150
Wire Wire Line
	6850 10150 6900 10150
Wire Wire Line
	6850 8900 9300 8900
Connection ~ 6600 11100
Wire Wire Line
	6600 11100 8750 11100
Wire Wire Line
	6600 9950 6900 9950
Wire Wire Line
	5400 10600 5400 11100
Connection ~ 5400 11100
Wire Wire Line
	5400 10300 5400 9750
Connection ~ 5400 9750
Wire Wire Line
	5400 11100 6150 11100
Wire Wire Line
	6150 10900 6150 11100
Connection ~ 6150 11100
Wire Wire Line
	6150 11100 6600 11100
Wire Wire Line
	6150 10500 6150 10550
Wire Wire Line
	5400 9750 6150 9750
Wire Wire Line
	6150 10200 6150 9750
Connection ~ 6150 9750
Wire Wire Line
	6150 9750 6900 9750
Wire Wire Line
	6150 10550 6400 10550
Wire Wire Line
	6400 10550 6400 9650
Connection ~ 6150 10550
Wire Wire Line
	6150 10550 6150 10600
Connection ~ 6400 9650
Wire Wire Line
	6400 9650 6900 9650
Wire Wire Line
	5800 10150 6850 10150
Wire Wire Line
	5800 9850 5800 9450
Connection ~ 5800 9450
Wire Wire Line
	5800 9450 6700 9450
Wire Wire Line
	3450 9450 4200 9450
Connection ~ 5400 9450
Wire Wire Line
	5400 9450 5800 9450
Wire Wire Line
	2900 11100 4200 11100
Wire Wire Line
	5250 10050 6900 10050
Wire Wire Line
	4850 10050 4950 10050
Wire Wire Line
	4550 10050 4450 10050
Wire Wire Line
	4450 10050 4450 9950
Wire Wire Line
	4450 9950 6600 9950
Connection ~ 6600 9950
Wire Wire Line
	6700 9450 6700 8550
Connection ~ 6700 9450
Wire Wire Line
	6700 9450 6900 9450
Wire Wire Line
	6700 8550 12000 8550
Wire Wire Line
	6600 8300 14650 8300
Wire Wire Line
	6300 8300 6150 8300
Wire Wire Line
	5850 8300 5700 8300
Wire Wire Line
	5400 8300 5250 8300
Wire Wire Line
	4850 8300 4850 9850
Wire Wire Line
	4850 8300 4950 8300
Wire Wire Line
	4850 9850 6900 9850
Wire Wire Line
	6600 10200 6600 9950
Wire Wire Line
	6600 10500 6600 11100
Wire Wire Line
	3450 9450 2900 9450
Connection ~ 3450 9450
Connection ~ 2350 9450
Wire Wire Line
	2350 9450 2150 9450
Connection ~ 2500 9450
Wire Wire Line
	2500 9450 2350 9450
Connection ~ 2900 9450
Wire Wire Line
	2900 9450 2500 9450
Wire Wire Line
	3450 9450 3450 10200
Wire Wire Line
	2900 9450 2900 10600
Wire Wire Line
	2500 9450 2500 10050
Wire Wire Line
	2350 9450 2350 9650
Connection ~ 2150 9450
Wire Wire Line
	2150 9450 2150 10050
Wire Wire Line
	2050 9450 2150 9450
Wire Wire Line
	1650 9450 1450 9450
Connection ~ 1350 9450
Connection ~ 1450 9450
Wire Wire Line
	1450 9450 1350 9450
Wire Wire Line
	1450 9450 1450 9950
Wire Wire Line
	1350 9450 1000 9450
Connection ~ 1000 9450
Wire Wire Line
	1000 9450 1000 9350
Wire Wire Line
	1000 9450 1000 9650
Wire Wire Line
	1850 9750 1850 9950
Wire Wire Line
	8000 7400 8000 7650
Wire Wire Line
	4950 7200 7700 7200
Wire Wire Line
	7400 6950 8000 6950
Connection ~ 8000 6950
Wire Wire Line
	8000 6950 8000 7000
Wire Wire Line
	7100 6950 5250 6950
Wire Wire Line
	5250 6950 5250 6050
Text Notes 3850 10400 0    50   ~ 0
h. phase
Text Notes 15200 8200 0    50   ~ 0
collector Q14\n(20.1 kHz)
Connection ~ 10550 9550
Wire Wire Line
	10550 9550 10800 9550
Wire Wire Line
	4800 9650 6400 9650
Connection ~ 4200 9450
Wire Wire Line
	4200 9450 5400 9450
Connection ~ 4200 11100
Wire Wire Line
	4200 11100 5400 11100
Wire Wire Line
	4400 9650 4500 9650
Wire Wire Line
	6450 8600 6450 9550
Wire Wire Line
	6450 9550 6900 9550
Wire Wire Line
	3550 8600 6450 8600
Wire Wire Line
	4200 10000 4200 9450
Wire Wire Line
	4200 10300 4200 11100
Wire Wire Line
	4350 10150 4400 10150
Wire Wire Line
	4400 10150 4400 9650
Wire Notes Line
	2400 11150 2400 8500
Wire Notes Line
	2400 8500 500  8500
Wire Notes Line
	500  8500 500  11150
Wire Notes Line
	500  11150 2400 11150
Text Notes 1950 8800 0    50   ~ 0
start-up\ncircuit
$EndSCHEMATC
