EESchema Schematic File Version 4
EELAYER 30 0
EELAYER END
$Descr A3 16535 11693
encoding utf-8
Sheet 5 12
Title "Power / Deflection 2"
Date ""
Rev ""
Comp ""
Comment1 ""
Comment2 ""
Comment3 ""
Comment4 ""
$EndDescr
$Comp
L Connector:Conn_01x04_Female W3
U 1 1 61F2A5B8
P 15350 6150
F 0 "W3" H 15242 5817 50  0000 C CNN
F 1 "Conn_01x04_Female" H 15242 5726 50  0000 C CNN
F 2 "" H 15350 6150 50  0001 C CNN
F 3 "~" H 15350 6150 50  0001 C CNN
	1    15350 6150
	1    0    0    -1  
$EndComp
Text Notes 15400 6050 0    50   ~ 0
H. DEFL. A
Text Notes 15400 6200 0    50   ~ 0
H. DEFL. B
Text Notes 15400 6300 0    50   ~ 0
V. DEFL. A
Text Notes 15400 6400 0    50   ~ 0
V. DEFL. B
$Comp
L Device:Q_PNP_Darlington_ECB Q25
U 1 1 61F2BA08
P 12200 7000
F 0 "Q25" H 12391 6954 50  0000 L CNN
F 1 "BD682" H 12391 7045 50  0000 L CNN
F 2 "" H 12400 7100 50  0001 C CNN
F 3 "~" H 12200 7000 50  0001 C CNN
	1    12200 7000
	1    0    0    1   
$EndComp
$Comp
L power:GND #PWR?
U 1 1 61F2C5C4
P 12300 7300
F 0 "#PWR?" H 12300 7050 50  0001 C CNN
F 1 "GND" H 12305 7127 50  0000 C CNN
F 2 "" H 12300 7300 50  0001 C CNN
F 3 "" H 12300 7300 50  0001 C CNN
	1    12300 7300
	1    0    0    -1  
$EndComp
Wire Wire Line
	12300 7300 12300 7200
$Comp
L Device:R R40
U 1 1 61F2CAE3
P 12300 6500
F 0 "R40" H 12370 6546 50  0000 L CNN
F 1 "10R" H 12370 6455 50  0000 L CNN
F 2 "" V 12230 6500 50  0001 C CNN
F 3 "~" H 12300 6500 50  0001 C CNN
	1    12300 6500
	1    0    0    -1  
$EndComp
$Comp
L Device:R R41
U 1 1 61F2CD51
P 12600 6500
F 0 "R41" H 12670 6546 50  0000 L CNN
F 1 "10R" H 12670 6455 50  0000 L CNN
F 2 "" V 12530 6500 50  0001 C CNN
F 3 "~" H 12600 6500 50  0001 C CNN
	1    12600 6500
	1    0    0    -1  
$EndComp
Wire Wire Line
	12300 6800 12300 6750
Wire Wire Line
	12300 6750 12600 6750
Wire Wire Line
	12600 6750 12600 6650
Connection ~ 12300 6750
Wire Wire Line
	12300 6750 12300 6650
Wire Wire Line
	12300 6350 12300 6250
Wire Wire Line
	12300 6250 12600 6250
Wire Wire Line
	12600 6250 12600 6350
$Comp
L Device:R_POT_TRIM R36
U 1 1 61F2DBBF
P 11700 7000
F 0 "R36" V 11585 7000 50  0000 C CNN
F 1 "500R" V 11494 7000 50  0000 C CNN
F 2 "" H 11700 7000 50  0001 C CNN
F 3 "~" H 11700 7000 50  0001 C CNN
	1    11700 7000
	0    -1   -1   0   
$EndComp
Wire Wire Line
	11850 7000 11950 7000
Wire Wire Line
	11950 7000 11950 6750
Connection ~ 11950 7000
Wire Wire Line
	11950 7000 12000 7000
Wire Wire Line
	11700 6850 11700 6750
Wire Wire Line
	11700 6750 11950 6750
Connection ~ 11950 6750
$Comp
L Device:R R35
U 1 1 61F2EB1F
P 11400 6800
F 0 "R35" H 11470 6846 50  0000 L CNN
F 1 "1k" H 11470 6755 50  0000 L CNN
F 2 "" V 11330 6800 50  0001 C CNN
F 3 "~" H 11400 6800 50  0001 C CNN
	1    11400 6800
	1    0    0    -1  
$EndComp
Wire Wire Line
	11550 7000 11400 7000
Wire Wire Line
	11400 7000 11400 6950
$Comp
L Transistor_BJT:BC548 Q23
U 1 1 61F2F683
P 11800 6450
F 0 "Q23" H 11991 6496 50  0000 L CNN
F 1 "BC548" H 11991 6405 50  0000 L CNN
F 2 "Package_TO_SOT_THT:TO-92_Inline" H 12000 6375 50  0001 L CIN
F 3 "https://www.onsemi.com/pub/Collateral/BC550-D.pdf" H 11800 6450 50  0001 L CNN
	1    11800 6450
	1    0    0    -1  
$EndComp
Wire Wire Line
	11950 6650 11900 6650
Wire Wire Line
	11950 6650 11950 6750
Wire Wire Line
	11400 6650 11400 6450
Wire Wire Line
	11600 6450 11400 6450
Connection ~ 11400 6450
Wire Wire Line
	11400 6450 11400 6300
$Comp
L Device:R R34
U 1 1 61F311F4
P 11400 6150
F 0 "R34" H 11470 6196 50  0000 L CNN
F 1 "3k3" H 11470 6105 50  0000 L CNN
F 2 "" V 11330 6150 50  0001 C CNN
F 3 "~" H 11400 6150 50  0001 C CNN
	1    11400 6150
	1    0    0    -1  
$EndComp
$Comp
L Device:Q_NPN_Darlington_ECB Q26
U 1 1 61F329BC
P 12200 5500
F 0 "Q26" H 12391 5546 50  0000 L CNN
F 1 "BD681" H 12391 5455 50  0000 L CNN
F 2 "" H 12400 5600 50  0001 C CNN
F 3 "~" H 12200 5500 50  0001 C CNN
	1    12200 5500
	1    0    0    -1  
$EndComp
Connection ~ 12300 6250
$Comp
L Device:R R38
U 1 1 61F3488B
P 12300 6000
F 0 "R38" H 12370 6046 50  0000 L CNN
F 1 "10R" H 12370 5955 50  0000 L CNN
F 2 "" V 12230 6000 50  0001 C CNN
F 3 "~" H 12300 6000 50  0001 C CNN
	1    12300 6000
	1    0    0    -1  
$EndComp
Wire Wire Line
	12300 6150 12300 6250
$Comp
L Device:R R39
U 1 1 61F35BE4
P 12600 6000
F 0 "R39" H 12670 6046 50  0000 L CNN
F 1 "10R" H 12670 5955 50  0000 L CNN
F 2 "" V 12530 6000 50  0001 C CNN
F 3 "~" H 12600 6000 50  0001 C CNN
	1    12600 6000
	1    0    0    -1  
$EndComp
Wire Wire Line
	12600 6150 12600 6250
Connection ~ 12600 6250
Wire Wire Line
	12300 5700 12300 5800
Wire Wire Line
	12300 5800 12600 5800
Wire Wire Line
	12600 5800 12600 5850
Connection ~ 12300 5800
Wire Wire Line
	12300 5800 12300 5850
Wire Wire Line
	11400 5500 11900 5500
Wire Wire Line
	11400 5500 11400 6000
Wire Wire Line
	11900 6250 11900 5500
Connection ~ 11900 5500
Wire Wire Line
	11900 5500 12000 5500
$Comp
L Device:R R33
U 1 1 61F38C86
P 11400 5200
F 0 "R33" H 11470 5246 50  0000 L CNN
F 1 "4k7" H 11470 5155 50  0000 L CNN
F 2 "" V 11330 5200 50  0001 C CNN
F 3 "~" H 11400 5200 50  0001 C CNN
	1    11400 5200
	1    0    0    -1  
$EndComp
Wire Wire Line
	11400 5350 11400 5500
Connection ~ 11400 5500
$Comp
L Device:R R32
U 1 1 61F39D17
P 11400 4750
F 0 "R32" H 11331 4796 50  0000 R CNN
F 1 "4k7" H 11331 4705 50  0000 R CNN
F 2 "" V 11330 4750 50  0001 C CNN
F 3 "~" H 11400 4750 50  0001 C CNN
	1    11400 4750
	1    0    0    -1  
$EndComp
Wire Wire Line
	11400 4900 11400 5000
$Comp
L Device:CP C25
U 1 1 61F3B06A
P 11700 5000
F 0 "C25" V 11955 5000 50  0000 C CNN
F 1 "22 uF" V 11864 5000 50  0000 C CNN
F 2 "" H 11738 4850 50  0001 C CNN
F 3 "~" H 11700 5000 50  0001 C CNN
	1    11700 5000
	0    -1   -1   0   
$EndComp
Wire Wire Line
	11550 5000 11400 5000
Connection ~ 11400 5000
Wire Wire Line
	11400 5000 11400 5050
Wire Wire Line
	11850 5000 12050 5000
Wire Wire Line
	12050 5000 12050 6250
Wire Wire Line
	12050 6250 12300 6250
$Comp
L Device:D CR21
U 1 1 61F3DD96
P 12300 4750
F 0 "CR21" V 12346 4670 50  0000 R CNN
F 1 "RGP10J" V 12255 4670 50  0000 R CNN
F 2 "" H 12300 4750 50  0001 C CNN
F 3 "~" H 12300 4750 50  0001 C CNN
	1    12300 4750
	0    -1   -1   0   
$EndComp
Wire Wire Line
	12300 4900 12300 5050
$Comp
L Device:CP C26
U 1 1 61F40DF5
P 12600 5050
F 0 "C26" V 12437 5050 50  0000 C CNN
F 1 "22 uF" V 12346 5050 50  0000 C CNN
F 2 "" H 12638 4900 50  0001 C CNN
F 3 "~" H 12600 5050 50  0001 C CNN
	1    12600 5050
	0    -1   -1   0   
$EndComp
Wire Wire Line
	12450 5050 12300 5050
Connection ~ 12300 5050
Wire Wire Line
	12300 5050 12300 5300
$Comp
L Device:Q_NPN_Darlington_ECB Q27
U 1 1 61F42256
P 13150 4700
F 0 "Q27" H 13341 4746 50  0000 L CNN
F 1 "BD681" H 13341 4655 50  0000 L CNN
F 2 "" H 13350 4800 50  0001 C CNN
F 3 "~" H 13150 4700 50  0001 C CNN
	1    13150 4700
	-1   0    0    -1  
$EndComp
Wire Wire Line
	13050 4900 13050 5050
Wire Wire Line
	12750 5050 13050 5050
Connection ~ 13050 5050
Wire Wire Line
	13050 5050 13050 5150
Wire Wire Line
	13050 4500 13050 4400
Wire Wire Line
	13050 4400 12300 4400
Wire Wire Line
	11400 4400 11400 4600
Connection ~ 11400 4400
Wire Wire Line
	12300 4600 12300 4400
Connection ~ 12300 4400
Wire Wire Line
	12300 4400 11400 4400
Connection ~ 13050 4400
$Comp
L Device:Q_PNP_CBE Q28
U 1 1 61F48437
P 13650 4950
F 0 "Q28" H 13841 4996 50  0000 L CNN
F 1 "BC490" H 13841 4905 50  0000 L CNN
F 2 "" H 13850 5050 50  0001 C CNN
F 3 "~" H 13650 4950 50  0001 C CNN
	1    13650 4950
	-1   0    0    -1  
$EndComp
Wire Wire Line
	13350 4700 13550 4700
Wire Wire Line
	13550 4700 13550 4750
$Comp
L Device:R R42
U 1 1 61F4A22B
P 13050 5400
F 0 "R42" H 13120 5446 50  0000 L CNN
F 1 "1k" H 13120 5355 50  0000 L CNN
F 2 "" V 12980 5400 50  0001 C CNN
F 3 "~" H 13050 5400 50  0001 C CNN
	1    13050 5400
	1    0    0    -1  
$EndComp
$Comp
L power:GND #PWR?
U 1 1 61F4AEFF
P 13050 5650
F 0 "#PWR?" H 13050 5400 50  0001 C CNN
F 1 "GND" H 13055 5477 50  0000 C CNN
F 2 "" H 13050 5650 50  0001 C CNN
F 3 "" H 13050 5650 50  0001 C CNN
	1    13050 5650
	1    0    0    -1  
$EndComp
Wire Wire Line
	13050 5650 13050 5550
$Comp
L Device:R R44
U 1 1 61F4C6E8
P 13550 5400
F 0 "R44" H 13620 5446 50  0000 L CNN
F 1 "22k" H 13620 5355 50  0000 L CNN
F 2 "" V 13480 5400 50  0001 C CNN
F 3 "~" H 13550 5400 50  0001 C CNN
	1    13550 5400
	1    0    0    -1  
$EndComp
Wire Wire Line
	13550 5250 13550 5150
$Comp
L Diode:1N4148 CR22
U 1 1 61F4E506
P 13550 5850
F 0 "CR22" V 13504 5770 50  0000 R CNN
F 1 "1N4148" V 13595 5770 50  0000 R CNN
F 2 "Diode_THT:D_DO-35_SOD27_P7.62mm_Horizontal" H 13550 5675 50  0001 C CNN
F 3 "https://assets.nexperia.com/documents/data-sheet/1N4148_1N4448.pdf" H 13550 5850 50  0001 C CNN
	1    13550 5850
	0    1    1    0   
$EndComp
Wire Wire Line
	13550 5700 13550 5550
Wire Wire Line
	12600 6250 13550 6250
Wire Wire Line
	13550 6000 13550 6250
Connection ~ 13550 6250
$Comp
L Device:R R56
U 1 1 61F66D27
P 14000 5250
F 0 "R56" H 14070 5296 50  0000 L CNN
F 1 "3k9" H 14070 5205 50  0000 L CNN
F 2 "" V 13930 5250 50  0001 C CNN
F 3 "~" H 14000 5250 50  0001 C CNN
	1    14000 5250
	1    0    0    -1  
$EndComp
$Comp
L Device:R R57
U 1 1 61F678AA
P 14300 5250
F 0 "R57" H 14370 5296 50  0000 L CNN
F 1 "3k9" H 14370 5205 50  0000 L CNN
F 2 "" V 14230 5250 50  0001 C CNN
F 3 "~" H 14300 5250 50  0001 C CNN
	1    14300 5250
	1    0    0    -1  
$EndComp
$Comp
L Device:R R58
U 1 1 61F681EC
P 14600 5250
F 0 "R58" H 14670 5296 50  0000 L CNN
F 1 "3k9" H 14670 5205 50  0000 L CNN
F 2 "" V 14530 5250 50  0001 C CNN
F 3 "~" H 14600 5250 50  0001 C CNN
	1    14600 5250
	1    0    0    -1  
$EndComp
Wire Wire Line
	13850 4950 14000 4950
Wire Wire Line
	14600 4950 14600 5100
Wire Wire Line
	14300 4950 14300 5100
Connection ~ 14300 4950
Wire Wire Line
	14300 4950 14350 4950
Wire Wire Line
	14000 4950 14000 5100
Connection ~ 14000 4950
Wire Wire Line
	14000 4950 14300 4950
Wire Wire Line
	14000 5400 14000 5450
Wire Wire Line
	14000 5450 14300 5450
Wire Wire Line
	14600 5450 14600 5400
Wire Wire Line
	14300 5400 14300 5450
Connection ~ 14300 5450
Wire Wire Line
	14300 5450 14600 5450
$Comp
L Device:R_POT R55
U 1 1 61F6F871
P 14300 5750
F 0 "R55" H 14230 5796 50  0000 R CNN
F 1 "4k7" H 14230 5705 50  0000 R CNN
F 2 "" H 14300 5750 50  0001 C CNN
F 3 "~" H 14300 5750 50  0001 C CNN
	1    14300 5750
	-1   0    0    -1  
$EndComp
Wire Wire Line
	14300 5600 14300 5450
$Comp
L Device:R R52
U 1 1 61F88DE1
P 14000 6200
F 0 "R52" H 14070 6246 50  0000 L CNN
F 1 "3k3" H 14070 6155 50  0000 L CNN
F 2 "" V 13930 6200 50  0001 C CNN
F 3 "~" H 14000 6200 50  0001 C CNN
	1    14000 6200
	1    0    0    -1  
$EndComp
$Comp
L Device:R R53
U 1 1 61F89B06
P 14300 6200
F 0 "R53" H 14370 6246 50  0000 L CNN
F 1 "3k3" H 14370 6155 50  0000 L CNN
F 2 "" V 14230 6200 50  0001 C CNN
F 3 "~" H 14300 6200 50  0001 C CNN
	1    14300 6200
	1    0    0    -1  
$EndComp
$Comp
L Device:R R53
U 1 1 61F8A577
P 14600 6200
F 0 "R53" H 14670 6246 50  0000 L CNN
F 1 "3k3" H 14670 6155 50  0000 L CNN
F 2 "" V 14530 6200 50  0001 C CNN
F 3 "~" H 14600 6200 50  0001 C CNN
	1    14600 6200
	1    0    0    -1  
$EndComp
Wire Wire Line
	14000 6050 14000 6000
Wire Wire Line
	14000 6000 14300 6000
Wire Wire Line
	14600 6000 14600 6050
Wire Wire Line
	14300 6050 14300 6000
Connection ~ 14300 6000
Wire Wire Line
	14300 6000 14600 6000
Wire Wire Line
	14300 6000 14300 5900
$Comp
L power:GND #PWR?
U 1 1 61F9102B
P 14000 6450
F 0 "#PWR?" H 14000 6200 50  0001 C CNN
F 1 "GND" H 14005 6277 50  0000 C CNN
F 2 "" H 14000 6450 50  0001 C CNN
F 3 "" H 14000 6450 50  0001 C CNN
	1    14000 6450
	1    0    0    -1  
$EndComp
$Comp
L power:GND #PWR?
U 1 1 61F915AB
P 14300 6450
F 0 "#PWR?" H 14300 6200 50  0001 C CNN
F 1 "GND" H 14305 6277 50  0000 C CNN
F 2 "" H 14300 6450 50  0001 C CNN
F 3 "" H 14300 6450 50  0001 C CNN
	1    14300 6450
	1    0    0    -1  
$EndComp
$Comp
L power:GND #PWR?
U 1 1 61F9190F
P 14600 6450
F 0 "#PWR?" H 14600 6200 50  0001 C CNN
F 1 "GND" H 14605 6277 50  0000 C CNN
F 2 "" H 14600 6450 50  0001 C CNN
F 3 "" H 14600 6450 50  0001 C CNN
	1    14600 6450
	1    0    0    -1  
$EndComp
Wire Wire Line
	14600 6450 14600 6350
Wire Wire Line
	14300 6450 14300 6350
Wire Wire Line
	14000 6450 14000 6350
Wire Wire Line
	13550 6250 13900 6250
Wire Wire Line
	14350 4400 14350 4950
Wire Wire Line
	13050 4400 14350 4400
Connection ~ 14350 4950
Wire Wire Line
	14350 4950 14600 4950
$Comp
L Device:R R43
U 1 1 61FD39AC
P 13900 6850
F 0 "R43" H 13970 6896 50  0000 L CNN
F 1 "4k7" H 13970 6805 50  0000 L CNN
F 2 "" V 13830 6850 50  0001 C CNN
F 3 "~" H 13900 6850 50  0001 C CNN
	1    13900 6850
	1    0    0    -1  
$EndComp
$Comp
L Device:CP C28
U 1 1 61FD4651
P 13900 7750
F 0 "C28" H 14018 7796 50  0000 L CNN
F 1 "220 uF" H 14018 7705 50  0000 L CNN
F 2 "" H 13938 7600 50  0001 C CNN
F 3 "~" H 13900 7750 50  0001 C CNN
	1    13900 7750
	1    0    0    -1  
$EndComp
Wire Wire Line
	13900 6700 13900 6250
Connection ~ 13900 6250
Wire Wire Line
	13900 6250 15150 6250
Connection ~ 13900 7050
Wire Wire Line
	13900 7050 13900 7000
$Comp
L Device:R R48
U 1 1 61FDFB7E
P 14300 8400
F 0 "R48" H 14370 8446 50  0000 L CNN
F 1 "8R2" H 14370 8355 50  0000 L CNN
F 2 "" V 14230 8400 50  0001 C CNN
F 3 "~" H 14300 8400 50  0001 C CNN
	1    14300 8400
	1    0    0    -1  
$EndComp
$Comp
L Device:R R49
U 1 1 61FE046A
P 14600 8400
F 0 "R49" H 14670 8446 50  0000 L CNN
F 1 "8R2" H 14670 8355 50  0000 L CNN
F 2 "" V 14530 8400 50  0001 C CNN
F 3 "~" H 14600 8400 50  0001 C CNN
	1    14600 8400
	1    0    0    -1  
$EndComp
Wire Wire Line
	13900 8150 14300 8150
Wire Wire Line
	14600 8150 14600 8250
Wire Wire Line
	14300 8250 14300 8150
Connection ~ 14300 8150
Wire Wire Line
	14300 8150 14600 8150
$Comp
L power:GND #PWR?
U 1 1 61FE4F92
P 14300 8650
F 0 "#PWR?" H 14300 8400 50  0001 C CNN
F 1 "GND" H 14305 8477 50  0000 C CNN
F 2 "" H 14300 8650 50  0001 C CNN
F 3 "" H 14300 8650 50  0001 C CNN
	1    14300 8650
	1    0    0    -1  
$EndComp
$Comp
L power:GND #PWR?
U 1 1 61FE5822
P 14600 8650
F 0 "#PWR?" H 14600 8400 50  0001 C CNN
F 1 "GND" H 14605 8477 50  0000 C CNN
F 2 "" H 14600 8650 50  0001 C CNN
F 3 "" H 14600 8650 50  0001 C CNN
	1    14600 8650
	1    0    0    -1  
$EndComp
Wire Wire Line
	14300 8650 14300 8550
Wire Wire Line
	14600 8550 14600 8650
$Comp
L Device:R R45
U 1 1 61FEC95F
P 13500 7050
F 0 "R45" V 13293 7050 50  0000 C CNN
F 1 "22k" V 13384 7050 50  0000 C CNN
F 2 "" V 13430 7050 50  0001 C CNN
F 3 "~" H 13500 7050 50  0001 C CNN
	1    13500 7050
	0    1    1    0   
$EndComp
Wire Wire Line
	13650 7050 13750 7050
Wire Wire Line
	13750 7050 13750 5750
Wire Wire Line
	13750 5750 14150 5750
Connection ~ 13750 7050
Wire Wire Line
	13750 7050 13900 7050
$Comp
L Device:C C27
U 1 1 61FF4257
P 12950 7400
F 0 "C27" H 12835 7446 50  0000 R CNN
F 1 "1 uF" H 12835 7355 50  0000 R CNN
F 2 "" H 12988 7250 50  0001 C CNN
F 3 "~" H 12950 7400 50  0001 C CNN
	1    12950 7400
	1    0    0    -1  
$EndComp
Wire Wire Line
	12950 7250 12950 7050
Wire Wire Line
	12950 7050 13250 7050
$Comp
L power:GND #PWR?
U 1 1 61FF7BAF
P 12950 7650
F 0 "#PWR?" H 12950 7400 50  0001 C CNN
F 1 "GND" H 12955 7477 50  0000 C CNN
F 2 "" H 12950 7650 50  0001 C CNN
F 3 "" H 12950 7650 50  0001 C CNN
	1    12950 7650
	1    0    0    -1  
$EndComp
Wire Wire Line
	12950 7650 12950 7550
$Comp
L Device:R R46
U 1 1 61FFB190
P 13250 7750
F 0 "R46" H 13320 7796 50  0000 L CNN
F 1 "22k" H 13320 7705 50  0000 L CNN
F 2 "" V 13180 7750 50  0001 C CNN
F 3 "~" H 13250 7750 50  0001 C CNN
	1    13250 7750
	1    0    0    -1  
$EndComp
Wire Wire Line
	13250 7600 13250 7050
Connection ~ 13250 7050
Wire Wire Line
	13250 7050 13350 7050
$Comp
L Device:Q_NPN_CBE Q24
U 1 1 62001816
P 11850 7750
F 0 "Q24" H 12041 7796 50  0000 L CNN
F 1 "BC449" H 12041 7705 50  0000 L CNN
F 2 "" H 12050 7850 50  0001 C CNN
F 3 "~" H 11850 7750 50  0001 C CNN
	1    11850 7750
	1    0    0    -1  
$EndComp
Wire Wire Line
	11950 7550 11950 7000
$Comp
L Device:R R37
U 1 1 6200850C
P 11950 8200
F 0 "R37" H 12020 8246 50  0000 L CNN
F 1 "470R" H 12020 8155 50  0000 L CNN
F 2 "" V 11880 8200 50  0001 C CNN
F 3 "~" H 11950 8200 50  0001 C CNN
	1    11950 8200
	1    0    0    -1  
$EndComp
Wire Wire Line
	11950 8050 11950 8000
$Comp
L Device:CP C24
U 1 1 6200C413
P 12350 8200
F 0 "C24" H 12468 8246 50  0000 L CNN
F 1 "100 uF" H 12468 8155 50  0000 L CNN
F 2 "" H 12388 8050 50  0001 C CNN
F 3 "~" H 12350 8200 50  0001 C CNN
	1    12350 8200
	1    0    0    -1  
$EndComp
Wire Wire Line
	12350 8050 12350 8000
Wire Wire Line
	12350 8000 11950 8000
Connection ~ 11950 8000
Wire Wire Line
	11950 8000 11950 7950
$Comp
L power:GND #PWR?
U 1 1 62010265
P 11950 8450
F 0 "#PWR?" H 11950 8200 50  0001 C CNN
F 1 "GND" H 11955 8277 50  0000 C CNN
F 2 "" H 11950 8450 50  0001 C CNN
F 3 "" H 11950 8450 50  0001 C CNN
	1    11950 8450
	1    0    0    -1  
$EndComp
$Comp
L power:GND #PWR?
U 1 1 6201090D
P 12350 8450
F 0 "#PWR?" H 12350 8200 50  0001 C CNN
F 1 "GND" H 12355 8277 50  0000 C CNN
F 2 "" H 12350 8450 50  0001 C CNN
F 3 "" H 12350 8450 50  0001 C CNN
	1    12350 8450
	1    0    0    -1  
$EndComp
Wire Wire Line
	12350 8450 12350 8350
Wire Wire Line
	11950 8450 11950 8350
$Comp
L Device:R R31
U 1 1 62017E4A
P 11300 7750
F 0 "R31" V 11093 7750 50  0000 C CNN
F 1 "4k7" V 11184 7750 50  0000 C CNN
F 2 "" V 11230 7750 50  0001 C CNN
F 3 "~" H 11300 7750 50  0001 C CNN
	1    11300 7750
	0    1    1    0   
$EndComp
Wire Wire Line
	11450 7750 11550 7750
$Comp
L Device:R R50
U 1 1 620200C1
P 13550 8850
F 0 "R50" V 13343 8850 50  0000 C CNN
F 1 "100k" V 13434 8850 50  0000 C CNN
F 2 "" V 13480 8850 50  0001 C CNN
F 3 "~" H 13550 8850 50  0001 C CNN
	1    13550 8850
	0    1    1    0   
$EndComp
$Comp
L Device:R R47
U 1 1 62020E30
P 13550 8550
F 0 "R47" V 13343 8550 50  0000 C CNN
F 1 "3k3" V 13434 8550 50  0000 C CNN
F 2 "" V 13480 8550 50  0001 C CNN
F 3 "~" H 13550 8550 50  0001 C CNN
	1    13550 8550
	0    1    1    0   
$EndComp
Wire Wire Line
	13700 8850 13900 8850
Wire Wire Line
	13700 8550 13900 8550
Connection ~ 13900 8550
Wire Wire Line
	13900 8550 13900 8850
Wire Wire Line
	13400 8550 13250 8550
Wire Wire Line
	13250 7900 13250 8550
Connection ~ 13250 8550
Wire Wire Line
	11550 8550 11550 7750
Wire Wire Line
	11550 8550 13250 8550
Connection ~ 11550 7750
Wire Wire Line
	11550 7750 11650 7750
$Comp
L Device:C C29
U 1 1 620353B6
P 12650 8850
F 0 "C29" V 12398 8850 50  0000 C CNN
F 1 "68 nF" V 12489 8850 50  0000 C CNN
F 2 "" H 12688 8700 50  0001 C CNN
F 3 "~" H 12650 8850 50  0001 C CNN
	1    12650 8850
	0    1    1    0   
$EndComp
Wire Wire Line
	12800 8850 13400 8850
Wire Wire Line
	12500 8850 11550 8850
Wire Wire Line
	11550 8850 11550 8550
Connection ~ 11550 8550
Connection ~ 13900 8150
Wire Wire Line
	13900 8150 13900 8550
Wire Wire Line
	13900 7900 13900 8150
Wire Wire Line
	13900 7050 13900 7600
$Comp
L Device:CP C22
U 1 1 620565EF
P 10850 7750
F 0 "C22" V 11105 7750 50  0000 C CNN
F 1 "10 uF" V 11014 7750 50  0000 C CNN
F 2 "" H 10888 7600 50  0001 C CNN
F 3 "~" H 10850 7750 50  0001 C CNN
	1    10850 7750
	0    -1   -1   0   
$EndComp
Wire Wire Line
	11000 7750 11150 7750
$Comp
L Device:R_POT R29
U 1 1 6205CE18
P 10350 7750
F 0 "R29" H 10281 7796 50  0000 R CNN
F 1 "500R" H 10281 7705 50  0000 R CNN
F 2 "" H 10350 7750 50  0001 C CNN
F 3 "~" H 10350 7750 50  0001 C CNN
	1    10350 7750
	1    0    0    -1  
$EndComp
Wire Wire Line
	10500 7750 10700 7750
$Comp
L Device:R R30
U 1 1 6206249A
P 10350 8250
F 0 "R30" H 10420 8296 50  0000 L CNN
F 1 "1k" H 10420 8205 50  0000 L CNN
F 2 "" V 10280 8250 50  0001 C CNN
F 3 "~" H 10350 8250 50  0001 C CNN
	1    10350 8250
	1    0    0    -1  
$EndComp
$Comp
L power:GND #PWR?
U 1 1 62062DF9
P 10350 8500
F 0 "#PWR?" H 10350 8250 50  0001 C CNN
F 1 "GND" H 10355 8327 50  0000 C CNN
F 2 "" H 10350 8500 50  0001 C CNN
F 3 "" H 10350 8500 50  0001 C CNN
	1    10350 8500
	1    0    0    -1  
$EndComp
Wire Wire Line
	10350 8500 10350 8400
Wire Wire Line
	10350 8100 10350 7900
$Comp
L Device:R_POT_TRIM R26
U 1 1 6206C91C
P 9850 7750
F 0 "R26" H 9780 7796 50  0000 R CNN
F 1 "10k" H 9780 7705 50  0000 R CNN
F 2 "" H 9850 7750 50  0001 C CNN
F 3 "~" H 9850 7750 50  0001 C CNN
	1    9850 7750
	-1   0    0    -1  
$EndComp
$Comp
L Device:Q_NPN_CBE Q22
U 1 1 6206D7F7
P 10250 7150
F 0 "Q22" H 10441 7196 50  0000 L CNN
F 1 "BC449" H 10441 7105 50  0000 L CNN
F 2 "" H 10450 7250 50  0001 C CNN
F 3 "~" H 10250 7150 50  0001 C CNN
	1    10250 7150
	1    0    0    -1  
$EndComp
Wire Wire Line
	10350 7350 10350 7500
Wire Wire Line
	9850 7600 9850 7500
Wire Wire Line
	9850 7500 10350 7500
Connection ~ 10350 7500
Wire Wire Line
	10350 7500 10350 7600
$Comp
L Device:R R27
U 1 1 6207855A
P 9850 8250
F 0 "R27" H 9920 8296 50  0000 L CNN
F 1 "10k" H 9920 8205 50  0000 L CNN
F 2 "" V 9780 8250 50  0001 C CNN
F 3 "~" H 9850 8250 50  0001 C CNN
	1    9850 8250
	1    0    0    -1  
$EndComp
Wire Wire Line
	9850 8100 9850 8000
Wire Wire Line
	9700 7750 9650 7750
Wire Wire Line
	9650 7750 9650 8000
Wire Wire Line
	9650 8000 9850 8000
Connection ~ 9850 8000
Wire Wire Line
	9850 8000 9850 7900
Wire Wire Line
	9850 8400 9850 8500
$Comp
L Device:C C20
U 1 1 62089D78
P 9350 8000
F 0 "C20" H 9465 8046 50  0000 L CNN
F 1 "1 uF" H 9465 7955 50  0000 L CNN
F 2 "" H 9388 7850 50  0001 C CNN
F 3 "~" H 9350 8000 50  0001 C CNN
	1    9350 8000
	1    0    0    -1  
$EndComp
$Comp
L Device:C C21
U 1 1 6208AA87
P 9350 8750
F 0 "C21" H 9465 8796 50  0000 L CNN
F 1 "1 uF" H 9465 8705 50  0000 L CNN
F 2 "" H 9388 8600 50  0001 C CNN
F 3 "~" H 9350 8750 50  0001 C CNN
	1    9350 8750
	1    0    0    -1  
$EndComp
$Comp
L power:GND #PWR?
U 1 1 6208B30C
P 9350 9000
F 0 "#PWR?" H 9350 8750 50  0001 C CNN
F 1 "GND" H 9355 8827 50  0000 C CNN
F 2 "" H 9350 9000 50  0001 C CNN
F 3 "" H 9350 9000 50  0001 C CNN
	1    9350 9000
	1    0    0    -1  
$EndComp
Wire Wire Line
	9350 9000 9350 8900
Wire Wire Line
	9350 8600 9350 8500
Wire Wire Line
	9850 8500 9350 8500
Connection ~ 9350 8500
Wire Wire Line
	9350 8500 9350 8150
$Comp
L Diode:1N4148 CR20
U 1 1 6209DB75
P 9350 7450
F 0 "CR20" V 9396 7370 50  0000 R CNN
F 1 "1N4148" V 9305 7370 50  0000 R CNN
F 2 "Diode_THT:D_DO-35_SOD27_P7.62mm_Horizontal" H 9350 7275 50  0001 C CNN
F 3 "https://assets.nexperia.com/documents/data-sheet/1N4148_1N4448.pdf" H 9350 7450 50  0001 C CNN
	1    9350 7450
	0    -1   -1   0   
$EndComp
Wire Wire Line
	9350 7600 9350 7700
Wire Wire Line
	9350 7300 9350 7150
Wire Wire Line
	10050 7150 9350 7150
Connection ~ 9350 7150
$Comp
L Device:R R28
U 1 1 620B4EA0
P 10350 6150
F 0 "R28" H 10420 6196 50  0000 L CNN
F 1 "4k7" H 10420 6105 50  0000 L CNN
F 2 "" V 10280 6150 50  0001 C CNN
F 3 "~" H 10350 6150 50  0001 C CNN
	1    10350 6150
	1    0    0    -1  
$EndComp
Wire Wire Line
	10350 6300 10350 6950
$Comp
L Device:R R25
U 1 1 620BD056
P 9350 6750
F 0 "R25" H 9420 6796 50  0000 L CNN
F 1 "270k" H 9420 6705 50  0000 L CNN
F 2 "" V 9280 6750 50  0001 C CNN
F 3 "~" H 9350 6750 50  0001 C CNN
	1    9350 6750
	1    0    0    -1  
$EndComp
Wire Wire Line
	9350 6900 9350 7150
$Comp
L Device:R_POT_TRIM R24
U 1 1 620C5433
P 9350 6150
F 0 "R24" H 9280 6196 50  0000 R CNN
F 1 "220k" H 9280 6105 50  0000 R CNN
F 2 "" H 9350 6150 50  0001 C CNN
F 3 "~" H 9350 6150 50  0001 C CNN
	1    9350 6150
	-1   0    0    -1  
$EndComp
Wire Wire Line
	9350 6300 9350 6400
Wire Wire Line
	9350 6400 9100 6400
Wire Wire Line
	9100 6400 9100 6150
Wire Wire Line
	9100 6150 9200 6150
Connection ~ 9350 6400
Wire Wire Line
	9350 6400 9350 6600
Wire Wire Line
	9350 6000 9350 5800
Wire Wire Line
	9350 5800 10350 5800
Wire Wire Line
	10350 5800 10350 6000
Wire Wire Line
	10350 5800 10350 4400
Wire Wire Line
	10350 4400 11400 4400
Connection ~ 10350 5800
$Comp
L Device:CP C23
U 1 1 620EE254
P 8750 6150
F 0 "C23" H 8633 6196 50  0000 R CNN
F 1 "470 uF" H 8633 6105 50  0000 R CNN
F 2 "" H 8788 6000 50  0001 C CNN
F 3 "~" H 8750 6150 50  0001 C CNN
	1    8750 6150
	1    0    0    -1  
$EndComp
$Comp
L power:GND #PWR?
U 1 1 620EF66B
P 8750 6400
F 0 "#PWR?" H 8750 6150 50  0001 C CNN
F 1 "GND" H 8755 6227 50  0000 C CNN
F 2 "" H 8750 6400 50  0001 C CNN
F 3 "" H 8750 6400 50  0001 C CNN
	1    8750 6400
	1    0    0    -1  
$EndComp
Wire Wire Line
	8750 6400 8750 6300
Wire Wire Line
	8750 6000 8750 5800
Wire Wire Line
	8750 5800 9350 5800
Connection ~ 9350 5800
$Comp
L Transistor_BJT:BC558 Q21
U 1 1 6210143D
P 8300 7900
F 0 "Q21" H 8491 7854 50  0000 L CNN
F 1 "BC558" H 8491 7945 50  0000 L CNN
F 2 "Package_TO_SOT_THT:TO-92_Inline" H 8500 7825 50  0001 L CIN
F 3 "https://www.onsemi.com/pub/Collateral/BC556BTA-D.pdf" H 8300 7900 50  0001 L CNN
	1    8300 7900
	1    0    0    1   
$EndComp
$Comp
L Device:R R23
U 1 1 62104F21
P 8900 7700
F 0 "R23" V 8693 7700 50  0000 C CNN
F 1 "10R" V 8784 7700 50  0000 C CNN
F 2 "" V 8830 7700 50  0001 C CNN
F 3 "~" H 8900 7700 50  0001 C CNN
	1    8900 7700
	0    1    1    0   
$EndComp
Wire Wire Line
	9050 7700 9350 7700
Connection ~ 9350 7700
Wire Wire Line
	9350 7700 9350 7850
Wire Wire Line
	8750 7700 8400 7700
Wire Wire Line
	8100 7900 7650 7900
$Comp
L Transistor_BJT:BC548 Q20
U 1 1 6211FC4A
P 8200 8350
F 0 "Q20" H 8391 8304 50  0000 L CNN
F 1 "BC548" H 8391 8395 50  0000 L CNN
F 2 "Package_TO_SOT_THT:TO-92_Inline" H 8400 8275 50  0001 L CIN
F 3 "https://www.onsemi.com/pub/Collateral/BC550-D.pdf" H 8200 8350 50  0001 L CNN
	1    8200 8350
	-1   0    0    1   
$EndComp
Wire Wire Line
	8400 8350 8400 8100
Wire Wire Line
	8100 8150 8100 7900
Connection ~ 8100 7900
$Comp
L power:GND #PWR?
U 1 1 62132482
P 8100 8700
F 0 "#PWR?" H 8100 8450 50  0001 C CNN
F 1 "GND" H 8105 8527 50  0000 C CNN
F 2 "" H 8100 8700 50  0001 C CNN
F 3 "" H 8100 8700 50  0001 C CNN
	1    8100 8700
	1    0    0    -1  
$EndComp
Wire Wire Line
	8100 8700 8100 8550
$Comp
L Device:R R20
U 1 1 6213CA13
P 7650 8200
F 0 "R20" H 7720 8246 50  0000 L CNN
F 1 "470R" H 7720 8155 50  0000 L CNN
F 2 "" V 7580 8200 50  0001 C CNN
F 3 "~" H 7650 8200 50  0001 C CNN
	1    7650 8200
	1    0    0    -1  
$EndComp
Wire Wire Line
	7650 8050 7650 7900
Connection ~ 7650 7900
$Comp
L Device:R R21
U 1 1 62152032
P 7650 8900
F 0 "R21" H 7720 8946 50  0000 L CNN
F 1 "470R" H 7720 8855 50  0000 L CNN
F 2 "" V 7580 8900 50  0001 C CNN
F 3 "~" H 7650 8900 50  0001 C CNN
	1    7650 8900
	1    0    0    -1  
$EndComp
$Comp
L power:GND #PWR?
U 1 1 62152B1E
P 7650 9200
F 0 "#PWR?" H 7650 8950 50  0001 C CNN
F 1 "GND" H 7655 9027 50  0000 C CNN
F 2 "" H 7650 9200 50  0001 C CNN
F 3 "" H 7650 9200 50  0001 C CNN
	1    7650 9200
	1    0    0    -1  
$EndComp
Wire Wire Line
	7650 9200 7650 9050
Wire Wire Line
	7650 8750 7650 8550
$Comp
L Device:R R22
U 1 1 621697E6
P 7650 6750
F 0 "R22" H 7720 6796 50  0000 L CNN
F 1 "6k8" H 7720 6705 50  0000 L CNN
F 2 "" V 7580 6750 50  0001 C CNN
F 3 "~" H 7650 6750 50  0001 C CNN
	1    7650 6750
	1    0    0    -1  
$EndComp
Wire Wire Line
	7650 6900 7650 7900
Wire Wire Line
	7650 6600 7650 5800
Wire Wire Line
	7650 5800 8750 5800
Connection ~ 8750 5800
Connection ~ 7650 5800
$Comp
L Device:R R51
U 1 1 6218EF5C
P 7350 9950
F 0 "R51" V 7143 9950 50  0000 C CNN
F 1 "10k" V 7234 9950 50  0000 C CNN
F 2 "" V 7280 9950 50  0001 C CNN
F 3 "~" H 7350 9950 50  0001 C CNN
	1    7350 9950
	0    1    1    0   
$EndComp
Wire Wire Line
	13050 5150 12850 5150
Wire Wire Line
	12850 5150 12850 9050
Wire Wire Line
	11650 9950 7500 9950
Connection ~ 13050 5150
Wire Wire Line
	13050 5150 13050 5250
$Comp
L Connector:Conn_01x10_Male W6C
U 1 1 6219BE93
P 5350 8000
F 0 "W6C" H 5242 8585 50  0000 C CNN
F 1 "conn" H 5242 8494 50  0000 C CNN
F 2 "" H 5350 8000 50  0001 C CNN
F 3 "~" H 5350 8000 50  0001 C CNN
	1    5350 8000
	-1   0    0    -1  
$EndComp
Wire Wire Line
	7200 9950 5000 9950
Text Notes 5400 8550 0    50   ~ 0
BLANKING
Text Notes 5400 8450 0    50   ~ 0
- V. SYNC
Text Notes 5450 8250 0    50   ~ 0
+ 65 V
Text Notes 5450 8150 0    50   ~ 0
- 30 V
Text Notes 5400 8050 0    50   ~ 0
Not used
Text Notes 5400 7950 0    50   ~ 0
Not used
Text Notes 5450 7850 0    50   ~ 0
- 12 V
Text Notes 5450 7750 0    50   ~ 0
GND
Text Notes 5450 7650 0    50   ~ 0
+ 12 V
Text Notes 14350 5900 0    50   ~ 0
vert. shift
Text Notes 11600 7300 0    50   ~ 0
q. cur.
Text Notes 10350 7950 0    50   ~ 0
height
Text Notes 9850 7950 0    50   ~ 0
v. lin.
Text Notes 9350 6350 0    50   ~ 0
v. freq.
Wire Wire Line
	13900 7050 14950 7050
Wire Wire Line
	15150 6350 14950 6350
Wire Wire Line
	14950 6350 14950 7050
Wire Wire Line
	12850 9050 11650 9050
Wire Wire Line
	11650 9050 11650 9950
$Comp
L Device:R R11
U 1 1 6099D08F
P 7350 5800
F 0 "R11" V 7143 5800 50  0000 C CNN
F 1 "47R" V 7234 5800 50  0000 C CNN
F 2 "" V 7280 5800 50  0001 C CNN
F 3 "~" H 7350 5800 50  0001 C CNN
	1    7350 5800
	0    1    1    0   
$EndComp
Wire Wire Line
	7500 5800 7650 5800
$Comp
L Connector:Conn_01x03_Male SW1
U 1 1 609AA513
P 7400 5350
F 0 "SW1" H 7508 5631 50  0000 C CNN
F 1 "hor. shift select" H 7508 5540 50  0000 C CNN
F 2 "" H 7400 5350 50  0001 C CNN
F 3 "~" H 7400 5350 50  0001 C CNN
	1    7400 5350
	-1   0    0    -1  
$EndComp
$Comp
L Connector:Conn_01x02_Female J1
U 1 1 609AB540
P 7550 5350
F 0 "J1" H 7442 5535 50  0000 C CNN
F 1 "J1" H 7442 5444 50  0000 C CNN
F 2 "" H 7550 5350 50  0001 C CNN
F 3 "~" H 7550 5350 50  0001 C CNN
	1    7550 5350
	-1   0    0    -1  
$EndComp
Wire Wire Line
	7750 5350 7800 5350
Wire Wire Line
	7800 5350 7800 5450
Wire Wire Line
	7800 5450 7750 5450
$Comp
L Device:CP C14
U 1 1 609B76C7
P 6600 5300
F 0 "C14" H 6718 5346 50  0000 L CNN
F 1 "100 uF" H 6718 5255 50  0000 L CNN
F 2 "" H 6638 5150 50  0001 C CNN
F 3 "~" H 6600 5300 50  0001 C CNN
	1    6600 5300
	1    0    0    -1  
$EndComp
Wire Wire Line
	7200 5450 6600 5450
$Comp
L Device:R_POT R15
U 1 1 609C6304
P 6200 5300
F 0 "R15" H 6130 5346 50  0000 R CNN
F 1 "68R" H 6130 5255 50  0000 R CNN
F 2 "" H 6200 5300 50  0001 C CNN
F 3 "~" H 6200 5300 50  0001 C CNN
	1    6200 5300
	-1   0    0    -1  
$EndComp
Wire Wire Line
	6600 5450 6200 5450
Connection ~ 6600 5450
Wire Wire Line
	6600 5150 6600 5100
Wire Wire Line
	6600 5100 6200 5100
Wire Wire Line
	6200 5100 6200 5150
Wire Wire Line
	6600 5100 7100 5100
Wire Wire Line
	7100 5100 7100 5250
Wire Wire Line
	7100 5250 7200 5250
Connection ~ 6600 5100
$Comp
L Device:D CR10
U 1 1 609EB0E7
P 5850 5100
F 0 "CR10" H 5850 4883 50  0000 C CNN
F 1 "RGP10J" H 5850 4974 50  0000 C CNN
F 2 "" H 5850 5100 50  0001 C CNN
F 3 "~" H 5850 5100 50  0001 C CNN
	1    5850 5100
	-1   0    0    1   
$EndComp
Wire Wire Line
	6000 5100 6200 5100
Connection ~ 6200 5100
$Comp
L Device:L_Core_Ferrite_Coupled_Small L6
U 1 1 609F8CBE
P 5550 5250
F 0 "L6" V 5504 5112 50  0000 R CNN
F 1 "L" V 5595 5112 50  0000 R CNN
F 2 "" H 5550 5250 50  0001 C CNN
F 3 "~" H 5550 5250 50  0001 C CNN
	1    5550 5250
	0    -1   1    0   
$EndComp
Wire Wire Line
	5700 5100 5600 5100
Wire Wire Line
	5600 5100 5600 5150
Wire Wire Line
	6200 5450 5600 5450
Wire Wire Line
	5600 5450 5600 5350
Connection ~ 6200 5450
Wire Wire Line
	5500 5350 5500 5550
Wire Wire Line
	5500 5550 5950 5550
Wire Wire Line
	5950 5550 5950 5300
Wire Wire Line
	5950 5300 6050 5300
Wire Wire Line
	5400 5550 5400 4800
Wire Wire Line
	5400 4800 7000 4800
Wire Wire Line
	7200 5350 7000 5350
Wire Wire Line
	7000 5350 7000 4800
Connection ~ 7000 4800
Wire Wire Line
	10250 4800 10250 4300
Wire Wire Line
	10250 4300 14850 4300
Wire Wire Line
	14850 4300 14850 6150
Wire Wire Line
	14850 6150 15150 6150
Wire Wire Line
	7000 4800 10250 4800
Wire Wire Line
	15150 6050 14950 6050
Wire Wire Line
	14950 6050 14950 4200
Wire Wire Line
	14950 4200 10150 4200
Wire Wire Line
	10150 4200 10150 4700
Wire Wire Line
	5500 5150 5500 4700
Connection ~ 5500 4700
Wire Wire Line
	5500 4700 10150 4700
$Comp
L Device:C C32
U 1 1 60A8F8F9
P 5100 5350
F 0 "C32" H 5215 5396 50  0000 L CNN
F 1 "470 pF" H 5215 5305 50  0000 L CNN
F 2 "" H 5138 5200 50  0001 C CNN
F 3 "~" H 5100 5350 50  0001 C CNN
	1    5100 5350
	1    0    0    -1  
$EndComp
$Comp
L Device:R R61
U 1 1 60A90484
P 5100 4950
F 0 "R61" H 5170 4996 50  0000 L CNN
F 1 "470R" H 5170 4905 50  0000 L CNN
F 2 "" V 5030 4950 50  0001 C CNN
F 3 "~" H 5100 4950 50  0001 C CNN
	1    5100 4950
	1    0    0    -1  
$EndComp
Wire Wire Line
	5100 5200 5100 5100
Wire Wire Line
	5000 4700 5100 4700
Wire Wire Line
	5100 4800 5100 4700
Connection ~ 5100 4700
Wire Wire Line
	5100 4700 5500 4700
Wire Wire Line
	5400 5550 5100 5550
Wire Wire Line
	5100 5500 5100 5550
Connection ~ 5100 5550
$Comp
L Device:LTRIM L3
U 1 1 60AE2A30
P 4850 4700
F 0 "L3" V 5090 4700 50  0000 C CNN
F 1 "width" V 4999 4700 50  0000 C CNN
F 2 "" H 4850 4700 50  0001 C CNN
F 3 "~" H 4850 4700 50  0001 C CNN
	1    4850 4700
	0    -1   -1   0   
$EndComp
$Comp
L Device:LTRIM L2
U 1 1 60AE365E
P 4400 4700
F 0 "L2" V 4640 4700 50  0000 C CNN
F 1 "h. lin." V 4549 4700 50  0000 C CNN
F 2 "" H 4400 4700 50  0001 C CNN
F 3 "~" H 4400 4700 50  0001 C CNN
	1    4400 4700
	0    -1   -1   0   
$EndComp
$Comp
L Device:R R9
U 1 1 60AE4748
P 4400 4900
F 0 "R9" V 4515 4900 50  0000 C CNN
F 1 "270R" V 4606 4900 50  0000 C CNN
F 2 "" V 4330 4900 50  0001 C CNN
F 3 "~" H 4400 4900 50  0001 C CNN
	1    4400 4900
	0    1    1    0   
$EndComp
Wire Wire Line
	4550 4700 4650 4700
Wire Wire Line
	4550 4900 4650 4900
Wire Wire Line
	4650 4900 4650 4700
Connection ~ 4650 4700
Wire Wire Line
	4650 4700 4700 4700
Wire Wire Line
	4250 4700 4150 4700
Wire Wire Line
	4250 4900 4150 4900
Wire Wire Line
	4150 4900 4150 4700
Connection ~ 4150 4700
Wire Wire Line
	4150 4700 4000 4700
$Comp
L Device:CP C3
U 1 1 60B29921
P 4150 5350
F 0 "C3" H 4268 5396 50  0000 L CNN
F 1 "470 uF" H 4268 5305 50  0000 L CNN
F 2 "" H 4188 5200 50  0001 C CNN
F 3 "~" H 4150 5350 50  0001 C CNN
	1    4150 5350
	1    0    0    -1  
$EndComp
Wire Wire Line
	4150 5500 4150 5550
Connection ~ 4150 5550
Wire Wire Line
	4150 5550 5100 5550
Wire Wire Line
	7200 5800 4800 5800
Wire Wire Line
	4800 5800 4800 5200
Wire Wire Line
	4800 5200 4150 5200
$Comp
L Device:C C2
U 1 1 60B61144
P 3850 4700
F 0 "C2" V 3598 4700 50  0000 C CNN
F 1 "1u8" V 3689 4700 50  0000 C CNN
F 2 "" H 3888 4550 50  0001 C CNN
F 3 "~" H 3850 4700 50  0001 C CNN
	1    3850 4700
	0    1    1    0   
$EndComp
Wire Wire Line
	3700 4700 3550 4700
$Comp
L Device:D CR1
U 1 1 60B74DA9
P 3550 5000
F 0 "CR1" V 3596 4920 50  0000 R CNN
F 1 "RGP10J" V 3505 4920 50  0000 R CNN
F 2 "" H 3550 5000 50  0001 C CNN
F 3 "~" H 3550 5000 50  0001 C CNN
	1    3550 5000
	0    -1   -1   0   
$EndComp
Wire Wire Line
	3550 4850 3550 4700
$Comp
L Device:R R10
U 1 1 60B88F32
P 3750 5200
F 0 "R10" V 3865 5200 50  0000 C CNN
F 1 "39R" V 3956 5200 50  0000 C CNN
F 2 "" V 3680 5200 50  0001 C CNN
F 3 "~" H 3750 5200 50  0001 C CNN
	1    3750 5200
	0    1    1    0   
$EndComp
Wire Wire Line
	3900 5200 4150 5200
Connection ~ 4150 5200
Wire Wire Line
	3600 5200 3550 5200
Wire Wire Line
	3550 5200 3550 5150
$Comp
L power:GND #PWR?
U 1 1 60BC3C0C
P 3850 5550
F 0 "#PWR?" H 3850 5300 50  0001 C CNN
F 1 "GND" H 3855 5377 50  0000 C CNN
F 2 "" H 3850 5550 50  0001 C CNN
F 3 "" H 3850 5550 50  0001 C CNN
	1    3850 5550
	1    0    0    -1  
$EndComp
Connection ~ 3850 5550
Wire Wire Line
	3850 5550 4150 5550
Wire Wire Line
	3550 4700 3200 4700
Connection ~ 3550 4700
$Comp
L Device:D CR11
U 1 1 60BD878B
P 3200 4950
F 0 "CR11" V 3154 4871 50  0000 R CNN
F 1 "RGP10J" V 3245 4871 50  0000 R CNN
F 2 "" H 3200 4950 50  0001 C CNN
F 3 "~" H 3200 4950 50  0001 C CNN
	1    3200 4950
	0    1    1    0   
$EndComp
$Comp
L Device:C C30
U 1 1 60BD9983
P 3200 5350
F 0 "C30" H 3086 5396 50  0000 R CNN
F 1 "22 nF" H 3086 5305 50  0000 R CNN
F 2 "" H 3238 5200 50  0001 C CNN
F 3 "~" H 3200 5350 50  0001 C CNN
	1    3200 5350
	1    0    0    -1  
$EndComp
Wire Wire Line
	3200 5200 3200 5100
Wire Wire Line
	3200 5500 3200 5550
Connection ~ 3200 5550
Wire Wire Line
	3200 5550 3400 5550
Wire Wire Line
	3200 4800 3200 4700
Connection ~ 3200 4700
$Comp
L Device:R R59
U 1 1 60C17E3E
P 3400 5300
F 0 "R59" H 3470 5346 50  0000 L CNN
F 1 "1M" H 3470 5255 50  0000 L CNN
F 2 "" V 3330 5300 50  0001 C CNN
F 3 "~" H 3400 5300 50  0001 C CNN
	1    3400 5300
	1    0    0    -1  
$EndComp
Wire Wire Line
	3400 5150 3400 5100
Wire Wire Line
	3400 5100 3200 5100
Connection ~ 3200 5100
Wire Wire Line
	3400 5450 3400 5550
Connection ~ 3400 5550
Wire Wire Line
	3400 5550 3850 5550
$Comp
L Device:R R8
U 1 1 60C436C8
P 2750 4950
F 0 "R8" H 2681 4996 50  0000 R CNN
F 1 "470R" H 2681 4905 50  0000 R CNN
F 2 "" V 2680 4950 50  0001 C CNN
F 3 "~" H 2750 4950 50  0001 C CNN
	1    2750 4950
	1    0    0    -1  
$EndComp
$Comp
L Device:C C4
U 1 1 60C44358
P 2750 5350
F 0 "C4" H 2636 5396 50  0000 R CNN
F 1 "680 pF" H 2636 5305 50  0000 R CNN
F 2 "" H 2788 5200 50  0001 C CNN
F 3 "~" H 2750 5350 50  0001 C CNN
	1    2750 5350
	1    0    0    -1  
$EndComp
Wire Wire Line
	2750 4800 2750 4700
Connection ~ 2750 4700
Wire Wire Line
	2750 4700 3200 4700
Wire Wire Line
	2750 5100 2750 5200
Wire Wire Line
	2750 5500 2750 5550
Connection ~ 2750 5550
Wire Wire Line
	2750 5550 3200 5550
$Comp
L Device:L S3
U 1 1 60CB73AF
P 2150 5150
F 0 "S3" H 2106 5104 50  0000 R CNN
F 1 "S3" H 2106 5195 50  0000 R CNN
F 2 "" H 2150 5150 50  0001 C CNN
F 3 "~" H 2150 5150 50  0001 C CNN
	1    2150 5150
	-1   0    0    1   
$EndComp
Wire Wire Line
	2150 5550 2150 5300
Wire Wire Line
	2150 5550 2750 5550
Wire Wire Line
	2150 5000 2150 4700
Wire Wire Line
	2150 4700 2750 4700
$Comp
L Device:L S4
U 1 1 60CE5CC9
P 2150 6250
F 0 "S4" H 2106 6204 50  0000 R CNN
F 1 "S4" H 2106 6295 50  0000 R CNN
F 2 "" H 2150 6250 50  0001 C CNN
F 3 "~" H 2150 6250 50  0001 C CNN
	1    2150 6250
	-1   0    0    1   
$EndComp
$Comp
L Device:D CR12
U 1 1 60CE6AF1
P 2700 6200
F 0 "CR12" H 2700 6075 50  0000 C CNN
F 1 "RGP10J" H 2700 5984 50  0000 C CNN
F 2 "" H 2700 6200 50  0001 C CNN
F 3 "~" H 2700 6200 50  0001 C CNN
	1    2700 6200
	1    0    0    -1  
$EndComp
$Comp
L Device:D CR2
U 1 1 60CE8398
P 2650 6050
F 0 "CR2" H 2650 5833 50  0000 C CNN
F 1 "BYW29" H 2650 5924 50  0000 C CNN
F 2 "" H 2650 6050 50  0001 C CNN
F 3 "~" H 2650 6050 50  0001 C CNN
	1    2650 6050
	-1   0    0    1   
$EndComp
$Comp
L Device:R R60
U 1 1 60CEB716
P 3100 6200
F 0 "R60" V 3215 6200 50  0000 C CNN
F 1 "1M" V 3306 6200 50  0000 C CNN
F 2 "" V 3030 6200 50  0001 C CNN
F 3 "~" H 3100 6200 50  0001 C CNN
	1    3100 6200
	0    1    1    0   
$EndComp
Wire Wire Line
	2950 6200 2900 6200
$Comp
L Device:C C31
U 1 1 60D03B5A
P 3100 6550
F 0 "C31" V 3260 6550 50  0000 C CNN
F 1 "22 nF" V 3351 6550 50  0000 C CNN
F 2 "" H 3138 6400 50  0001 C CNN
F 3 "~" H 3100 6550 50  0001 C CNN
	1    3100 6550
	0    1    1    0   
$EndComp
Wire Wire Line
	2950 6550 2900 6550
Wire Wire Line
	2900 6550 2900 6200
Connection ~ 2900 6200
Wire Wire Line
	2900 6200 2850 6200
Wire Wire Line
	3250 6200 3300 6200
Wire Wire Line
	3250 6550 3300 6550
Wire Wire Line
	3300 6550 3300 6200
$Comp
L Device:D CR3
U 1 1 60D4BB9E
P 3600 6300
F 0 "CR3" V 3554 6380 50  0000 L CNN
F 1 "BYW29" V 3645 6380 50  0000 L CNN
F 2 "" H 3600 6300 50  0001 C CNN
F 3 "~" H 3600 6300 50  0001 C CNN
	1    3600 6300
	0    1    1    0   
$EndComp
Wire Wire Line
	2800 6050 3300 6050
Wire Wire Line
	3300 6200 3300 6050
Connection ~ 3300 6200
Connection ~ 3300 6050
Wire Wire Line
	3300 6050 3600 6050
Wire Wire Line
	2500 6050 2450 6050
Wire Wire Line
	2150 6050 2150 6100
Wire Wire Line
	2550 6200 2450 6200
Wire Wire Line
	2450 6200 2450 6050
Connection ~ 2450 6050
Wire Wire Line
	2450 6050 2150 6050
Wire Wire Line
	3600 6150 3600 6050
Connection ~ 3600 6050
Wire Wire Line
	2150 6400 2150 6850
Wire Wire Line
	2150 6850 3600 6850
Wire Wire Line
	3600 6450 3600 6850
$Comp
L Device:L_Core_Ferrite L5
U 1 1 60E04BEE
P 3850 6850
F 0 "L5" V 4075 6850 50  0000 C CNN
F 1 "L" V 3984 6850 50  0000 C CNN
F 2 "" H 3850 6850 50  0001 C CNN
F 3 "~" H 3850 6850 50  0001 C CNN
	1    3850 6850
	0    -1   -1   0   
$EndComp
Wire Wire Line
	3700 6850 3600 6850
Connection ~ 3600 6850
$Comp
L Device:CP C6
U 1 1 60E24E58
P 4150 6450
F 0 "C6" H 4268 6496 50  0000 L CNN
F 1 "100 uF" H 4268 6405 50  0000 L CNN
F 2 "" H 4188 6300 50  0001 C CNN
F 3 "~" H 4150 6450 50  0001 C CNN
	1    4150 6450
	1    0    0    -1  
$EndComp
$Comp
L Device:CP C5
U 1 1 60E25B06
P 4650 6450
F 0 "C5" H 4768 6496 50  0000 L CNN
F 1 "1 uF" H 4768 6405 50  0000 L CNN
F 2 "" H 4688 6300 50  0001 C CNN
F 3 "~" H 4650 6450 50  0001 C CNN
	1    4650 6450
	1    0    0    -1  
$EndComp
Wire Wire Line
	4000 6850 4150 6850
Wire Wire Line
	4150 6600 4150 6850
Connection ~ 4150 6850
Wire Wire Line
	4150 6850 4650 6850
Wire Wire Line
	3600 6050 4150 6050
Wire Wire Line
	4150 6300 4150 6050
Connection ~ 4150 6050
Wire Wire Line
	4150 6050 4650 6050
Wire Wire Line
	4650 6600 4650 6850
Connection ~ 4650 6850
Wire Wire Line
	4650 6300 4650 6050
Connection ~ 4650 6050
$Comp
L Connector:Conn_01x02_Male W6A
U 1 1 60ECFE1C
P 5300 6300
F 0 "W6A" H 5408 5975 50  0000 C CNN
F 1 "conn" H 5408 6066 50  0000 C CNN
F 2 "" H 5300 6300 50  0001 C CNN
F 3 "~" H 5300 6300 50  0001 C CNN
	1    5300 6300
	-1   0    0    1   
$EndComp
$Comp
L Connector:Conn_01x02_Male W6B
U 1 1 60ED0D2F
P 5300 6650
F 0 "W6B" H 5408 6739 50  0000 C CNN
F 1 "conn" H 5408 6830 50  0000 C CNN
F 2 "" H 5300 6650 50  0001 C CNN
F 3 "~" H 5300 6650 50  0001 C CNN
	1    5300 6650
	-1   0    0    1   
$EndComp
Wire Wire Line
	5000 6050 5000 6200
Wire Wire Line
	5000 6200 5100 6200
Wire Wire Line
	4650 6050 4950 6050
Wire Wire Line
	5000 6850 5000 6650
Wire Wire Line
	5000 6650 5100 6650
Wire Wire Line
	4650 6850 5000 6850
Wire Wire Line
	5100 6550 4950 6550
Wire Wire Line
	4950 6550 4950 6050
Connection ~ 4950 6050
Wire Wire Line
	4950 6050 5000 6050
Wire Wire Line
	5000 6650 5000 6300
Wire Wire Line
	5000 6300 5100 6300
Connection ~ 5000 6650
Text Notes 5350 6350 0    50   ~ 0
GND
Text Notes 5350 6700 0    50   ~ 0
GND
Text Notes 5350 6200 0    50   ~ 0
5V
Text Notes 5350 6550 0    50   ~ 0
5V
$Comp
L Device:L S5A
U 1 1 60FCB559
P 2150 7450
F 0 "S5A" H 2107 7404 50  0000 R CNN
F 1 "S5" H 2107 7495 50  0000 R CNN
F 2 "" H 2150 7450 50  0001 C CNN
F 3 "~" H 2150 7450 50  0001 C CNN
	1    2150 7450
	-1   0    0    1   
$EndComp
$Comp
L Device:L S5B
U 1 1 60FCC768
P 2150 7900
F 0 "S5B" H 2106 7854 50  0000 R CNN
F 1 "S5" H 2106 7945 50  0000 R CNN
F 2 "" H 2150 7900 50  0001 C CNN
F 3 "~" H 2150 7900 50  0001 C CNN
	1    2150 7900
	-1   0    0    1   
$EndComp
Wire Wire Line
	2150 7600 2150 7700
Wire Wire Line
	2150 7300 2150 7200
Wire Wire Line
	2150 8050 2150 8150
Wire Wire Line
	2150 8150 2350 8150
Wire Wire Line
	2150 7700 2500 7700
Connection ~ 2150 7700
Wire Wire Line
	2150 7700 2150 7750
$Comp
L power:GND #PWR?
U 1 1 61050EA6
P 2500 7700
F 0 "#PWR?" H 2500 7450 50  0001 C CNN
F 1 "GND" H 2505 7527 50  0000 C CNN
F 2 "" H 2500 7700 50  0001 C CNN
F 3 "" H 2500 7700 50  0001 C CNN
	1    2500 7700
	1    0    0    -1  
$EndComp
Connection ~ 2500 7700
$Comp
L Device:CP C8
U 1 1 61052BA5
P 2900 7950
F 0 "C8" H 3018 7996 50  0000 L CNN
F 1 "100 uF" H 3018 7905 50  0000 L CNN
F 2 "" H 2938 7800 50  0001 C CNN
F 3 "~" H 2900 7950 50  0001 C CNN
	1    2900 7950
	1    0    0    -1  
$EndComp
$Comp
L Device:D CR5
U 1 1 61053C87
P 2650 8150
F 0 "CR5" H 2650 8025 50  0000 C CNN
F 1 "RGP10J" H 2650 7934 50  0000 C CNN
F 2 "" H 2650 8150 50  0001 C CNN
F 3 "~" H 2650 8150 50  0001 C CNN
	1    2650 8150
	1    0    0    -1  
$EndComp
Wire Wire Line
	2800 8150 2900 8150
Wire Wire Line
	2900 8100 2900 8150
Connection ~ 2900 8150
Wire Wire Line
	2500 7700 2900 7700
Wire Wire Line
	2900 7800 2900 7700
Connection ~ 2900 7700
Wire Wire Line
	2900 7700 4300 7700
Wire Wire Line
	5150 7800 3300 7800
Wire Wire Line
	3300 7800 3300 8150
Wire Wire Line
	2900 8150 3300 8150
$Comp
L Device:CP C7
U 1 1 6117622B
P 4300 7400
F 0 "C7" H 4418 7446 50  0000 L CNN
F 1 "100 uF" H 4418 7355 50  0000 L CNN
F 2 "" H 4338 7250 50  0001 C CNN
F 3 "~" H 4300 7400 50  0001 C CNN
	1    4300 7400
	1    0    0    -1  
$EndComp
$Comp
L Device:D CR4
U 1 1 61177475
P 4000 7200
F 0 "CR4" H 4000 6983 50  0000 C CNN
F 1 "RGP10J" H 4000 7074 50  0000 C CNN
F 2 "" H 4000 7200 50  0001 C CNN
F 3 "~" H 4000 7200 50  0001 C CNN
	1    4000 7200
	-1   0    0    1   
$EndComp
Wire Wire Line
	4150 7200 4300 7200
Wire Wire Line
	4950 7200 4950 7600
Wire Wire Line
	4950 7600 5150 7600
Wire Wire Line
	4300 7250 4300 7200
Connection ~ 4300 7200
Wire Wire Line
	4300 7200 4950 7200
Wire Wire Line
	4300 7550 4300 7700
Connection ~ 4300 7700
Wire Wire Line
	4300 7700 5150 7700
Wire Wire Line
	2150 7200 3700 7200
$Comp
L Device:D CR7
U 1 1 612033EE
P 3700 7500
F 0 "CR7" V 3654 7580 50  0000 L CNN
F 1 "RGP10J" V 3745 7580 50  0000 L CNN
F 2 "" H 3700 7500 50  0001 C CNN
F 3 "~" H 3700 7500 50  0001 C CNN
	1    3700 7500
	0    1    1    0   
$EndComp
Connection ~ 3700 7200
Wire Wire Line
	3700 7200 3850 7200
Wire Wire Line
	3700 7350 3700 7200
$Comp
L Device:D_Zener CR9
U 1 1 6122E52B
P 4300 8400
F 0 "CR9" V 4346 8320 50  0000 R CNN
F 1 "6.2V" V 4255 8320 50  0000 R CNN
F 2 "" H 4300 8400 50  0001 C CNN
F 3 "~" H 4300 8400 50  0001 C CNN
	1    4300 8400
	0    -1   -1   0   
$EndComp
Wire Wire Line
	5150 8100 4300 8100
Wire Wire Line
	4300 8250 4300 8100
Connection ~ 4300 8100
Wire Wire Line
	4300 8100 4200 8100
$Comp
L Device:D_Zener CR23
U 1 1 61277A84
P 4300 8850
F 0 "CR23" V 4346 8770 50  0000 R CNN
F 1 "MVS240" V 4255 8770 50  0000 R CNN
F 2 "" H 4300 8850 50  0001 C CNN
F 3 "~" H 4300 8850 50  0001 C CNN
	1    4300 8850
	0    -1   -1   0   
$EndComp
$Comp
L power:GND #PWR?
U 1 1 6127904B
P 4300 9100
F 0 "#PWR?" H 4300 8850 50  0001 C CNN
F 1 "GND" H 4305 8927 50  0000 C CNN
F 2 "" H 4300 9100 50  0001 C CNN
F 3 "" H 4300 9100 50  0001 C CNN
	1    4300 9100
	1    0    0    -1  
$EndComp
Wire Wire Line
	4300 9100 4300 9000
Wire Wire Line
	4300 8700 4300 8550
$Comp
L Device:R R12
U 1 1 612C26F6
P 4050 8100
F 0 "R12" V 3843 8100 50  0000 C CNN
F 1 "7k5" V 3934 8100 50  0000 C CNN
F 2 "" V 3980 8100 50  0001 C CNN
F 3 "~" H 4050 8100 50  0001 C CNN
	1    4050 8100
	0    1    1    0   
$EndComp
$Comp
L Device:C C10
U 1 1 612C4BE7
P 3700 8850
F 0 "C10" H 3815 8896 50  0000 L CNN
F 1 "68 nF" H 3815 8805 50  0000 L CNN
F 2 "" H 3738 8700 50  0001 C CNN
F 3 "~" H 3700 8850 50  0001 C CNN
	1    3700 8850
	1    0    0    -1  
$EndComp
$Comp
L power:GND #PWR?
U 1 1 612C6418
P 3700 9100
F 0 "#PWR?" H 3700 8850 50  0001 C CNN
F 1 "GND" H 3705 8927 50  0000 C CNN
F 2 "" H 3700 9100 50  0001 C CNN
F 3 "" H 3700 9100 50  0001 C CNN
	1    3700 9100
	1    0    0    -1  
$EndComp
Wire Wire Line
	3700 7650 3700 8100
Wire Wire Line
	3700 9100 3700 9000
Wire Wire Line
	3900 8100 3700 8100
Connection ~ 3700 8100
Wire Wire Line
	3700 8100 3700 8700
Wire Wire Line
	5150 8500 5000 8500
Wire Wire Line
	5000 8500 5000 9950
Connection ~ 5000 9950
Wire Wire Line
	4250 9950 4350 9950
$Comp
L Device:R R13
U 1 1 6138B67B
P 4100 9950
F 0 "R13" V 3893 9950 50  0000 C CNN
F 1 "10k" V 3984 9950 50  0000 C CNN
F 2 "" V 4030 9950 50  0001 C CNN
F 3 "~" H 4100 9950 50  0001 C CNN
	1    4100 9950
	0    1    1    0   
$EndComp
Wire Wire Line
	3950 9950 3850 9950
$Comp
L Device:C C11
U 1 1 613B1882
P 4100 9600
F 0 "C11" V 3848 9600 50  0000 C CNN
F 1 "100 pF" V 3939 9600 50  0000 C CNN
F 2 "" H 4138 9450 50  0001 C CNN
F 3 "~" H 4100 9600 50  0001 C CNN
	1    4100 9600
	0    1    1    0   
$EndComp
Wire Wire Line
	4250 9600 4350 9600
Wire Wire Line
	4350 9600 4350 9950
Connection ~ 4350 9950
Wire Wire Line
	4350 9950 5000 9950
Wire Wire Line
	3950 9600 3850 9600
Wire Wire Line
	3850 9600 3850 9950
Connection ~ 3850 9950
Wire Wire Line
	3850 9950 3450 9950
$Comp
L Device:L S6
U 1 1 613FEA91
P 2150 8900
F 0 "S6" H 2106 8854 50  0000 R CNN
F 1 "S6" H 2106 8945 50  0000 R CNN
F 2 "" H 2150 8900 50  0001 C CNN
F 3 "~" H 2150 8900 50  0001 C CNN
	1    2150 8900
	-1   0    0    1   
$EndComp
$Comp
L Device:D CR6
U 1 1 613FFB09
P 2650 8700
F 0 "CR6" H 2650 8483 50  0000 C CNN
F 1 "RGP10J" H 2650 8574 50  0000 C CNN
F 2 "" H 2650 8700 50  0001 C CNN
F 3 "~" H 2650 8700 50  0001 C CNN
	1    2650 8700
	-1   0    0    1   
$EndComp
$Comp
L Device:CP C9
U 1 1 61401140
P 2900 8950
F 0 "C9" H 3018 8996 50  0000 L CNN
F 1 "4u7" H 3018 8905 50  0000 L CNN
F 2 "" H 2938 8800 50  0001 C CNN
F 3 "~" H 2900 8950 50  0001 C CNN
	1    2900 8950
	1    0    0    -1  
$EndComp
Wire Wire Line
	2800 8700 2900 8700
Wire Wire Line
	2900 8800 2900 8700
Connection ~ 2900 8700
Wire Wire Line
	5150 8200 4700 8200
Wire Wire Line
	3200 9400 3200 8700
Wire Wire Line
	2900 8700 3200 8700
$Comp
L power:GND #PWR?
U 1 1 61478B46
P 2900 9200
F 0 "#PWR?" H 2900 8950 50  0001 C CNN
F 1 "GND" H 2905 9027 50  0000 C CNN
F 2 "" H 2900 9200 50  0001 C CNN
F 3 "" H 2900 9200 50  0001 C CNN
	1    2900 9200
	1    0    0    -1  
$EndComp
Wire Wire Line
	2900 9200 2900 9100
Wire Wire Line
	2500 8700 2150 8700
Wire Wire Line
	2150 8700 2150 8750
Wire Wire Line
	2150 9050 2150 9300
Wire Wire Line
	2150 9300 2400 9300
Wire Wire Line
	3450 9950 3450 8400
Wire Wire Line
	3450 8400 2350 8400
Wire Wire Line
	2350 8400 2350 8150
Connection ~ 2350 8150
Wire Wire Line
	2350 8150 2500 8150
Wire Wire Line
	4700 9400 4700 8200
Wire Wire Line
	3200 9400 4700 9400
Text Label 2400 9300 0    50   ~ 0
40V
Text Label 4800 5700 0    50   ~ 0
40V
$Comp
L Device:L S7
U 1 1 6155870F
P 2150 9800
F 0 "S7" H 2106 9754 50  0000 R CNN
F 1 "S7" H 2106 9845 50  0000 R CNN
F 2 "" H 2150 9800 50  0001 C CNN
F 3 "~" H 2150 9800 50  0001 C CNN
	1    2150 9800
	-1   0    0    1   
$EndComp
$Comp
L Connector:Conn_01x03_Male W18
U 1 1 61559C3A
P 2800 9650
F 0 "W18" H 2772 9674 50  0000 R CNN
F 1 "conn" H 2772 9583 50  0000 R CNN
F 2 "" H 2800 9650 50  0001 C CNN
F 3 "~" H 2800 9650 50  0001 C CNN
	1    2800 9650
	-1   0    0    -1  
$EndComp
$Comp
L Connector:Conn_01x03_Male W19
U 1 1 6155AB44
P 2800 10000
F 0 "W19" H 2772 10024 50  0000 R CNN
F 1 "conn" H 2772 9933 50  0000 R CNN
F 2 "" H 2800 10000 50  0001 C CNN
F 3 "~" H 2800 10000 50  0001 C CNN
	1    2800 10000
	-1   0    0    -1  
$EndComp
Wire Wire Line
	2150 9650 2150 9550
Wire Wire Line
	2150 9550 2350 9550
Wire Wire Line
	2600 9900 2350 9900
Wire Wire Line
	2350 9900 2350 9550
Connection ~ 2350 9550
Wire Wire Line
	2350 9550 2600 9550
Wire Wire Line
	2150 9950 2150 10100
Wire Wire Line
	2150 10100 2500 10100
Wire Wire Line
	2600 9750 2500 9750
Wire Wire Line
	2500 9750 2500 10100
Connection ~ 2500 10100
Wire Wire Line
	2500 10100 2600 10100
Text Notes 2850 9900 0    50   ~ 0
current loop\nsupply
NoConn ~ 2600 9650
NoConn ~ 2600 10000
$Comp
L Device:L S2
U 1 1 6167BC62
P 2100 3350
F 0 "S2" H 2056 3304 50  0000 R CNN
F 1 "S2" H 2056 3395 50  0000 R CNN
F 2 "" H 2100 3350 50  0001 C CNN
F 3 "~" H 2100 3350 50  0001 C CNN
	1    2100 3350
	-1   0    0    1   
$EndComp
$Comp
L Device:L S1
U 1 1 6168279C
P 2100 1650
F 0 "S1" H 2056 1604 50  0000 R CNN
F 1 "S1" H 2056 1695 50  0000 R CNN
F 2 "" H 2100 1650 50  0001 C CNN
F 3 "~" H 2100 1650 50  0001 C CNN
	1    2100 1650
	-1   0    0    1   
$EndComp
$Comp
L Device:L P1A
U 1 1 616838F1
P 1300 1650
F 0 "P1A" H 1256 1604 50  0000 R CNN
F 1 "P1" H 1256 1695 50  0000 R CNN
F 2 "" H 1300 1650 50  0001 C CNN
F 3 "~" H 1300 1650 50  0001 C CNN
	1    1300 1650
	1    0    0    1   
$EndComp
$Comp
L Device:L P1B
U 1 1 6168406C
P 1300 5100
F 0 "P1B" H 1256 5054 50  0000 R CNN
F 1 "P1" H 1256 5145 50  0000 R CNN
F 2 "" H 1300 5100 50  0001 C CNN
F 3 "~" H 1300 5100 50  0001 C CNN
	1    1300 5100
	1    0    0    1   
$EndComp
$Comp
L Connector:Conn_01x02_Female COL_Q14
U 1 1 61685AC0
P 650 5250
F 0 "COL_Q14" H 542 5435 50  0000 C CNN
F 1 "conn" H 542 5344 50  0000 C CNN
F 2 "" H 650 5250 50  0001 C CNN
F 3 "~" H 650 5250 50  0001 C CNN
	1    650  5250
	-1   0    0    -1  
$EndComp
Wire Wire Line
	1300 1800 1300 3400
Wire Wire Line
	1300 5250 1300 5350
Wire Wire Line
	1300 5350 1050 5350
Wire Wire Line
	850  5250 950  5250
Wire Wire Line
	950  5250 950  5350
Connection ~ 950  5350
Wire Wire Line
	950  5350 850  5350
Wire Wire Line
	1050 5350 1050 1350
Wire Wire Line
	1050 1350 1300 1350
Wire Wire Line
	1300 1350 1300 1500
Connection ~ 1050 5350
Wire Wire Line
	1050 5350 950  5350
$Comp
L Connector:Conn_01x02_Female 80V
U 1 1 61744D37
P 600 3400
F 0 "80V" H 492 3585 50  0000 C CNN
F 1 "conn" H 492 3494 50  0000 C CNN
F 2 "" H 600 3400 50  0001 C CNN
F 3 "~" H 600 3400 50  0001 C CNN
	1    600  3400
	-1   0    0    -1  
$EndComp
Wire Wire Line
	800  3400 900  3400
Connection ~ 1300 3400
Wire Wire Line
	1300 3400 1300 4950
Wire Wire Line
	800  3500 900  3500
Wire Wire Line
	900  3500 900  3400
Connection ~ 900  3400
Wire Wire Line
	900  3400 1300 3400
Wire Notes Line
	1550 1450 1550 11150
Wire Notes Line
	1550 11150 1700 11150
Wire Notes Line
	1700 11150 1700 1450
Wire Notes Line
	1700 1450 1550 1450
Text Notes 950  1250 0    50   ~ 0
T1\nhorizontal deflection transformer
$Comp
L Device:R R7
U 1 1 617EBC54
P 2650 2150
F 0 "R7" V 2443 2150 50  0000 C CNN
F 1 "47k" V 2534 2150 50  0000 C CNN
F 2 "" V 2580 2150 50  0001 C CNN
F 3 "~" H 2650 2150 50  0001 C CNN
	1    2650 2150
	0    1    1    0   
$EndComp
$Comp
L Device:LTRIM L1
U 1 1 617EC788
P 2650 2550
F 0 "L1" V 2435 2550 50  0000 C CNN
F 1 "L" V 2526 2550 50  0000 C CNN
F 2 "" H 2650 2550 50  0001 C CNN
F 3 "~" H 2650 2550 50  0001 C CNN
	1    2650 2550
	0    1    1    0   
$EndComp
Wire Wire Line
	2100 1800 2100 1850
Wire Wire Line
	2100 1850 2200 1850
Wire Wire Line
	2500 2150 2400 2150
$Comp
L Device:C C1
U 1 1 6188416F
P 3100 2550
F 0 "C1" V 2848 2550 50  0000 C CNN
F 1 "22 nF" V 2939 2550 50  0000 C CNN
F 2 "" H 3138 2400 50  0001 C CNN
F 3 "~" H 3100 2550 50  0001 C CNN
	1    3100 2550
	0    1    1    0   
$EndComp
$Comp
L Device:R_POT R1
U 1 1 618B8793
P 3950 2250
F 0 "R1" H 3880 2296 50  0000 R CNN
F 1 "2M5" H 3880 2205 50  0000 R CNN
F 2 "" H 3950 2250 50  0001 C CNN
F 3 "~" H 3950 2250 50  0001 C CNN
	1    3950 2250
	1    0    0    -1  
$EndComp
Wire Wire Line
	3950 2100 3950 1850
Wire Wire Line
	3950 1850 2950 1850
Wire Wire Line
	2950 1850 2950 2150
Wire Wire Line
	2800 2150 2950 2150
Connection ~ 2950 2150
Text Notes 3850 2450 0    50   ~ 0
focus
$Comp
L TVK186:TVK186 U1
U 1 1 6198AD17
P 3450 1250
F 0 "U1" H 3450 1615 50  0000 C CNN
F 1 "TVK186" H 3450 1524 50  0000 C CNN
F 2 "MODULE" H 3450 1250 50  0001 C CNN
F 3 "DOCUMENTATION" H 3450 1250 50  0001 C CNN
	1    3450 1250
	1    0    0    -1  
$EndComp
Wire Wire Line
	2100 1500 2100 1400
Wire Wire Line
	2250 1400 2250 1250
Wire Wire Line
	2250 1250 2600 1250
Wire Wire Line
	2100 1400 2250 1400
Wire Wire Line
	4300 1250 6500 1250
Text Label 6500 1250 0    50   ~ 0
EHT_16kV
$Comp
L Device:R R3
U 1 1 61A67A92
P 4600 1550
F 0 "R3" V 4393 1550 50  0000 C CNN
F 1 "270k" V 4484 1550 50  0000 C CNN
F 2 "" V 4530 1550 50  0001 C CNN
F 3 "~" H 4600 1550 50  0001 C CNN
	1    4600 1550
	0    1    1    0   
$EndComp
$Comp
L Device:R R4
U 1 1 61A67F98
P 5200 1550
F 0 "R4" V 4993 1550 50  0000 C CNN
F 1 "270k" V 5084 1550 50  0000 C CNN
F 2 "" V 5130 1550 50  0001 C CNN
F 3 "~" H 5200 1550 50  0001 C CNN
	1    5200 1550
	0    1    1    0   
$EndComp
$Comp
L Device:R_POT R2
U 1 1 61A684F7
P 4900 1850
F 0 "R2" V 4693 1850 50  0000 C CNN
F 1 "2M5" V 4784 1850 50  0000 C CNN
F 2 "" H 4900 1850 50  0001 C CNN
F 3 "~" H 4900 1850 50  0001 C CNN
	1    4900 1850
	0    1    1    0   
$EndComp
$Comp
L Device:C C12
U 1 1 61A69242
P 5150 2400
F 0 "C12" H 5265 2446 50  0000 L CNN
F 1 "3300 pF" H 5265 2355 50  0000 L CNN
F 2 "" H 5188 2250 50  0001 C CNN
F 3 "~" H 5150 2400 50  0001 C CNN
	1    5150 2400
	1    0    0    -1  
$EndComp
Wire Wire Line
	4100 2250 5150 2250
Connection ~ 5150 2250
Wire Wire Line
	5150 2550 3950 2550
Connection ~ 3500 2550
Wire Wire Line
	3500 2550 3400 2550
Connection ~ 3950 2550
Wire Wire Line
	3950 2550 3500 2550
Wire Wire Line
	3950 2400 3950 2550
Wire Wire Line
	3500 1750 3500 2550
Wire Wire Line
	3250 2550 3400 2550
Connection ~ 3400 2550
Wire Wire Line
	3400 1750 3400 2550
Wire Wire Line
	2800 2550 2950 2550
Connection ~ 2950 2550
Wire Wire Line
	2950 2150 2950 2550
Wire Wire Line
	2500 2550 2400 2550
Connection ~ 2400 2550
Wire Wire Line
	2400 2550 2200 2550
Wire Wire Line
	2200 1850 2200 2550
Wire Wire Line
	2400 2150 2400 2550
Wire Wire Line
	3950 1850 4300 1850
Connection ~ 3950 1850
Wire Wire Line
	4450 1550 4300 1550
Wire Wire Line
	4300 1550 4300 1850
Connection ~ 4300 1850
Wire Wire Line
	4300 1850 4750 1850
Wire Wire Line
	4750 1550 5050 1550
Wire Wire Line
	5050 1850 5500 1850
Wire Wire Line
	5350 1550 5500 1550
Wire Wire Line
	5500 1550 5500 1850
Wire Wire Line
	5150 2550 5750 2550
Connection ~ 5150 2550
$Comp
L Device:C C13
U 1 1 61DC1764
P 5750 2400
F 0 "C13" H 5865 2446 50  0000 L CNN
F 1 "3300 pF" H 5865 2355 50  0000 L CNN
F 2 "" H 5788 2250 50  0001 C CNN
F 3 "~" H 5750 2400 50  0001 C CNN
	1    5750 2400
	1    0    0    -1  
$EndComp
Connection ~ 5750 2550
Wire Wire Line
	4900 2000 4900 2100
Wire Wire Line
	4900 2100 5750 2100
Wire Wire Line
	5750 2250 5750 2100
Connection ~ 5750 2100
$Comp
L power:GND #PWR?
U 1 1 61E38F04
P 5750 2550
F 0 "#PWR?" H 5750 2300 50  0001 C CNN
F 1 "GND" H 5755 2377 50  0000 C CNN
F 2 "" H 5750 2550 50  0001 C CNN
F 3 "" H 5750 2550 50  0001 C CNN
	1    5750 2550
	1    0    0    -1  
$EndComp
$Comp
L Device:R R5
U 1 1 61E39793
P 5750 1850
F 0 "R5" V 5543 1850 50  0000 C CNN
F 1 "180k" V 5634 1850 50  0000 C CNN
F 2 "" V 5680 1850 50  0001 C CNN
F 3 "~" H 5750 1850 50  0001 C CNN
	1    5750 1850
	0    1    1    0   
$EndComp
Wire Wire Line
	5600 1850 5500 1850
Connection ~ 5500 1850
$Comp
L Device:R R6
U 1 1 61E766D9
P 6300 1850
F 0 "R6" V 6093 1850 50  0000 C CNN
F 1 "180k" V 6184 1850 50  0000 C CNN
F 2 "" V 6230 1850 50  0001 C CNN
F 3 "~" H 6300 1850 50  0001 C CNN
	1    6300 1850
	0    1    1    0   
$EndComp
Wire Wire Line
	5900 1850 6150 1850
Wire Wire Line
	6450 1850 6550 1850
$Comp
L power:GND #PWR?
U 1 1 61EEDA9B
P 6550 1850
F 0 "#PWR?" H 6550 1600 50  0001 C CNN
F 1 "GND" H 6555 1677 50  0000 C CNN
F 2 "" H 6550 1850 50  0001 C CNN
F 3 "" H 6550 1850 50  0001 C CNN
	1    6550 1850
	1    0    0    -1  
$EndComp
$Comp
L Connector:Conn_01x07_Male W7
U 1 1 61EF0504
P 7300 2450
F 0 "W7" H 7408 2931 50  0000 C CNN
F 1 "conn" H 7408 2840 50  0000 C CNN
F 2 "" H 7300 2450 50  0001 C CNN
F 3 "~" H 7300 2450 50  0001 C CNN
	1    7300 2450
	-1   0    0    -1  
$EndComp
Text Notes 4700 2100 0    50   ~ 0
black level
Wire Wire Line
	7100 2350 6400 2350
Wire Wire Line
	6400 2350 6400 2100
Wire Wire Line
	5750 2100 6400 2100
Wire Wire Line
	5150 2250 5400 2250
Wire Wire Line
	5400 2150 5400 2250
Wire Wire Line
	5400 2150 7100 2150
Text Notes 7350 2150 0    50   ~ 0
FOCUS
Text Notes 7350 2350 0    50   ~ 0
G2
Text Notes 7350 2550 0    50   ~ 0
CRT HEAT
Text Notes 7350 2750 0    50   ~ 0
CRT HEAT
NoConn ~ 7100 2250
NoConn ~ 7100 2450
NoConn ~ 7100 2650
Wire Wire Line
	2100 3200 2100 3150
Wire Wire Line
	2100 3150 2200 3150
Wire Wire Line
	2100 3500 2100 3550
Wire Wire Line
	2100 3550 2200 3550
Wire Wire Line
	2200 2800 6500 2800
Wire Wire Line
	6500 2800 6500 2550
Wire Wire Line
	6500 2550 7100 2550
Wire Wire Line
	2200 2800 2200 3150
Wire Wire Line
	2200 3750 2450 3750
Wire Wire Line
	2450 3750 2450 2850
Wire Wire Line
	2450 2850 6600 2850
Wire Wire Line
	6600 2850 6600 2750
Wire Wire Line
	6600 2750 7100 2750
Wire Wire Line
	2200 3550 2200 3750
$Comp
L Device:R R14
U 1 1 621AB42A
P 6600 3100
F 0 "R14" H 6670 3146 50  0000 L CNN
F 1 "100k" H 6670 3055 50  0000 L CNN
F 2 "" V 6530 3100 50  0001 C CNN
F 3 "~" H 6600 3100 50  0001 C CNN
	1    6600 3100
	1    0    0    -1  
$EndComp
$Comp
L power:GND #PWR?
U 1 1 621AC3FF
P 6600 3350
F 0 "#PWR?" H 6600 3100 50  0001 C CNN
F 1 "GND" H 6605 3177 50  0000 C CNN
F 2 "" H 6600 3350 50  0001 C CNN
F 3 "" H 6600 3350 50  0001 C CNN
	1    6600 3350
	1    0    0    -1  
$EndComp
Wire Wire Line
	6600 3350 6600 3250
Wire Wire Line
	6600 2950 6600 2850
Connection ~ 6600 2850
Wire Notes Line
	2300 650  2300 3950
Wire Notes Line
	2300 3950 7900 3950
Wire Notes Line
	7900 3950 7900 650 
Wire Notes Line
	7900 650  2300 650 
Text Notes 6500 800  0    50   ~ 0
EHT tripler / Focus / G2 supply
Wire Notes Line
	8250 5900 2300 5900
Wire Notes Line
	2300 5900 2300 4150
Wire Notes Line
	2300 4150 8200 4150
Wire Notes Line
	8200 4150 8200 5900
Text Notes 7300 4400 0    50   ~ 0
Horizontal deflection \nlinearity centering
Wire Notes Line
	2350 9400 5800 9400
Wire Notes Line
	5800 9400 5800 5950
Wire Notes Line
	5800 5950 2350 5950
Wire Notes Line
	2350 5950 2350 9400
Text Notes 5050 7100 0    50   ~ 0
low voltage\nrectifier / filters
Wire Wire Line
	5150 8400 5000 8400
Wire Wire Line
	5000 8400 5000 8350
Wire Wire Line
	5000 8350 6700 8350
Wire Wire Line
	6700 8350 6700 8550
Wire Wire Line
	6700 8550 7650 8550
Connection ~ 7650 8550
Wire Wire Line
	7650 8550 7650 8350
Wire Notes Line
	7100 5950 7100 10050
Wire Notes Line
	7100 10050 11800 10050
Wire Notes Line
	11800 10050 11800 9150
Wire Notes Line
	15350 9150 15350 6200
Wire Notes Line
	15350 6200 14750 6200
Wire Notes Line
	14750 6200 14750 4350
Wire Notes Line
	14750 4350 10300 4350
Wire Notes Line
	10300 4350 10300 5950
Wire Notes Line
	7100 5950 10300 5950
Wire Notes Line
	11800 9150 15350 9150
Text Notes 10500 4550 0    50   ~ 0
vertical deflection
$EndSCHEMATC
