EESchema Schematic File Version 4
EELAYER 30 0
EELAYER END
$Descr A4 11693 8268
encoding utf-8
Sheet 10 12
Title "Tube board"
Date ""
Rev ""
Comp ""
Comment1 ""
Comment2 ""
Comment3 ""
Comment4 ""
$EndDescr
$Comp
L crt_Library:CathodeRayTube V?
U 1 1 604E824C
P 8600 2250
F 0 "V?" H 9624 2213 50  0000 L CNN
F 1 "CathodeRayTube" H 9624 2122 50  0000 L CNN
F 2 "" H 8600 2250 50  0001 C CNN
F 3 "" H 8600 2250 50  0001 C CNN
	1    8600 2250
	1    0    0    -1  
$EndComp
$Comp
L Device:R R63
U 1 1 604E88F3
P 7250 2450
F 0 "R63" V 7043 2450 50  0000 C CNN
F 1 "1k5" V 7134 2450 50  0000 C CNN
F 2 "" V 7180 2450 50  0001 C CNN
F 3 "~" H 7250 2450 50  0001 C CNN
	1    7250 2450
	0    1    1    0   
$EndComp
$Comp
L Device:R R64
U 1 1 604E98E1
P 7250 3500
F 0 "R64" V 7043 3500 50  0000 C CNN
F 1 "1k5" V 7134 3500 50  0000 C CNN
F 2 "" V 7180 3500 50  0001 C CNN
F 3 "~" H 7250 3500 50  0001 C CNN
	1    7250 3500
	0    1    1    0   
$EndComp
$Comp
L Device:R R65
U 1 1 604E9CC9
P 8500 4150
F 0 "R65" H 8431 4196 50  0000 R CNN
F 1 "100k" H 8431 4105 50  0000 R CNN
F 2 "" V 8430 4150 50  0001 C CNN
F 3 "~" H 8500 4150 50  0001 C CNN
	1    8500 4150
	1    0    0    -1  
$EndComp
$Comp
L Device:R R66
U 1 1 604EA15B
P 8850 3300
F 0 "R66" H 8920 3346 50  0000 L CNN
F 1 "100k" H 8920 3255 50  0000 L CNN
F 2 "" V 8780 3300 50  0001 C CNN
F 3 "~" H 8850 3300 50  0001 C CNN
	1    8850 3300
	1    0    0    -1  
$EndComp
Text GLabel 9350 4300 2    50   Input ~ 0
W7-1
Text GLabel 9350 4450 2    50   Input ~ 0
W7-3
Text GLabel 9350 4650 2    50   Input ~ 0
W7-5
Text GLabel 9350 4800 2    50   Input ~ 0
W7-7
Wire Wire Line
	8850 3150 8850 3000
Wire Wire Line
	9350 4300 8850 4300
Wire Wire Line
	9350 4650 8200 4650
Wire Wire Line
	8200 2350 8450 2350
Wire Wire Line
	8100 2200 8450 2200
Text GLabel 6500 2450 0    50   Input ~ 0
W9-1
Text GLabel 6450 3500 0    50   Input ~ 0
W9-3
Wire Wire Line
	7100 3500 6450 3500
Wire Wire Line
	7100 2450 6500 2450
Wire Wire Line
	7400 2450 7500 2450
Text Notes 9800 4550 0    50   ~ 0
to power / deflection 2
Text Notes 5550 2750 0    50   ~ 0
to mainboard
$Comp
L Device:SPARK_GAP E1
U 1 1 6050A23A
P 7500 2750
F 0 "E1" V 7454 2803 50  0000 L CNN
F 1 "SPARK_GAP" V 7545 2803 50  0000 L CNN
F 2 "" H 7500 2680 50  0001 C CNN
F 3 "~" V 7500 2750 50  0001 C CNN
	1    7500 2750
	0    1    1    0   
$EndComp
$Comp
L power:GND #PWR0101
U 1 1 6050C739
P 7500 3050
F 0 "#PWR0101" H 7500 2800 50  0001 C CNN
F 1 "GND" H 7505 2877 50  0000 C CNN
F 2 "" H 7500 3050 50  0001 C CNN
F 3 "" H 7500 3050 50  0001 C CNN
	1    7500 3050
	1    0    0    -1  
$EndComp
Wire Wire Line
	7500 2550 7500 2450
Connection ~ 7500 2450
Wire Wire Line
	7500 2450 8450 2450
Wire Wire Line
	7500 2950 7500 3050
Wire Wire Line
	8600 3250 7950 3250
Wire Wire Line
	7950 3250 7950 3500
Wire Wire Line
	7950 3500 7500 3500
Wire Wire Line
	8600 2700 8600 3250
$Comp
L Device:SPARK_GAP E2
U 1 1 6050D7B0
P 7500 3800
F 0 "E2" V 7454 3853 50  0000 L CNN
F 1 "SPARK_GAP" V 7545 3853 50  0000 L CNN
F 2 "" H 7500 3730 50  0001 C CNN
F 3 "~" V 7500 3800 50  0001 C CNN
	1    7500 3800
	0    1    1    0   
$EndComp
$Comp
L power:GND #PWR0102
U 1 1 6050DABF
P 7500 4100
F 0 "#PWR0102" H 7500 3850 50  0001 C CNN
F 1 "GND" H 7505 3927 50  0000 C CNN
F 2 "" H 7500 4100 50  0001 C CNN
F 3 "" H 7500 4100 50  0001 C CNN
	1    7500 4100
	1    0    0    -1  
$EndComp
Wire Wire Line
	7500 4100 7500 4000
Wire Wire Line
	7500 3600 7500 3500
Connection ~ 7500 3500
Wire Wire Line
	7500 3500 7400 3500
$Comp
L power:GND #PWR0103
U 1 1 6050E59F
P 9200 3550
F 0 "#PWR0103" H 9200 3300 50  0001 C CNN
F 1 "GND" H 9205 3377 50  0000 C CNN
F 2 "" H 9200 3550 50  0001 C CNN
F 3 "" H 9200 3550 50  0001 C CNN
	1    9200 3550
	1    0    0    -1  
$EndComp
$Comp
L Device:SPARK_GAP E4
U 1 1 6050E907
P 9200 3250
F 0 "E4" V 9154 3303 50  0000 L CNN
F 1 "SPARK_GAP" V 9245 3303 50  0000 L CNN
F 2 "" H 9200 3180 50  0001 C CNN
F 3 "~" V 9200 3250 50  0001 C CNN
	1    9200 3250
	0    1    1    0   
$EndComp
Wire Wire Line
	8100 4800 9350 4800
Wire Wire Line
	8100 2200 8100 4800
Wire Wire Line
	8200 2350 8200 4650
Wire Wire Line
	8850 3450 8850 4300
Wire Wire Line
	8700 2700 8700 3350
Wire Wire Line
	8500 4300 8500 4450
Wire Wire Line
	8500 4450 9350 4450
$Comp
L power:GND #PWR0104
U 1 1 60517D21
P 8700 4200
F 0 "#PWR0104" H 8700 3950 50  0001 C CNN
F 1 "GND" H 8705 4027 50  0000 C CNN
F 2 "" H 8700 4200 50  0001 C CNN
F 3 "" H 8700 4200 50  0001 C CNN
	1    8700 4200
	1    0    0    -1  
$EndComp
$Comp
L Device:SPARK_GAP E3
U 1 1 60518079
P 8700 3900
F 0 "E3" V 8654 3953 50  0000 L CNN
F 1 "SPARK_GAP" V 8745 3953 50  0000 L CNN
F 2 "" H 8700 3830 50  0001 C CNN
F 3 "~" V 8700 3900 50  0001 C CNN
	1    8700 3900
	0    1    1    0   
$EndComp
Wire Wire Line
	8700 4100 8700 4200
Wire Wire Line
	8700 3700 8500 3700
Connection ~ 8500 3700
Wire Wire Line
	8500 3700 8500 4000
Wire Wire Line
	9200 3450 9200 3550
Wire Wire Line
	9200 3050 9200 3000
Wire Wire Line
	9200 3000 8850 3000
Connection ~ 8850 3000
Wire Wire Line
	8850 3000 8850 2700
Wire Wire Line
	8700 3350 8500 3350
Wire Wire Line
	8500 3350 8500 3700
$EndSCHEMATC
