EESchema Schematic File Version 4
EELAYER 30 0
EELAYER END
$Descr A4 11693 8268
encoding utf-8
Sheet 11 12
Title "V.24 interface adapter"
Date ""
Rev "11"
Comp ""
Comment1 ""
Comment2 ""
Comment3 ""
Comment4 ""
$EndDescr
$Comp
L Connector:Conn_01x06_Male J2
U 1 1 6060C7CA
P 700 5750
F 0 "J2" H 808 6131 50  0000 C CNN
F 1 "W1" H 808 6040 50  0000 C CNN
F 2 "" H 700 5750 50  0001 C CNN
F 3 "~" H 700 5750 50  0001 C CNN
	1    700  5750
	1    0    0    -1  
$EndComp
$Comp
L Connector:Conn_01x08_Male J3
U 1 1 6060DA30
P 700 3350
F 0 "J3" H 808 3831 50  0000 C CNN
F 1 "W2" H 808 3740 50  0000 C CNN
F 2 "" H 700 3350 50  0001 C CNN
F 3 "~" H 700 3350 50  0001 C CNN
	1    700  3350
	1    0    0    -1  
$EndComp
$Comp
L Device:CP C10
U 1 1 6060F521
P 2000 5350
F 0 "C10" H 2118 5396 50  0000 L CNN
F 1 "22 uF" H 2118 5305 50  0000 L CNN
F 2 "" H 2038 5200 50  0001 C CNN
F 3 "~" H 2000 5350 50  0001 C CNN
	1    2000 5350
	1    0    0    -1  
$EndComp
$Comp
L Device:C C15
U 1 1 6060FC20
P 2500 5350
F 0 "C15" H 2615 5396 50  0000 L CNN
F 1 "10 nF" H 2615 5305 50  0000 L CNN
F 2 "" H 2538 5200 50  0001 C CNN
F 3 "~" H 2500 5350 50  0001 C CNN
	1    2500 5350
	1    0    0    -1  
$EndComp
$Comp
L power:+5V #PWR0105
U 1 1 606101A6
P 3250 5200
F 0 "#PWR0105" H 3250 5050 50  0001 C CNN
F 1 "+5V" H 3265 5373 50  0000 C CNN
F 2 "" H 3250 5200 50  0001 C CNN
F 3 "" H 3250 5200 50  0001 C CNN
	1    3250 5200
	1    0    0    -1  
$EndComp
Wire Wire Line
	3250 5200 2500 5200
Wire Wire Line
	2500 5200 2000 5200
Connection ~ 2500 5200
Wire Wire Line
	2000 5200 1500 5200
Wire Wire Line
	1500 5200 1500 5550
Wire Wire Line
	1500 5550 900  5550
Connection ~ 2000 5200
Wire Wire Line
	900  5650 1600 5650
Wire Wire Line
	1600 5650 1600 5500
Wire Wire Line
	1600 5500 2000 5500
Wire Wire Line
	2000 5500 2500 5500
Connection ~ 2000 5500
$Comp
L power:GND #PWR0106
U 1 1 60610D7B
P 3250 5500
F 0 "#PWR0106" H 3250 5250 50  0001 C CNN
F 1 "GND" H 3255 5327 50  0000 C CNN
F 2 "" H 3250 5500 50  0001 C CNN
F 3 "" H 3250 5500 50  0001 C CNN
	1    3250 5500
	1    0    0    -1  
$EndComp
Wire Wire Line
	3250 5500 2500 5500
Connection ~ 2500 5500
$Comp
L Device:CP C12
U 1 1 60611333
P 1850 6100
F 0 "C12" H 1968 6146 50  0000 L CNN
F 1 "22 uF" H 1968 6055 50  0000 L CNN
F 2 "" H 1888 5950 50  0001 C CNN
F 3 "~" H 1850 6100 50  0001 C CNN
	1    1850 6100
	1    0    0    -1  
$EndComp
$Comp
L Device:CP C11
U 1 1 60611836
P 2050 6400
F 0 "C11" H 2168 6446 50  0000 L CNN
F 1 "22 uF" H 2168 6355 50  0000 L CNN
F 2 "" H 2088 6250 50  0001 C CNN
F 3 "~" H 2050 6400 50  0001 C CNN
	1    2050 6400
	1    0    0    -1  
$EndComp
$Comp
L Device:C C13
U 1 1 60611FA9
P 2350 6100
F 0 "C13" H 2465 6146 50  0000 L CNN
F 1 "10 nF" H 2465 6055 50  0000 L CNN
F 2 "" H 2388 5950 50  0001 C CNN
F 3 "~" H 2350 6100 50  0001 C CNN
	1    2350 6100
	1    0    0    -1  
$EndComp
$Comp
L Device:C C14
U 1 1 60612570
P 2600 6400
F 0 "C14" H 2715 6446 50  0000 L CNN
F 1 "10 nF" H 2715 6355 50  0000 L CNN
F 2 "" H 2638 6250 50  0001 C CNN
F 3 "~" H 2600 6400 50  0001 C CNN
	1    2600 6400
	1    0    0    -1  
$EndComp
$Comp
L power:GND #PWR0107
U 1 1 60612CE6
P 3050 6250
F 0 "#PWR0107" H 3050 6000 50  0001 C CNN
F 1 "GND" H 3055 6077 50  0000 C CNN
F 2 "" H 3050 6250 50  0001 C CNN
F 3 "" H 3050 6250 50  0001 C CNN
	1    3050 6250
	1    0    0    -1  
$EndComp
Wire Wire Line
	1850 6250 2050 6250
Connection ~ 2050 6250
Wire Wire Line
	2050 6250 2350 6250
Connection ~ 2350 6250
Wire Wire Line
	2350 6250 2600 6250
Connection ~ 2600 6250
Wire Wire Line
	2600 6250 3050 6250
$Comp
L power:+12V #PWR0108
U 1 1 60616A11
P 3250 5950
F 0 "#PWR0108" H 3250 5800 50  0001 C CNN
F 1 "+12V" H 3265 6123 50  0000 C CNN
F 2 "" H 3250 5950 50  0001 C CNN
F 3 "" H 3250 5950 50  0001 C CNN
	1    3250 5950
	1    0    0    -1  
$EndComp
Wire Wire Line
	3250 5950 2350 5950
Connection ~ 2350 5950
Wire Wire Line
	2350 5950 1850 5950
Wire Wire Line
	1850 5950 900  5950
Connection ~ 1850 5950
$Comp
L power:-12V #PWR0109
U 1 1 60617707
P 3250 6550
F 0 "#PWR0109" H 3250 6650 50  0001 C CNN
F 1 "-12V" H 3265 6723 50  0000 C CNN
F 2 "" H 3250 6550 50  0001 C CNN
F 3 "" H 3250 6550 50  0001 C CNN
	1    3250 6550
	-1   0    0    1   
$EndComp
Wire Wire Line
	3250 6550 2600 6550
Connection ~ 2600 6550
Wire Wire Line
	2600 6550 2050 6550
Wire Wire Line
	2050 6550 1600 6550
Wire Wire Line
	1600 6550 1600 6050
Wire Wire Line
	1600 6050 900  6050
Connection ~ 2050 6550
$Comp
L 74xx:74LS04 U1
U 5 1 6061DF72
P 2350 1150
F 0 "U1" H 2350 1467 50  0000 C CNN
F 1 "74LS04" H 2350 1376 50  0000 C CNN
F 2 "" H 2350 1150 50  0001 C CNN
F 3 "http://www.ti.com/lit/gpn/sn74LS04" H 2350 1150 50  0001 C CNN
	5    2350 1150
	1    0    0    -1  
$EndComp
$Comp
L 74xx:74LS04 U1
U 2 1 6061F4A5
P 3250 1150
F 0 "U1" H 3250 1467 50  0000 C CNN
F 1 "74LS04" H 3250 1376 50  0000 C CNN
F 2 "" H 3250 1150 50  0001 C CNN
F 3 "http://www.ti.com/lit/gpn/sn74LS04" H 3250 1150 50  0001 C CNN
	2    3250 1150
	1    0    0    -1  
$EndComp
$Comp
L 74xx:74LS04 U1
U 4 1 606203F2
P 2350 1700
F 0 "U1" H 2350 2017 50  0000 C CNN
F 1 "74LS04" H 2350 1926 50  0000 C CNN
F 2 "" H 2350 1700 50  0001 C CNN
F 3 "http://www.ti.com/lit/gpn/sn74LS04" H 2350 1700 50  0001 C CNN
	4    2350 1700
	1    0    0    -1  
$EndComp
$Comp
L 74xx:74LS04 U1
U 3 1 6062169B
P 3250 1700
F 0 "U1" H 3250 2017 50  0000 C CNN
F 1 "74LS04" H 3250 1926 50  0000 C CNN
F 2 "" H 3250 1700 50  0001 C CNN
F 3 "http://www.ti.com/lit/gpn/sn74LS04" H 3250 1700 50  0001 C CNN
	3    3250 1700
	1    0    0    -1  
$EndComp
$Comp
L 74xx:74LS04 U1
U 6 1 6062DA92
P 2350 3000
F 0 "U1" H 2350 3317 50  0000 C CNN
F 1 "74LS04" H 2350 3226 50  0000 C CNN
F 2 "" H 2350 3000 50  0001 C CNN
F 3 "http://www.ti.com/lit/gpn/sn74LS04" H 2350 3000 50  0001 C CNN
	6    2350 3000
	1    0    0    -1  
$EndComp
$Comp
L 74xx:74LS04 U1
U 1 1 6062E6C9
P 3250 3000
F 0 "U1" H 3250 3317 50  0000 C CNN
F 1 "74LS04" H 3250 3226 50  0000 C CNN
F 2 "" H 3250 3000 50  0001 C CNN
F 3 "http://www.ti.com/lit/gpn/sn74LS04" H 3250 3000 50  0001 C CNN
	1    3250 3000
	1    0    0    -1  
$EndComp
Wire Wire Line
	2650 1150 2950 1150
Wire Wire Line
	2650 1700 2950 1700
Wire Wire Line
	2650 3000 2950 3000
$Comp
L MC1488:MC1488N U2
U 1 1 60633364
P 5500 2450
F 0 "U2" H 5500 3320 50  0000 C CNN
F 1 "MC1488N" H 5500 3229 50  0000 C CNN
F 2 "DIP794W45P254L1969H508Q14" H 5500 2450 50  0001 L BNN
F 3 "" H 5500 2450 50  0001 L BNN
	1    5500 2450
	1    0    0    -1  
$EndComp
Wire Wire Line
	3550 1150 4150 1150
Wire Wire Line
	4150 1150 4150 2250
Wire Wire Line
	4150 2250 4650 2250
Wire Wire Line
	4800 2350 4650 2350
Wire Wire Line
	4650 2350 4650 2250
Connection ~ 4650 2250
Wire Wire Line
	4650 2250 4800 2250
Wire Wire Line
	4800 2450 4650 2450
Wire Wire Line
	4000 2450 4000 1700
Wire Wire Line
	4000 1700 3550 1700
Wire Wire Line
	4800 2550 4650 2550
Wire Wire Line
	4650 2550 4650 2450
Connection ~ 4650 2450
Wire Wire Line
	4650 2450 4000 2450
Wire Wire Line
	4800 2750 4650 2750
Wire Wire Line
	4150 2750 4150 3000
Wire Wire Line
	4150 3000 3550 3000
Wire Wire Line
	4800 2650 4650 2650
Wire Wire Line
	4650 2650 4650 2750
Connection ~ 4650 2750
Wire Wire Line
	4650 2750 4150 2750
$Comp
L Connector:DB25_Male J1
U 1 1 6060B93D
P 10900 3900
F 0 "J1" H 10818 2408 50  0000 C CNN
F 1 "E4 / E5" H 10818 2499 50  0000 C CNN
F 2 "" H 10900 3900 50  0001 C CNN
F 3 " ~" H 10900 3900 50  0001 C CNN
	1    10900 3900
	1    0    0    1   
$EndComp
Wire Wire Line
	6200 2250 6650 2250
Wire Wire Line
	6200 2350 6550 2350
Wire Wire Line
	6200 2450 6450 2450
Wire Wire Line
	6550 4000 6550 2350
Wire Wire Line
	6550 4000 6800 4000
Wire Wire Line
	6650 3300 6650 2250
Wire Wire Line
	6650 3300 6800 3300
$Comp
L Device:C C2
U 1 1 60644D50
P 6800 3450
F 0 "C2" H 6915 3496 50  0000 L CNN
F 1 "1 nF" H 6915 3405 50  0000 L CNN
F 2 "" H 6838 3300 50  0001 C CNN
F 3 "~" H 6800 3450 50  0001 C CNN
	1    6800 3450
	1    0    0    -1  
$EndComp
Connection ~ 6800 3300
Wire Wire Line
	6800 3300 10600 3300
$Comp
L power:GND #PWR0110
U 1 1 6064743B
P 6800 3600
F 0 "#PWR0110" H 6800 3350 50  0001 C CNN
F 1 "GND" H 6805 3427 50  0000 C CNN
F 2 "" H 6800 3600 50  0001 C CNN
F 3 "" H 6800 3600 50  0001 C CNN
	1    6800 3600
	1    0    0    -1  
$EndComp
$Comp
L Device:C C1
U 1 1 60647975
P 6800 4150
F 0 "C1" H 6915 4196 50  0000 L CNN
F 1 "1 nF" H 6915 4105 50  0000 L CNN
F 2 "" H 6838 4000 50  0001 C CNN
F 3 "~" H 6800 4150 50  0001 C CNN
	1    6800 4150
	1    0    0    -1  
$EndComp
Connection ~ 6800 4000
$Comp
L power:GND #PWR0111
U 1 1 60647DEB
P 6800 4300
F 0 "#PWR0111" H 6800 4050 50  0001 C CNN
F 1 "GND" H 6805 4127 50  0000 C CNN
F 2 "" H 6800 4300 50  0001 C CNN
F 3 "" H 6800 4300 50  0001 C CNN
	1    6800 4300
	1    0    0    -1  
$EndComp
$Comp
L power:GND #PWR0112
U 1 1 60648737
P 6800 3050
F 0 "#PWR0112" H 6800 2800 50  0001 C CNN
F 1 "GND" H 6805 2877 50  0000 C CNN
F 2 "" H 6800 3050 50  0001 C CNN
F 3 "" H 6800 3050 50  0001 C CNN
	1    6800 3050
	1    0    0    -1  
$EndComp
$Comp
L Device:C C4
U 1 1 60648D4D
P 6800 2900
F 0 "C4" H 6915 2946 50  0000 L CNN
F 1 "1 nF" H 6915 2855 50  0000 L CNN
F 2 "" H 6838 2750 50  0001 C CNN
F 3 "~" H 6800 2900 50  0001 C CNN
	1    6800 2900
	1    0    0    -1  
$EndComp
Wire Wire Line
	6800 2750 6450 2750
Wire Wire Line
	6450 2750 6450 2450
Wire Wire Line
	6800 2750 7300 2750
Wire Wire Line
	7300 2750 7300 2900
Connection ~ 6800 2750
Wire Wire Line
	7300 2900 10600 2900
Text Label 9850 4000 0    50   ~ 0
CT108
Text Label 9850 3300 0    50   ~ 0
CT105
Text Label 9850 2900 0    50   ~ 0
CT103
$Comp
L power:GND #PWR0113
U 1 1 6064D16A
P 6200 3250
F 0 "#PWR0113" H 6200 3000 50  0001 C CNN
F 1 "GND" H 6205 3077 50  0000 C CNN
F 2 "" H 6200 3250 50  0001 C CNN
F 3 "" H 6200 3250 50  0001 C CNN
	1    6200 3250
	1    0    0    -1  
$EndComp
Wire Wire Line
	6200 3250 6200 3050
$Comp
L power:+12V #PWR0114
U 1 1 6064FABF
P 6350 1700
F 0 "#PWR0114" H 6350 1550 50  0001 C CNN
F 1 "+12V" H 6365 1873 50  0000 C CNN
F 2 "" H 6350 1700 50  0001 C CNN
F 3 "" H 6350 1700 50  0001 C CNN
	1    6350 1700
	1    0    0    -1  
$EndComp
$Comp
L power:-12V #PWR0115
U 1 1 606506A8
P 6600 1700
F 0 "#PWR0115" H 6600 1800 50  0001 C CNN
F 1 "-12V" H 6615 1873 50  0000 C CNN
F 2 "" H 6600 1700 50  0001 C CNN
F 3 "" H 6600 1700 50  0001 C CNN
	1    6600 1700
	1    0    0    -1  
$EndComp
Wire Wire Line
	6200 1850 6350 1850
Wire Wire Line
	6350 1850 6350 1700
Wire Wire Line
	6200 1950 6600 1950
Wire Wire Line
	6600 1950 6600 1700
Wire Wire Line
	900  3450 1150 3450
Wire Wire Line
	1150 3450 1150 1150
Wire Wire Line
	1150 1150 2050 1150
Text Label 1200 1150 0    50   ~ 0
-RTS
Wire Wire Line
	2050 1700 1200 1700
Wire Wire Line
	1200 1700 1200 3550
Wire Wire Line
	1200 3550 900  3550
Text Label 1250 1700 0    50   ~ 0
-DTR
Wire Wire Line
	900  5850 1450 5850
Wire Wire Line
	1450 5850 1450 3000
Wire Wire Line
	1450 3000 2050 3000
Text Label 1500 3000 0    50   ~ 0
-TxD
$Comp
L SN78189:SN75189AN U3
U 1 1 6066AE9E
P 5500 4700
F 0 "U3" H 5500 5570 50  0000 C CNN
F 1 "SN75189AN" H 5500 5479 50  0000 C CNN
F 2 "DIP794W45P254L1969H508Q14" H 5500 4700 50  0001 L BNN
F 3 "" H 5500 4700 50  0001 L BNN
	1    5500 4700
	-1   0    0    -1  
$EndComp
$Comp
L SN78189:SN75189AN U4
U 1 1 60673758
P 5500 6500
F 0 "U4" H 5500 7370 50  0000 C CNN
F 1 "SN75189AN" H 5500 7279 50  0000 C CNN
F 2 "DIP794W45P254L1969H508Q14" H 5500 6500 50  0001 L BNN
F 3 "" H 5500 6500 50  0001 L BNN
	1    5500 6500
	-1   0    0    -1  
$EndComp
Wire Wire Line
	4800 4300 1200 4300
Wire Wire Line
	1200 4300 1200 3650
Wire Wire Line
	1200 3650 900  3650
Wire Wire Line
	8350 3000 10600 3000
Text Label 9850 3000 0    50   ~ 0
CT114
$Comp
L power:GND #PWR0116
U 1 1 6067AE2F
P 6450 5650
F 0 "#PWR0116" H 6450 5400 50  0001 C CNN
F 1 "GND" H 6455 5477 50  0000 C CNN
F 2 "" H 6450 5650 50  0001 C CNN
F 3 "" H 6450 5650 50  0001 C CNN
	1    6450 5650
	1    0    0    -1  
$EndComp
$Comp
L Device:C C5
U 1 1 6067B80C
P 6450 5500
F 0 "C5" H 6565 5546 50  0000 L CNN
F 1 "500 pF" H 6565 5455 50  0000 L CNN
F 2 "" H 6488 5350 50  0001 C CNN
F 3 "~" H 6450 5500 50  0001 C CNN
	1    6450 5500
	1    0    0    -1  
$EndComp
Wire Wire Line
	6450 5350 6450 4400
Wire Wire Line
	6450 4400 6200 4400
Wire Wire Line
	4800 4400 1150 4400
Wire Wire Line
	1150 4400 1150 3750
Wire Wire Line
	1150 3750 900  3750
Text Label 1500 4400 0    50   ~ 0
-RxC
Text Label 1500 4300 0    50   ~ 0
-TxC
Wire Wire Line
	4800 4500 2000 4500
Wire Wire Line
	2000 4500 2000 3350
Wire Wire Line
	2000 3350 900  3350
Text Label 1500 3350 0    50   ~ 0
-CTS
Wire Wire Line
	4800 4600 2100 4600
Wire Wire Line
	2100 4600 2100 3250
Wire Wire Line
	2100 3250 900  3250
Text Label 1500 3250 0    50   ~ 0
-DSR
$Comp
L Device:C C3
U 1 1 6068E3AB
P 6950 5500
F 0 "C3" H 7065 5546 50  0000 L CNN
F 1 "500 pF" H 7065 5455 50  0000 L CNN
F 2 "" H 6988 5350 50  0001 C CNN
F 3 "~" H 6950 5500 50  0001 C CNN
	1    6950 5500
	1    0    0    -1  
$EndComp
$Comp
L power:GND #PWR0117
U 1 1 6068ECEE
P 6950 5650
F 0 "#PWR0117" H 6950 5400 50  0001 C CNN
F 1 "GND" H 6955 5477 50  0000 C CNN
F 2 "" H 6950 5650 50  0001 C CNN
F 3 "" H 6950 5650 50  0001 C CNN
	1    6950 5650
	1    0    0    -1  
$EndComp
Wire Wire Line
	6200 4600 6950 4600
Wire Wire Line
	6950 4600 6950 5350
Wire Wire Line
	6200 4500 8450 4500
Wire Wire Line
	8450 4500 8450 3400
Wire Wire Line
	8450 3400 10600 3400
Text Label 9850 3400 0    50   ~ 0
CT115
$Comp
L Device:C C7
U 1 1 60699BDB
P 7500 5500
F 0 "C7" H 7615 5546 50  0000 L CNN
F 1 "500 pF" H 7615 5455 50  0000 L CNN
F 2 "" H 7538 5350 50  0001 C CNN
F 3 "~" H 7500 5500 50  0001 C CNN
	1    7500 5500
	1    0    0    -1  
$EndComp
$Comp
L power:GND #PWR0118
U 1 1 6069A44D
P 7500 5650
F 0 "#PWR0118" H 7500 5400 50  0001 C CNN
F 1 "GND" H 7505 5477 50  0000 C CNN
F 2 "" H 7500 5650 50  0001 C CNN
F 3 "" H 7500 5650 50  0001 C CNN
	1    7500 5650
	1    0    0    -1  
$EndComp
Wire Wire Line
	6200 4800 7500 4800
Wire Wire Line
	7500 4800 7500 5350
Wire Wire Line
	6200 4700 8550 4700
Wire Wire Line
	8550 4700 8550 3500
Wire Wire Line
	8550 3500 10600 3500
Text Label 9850 3500 0    50   ~ 0
CT106
$Comp
L Device:C C6
U 1 1 606A1F13
P 8050 5500
F 0 "C6" H 8165 5546 50  0000 L CNN
F 1 "500 pF" H 8165 5455 50  0000 L CNN
F 2 "" H 8088 5350 50  0001 C CNN
F 3 "~" H 8050 5500 50  0001 C CNN
	1    8050 5500
	1    0    0    -1  
$EndComp
$Comp
L power:GND #PWR0119
U 1 1 606A25DF
P 8050 5650
F 0 "#PWR0119" H 8050 5400 50  0001 C CNN
F 1 "GND" H 8055 5477 50  0000 C CNN
F 2 "" H 8050 5650 50  0001 C CNN
F 3 "" H 8050 5650 50  0001 C CNN
	1    8050 5650
	1    0    0    -1  
$EndComp
Wire Wire Line
	6200 5000 8050 5000
Wire Wire Line
	8050 5000 8050 5350
Wire Wire Line
	6200 4900 8650 4900
Wire Wire Line
	8650 4900 8650 3700
Wire Wire Line
	8650 3700 10600 3700
Text Label 9850 3700 0    50   ~ 0
CT107
Wire Wire Line
	6200 4300 6450 4300
Wire Wire Line
	8350 4150 6450 4150
Wire Wire Line
	6450 4150 6450 4300
Wire Wire Line
	8350 4150 8350 3000
$Comp
L power:GND #PWR0120
U 1 1 606AEE21
P 4700 5400
F 0 "#PWR0120" H 4700 5150 50  0001 C CNN
F 1 "GND" H 4705 5227 50  0000 C CNN
F 2 "" H 4700 5400 50  0001 C CNN
F 3 "" H 4700 5400 50  0001 C CNN
	1    4700 5400
	1    0    0    -1  
$EndComp
Wire Wire Line
	4700 5400 4700 5300
Wire Wire Line
	4700 5300 4800 5300
$Comp
L power:+5V #PWR0121
U 1 1 606B2E18
P 4700 4000
F 0 "#PWR0121" H 4700 3850 50  0001 C CNN
F 1 "+5V" H 4715 4173 50  0000 C CNN
F 2 "" H 4700 4000 50  0001 C CNN
F 3 "" H 4700 4000 50  0001 C CNN
	1    4700 4000
	1    0    0    -1  
$EndComp
Wire Wire Line
	4700 4000 4700 4100
Wire Wire Line
	4700 4100 4800 4100
$Comp
L 74xx:74LS04 U1
U 7 1 606BCC88
P 1250 7050
F 0 "U1" H 1480 7096 50  0000 L CNN
F 1 "74LS04" H 1480 7005 50  0000 L CNN
F 2 "" H 1250 7050 50  0001 C CNN
F 3 "http://www.ti.com/lit/gpn/sn74LS04" H 1250 7050 50  0001 C CNN
	7    1250 7050
	1    0    0    -1  
$EndComp
$Comp
L power:GND #PWR0122
U 1 1 606BF14B
P 1250 7550
F 0 "#PWR0122" H 1250 7300 50  0001 C CNN
F 1 "GND" H 1255 7377 50  0000 C CNN
F 2 "" H 1250 7550 50  0001 C CNN
F 3 "" H 1250 7550 50  0001 C CNN
	1    1250 7550
	1    0    0    -1  
$EndComp
$Comp
L power:+5V #PWR0123
U 1 1 606C0E9F
P 1250 6550
F 0 "#PWR0123" H 1250 6400 50  0001 C CNN
F 1 "+5V" H 1265 6723 50  0000 C CNN
F 2 "" H 1250 6550 50  0001 C CNN
F 3 "" H 1250 6550 50  0001 C CNN
	1    1250 6550
	1    0    0    -1  
$EndComp
Text Label 1000 5850 0    50   ~ 0
-TxD
Wire Wire Line
	4800 6100 2900 6100
Wire Wire Line
	2900 6100 2900 5750
Wire Wire Line
	2900 5750 900  5750
Text Label 1000 5750 0    50   ~ 0
-RxD
$Comp
L power:GND #PWR0124
U 1 1 606CAE6A
P 4700 7200
F 0 "#PWR0124" H 4700 6950 50  0001 C CNN
F 1 "GND" H 4705 7027 50  0000 C CNN
F 2 "" H 4700 7200 50  0001 C CNN
F 3 "" H 4700 7200 50  0001 C CNN
	1    4700 7200
	1    0    0    -1  
$EndComp
Wire Wire Line
	4700 7200 4700 7100
Wire Wire Line
	4700 7100 4800 7100
$Comp
L power:+5V #PWR0125
U 1 1 606CFA79
P 4500 5850
F 0 "#PWR0125" H 4500 5700 50  0001 C CNN
F 1 "+5V" H 4515 6023 50  0000 C CNN
F 2 "" H 4500 5850 50  0001 C CNN
F 3 "" H 4500 5850 50  0001 C CNN
	1    4500 5850
	1    0    0    -1  
$EndComp
Wire Wire Line
	4800 5900 4500 5900
Wire Wire Line
	4500 5900 4500 5850
$Comp
L power:GND #PWR0126
U 1 1 606D570F
P 6400 7500
F 0 "#PWR0126" H 6400 7250 50  0001 C CNN
F 1 "GND" H 6405 7327 50  0000 C CNN
F 2 "" H 6400 7500 50  0001 C CNN
F 3 "" H 6400 7500 50  0001 C CNN
	1    6400 7500
	1    0    0    -1  
$EndComp
$Comp
L Device:C C8
U 1 1 606D6142
P 6400 7350
F 0 "C8" H 6515 7396 50  0000 L CNN
F 1 "500 pF" H 6515 7305 50  0000 L CNN
F 2 "" H 6438 7200 50  0001 C CNN
F 3 "~" H 6400 7350 50  0001 C CNN
	1    6400 7350
	1    0    0    -1  
$EndComp
Wire Wire Line
	6400 7200 6400 6200
Wire Wire Line
	6400 6200 6200 6200
$Comp
L Device:R R1
U 1 1 606DB861
P 6750 6200
F 0 "R1" V 6865 6200 50  0000 C CNN
F 1 "2k7" V 6956 6200 50  0000 C CNN
F 2 "" V 6680 6200 50  0001 C CNN
F 3 "~" H 6750 6200 50  0001 C CNN
	1    6750 6200
	0    1    1    0   
$EndComp
$Comp
L power:+5V #PWR0127
U 1 1 606DCD67
P 7050 6200
F 0 "#PWR0127" H 7050 6050 50  0001 C CNN
F 1 "+5V" V 7065 6328 50  0000 L CNN
F 2 "" H 7050 6200 50  0001 C CNN
F 3 "" H 7050 6200 50  0001 C CNN
	1    7050 6200
	0    1    1    0   
$EndComp
Wire Wire Line
	7050 6200 6900 6200
Wire Wire Line
	6600 6200 6400 6200
Connection ~ 6400 6200
Wire Wire Line
	10600 3100 8250 3100
Wire Wire Line
	8250 3100 8250 6100
Wire Wire Line
	8250 6100 6200 6100
Text Label 9850 3100 0    50   ~ 0
CT104
Wire Wire Line
	10600 3900 8700 3900
$Comp
L power:GND #PWR0128
U 1 1 606F622D
P 8700 6100
F 0 "#PWR0128" H 8700 5850 50  0001 C CNN
F 1 "GND" H 8705 5927 50  0000 C CNN
F 2 "" H 8700 6100 50  0001 C CNN
F 3 "" H 8700 6100 50  0001 C CNN
	1    8700 6100
	1    0    0    -1  
$EndComp
Text Label 9850 3900 0    50   ~ 0
CT102
Wire Wire Line
	6800 4000 10600 4000
Wire Wire Line
	8700 3900 8700 6100
$Comp
L Device:R R2
U 1 1 6070AD9C
P 9300 4200
F 0 "R2" V 9415 4200 50  0000 C CNN
F 1 "100" V 9506 4200 50  0000 C CNN
F 2 "" V 9230 4200 50  0001 C CNN
F 3 "~" H 9300 4200 50  0001 C CNN
	1    9300 4200
	0    1    1    0   
$EndComp
$Comp
L power:+12V #PWR0129
U 1 1 6070BD55
P 9050 4200
F 0 "#PWR0129" H 9050 4050 50  0001 C CNN
F 1 "+12V" V 9065 4328 50  0000 L CNN
F 2 "" H 9050 4200 50  0001 C CNN
F 3 "" H 9050 4200 50  0001 C CNN
	1    9050 4200
	0    -1   -1   0   
$EndComp
Wire Wire Line
	9050 4200 9150 4200
Wire Wire Line
	9450 4200 10600 4200
Text Label 9850 4200 0    50   ~ 0
+LEVEL
$Comp
L Device:R R3
U 1 1 60735E8A
P 9300 4700
F 0 "R3" V 9415 4700 50  0000 C CNN
F 1 "100" V 9506 4700 50  0000 C CNN
F 2 "" V 9230 4700 50  0001 C CNN
F 3 "~" H 9300 4700 50  0001 C CNN
	1    9300 4700
	0    1    1    0   
$EndComp
$Comp
L power:-12V #PWR0130
U 1 1 60736E4E
P 9050 4700
F 0 "#PWR0130" H 9050 4800 50  0001 C CNN
F 1 "-12V" V 9065 4828 50  0000 L CNN
F 2 "" H 9050 4700 50  0001 C CNN
F 3 "" H 9050 4700 50  0001 C CNN
	1    9050 4700
	0    -1   -1   0   
$EndComp
Wire Wire Line
	9050 4700 9150 4700
Wire Wire Line
	9450 4700 9650 4700
Wire Wire Line
	9650 4700 9650 4300
Wire Wire Line
	9650 4300 10600 4300
Text Label 9850 4300 0    50   ~ 0
-LEVEL
$EndSCHEMATC
